%YAML 1.1
%TAG !u! tag:unity3d.com,2011:
--- !u!21 &2100000
Material:
  serializedVersion: 6
  m_ObjectHideFlags: 0
  m_PrefabParentObject: {fileID: 0}
  m_PrefabInternal: {fileID: 0}
  m_Name: Red
  m_Shader: {fileID: 4800000, guid: b9ec37d42406ef8418ccdf25a2b2282e, type: 3}
  m_ShaderKeywords: 
  m_LightmapFlags: 5
  m_CustomRenderQueue: -1
  stringTagMap: {}
  m_SavedProperties:
    serializedVersion: 2
    m_TexEnvs:
    - first:
        name: _BumpMap
      second:
        m_Texture: {fileID: 2800000, guid: fd1e47788d217004b8b7325ef23ad5d0, type: 3}
        m_Scale: {x: 0.2, y: 1}
        m_Offset: {x: 0, y: 0}
    - first:
        name: _DetailAlbedoMap
      second:
        m_Texture: {fileID: 0}
        m_Scale: {x: 1, y: 1}
        m_Offset: {x: 0, y: 0}
    - first:
        name: _DetailMask
      second:
        m_Texture: {fileID: 0}
        m_Scale: {x: 1, y: 1}
        m_Offset: {x: 0, y: 0}
    - first:
        name: _DetailNormalMap
      second:
        m_Texture: {fileID: 0}
        m_Scale: {x: 1, y: 1}
        m_Offset: {x: 0, y: 0}
    - first:
        name: _EmissionMap
      second:
        m_Texture: {fileID: 0}
        m_Scale: {x: 1, y: 1}
        m_Offset: {x: 0, y: 0}
    - first:
        name: _HeightMap
      second:
        m_Texture: {fileID: 2800000, guid: cd8abd51143aa5140aded186614aa040, type: 3}
        m_Scale: {x: 1, y: 1}
        m_Offset: {x: 0, y: 0}
    - first:
        name: _MainTex
      second:
        m_Texture: {fileID: 2800000, guid: eef71c487a8a3044783e0240ad62fddf, type: 3}
        m_Scale: {x: 1, y: 1}
        m_Offset: {x: 0, y: 0}
    - first:
        name: _MetallicGlossMap
      second:
        m_Texture: {fileID: 0}
        m_Scale: {x: 1, y: 1}
        m_Offset: {x: 0, y: 0}
    - first:
        name: _OcclusionMap
      second:
        m_Texture: {fileID: 0}
        m_Scale: {x: 1, y: 1}
        m_Offset: {x: 0, y: 0}
    - first:
        name: _ParallaxMap
      second:
        m_Texture: {fileID: 0}
        m_Scale: {x: 1, y: 1}
        m_Offset: {x: 0, y: 0}
    - first:
        name: _PerlinNoise
      second:
        m_Texture: {fileID: 2800000, guid: 288eab14fb0f7ec4398350582ada2801, type: 3}
        m_Scale: {x: 1, y: 1}
        m_Offset: {x: 0, y: 0}
    - first:
        name: permutation
      second:
        m_Texture: {fileID: 2800000, guid: 100221baada53b74489b25ac8b7e0120, type: 3}
        m_Scale: {x: 1, y: 1}
        m_Offset: {x: 0, y: 0}
    m_Floats:
    - first:
        name: _BumpAmt
      second: 50
    - first:
        name: _BumpScale
      second: 1
    - first:
        name: _ColorStrength
      second: 0.5
    - first:
        name: _Cutoff
      second: 1
    - first:
        name: _DetailNormalMapScale
      second: 1
    - first:
        name: _DstBlend
      second: 0
    - first:
        name: _FPOW
      second: 3
    - first:
        name: _Glossiness
      second: 0.5
    - first:
        name: _Height
      second: 1
    - first:
        name: _HeightScale
      second: 0.3
    - first:
        name: _InvFade
      second: 3
    - first:
        name: _Metallic
      second: 0
    - first:
        name: _Mode
      second: 0
    - first:
        name: _OcclusionStrength
      second: 1
    - first:
        name: _OffsetXHeightMap
      second: 0
    - first:
        name: _OffsetYHeightMap
      second: 0
    - first:
        name: _Parallax
      second: 0.02
    - first:
        name: _R0
      second: -0.5
    - first:
        name: _SrcBlend
      second: 1
    - first:
        name: _UVSec
      second: 0
    - first:
        name: _ZWrite
      second: 1
    - first:
        name: gain
      second: 1
    - first:
        name: scale_x
      second: 1
    - first:
        name: scale_y
      second: 1
    - first:
        name: setup
      second: 0
    - first:
        name: shift_x
      second: 1.14
    - first:
        name: shift_y
      second: 1
    m_Colors:
    - first:
        name: _Color
      second: {r: 0.9264706, g: 0.95740366, b: 1, a: 1}
    - first:
        name: _DropWavesScale
      second: {r: 1, g: 1, b: 0.5, a: 1}
    - first:
        name: _EmisColor
      second: {r: 0.497, g: 0.2, b: 0.2, a: 0}
    - first:
        name: _EmissionColor
      second: {r: 0, g: 0, b: 0, a: 1}
    - first:
        name: _HeightScaleVector
      second: {r: 0.5, g: 2, b: 0.02, a: 1}
    - first:
        name: _HeightScaleVector2
      second: {r: 1, g: 1, b: 1, a: 0.2}
    - first:
        name: _NoiseScale
      second: {r: 1, g: 1, b: 1, a: 0.3}
    - first:
        name: _ReflectColor
      second: {r: 1, g: 1, b: 1, a: 0.5}
    - first:
        name: _RimColor
      second: {r: 0, g: 0, b: 0, a: 0}
    - first:
        name: _Scale
      second: {r: 2, g: 2, b: 2, a: 1}
    - first:
        name: _Shift
      second: {r: 0, g: 0, b: 0, a: 500}
    - first:
        name: _Speed
      second: {r: -2, g: -4, b: 1, a: -5}
    - first:
        name: _TintColor
      second: {r: 1, g: 0, b: 0, a: 0}
