# Blender v2.78 (sub 0) OBJ File: ''
# www.blender.org
mtllib Oak_Tree_NoLeaves_crk_l_03.mtl
o Oak_Tree_NoLeaves_crk_l_03
v 0.265029 0.296240 0.342249
v 0.009355 0.296240 0.441001
v 0.037508 0.024384 0.590058
v 0.350113 0.024384 0.464954
v 0.289370 0.301792 -0.069632
v 0.216050 0.754791 0.014213
v 0.224888 0.698523 0.305498
v 0.289442 0.296240 0.203081
v -0.090456 0.296240 0.385213
v -0.012178 0.697356 0.414363
v -0.276555 0.768227 0.270644
v -0.321028 0.301019 0.218925
v -0.121096 0.024384 0.517274
v -0.369948 0.025540 0.242133
v 0.350430 0.025540 -0.101345
v 0.405614 0.024384 0.249012
v 0.192771 1.343755 0.136000
v -0.012357 1.566334 0.016574
v 0.031802 1.928791 0.148200
v 0.170993 1.831172 0.239508
v 0.150162 1.839208 0.493004
v 0.179792 1.284042 0.398734
v -0.011174 1.310076 0.494874
v -0.011105 1.825769 0.594872
v -0.174011 1.876932 0.419576
v -0.217146 1.511204 0.351690
v -0.033378 0.834926 -0.189857
v -0.274467 0.841969 -0.063968
v -0.224313 1.412768 0.063961
v -0.375484 0.346905 -0.186611
v -0.089662 0.335978 -0.334933
v -0.117707 0.036687 -0.413463
v -0.453816 0.038145 -0.247544
v 0.348766 2.107243 0.936100
v 1.159935 1.366124 2.236786
v 1.386397 1.318631 1.949439
v 0.503032 2.083591 0.780768
v 0.251729 1.782292 0.682667
v 0.402787 1.937969 0.628129
v 1.287822 1.154841 1.854296
v 0.970817 1.143472 1.980358
v 0.119489 1.945910 0.880839
v 0.756283 1.359256 2.102525
v 0.121149 1.788111 0.776440
v 3.109891 0.614338 2.875214
v 3.107995 0.727305 2.661832
v 1.248413 1.081031 2.417037
v 2.908964 0.489443 2.887435
v 0.334654 1.232427 3.173687
v 0.368028 1.129462 3.178771
v 3.131070 0.553115 2.698439
v 2.908127 0.460829 2.763546
v 0.275003 1.113901 3.095897
v 0.246869 1.200002 3.109490
v 0.209141 0.750108 4.165886
v 0.164046 0.725405 4.146630
v 0.142624 0.756436 4.155746
v 0.177084 0.784551 4.177951
v 0.516878 0.439352 4.751459
v 0.548075 0.422084 4.741683
v 0.497492 0.407407 4.743853
v 0.521556 0.390117 4.737184
v 3.603172 0.028379 3.989211
v 3.553173 0.064217 4.026399
v 3.644080 0.060262 3.946481
v 3.354114 0.552484 2.888375
v 3.632356 0.117598 3.953201
v 4.505749 1.178471 2.748409
v 4.516044 1.165568 2.823759
v 3.567672 0.123528 4.002306
v 4.310781 0.012027 5.116298
v 4.335192 0.009482 5.098932
v 4.307122 -0.011041 5.124668
v 4.284442 -0.017842 5.029669
v 4.495070 1.198338 2.853882
v 4.490530 1.216207 2.789365
v 5.562419 0.976488 3.067247
v 5.517574 1.004972 3.071164
v 5.557242 0.997616 3.051418
v 5.531812 0.993469 3.021381
v 0.227941 2.317894 0.388193
v 0.167465 2.292353 0.596768
v 0.227897 2.159333 0.355872
v 3.272898 0.250083 3.423536
v -0.216830 1.475986 0.180630
v -0.243826 0.024384 0.410363
v -0.136373 1.609539 0.176360
v 4.497300 1.199161 2.761435
v 3.575890 0.041324 4.011780
v 0.223803 1.730033 0.799107
v 0.060306 1.840386 0.564864
v 4.013482 0.043071 4.596299
v 0.413117 0.024385 0.084553
v 0.301501 2.085106 0.446355
v 1.182297 1.042712 2.315546
v 0.253332 2.018454 0.957408
v -0.255617 0.345674 -0.295206
v -0.130842 1.405690 0.456062
v 0.401816 0.024384 0.371004
v -0.429583 0.164681 -0.230316
v 0.001782 0.470263 0.417838
v 0.324385 1.112265 3.137031
v 0.102384 0.793712 -0.108665
v 0.116322 0.318338 -0.221402
v 0.160663 1.565528 0.446387
v 0.308407 0.297173 0.074647
v 0.783543 1.555962 1.227104
v 5.574428 0.990049 3.072485
v 5.083868 1.139036 2.921534
v 3.099370 0.681163 2.619822
v -0.015196 1.582888 0.535152
v 0.119226 0.730622 0.385260
v 0.188452 2.308608 0.472304
v 4.506397 1.180131 2.846272
v 0.519516 0.412586 4.766180
v 0.139678 0.031114 -0.291696
v 3.553934 0.096206 4.018644
v 1.354372 1.234454 1.884449
v 0.249251 0.515623 -0.031483
v 0.098476 1.931312 0.665703
v 0.324193 2.246311 0.516159
v 0.474785 1.661943 1.479855
v 1.332647 1.363744 2.055725
v -0.328063 0.038572 -0.388983
v 3.320190 0.314778 3.420574
v 0.321645 0.553625 4.508591
v 0.197067 0.770154 4.173705
v 0.771834 1.262790 2.048759
v 0.204299 1.299076 0.269389
v 0.283288 0.324859 0.280559
v 0.262225 0.471009 0.248478
v 0.117850 1.893968 0.197831
v 5.661844 0.958259 3.086113
v 0.346583 0.584949 4.521002
v 0.030580 1.914138 0.684149
v 3.947989 -0.014577 4.530143
v 0.183732 1.621346 0.193635
v -0.106751 0.136463 0.454415
v 3.970213 0.046730 4.629026
v 0.351268 0.136463 0.224199
v 0.199321 0.024384 0.544607
v 0.600676 1.131151 2.576100
v 2.140931 0.959394 2.535300
v 0.857240 1.418755 2.153324
v -0.156917 0.743649 0.361218
v 0.020969 1.869752 0.647451
v 5.098137 1.102046 2.946988
v 0.164091 0.939647 3.640880
v 0.698437 1.319327 2.700809
v -0.008697 1.014639 0.451344
v 1.258991 1.188296 2.415869
v 0.111330 1.459126 0.045865
v 0.317414 0.136463 0.407317
v 4.335046 -0.001460 5.158594
v 0.379472 0.562402 4.509002
v 0.232663 2.236631 0.720761
v 0.345476 0.531733 4.500309
v 0.196794 1.019619 3.690388
v -0.321232 0.583013 -0.126978
v 3.829348 0.956094 2.744299
v -0.164701 0.847189 -0.153542
v 5.085413 1.130675 2.966153
v 4.361174 -0.005431 5.140324
v 3.681843 0.029346 4.059198
v 0.252043 1.154774 3.095313
v 4.512764 1.168311 2.782189
v 0.733090 1.152618 2.729197
v 0.140668 0.296240 0.400982
v 0.185796 1.858866 0.535207
v 3.324523 0.563858 2.927334
v 0.323280 1.838518 0.635345
v 4.490933 1.210981 2.825518
v 0.189454 0.734770 4.154952
v 0.514609 1.519186 1.188151
v -0.048541 0.024384 0.579335
v 0.487672 2.003450 0.703062
v 3.867769 0.892282 2.792065
v -0.011792 1.200227 -0.098102
v -0.140964 1.497307 0.056181
v 0.094497 1.282555 0.464750
v 2.899822 0.469255 2.826846
v 0.287892 1.225632 3.141892
v -0.195381 1.735433 0.405029
v 2.952375 0.478655 2.725492
v -0.452404 0.031843 -0.008102
v 0.308784 2.076724 0.691314
v 1.193824 1.115608 1.892119
v 0.238972 0.740673 0.162798
v 0.215306 2.249498 0.365260
v 5.584902 0.974545 3.053728
v 0.198922 1.002556 0.351080
v 3.336605 0.536111 2.831707
v 0.549505 0.394453 4.757490
v 0.088490 1.867256 0.818590
v -0.102928 1.846187 0.498280
v 0.200630 1.043851 0.072823
v 0.190125 2.236699 0.460407
v 0.875051 1.721649 1.350104
v -0.110444 0.160203 -0.391420
v 0.091236 1.909203 0.298393
v 3.824606 0.923118 2.834450
v 4.345174 -0.017296 5.155067
v 3.643717 0.090355 3.944756
v 3.309082 0.216152 3.350146
v 0.360234 1.183122 3.183610
v 0.334686 0.138739 -0.089036
v 3.373751 0.255215 3.304448
v 0.542191 1.270115 2.614336
v -0.084974 1.912068 0.280390
v 0.451773 1.528113 1.234458
v 0.716165 1.777359 1.544042
v 5.582704 0.983800 3.046763
v 0.546558 0.420987 4.764819
v 0.443022 2.110505 0.889553
v -0.040050 0.324859 0.421482
v 3.396831 0.306835 3.361125
v 0.154844 1.844671 0.324566
v 0.245022 0.470263 0.315756
v -0.349958 0.139286 0.233881
v 2.156406 0.815954 2.282739
v -0.298559 0.509675 0.237398
v 5.576626 0.980794 3.079450
v 3.965063 0.006030 4.647751
v 2.225126 0.954735 2.361057
v 0.014911 1.790753 0.073542
v 2.937811 0.534088 2.901517
v 0.144692 0.992348 3.647659
v -0.205175 0.296240 0.319223
v 5.098358 1.116262 2.891875
v 3.836226 0.891232 2.694642
v 0.156994 0.773480 4.168154
v -0.373303 0.324509 0.017888
v 0.018502 0.136463 0.522279
v 3.090133 0.718112 2.728949
v -0.300781 0.807177 0.103236
v 2.030781 0.765080 2.373369
v -0.254395 1.132861 0.323082
v -0.055868 0.470263 0.394670
v 0.251997 1.911062 0.549027
v 4.349058 0.008689 5.146200
v -0.061671 0.562439 -0.266541
v 3.963140 -0.001912 4.512741
v 0.230038 0.958345 3.682383
v 2.095305 0.802598 2.561686
v -0.247358 1.154281 0.003411
v 0.149381 0.738096 4.149401
v 3.599151 0.127116 3.975668
v 0.522464 0.386051 4.758852
v -0.014585 1.899112 0.406592
v 0.106199 1.126787 -0.031035
v 0.220022 1.014360 0.215682
v -0.141944 1.073758 0.408061
v -0.108452 1.780355 0.226591
v 0.107317 1.000879 0.420657
v 0.221596 2.004563 0.695748
v 0.260108 2.150434 0.591788
v 0.322639 2.157048 0.452009
v 0.275611 2.260566 0.639477
v 0.084442 1.841909 0.575909
v 5.083160 1.137652 2.946501
v 5.099729 1.106357 2.916775
v 5.091041 1.128878 2.901278
v 5.091847 1.115132 2.961998
v 3.847646 0.905963 2.823464
v 3.831329 0.925400 2.709264
v 3.362199 0.316729 3.393625
v 3.824254 0.944813 2.794383
v 4.425390 -0.009610 5.264982
v 4.022795 0.022002 4.596148
v 3.983406 -0.009105 4.639182
v 3.963316 0.027751 4.641245
v 3.991585 0.049259 4.611350
v 3.290602 0.284655 3.428691
v 3.854721 0.886550 2.738345
v 3.392521 0.282534 3.327502
v 3.341942 0.231455 3.320504
v 3.285488 0.227690 3.389506
v 0.575042 0.369857 4.816709
v 0.330354 0.539306 4.503302
v 0.365560 0.544649 4.503551
v 0.331028 0.571705 4.515901
v 0.366234 0.577049 4.516150
v 0.167878 1.012186 3.669827
v 0.219839 0.991483 3.690969
v 0.147968 0.963496 3.639686
v 0.199929 0.942794 3.660827
v 0.671951 1.125252 2.652113
v 2.054628 0.773290 2.473335
v 0.615246 1.311354 2.658108
v 0.555726 1.196787 2.582182
v 2.202464 0.887090 2.308737
v 2.085986 0.781882 2.314346
v 0.731471 1.239819 2.728039
v 2.117416 0.882730 2.567349
v 2.188054 0.972769 2.450384
v 0.473552 1.564285 1.411157
v 0.846686 1.640039 1.274902
v 0.585075 1.731805 1.528907
v 0.685850 1.502930 1.246202
v 0.812961 1.763343 1.456904
v 0.081677 1.564231 0.508843
v 0.129098 0.149198 -0.262647
v 0.107547 0.538184 -0.168993
v -0.417490 0.152257 0.000624
v -0.335054 0.547657 0.056024
v -0.208363 0.579213 -0.227292
v -0.297399 0.164991 -0.350014
v -0.274861 1.146541 0.162197
v -0.139423 1.186089 -0.071925
v -0.125291 1.656302 0.492373
v 0.188576 1.583792 0.323095
v -0.047670 0.136463 0.503211
v 0.348628 0.136463 0.324471
v 0.112220 1.711268 0.102843
v 0.127859 0.501407 0.381117
v 0.365638 0.136463 0.075563
v -0.227435 0.136463 0.364222
v -0.180253 0.501407 0.330226
v 0.269524 0.506628 0.112868
v 0.171762 0.136463 0.475889
vt 0.9509 0.6553
vt 0.9498 0.6531
vt 0.9519 0.6520
vt 0.9531 0.6543
vt 0.9270 0.6435
vt 0.9262 0.6463
vt 0.9243 0.6458
vt 0.9252 0.6433
vt 0.9434 0.6539
vt 0.9413 0.6561
vt 0.9399 0.6543
vt 0.9421 0.6522
vt 0.9473 0.6505
vt 0.9455 0.6517
vt 0.9444 0.6501
vt 0.9459 0.6488
vt 0.9278 0.6388
vt 0.9279 0.6407
vt 0.9262 0.6408
vt 0.9258 0.6387
vt 0.9462 0.6578
vt 0.9452 0.6561
vt 0.9477 0.6542
vt 0.9488 0.6564
vt 0.9246 0.6584
vt 0.9257 0.6601
vt 0.9246 0.6619
vt 0.9233 0.6610
vt 0.9521 0.6586
vt 0.9520 0.6575
vt 0.9542 0.6566
vt 0.9542 0.6578
vt 0.9446 0.6606
vt 0.9472 0.6596
vt 0.9474 0.6604
vt 0.9493 0.6526
vt 0.9488 0.6522
vt 0.9508 0.6510
vt 0.9513 0.6515
vt 0.9467 0.6533
vt 0.9472 0.6538
vt 0.9447 0.6557
vt 0.9220 0.6561
vt 0.9206 0.6594
vt 0.9191 0.6587
vt 0.9204 0.6555
vt 0.9327 0.6644
vt 0.9308 0.6662
vt 0.9295 0.6653
vt 0.9309 0.6638
vt 0.9313 0.6542
vt 0.9338 0.6502
vt 0.9353 0.6516
vt 0.9331 0.6548
vt 0.9346 0.6565
vt 0.9376 0.6529
vt 0.9361 0.6583
vt 0.9391 0.6425
vt 0.9370 0.6413
vt 0.9381 0.6394
vt 0.9403 0.6407
vt 0.9359 0.6473
vt 0.9342 0.6460
vt 0.9360 0.6432
vt 0.9379 0.6444
vt 0.9399 0.6504
vt 0.9376 0.6486
vt 0.9398 0.6457
vt 0.9421 0.6479
vt 0.9435 0.6463
vt 0.9412 0.6438
vt 0.9426 0.6419
vt 0.9450 0.6447
vt 0.9315 0.6449
vt 0.9324 0.6488
vt 0.9303 0.6478
vt 0.9334 0.6400
vt 0.9327 0.6420
vt 0.9355 0.6658
vt 0.9329 0.6680
vt 0.9320 0.6672
vt 0.9345 0.6649
vt 0.9624 0.6530
vt 0.9631 0.6641
vt 0.9611 0.6645
vt 0.9606 0.6531
vt 0.9559 0.6521
vt 0.9575 0.6522
vt 0.9575 0.6637
vt 0.9559 0.6635
vt 0.9658 0.6518
vt 0.9675 0.6508
vt 0.9683 0.6612
vt 0.9667 0.6625
vt 0.9590 0.6527
vt 0.9593 0.6641
vt 0.9691 0.6506
vt 0.9707 0.6504
vt 0.9717 0.6619
vt 0.9700 0.6615
vt 0.9698 0.6390
vt 0.9710 0.6390
vt 0.9642 0.6783
vt 0.9657 0.6784
vt 0.9663 0.6931
vt 0.9654 0.6924
vt 0.9669 0.6787
vt 0.9681 0.6790
vt 0.9679 0.6923
vt 0.9671 0.6927
vt 0.9103 0.6453
vt 0.9117 0.6450
vt 0.9117 0.6533
vt 0.9109 0.6533
vt 0.9590 0.6777
vt 0.9602 0.6778
vt 0.9628 0.6919
vt 0.9621 0.6919
vt 0.9614 0.6780
vt 0.9627 0.6781
vt 0.9644 0.6917
vt 0.9636 0.6918
vt 0.9156 0.6455
vt 0.9168 0.6452
vt 0.9145 0.6533
vt 0.9139 0.6531
vt 0.9131 0.6454
vt 0.9144 0.6457
vt 0.9133 0.6530
vt 0.9125 0.6531
vt 0.9694 0.6779
vt 0.9707 0.6768
vt 0.9696 0.6912
vt 0.9688 0.6918
vt 0.9073 0.6455
vt 0.9089 0.6456
vt 0.9101 0.6534
vt 0.9092 0.6534
vt 0.9101 0.6608
vt 0.9107 0.6608
vt 0.9113 0.6682
vt 0.9110 0.6682
vt 0.9134 0.6605
vt 0.9138 0.6607
vt 0.9131 0.6680
vt 0.9129 0.6680
vt 0.9112 0.6607
vt 0.9118 0.6607
vt 0.9119 0.6680
vt 0.9116 0.6681
vt 0.9124 0.6605
vt 0.9129 0.6604
vt 0.9126 0.6679
vt 0.9122 0.6680
vt 0.9118 0.6734
vt 0.9120 0.6733
vt 0.9121 0.6787
vt 0.9119 0.6788
vt 0.9123 0.6733
vt 0.9127 0.6733
vt 0.9128 0.6787
vt 0.9125 0.6787
vt 0.9112 0.6735
vt 0.9115 0.6736
vt 0.9117 0.6789
vt 0.9114 0.6789
vt 0.9129 0.6734
vt 0.9132 0.6734
vt 0.9132 0.6789
vt 0.9130 0.6788
vt 0.9390 0.6755
vt 0.9391 0.6758
vt 0.9387 0.6759
vt 0.9387 0.6755
vt 0.9684 0.7026
vt 0.9691 0.7024
vt 0.9686 0.7135
vt 0.9681 0.7134
vt 0.9629 0.7026
vt 0.9635 0.7025
vt 0.9643 0.7130
vt 0.9639 0.7133
vt 0.9642 0.7027
vt 0.9648 0.7030
vt 0.9653 0.7125
vt 0.9648 0.7127
vt 0.9528 0.6791
vt 0.9536 0.6787
vt 0.9530 0.6888
vt 0.9524 0.6888
vt 0.9671 0.7028
vt 0.9677 0.7028
vt 0.9675 0.7133
vt 0.9670 0.7130
vt 0.9660 0.7226
vt 0.9663 0.7226
vt 0.9661 0.7326
vt 0.9660 0.7326
vt 0.9667 0.7228
vt 0.9670 0.7230
vt 0.9665 0.7327
vt 0.9663 0.7326
vt 0.9674 0.7230
vt 0.9677 0.7231
vt 0.9669 0.7327
vt 0.9667 0.7327
vt 0.9634 0.7136
vt 0.9644 0.7232
vt 0.9652 0.7227
vt 0.9656 0.7225
vt 0.9658 0.7326
vt 0.9656 0.7326
vt 0.9377 0.6754
vt 0.9377 0.6752
vt 0.9379 0.6752
vt 0.9379 0.6754
vt 0.9504 0.6790
vt 0.9511 0.6788
vt 0.9510 0.6889
vt 0.9505 0.6888
vt 0.9656 0.7029
vt 0.9664 0.7029
vt 0.9666 0.7127
vt 0.9660 0.7126
vt 0.9491 0.6790
vt 0.9497 0.6791
vt 0.9501 0.6886
vt 0.9496 0.6888
vt 0.9516 0.6791
vt 0.9521 0.6794
vt 0.9518 0.6889
vt 0.9514 0.6889
vt 0.9518 0.6970
vt 0.9520 0.6970
vt 0.9523 0.7052
vt 0.9521 0.7051
vt 0.9505 0.6970
vt 0.9509 0.6969
vt 0.9516 0.7051
vt 0.9514 0.7052
vt 0.9525 0.6970
vt 0.9529 0.6969
vt 0.9528 0.7051
vt 0.9525 0.7052
vt 0.9512 0.6969
vt 0.9515 0.6969
vt 0.9520 0.7050
vt 0.9518 0.7050
vt 0.9383 0.6752
vt 0.9384 0.6753
vt 0.9383 0.6754
vt 0.9379 0.6752
vt 0.9381 0.6752
vt 0.9381 0.6754
vt 0.9710 0.6387
vt 0.9721 0.6387
vt 0.9721 0.6390
vt 0.9544 0.6405
vt 0.9543 0.6402
vt 0.9559 0.6407
vt 0.9683 0.6397
vt 0.9698 0.6386
vt 0.9615 0.6400
vt 0.9600 0.6400
vt 0.9600 0.6383
vt 0.9613 0.6381
vt 0.9588 0.6394
vt 0.9575 0.6387
vt 0.9576 0.6367
vt 0.9588 0.6375
vt 0.8297 0.6582
vt 0.8246 0.6548
vt 0.8353 0.6575
vt 0.8323 0.6954
vt 0.8417 0.6883
vt 0.8446 0.6969
vt 0.8352 0.7040
vt 0.8410 0.7093
vt 0.8323 0.7163
vt 0.8258 0.7111
vt 0.9409 0.6614
vt 0.9381 0.6636
vt 0.9371 0.6626
vt 0.9399 0.6603
vt 0.8057 0.7067
vt 0.8061 0.6932
vt 0.8128 0.6993
vt 0.7968 0.6928
vt 0.7874 0.6924
vt 0.7878 0.6797
vt 0.7972 0.6797
vt 0.9380 0.6593
vt 0.9347 0.6624
vt 0.9324 0.6623
vt 0.9249 0.6496
vt 0.9235 0.6529
vt 0.9218 0.6523
vt 0.9231 0.6490
vt 0.9281 0.6518
vt 0.9295 0.6536
vt 0.9267 0.6583
vt 0.9259 0.6559
vt 0.8546 0.7178
vt 0.8467 0.7197
vt 0.8546 0.7128
vt 0.7789 0.6965
vt 0.7800 0.7050
vt 0.7729 0.7051
vt 0.7704 0.7007
vt 0.7744 0.6831
vt 0.7811 0.6814
vt 0.7711 0.6897
vt 0.7779 0.6880
vt 0.7679 0.6963
vt 0.7870 0.7050
vt 0.8467 0.7146
vt 0.8546 0.7077
vt 0.8388 0.7215
vt 0.9267 0.6501
vt 0.9252 0.6535
vt 0.9282 0.6467
vt 0.9427 0.6580
vt 0.8066 0.6797
vt 0.7964 0.7059
vt 0.8133 0.6858
vt 0.8200 0.6919
vt 0.9437 0.6593
vt 0.9419 0.6625
vt 0.9391 0.6645
vt 0.8496 0.7023
vt 0.8230 0.7024
vt 0.8201 0.6938
vt 0.8295 0.6867
vt 0.8388 0.6797
vt 0.8302 0.6541
vt 0.8408 0.6568
vt 0.8196 0.6514
vt 0.9601 0.6418
vt 0.9588 0.6413
vt 0.9574 0.6408
vt 0.9629 0.6400
vt 0.9626 0.6380
vt 0.9632 0.6420
vt 0.9617 0.6419
vt 0.9683 0.6393
vt 0.9698 0.6382
vt 0.9667 0.6404
vt 0.9559 0.6404
vt 0.9543 0.6400
vt 0.9710 0.6384
vt 0.9721 0.6385
vt 0.9383 0.6757
vt 0.9384 0.6756
vt 0.9386 0.6755
vt 0.9502 0.6970
vt 0.9512 0.7052
vt 0.9492 0.6889
vt 0.9512 0.6688
vt 0.9518 0.6694
vt 0.9524 0.6699
vt 0.9484 0.6788
vt 0.9477 0.6687
vt 0.9485 0.6692
vt 0.9493 0.6697
vt 0.9643 0.6934
vt 0.9653 0.6933
vt 0.9503 0.6693
vt 0.9377 0.6756
vt 0.9379 0.6756
vt 0.9375 0.6756
vt 0.9376 0.6754
vt 0.9376 0.6752
vt 0.9648 0.7228
vt 0.9654 0.7327
vt 0.9533 0.6693
vt 0.9542 0.6687
vt 0.9635 0.6927
vt 0.9624 0.7028
vt 0.9613 0.6920
vt 0.9390 0.6752
vt 0.9387 0.6752
vt 0.9393 0.6752
vt 0.9394 0.6754
vt 0.9394 0.6757
vt 0.9108 0.6735
vt 0.9111 0.6789
vt 0.9106 0.6681
vt 0.9094 0.6608
vt 0.9083 0.6534
vt 0.9057 0.6454
vt 0.9030 0.6375
vt 0.9054 0.6377
vt 0.9078 0.6378
vt 0.9683 0.6656
vt 0.9700 0.6640
vt 0.9718 0.6624
vt 0.9117 0.6367
vt 0.9137 0.6376
vt 0.9156 0.6385
vt 0.9173 0.6378
vt 0.9190 0.6371
vt 0.9578 0.6776
vt 0.9543 0.6632
vt 0.9097 0.6372
vt 0.9651 0.6638
vt 0.9667 0.6647
vt 0.9719 0.6504
vt 0.9641 0.6529
vt 0.9649 0.6412
vt 0.9543 0.6518
vt 0.9364 0.6666
vt 0.9337 0.6687
vt 0.9297 0.6388
vt 0.9295 0.6407
vt 0.9300 0.6369
vt 0.9340 0.6381
vt 0.9288 0.6437
vt 0.9474 0.6476
vt 0.9316 0.6601
vt 0.9308 0.6580
vt 0.9288 0.6581
vt 0.9237 0.6568
vt 0.9221 0.6600
vt 0.9499 0.6594
vt 0.9501 0.6603
vt 0.9498 0.6585
vt 0.9521 0.6596
vt 0.9542 0.6590
vt 0.9277 0.6368
vt 0.9254 0.6367
vt 0.9491 0.6493
vn 0.3147 0.4961 0.8092
vn 0.0299 0.4989 0.8661
vn 0.0510 0.5437 0.8377
vn 0.3083 0.5367 0.7854
vn 0.9876 0.1568 -0.0084
vn 0.9946 0.1036 -0.0033
vn 0.8627 0.0509 0.5031
vn 0.9766 0.1390 0.1643
vn -0.5368 -0.0119 0.8436
vn -0.5035 -0.0710 0.8611
vn -0.8598 -0.0001 0.5106
vn -0.8492 0.0424 0.5264
vn -0.6330 0.3181 0.7058
vn -0.5890 0.1601 0.7921
vn -0.8456 0.1518 0.5118
vn -0.8407 0.2382 0.4863
vn 0.9390 0.3387 -0.0597
vn 0.9660 0.2581 -0.0167
vn 0.9638 0.2584 0.0660
vn 0.9203 0.3883 0.0476
vn 0.3925 0.0752 0.9167
vn -0.0546 0.0716 0.9959
vn 0.0189 0.3206 0.9470
vn 0.3505 0.3007 0.8870
vn 0.6478 0.2238 -0.7282
vn -0.1432 0.3985 -0.9059
vn -0.0372 0.8136 -0.5802
vn 0.6760 0.6486 -0.3498
vn 0.8861 0.4240 0.1873
vn 0.6323 0.4917 0.5987
vn 0.5931 0.5278 0.6080
vn 0.8524 0.4693 0.2306
vn 0.7922 0.1339 0.5954
vn -0.4063 0.4510 0.7947
vn -0.5777 0.3915 0.7162
vn -0.5716 0.4435 0.6903
vn -0.3451 0.5089 0.7887
vn -0.5624 0.2167 0.7980
vn -0.4621 0.2074 0.8622
vn -0.4238 0.0289 0.9053
vn 0.9946 0.0585 0.0858
vn 0.8951 0.4398 0.0733
vn 0.7410 0.4753 0.4743
vn 0.8608 -0.0286 0.5081
vn -0.6691 -0.0638 0.7404
vn -0.4988 0.5582 0.6631
vn -0.7585 0.6193 0.2027
vn -0.9757 0.1353 0.1722
vn -0.4216 0.2728 -0.8647
vn -0.4283 0.2703 -0.8623
vn -0.8600 0.2149 -0.4629
vn -0.8449 0.2056 -0.4937
vn -0.9941 0.1080 -0.0090
vn -0.9945 0.1016 0.0265
vn -0.8905 0.0201 0.4545
vn -0.4306 0.3184 -0.8446
vn 0.1424 0.2645 -0.9538
vn 0.1398 0.2363 -0.9616
vn -0.4485 0.2906 -0.8452
vn -0.4300 0.3139 -0.8465
vn 0.1615 0.2683 -0.9497
vn 0.1502 0.2861 -0.9464
vn -0.4267 0.3388 -0.8385
vn -0.9864 0.1388 0.0883
vn -0.8709 0.2691 -0.4113
vn -0.8736 0.3136 -0.3722
vn -0.9707 0.1941 0.1416
vn -0.9589 0.2295 0.1666
vn -0.8826 0.3097 -0.3538
vn -0.8907 0.2857 -0.3535
vn -0.9608 0.2255 0.1610
vn 0.6092 0.2066 -0.7657
vn 0.1770 0.2455 -0.9531
vn 0.6484 0.1811 -0.7394
vn 0.5570 0.2187 -0.8012
vn 0.5750 0.2275 -0.7859
vn 0.4527 -0.1346 0.8815
vn 0.4619 -0.1583 0.8727
vn -0.1633 0.3430 0.9250
vn -0.1143 -0.1554 0.9812
vn 0.4682 0.8628 0.1906
vn 0.4192 0.8961 0.1460
vn 0.6555 0.6532 -0.3790
vn 0.8007 0.5450 -0.2489
vn 0.1287 -0.8264 -0.5481
vn 0.5396 -0.4953 -0.6808
vn 0.3571 -0.5139 -0.7800
vn -0.0475 -0.8726 -0.4861
vn -0.4531 0.6721 0.5856
vn -0.8298 0.1770 0.5293
vn -0.9132 0.3836 0.1374
vn -0.2554 0.9061 0.3372
vn 0.8024 -0.0207 -0.5965
vn 0.6414 0.0899 -0.7619
vn -0.8367 -0.4943 0.2358
vn -0.5806 -0.8135 -0.0343
vn -0.3485 -0.9082 -0.2319
vn -0.8385 -0.5311 -0.1220
vn -0.6742 -0.7357 0.0652
vn -0.2791 -0.9119 -0.3008
vn 0.2841 0.9405 0.1864
vn 0.1022 0.7802 0.6171
vn -0.1360 0.7552 0.6412
vn -0.0393 0.9434 0.3292
vn -0.1615 0.3075 0.9377
vn -0.3998 -0.4595 0.7931
vn -0.6950 -0.3434 0.6318
vn -0.4084 0.4242 0.8082
vn 0.6299 0.3402 0.6982
vn 0.2722 0.8794 0.3906
vn 0.1955 0.8977 0.3948
vn 0.7983 0.3274 0.5056
vn -0.0417 -0.8324 -0.5526
vn 0.2525 -0.4370 -0.8633
vn 0.2737 -0.6188 -0.7363
vn 0.0893 -0.8205 -0.5646
vn 0.4368 0.1417 -0.8883
vn 0.4442 0.7836 -0.4343
vn 0.0223 0.9253 -0.3786
vn 0.2488 0.1105 -0.9622
vn -0.8454 -0.2759 -0.4574
vn -0.4362 -0.8574 -0.2732
vn -0.4745 -0.8155 -0.3313
vn -0.8909 -0.2159 -0.3996
vn -0.2563 0.9663 0.0250
vn -0.7770 0.5466 -0.3124
vn -0.8487 0.4884 -0.2027
vn -0.4244 0.9012 0.0876
vn -0.3754 -0.8896 0.2601
vn -0.2538 -0.9499 -0.1823
vn -0.2149 -0.9521 -0.2175
vn -0.5166 -0.8348 0.1902
vn 0.0022 -0.9980 0.0627
vn 0.4975 -0.6122 0.6146
vn 0.8056 -0.5169 0.2895
vn 0.2232 -0.9712 -0.0832
vn 0.4239 -0.8642 -0.2710
vn 0.9434 -0.3316 0.0116
vn 0.9669 -0.0405 -0.2518
vn 0.5434 -0.6952 -0.4705
vn -0.9153 -0.3340 -0.2251
vn -0.3401 -0.8722 -0.3515
vn -0.2206 -0.9011 -0.3734
vn -0.8489 -0.5238 -0.0713
vn 0.8389 0.4376 0.3238
vn 0.1258 0.8890 0.4403
vn -0.0572 0.8533 0.5182
vn 0.7404 0.6440 0.1928
vn -0.5958 0.7581 0.2652
vn -0.9490 0.3140 0.0272
vn -0.9708 0.0701 0.2292
vn -0.7113 0.5371 0.4534
vn 0.6113 0.7845 0.1040
vn -0.1111 0.8090 0.5772
vn -0.1065 0.7760 0.6217
vn 0.6033 0.7020 0.3784
vn -0.7028 0.3290 0.6308
vn -0.8855 -0.1852 0.4261
vn -0.8263 -0.2989 0.4773
vn -0.5570 0.2207 0.8006
vn 0.5934 -0.4838 -0.6433
vn 0.8837 0.2085 -0.4190
vn 0.8805 0.2408 -0.4083
vn 0.7454 -0.4579 -0.4845
vn -0.6918 -0.7220 0.0104
vn -0.0385 -0.8824 -0.4689
vn 0.0651 -0.8639 -0.4995
vn -0.4510 -0.8776 0.1626
vn 0.4662 -0.4261 0.7754
vn -0.6236 -0.7772 0.0836
vn -0.1646 -0.9596 -0.2284
vn -0.1023 -0.9819 -0.1593
vn -0.5303 -0.8361 0.1404
vn 0.2128 -0.8811 -0.4224
vn 0.4461 -0.7474 -0.4924
vn 0.6501 -0.5931 -0.4749
vn 0.3636 -0.8798 -0.3062
vn 0.9037 -0.2232 -0.3653
vn 0.8288 0.5593 0.0158
vn 0.6581 0.7365 -0.1564
vn 0.9017 0.1071 -0.4190
vn 0.4455 -0.8650 -0.2309
vn 0.2667 -0.4793 -0.8361
vn 0.2395 -0.1816 -0.9538
vn 0.1736 -0.9636 -0.2035
vn -0.6586 0.5095 0.5538
vn -0.8792 -0.2432 0.4097
vn -0.8445 -0.3400 0.4138
vn -0.7614 0.4054 0.5058
vn 0.1092 0.9936 0.0285
vn -0.3783 0.8616 0.3383
vn -0.3907 0.8540 0.3437
vn 0.2097 0.9767 0.0450
vn -0.7608 0.3451 0.5497
vn -0.7672 -0.3947 0.5055
vn -0.7373 -0.4241 0.5259
vn -0.7065 0.2597 0.6583
vn -0.3288 -0.9244 0.1934
vn 0.0321 -0.9966 -0.0759
vn 0.4491 -0.8461 -0.2870
vn -0.1474 -0.9670 0.2078
vn 0.8551 0.0130 -0.5183
vn 0.5936 0.7506 -0.2902
vn 0.6167 0.7120 -0.3357
vn 0.8911 -0.1493 -0.4285
vn 0.5630 -0.0139 0.8264
vn -0.3382 0.8846 0.3212
vn -0.1892 0.5231 0.8310
vn -0.1129 0.4567 0.8824
vn -0.1537 0.9515 0.2666
vn 0.2888 0.9068 0.3070
vn -0.1795 0.8683 0.4625
vn -0.3357 0.8649 0.3730
vn 0.1858 0.9736 0.1327
vn -0.0978 0.4636 -0.8807
vn -0.3033 0.9118 -0.2769
vn -0.0999 0.9705 -0.2194
vn 0.0117 0.7138 -0.7003
vn 0.2733 -0.4426 0.8541
vn 0.4523 -0.8456 0.2834
vn 0.0842 -0.9629 0.2563
vn -0.0089 -0.6188 0.7855
vn -0.2846 -0.6320 0.7208
vn -0.2382 -0.9450 0.2242
vn -0.2872 -0.9299 0.2298
vn -0.1242 -0.1322 0.9834
vn 0.2991 0.7862 -0.5408
vn 0.2324 0.9598 -0.1573
vn 0.3307 0.9339 -0.1356
vn 0.5112 0.2654 -0.8175
vn -0.1272 -0.9661 -0.2249
vn 0.2629 -0.1915 -0.9456
vn 0.2438 -0.2056 -0.9478
vn 0.0273 -0.8589 -0.5114
vn 0.1519 0.9654 0.2119
vn -0.0728 0.4380 0.8960
vn -0.0884 0.4110 0.9074
vn 0.2444 0.8578 0.4521
vn 0.9312 -0.2611 0.2545
vn -0.0051 -0.9998 0.0208
vn 0.3821 -0.8703 -0.3109
vn 0.0744 -0.8696 -0.4881
vn 0.3694 -0.6623 -0.6519
vn -0.8894 -0.2656 0.3722
vn -0.5429 -0.6969 0.4685
vn 0.3486 0.9115 0.2182
vn 0.7307 0.6515 -0.2041
vn 0.0528 0.8073 -0.5878
vn -0.5826 0.8092 -0.0764
vn 0.7977 0.0834 -0.5972
vn -0.0397 -0.7479 -0.6627
vn -0.2533 -0.4906 -0.8337
vn -0.2671 0.2006 -0.9425
vn -0.8366 -0.5398 0.0939
vn 0.4336 -0.3168 -0.8436
vn -0.9906 0.0288 -0.1338
vn -0.4089 0.8487 -0.3355
vn -0.5812 0.7131 0.3921
vn -0.2711 0.8690 0.4139
vn 0.4300 -0.1074 0.8964
vn 0.4334 -0.1190 0.8933
vn -0.0793 -0.1415 0.9868
vn -0.0657 -0.1289 0.9895
vn -0.9596 0.1192 0.2549
vn -0.8140 0.3742 -0.4443
vn -0.9181 0.3678 -0.1480
vn -0.8202 0.2830 -0.4971
vn -0.5410 0.8142 -0.2109
vn -0.5195 -0.0910 0.8496
vn -0.5825 -0.0877 0.8081
vn 0.9981 0.0582 0.0202
vn 0.9974 0.0419 0.0584
vn 0.8517 -0.0359 0.5227
vn 0.8581 -0.0225 0.5130
vn 0.6703 0.1706 -0.7222
vn 0.1377 0.2683 -0.9534
vn -0.0874 0.3535 -0.9313
vn 0.6630 0.1785 -0.7270
vn -0.8022 -0.5110 -0.3088
vn -0.8042 0.5942 -0.0134
vn -0.3901 0.7479 -0.5371
vn 0.0099 0.9656 0.2600
vn 0.0316 0.9459 0.3229
vn 0.9262 0.3311 -0.1802
vn 0.3754 0.9202 0.1111
vn -0.3626 0.8694 -0.3356
vn -0.1285 -0.4107 -0.9027
vn -0.8088 0.4754 0.3461
vn 0.9193 0.1130 -0.3770
vn 0.9373 0.0981 -0.3345
vn 0.8991 0.1574 -0.4085
vn -0.0840 -0.0582 0.9948
vn -0.5650 0.4896 -0.6642
vn -0.8124 0.3419 -0.4724
vn 0.4218 -0.0432 0.9057
vn 0.1735 0.2707 -0.9469
vn -0.6875 0.4703 0.5533
vn -0.7887 0.5075 0.3470
vn -0.9540 -0.2887 -0.0807
vn 0.8045 0.5662 -0.1794
vn 0.8403 0.0025 -0.5422
vn 0.4309 0.8690 0.2432
vn 0.2181 -0.9127 0.3456
vn 0.3332 0.5818 0.7419
vn 0.8831 -0.4217 0.2054
vn 0.6797 -0.5883 -0.4380
vn 0.5193 -0.7536 -0.4029
vn -0.2096 -0.9713 0.1122
vn -0.0272 -0.5735 0.8188
vn 0.2331 0.8722 0.4300
vn 0.2360 0.4212 0.8758
vn -0.1155 -0.9123 -0.3928
vn 0.0548 0.8874 0.4577
vn 0.8339 0.2677 -0.4826
vn 0.8494 0.2605 -0.4590
vn 0.8240 0.2451 -0.5108
vn 0.5494 0.1993 -0.8115
vn 0.8787 0.2074 -0.4299
vn -0.8496 0.2471 0.4660
vn 0.9527 0.1204 -0.2791
vn 0.9528 0.2447 0.1798
vn 0.6915 0.3365 0.6392
vn 0.9013 0.4310 0.0425
vn 0.9315 0.3550 -0.0795
vn -0.6491 0.3565 0.6720
usemtl None
s 1
f 320/1/1 233/2/2 3/3/3 141/4/4
f 319/5/5 188/6/6 7/7/7 131/8/8
f 318/9/9 145/10/10 11/11/11 221/12/12
f 317/13/13 228/14/14 12/15/15 219/16/16
f 316/17/17 106/18/18 8/19/19 140/20/20
f 315/21/21 101/22/22 2/23/23 168/24/24
f 314/25/25 225/26/26 19/27/27 132/28/28
f 313/29/29 153/30/30 4/31/31 99/32/32
f 7/33/7 218/34/33 131/35/8
f 312/36/34 138/37/35 13/38/36 175/39/37
f 9/40/38 215/41/39 238/42/40
f 311/43/41 217/44/42 21/45/43 105/46/44
f 310/47/45 195/48/46 25/49/47 183/50/48
f 309/51/49 161/52/50 28/53/51 245/54/52
f 308/55/53 235/56/54 11/11/11 237/57/55
f 307/58/56 199/59/57 32/60/58 124/61/59
f 306/62/60 241/63/61 31/64/62 97/65/63
f 305/66/64 159/67/65 30/68/66 232/69/67
f 304/70/68 100/71/69 33/72/70 185/73/71
f 303/74/72 241/63/61 27/75/73 103/76/74
f 302/77/75 199/59/57 31/64/62 104/78/76
f 301/79/77 91/80/78 24/81/79 111/82/80
f 300/83/81 123/84/82 36/85/83 198/86/84
f 299/87/85 107/88/86 40/89/87 187/90/88
f 298/91/89 122/92/90 43/93/91 144/94/92
f 297/95/93 198/86/84 36/85/83 118/96/94
f 296/97/95 210/98/96 41/99/97 128/100/98
f 44/101/99 90/102/100 210/98/96
f 295/103/101 143/104/102 45/105/103 234/106/104
f 294/107/105 244/108/106 48/109/107 226/110/108
f 293/111/109 149/112/110 49/113/111 205/114/112
f 292/115/113 220/116/114 51/117/115 184/118/116
f 291/119/117 224/120/118 46/121/119 110/122/120
f 290/123/121 142/124/122 53/125/123 165/126/124
f 289/127/125 208/128/126 54/129/127 182/130/128
f 288/131/129 236/132/130 52/133/131 181/134/132
f 287/135/133 167/136/134 50/137/135 102/138/136
f 286/139/137 243/140/138 55/141/139 173/142/140
f 285/143/141 148/144/142 56/145/143 246/146/144
f 284/147/145 158/148/146 58/149/147 127/150/148
f 283/151/149 227/152/150 57/153/151 231/154/152
f 282/155/153 134/156/154 59/157/155 213/158/156
f 281/159/157 126/160/158 61/161/159 115/162/160
f 280/163/161 155/164/162 60/165/163 193/166/164
f 279/167/165 157/168/166 62/169/167 248/170/168
f 278/171/169 193/172/164 60/173/163 213/174/156
f 277/175/170 204/176/171 63/177/172 89/178/173
f 276/179/174 207/180/175 65/181/176 164/182/177
f 275/183/178 216/184/179 67/185/180 203/186/181
f 274/187/182 230/188/183 68/189/184 166/190/185
f 273/191/186 84/192/187 64/193/188 117/194/189
f 272/195/190 139/196/191 71/197/192 240/198/193
f 271/199/194 223/200/195 73/201/196 154/202/197
f 270/203/198 136/204/199 74/205/200 202/206/201
f 63/207/172 164/182/177 136/208/199
f 269/209/202 92/210/203 72/211/204 163/212/205
f 268/213/206 154/214/197 73/215/196 202/216/201
f 267/217/207 201/218/208 75/219/209 172/220/210
f 266/221/211 125/222/212 70/223/213 247/224/214
f 265/225/215 160/226/216 76/227/217 88/228/218
f 264/229/219 177/230/220 69/231/221 114/232/222
f 263/233/223 147/234/224 77/235/225 222/236/226
f 262/237/227 109/238/228 79/239/229 212/240/230
f 261/241/231 229/242/232 80/243/233 190/244/234
f 260/245/235 162/246/236 78/247/237 108/248/238
f 79/249/229 108/250/238 133/251/239
f 80/252/233 212/253/230 190/254/234
f 259/255/240 169/256/241 38/257/242 90/102/100
f 38/258/242 169/259/241 171/260/243
f 44/101/99 194/261/244 146/262/245
f 258/263/246 121/264/247 81/265/248 113/266/249
f 257/267/250 94/268/251 83/269/252 189/270/253
f 81/271/248 189/272/253 113/273/249
f 256/274/254 94/275/251 39/276/255 186/277/256
f 255/278/257 96/279/258 34/280/259 186/277/256
f 254/281/260 180/282/261 23/283/262 150/284/263
f 26/285/264 87/286/265 85/287/266
f 253/288/267 209/289/268 19/290/27 225/291/26
f 252/292/269 98/293/270 26/294/264 237/57/55
f 251/295/271 129/296/272 22/297/273 191/298/274
f 250/299/275 178/300/276 18/301/277 152/302/278
f 24/303/279 135/304/280 91/305/281
f 249/306/282 195/307/46 24/308/79 91/309/283
f 20/310/284 132/311/28 217/312/42
f 217/312/42 200/313/285 21/314/43
f 217/312/42 132/311/28 200/313/285
f 132/311/28 19/290/27 200/313/285
f 200/313/285 249/306/282 91/309/283 21/314/43
f 19/290/27 209/289/268 249/306/282 200/313/285
f 209/289/268 25/315/47 195/307/46 249/306/282
f 91/305/281 120/316/286 21/317/287
f 91/305/281 135/304/280 120/316/286
f 135/304/280 42/318/288 120/316/286
f 196/319/289 250/299/275 152/302/278 17/320/290
f 6/321/291 103/76/74 250/299/275 196/319/289
f 103/76/74 27/75/73 178/300/276 250/299/275
f 188/6/6 251/295/271 191/298/274 7/7/7
f 6/321/291 196/319/289 251/295/271 188/6/6
f 196/319/289 17/320/290 129/296/272 251/295/271
f 145/10/10 252/292/269 237/57/55 11/11/11
f 10/322/292 150/284/263 252/292/269 145/10/10
f 150/284/263 23/283/262 98/293/270 252/292/269
f 87/286/265 253/288/267 225/291/26 18/323/277
f 26/285/264 183/324/48 253/288/267 87/286/265
f 183/324/48 25/315/47 209/289/268 253/288/267
f 85/287/266 179/325/293 29/326/294
f 85/287/266 87/286/265 179/325/293
f 87/286/265 18/323/277 179/325/293
f 112/327/295 254/281/260 150/284/263 10/322/292
f 7/33/7 191/328/274 254/281/260 112/327/295
f 191/328/274 22/329/273 180/282/261 254/281/260
f 239/330/296 255/278/257 186/277/256 39/276/255
f 21/317/287 120/316/286 255/278/257 239/330/296
f 120/316/286 42/318/288 96/279/258 255/278/257
f 156/331/297 256/274/254 186/277/256 34/280/259
f 82/332/298 197/333/299 256/274/254 156/331/297
f 197/333/299 83/334/252 94/275/251 256/274/254
f 113/273/249 197/335/299 82/336/298
f 113/273/249 189/272/253 197/335/299
f 189/272/253 83/337/252 197/335/299
f 121/264/247 257/267/250 189/270/253 81/265/248
f 37/338/300 176/339/301 257/267/250 121/264/247
f 176/339/301 39/340/255 94/268/251 257/267/250
f 156/341/297 258/263/246 113/266/249 82/342/298
f 34/343/259 214/344/302 258/263/246 156/341/297
f 214/344/302 37/338/300 121/264/247 258/263/246
f 146/262/245 135/345/280 24/346/279
f 146/262/245 194/261/244 135/345/280
f 194/261/244 42/347/288 135/345/280
f 171/260/243 239/348/296 39/340/255
f 171/260/243 169/259/241 239/348/296
f 169/259/241 21/349/287 239/348/296
f 146/262/245 259/255/240 90/102/100 44/101/99
f 24/346/279 91/350/303 259/255/240 146/262/245
f 91/350/303 21/351/287 169/256/241 259/255/240
f 190/254/234 133/251/239 77/352/225
f 190/254/234 212/253/230 133/251/239
f 212/253/230 79/249/229 133/251/239
f 133/251/239 222/353/226 77/352/225
f 133/251/239 108/250/238 222/353/226
f 108/250/238 78/354/237 222/353/226
f 109/238/228 260/245/235 108/248/238 79/239/229
f 76/227/217 172/220/210 260/245/235 109/238/228
f 172/220/210 75/219/209 162/246/236 260/245/235
f 147/234/224 261/241/231 190/244/234 77/235/225
f 69/231/221 166/190/185 261/241/231 147/234/224
f 166/190/185 68/189/184 229/242/232 261/241/231
f 229/355/232 262/237/227 212/240/230 80/356/233
f 68/357/184 88/228/218 262/237/227 229/355/232
f 88/228/218 76/227/217 109/238/228 262/237/227
f 162/246/236 263/233/223 222/236/226 78/247/237
f 75/219/209 114/232/222 263/233/223 162/246/236
f 114/232/222 69/231/221 147/234/224 263/233/223
f 201/218/208 264/229/219 114/232/222 75/219/209
f 45/358/103 170/359/304 264/229/219 201/218/208
f 170/359/304 66/360/305 177/230/220 264/229/219
f 230/361/183 265/225/215 88/228/218 68/357/184
f 51/362/115 110/363/120 265/225/215 230/361/183
f 110/363/120 46/364/119 160/226/216 265/225/215
f 216/184/179 266/221/211 247/224/214 67/185/180
f 66/365/305 170/366/304 266/221/211 216/184/179
f 170/366/304 45/105/103 125/222/212 266/221/211
f 160/226/216 267/217/207 172/220/210 76/227/217
f 46/364/119 234/367/104 267/217/207 160/226/216
f 234/367/104 45/358/103 201/218/208 267/217/207
f 163/368/205 268/213/206 202/216/201 74/369/200
f 72/370/204 240/371/193 268/213/206 163/368/205
f 240/371/193 71/372/192 154/214/197 268/213/206
f 242/373/306 269/209/202 163/212/205 74/374/200
f 65/181/176 203/186/181 269/209/202 242/373/306
f 203/186/181 67/185/180 92/210/203 269/209/202
f 136/208/199 242/373/306 74/374/200
f 136/208/199 164/182/177 242/373/306
f 164/182/177 65/181/176 242/373/306
f 223/200/195 270/203/198 202/206/201 73/201/196
f 64/193/188 89/178/173 270/203/198 223/200/195
f 89/178/173 63/177/172 136/204/199 270/203/198
f 139/196/191 271/199/194 154/202/197 71/197/192
f 70/223/213 117/194/189 271/199/194 139/196/191
f 117/194/189 64/193/188 223/200/195 271/199/194
f 92/210/203 272/195/190 240/198/193 72/211/204
f 67/185/180 247/224/214 272/195/190 92/210/203
f 247/224/214 70/223/213 139/196/191 272/195/190
f 125/222/212 273/191/186 117/194/189 70/223/213
f 45/105/103 226/110/108 273/191/186 125/222/212
f 226/110/108 48/109/107 84/192/187 273/191/186
f 177/230/220 274/187/182 166/190/185 69/231/221
f 66/360/305 192/375/307 274/187/182 177/230/220
f 192/375/307 51/376/115 230/188/183 274/187/182
f 207/180/175 275/183/178 203/186/181 65/181/176
f 51/117/115 192/377/307 275/183/178 207/180/175
f 192/377/307 66/365/305 216/184/179 275/183/178
f 204/378/171 276/179/174 164/182/177 63/207/172
f 52/379/131 184/118/116 276/179/174 204/378/171
f 184/118/116 51/117/115 207/180/175 276/179/174
f 84/192/187 277/175/170 89/178/173 64/193/188
f 48/109/107 181/134/132 277/175/170 84/192/187
f 181/134/132 52/133/131 204/176/171 277/175/170
f 115/380/160 278/171/169 213/174/156 59/381/155
f 61/382/159 248/383/168 278/171/169 115/380/160
f 248/383/168 62/384/167 193/172/164 278/171/169
f 126/160/158 279/167/165 248/170/168 61/161/159
f 57/153/151 246/146/144 279/167/165 126/160/158
f 246/146/144 56/145/143 157/168/166 279/167/165
f 157/385/166 280/163/161 193/166/164 62/386/167
f 56/387/143 173/142/140 280/163/161 157/385/166
f 173/142/140 55/141/139 155/164/162 280/163/161
f 134/156/154 281/159/157 115/162/160 59/157/155
f 58/149/147 231/154/152 281/159/157 134/156/154
f 231/154/152 57/153/151 126/160/158 281/159/157
f 155/164/162 282/155/153 213/158/156 60/165/163
f 55/141/139 127/150/148 282/155/153 155/164/162
f 127/150/148 58/149/147 134/156/154 282/155/153
f 158/148/146 283/151/149 231/154/152 58/149/147
f 49/113/111 182/130/128 283/151/149 158/148/146
f 182/130/128 54/129/127 227/152/150 283/151/149
f 243/140/138 284/147/145 127/150/148 55/141/139
f 50/137/135 205/114/112 284/147/145 243/140/138
f 205/114/112 49/113/111 158/148/146 284/147/145
f 227/152/150 285/143/141 246/146/144 57/153/151
f 54/129/127 165/126/124 285/143/141 227/152/150
f 165/126/124 53/125/123 148/144/142 285/143/141
f 148/388/142 286/139/137 173/142/140 56/387/143
f 53/389/123 102/138/136 286/139/137 148/388/142
f 102/138/136 50/137/135 243/140/138 286/139/137
f 142/390/122 287/135/133 102/138/136 53/389/123
f 41/391/97 95/392/308 287/135/133 142/390/122
f 95/392/308 47/393/309 167/136/134 287/135/133
f 244/108/106 288/131/129 181/134/132 48/109/107
f 47/394/309 95/395/308 288/131/129 244/108/106
f 95/395/308 41/396/97 236/132/130 288/131/129
f 149/112/110 289/127/125 182/130/128 49/113/111
f 35/397/310 144/398/92 289/127/125 149/112/110
f 144/398/92 43/399/91 208/128/126 289/127/125
f 208/128/126 290/123/121 165/126/124 54/129/127
f 43/399/91 128/400/98 290/123/121 208/128/126
f 128/400/98 41/401/97 142/124/122 290/123/121
f 220/116/114 291/119/117 110/122/120 51/117/115
f 40/89/87 118/96/94 291/119/117 220/116/114
f 118/96/94 36/85/83 224/120/118 291/119/117
f 236/402/130 292/115/113 184/118/116 52/379/131
f 41/403/97 187/90/88 292/115/113 236/402/130
f 187/90/88 40/89/87 220/116/114 292/115/113
f 167/136/134 293/111/109 205/114/112 50/137/135
f 47/393/309 151/404/311 293/111/109 167/136/134
f 151/404/311 35/397/310 149/112/110 293/111/109
f 143/104/102 294/107/105 226/110/108 45/105/103
f 35/405/310 151/406/311 294/107/105 143/104/102
f 151/406/311 47/394/309 244/108/106 294/107/105
f 224/120/118 295/103/101 234/106/104 46/121/119
f 36/85/83 123/84/82 295/103/101 224/120/118
f 123/84/82 35/405/310 143/104/102 295/103/101
f 210/98/96 174/407/312 41/99/97
f 210/98/96 90/102/100 174/407/312
f 90/102/100 38/257/242 174/407/312
f 122/92/90 296/97/95 128/100/98 43/93/91
f 42/347/288 194/261/244 296/97/95 122/92/90
f 194/261/244 44/101/99 210/98/96 296/97/95
f 107/88/86 297/95/93 118/96/94 40/89/87
f 39/340/255 176/339/301 297/95/93 107/88/86
f 176/339/301 37/338/300 198/86/84 297/95/93
f 211/408/313 298/91/89 144/94/92 35/405/310
f 34/343/259 96/409/258 298/91/89 211/408/313
f 96/409/258 42/347/288 122/92/90 298/91/89
f 174/410/312 299/87/85 187/90/88 41/403/97
f 38/258/242 171/260/243 299/87/85 174/410/312
f 171/260/243 39/340/255 107/88/86 299/87/85
f 214/344/302 300/83/81 198/86/84 37/338/300
f 34/343/259 211/408/313 300/83/81 214/344/302
f 211/408/313 35/405/310 123/84/82 300/83/81
f 180/282/261 301/79/77 111/82/80 23/283/262
f 22/329/273 105/411/44 301/79/77 180/282/261
f 105/411/44 21/412/43 91/80/78 301/79/77
f 206/413/314 302/77/75 104/78/76 5/414/315
f 15/415/316 116/416/317 302/77/75 206/413/314
f 116/416/317 32/60/58 199/59/57 302/77/75
f 119/417/318 303/74/72 103/76/74 6/321/291
f 5/414/315 104/78/76 303/74/72 119/417/318
f 104/78/76 31/64/62 241/63/61 303/74/72
f 219/16/16 304/70/68 185/73/71 14/418/319
f 12/15/15 232/69/67 304/70/68 219/16/16
f 232/69/67 30/68/66 100/71/69 304/70/68
f 221/12/12 305/66/64 232/69/67 12/15/15
f 11/11/11 235/56/54 305/66/64 221/12/12
f 235/56/54 28/53/51 159/67/65 305/66/64
f 159/67/65 306/62/60 97/65/63 30/68/66
f 28/53/51 161/52/50 306/62/60 159/67/65
f 161/52/50 27/75/73 241/63/61 306/62/60
f 100/71/69 307/58/56 124/61/59 33/72/70
f 30/68/66 97/65/63 307/58/56 100/71/69
f 97/65/63 31/64/62 199/59/57 307/58/56
f 85/419/266 308/55/53 237/57/55 26/294/264
f 29/420/294 245/54/52 308/55/53 85/419/266
f 245/54/52 28/53/51 235/56/54 308/55/53
f 179/421/293 309/51/49 245/54/52 29/420/294
f 18/301/277 178/300/276 309/51/49 179/421/293
f 178/300/276 27/75/73 161/52/50 309/51/49
f 98/293/270 310/47/45 183/50/48 26/294/264
f 23/283/262 111/82/80 310/47/45 98/293/270
f 111/82/80 24/81/79 195/48/46 310/47/45
f 129/296/272 311/43/41 105/46/44 22/297/273
f 17/320/290 137/422/320 311/43/41 129/296/272
f 137/422/320 20/423/284 217/44/42 311/43/41
f 238/42/40 101/22/22 10/322/292
f 238/42/40 215/41/39 101/22/22
f 215/41/39 2/23/23 101/22/22
f 233/2/2 312/36/34 175/39/37 3/3/3
f 2/23/23 215/41/39 312/36/34 233/2/2
f 215/41/39 9/40/38 138/37/35 312/36/34
f 131/35/8 130/424/321 8/425/19
f 131/35/8 218/34/33 130/424/321
f 218/34/33 1/426/322 130/424/321
f 140/427/20 313/29/29 99/32/32 16/428/323
f 8/425/19 130/424/321 313/29/29 140/427/20
f 130/424/321 1/426/322 153/30/30 313/29/29
f 137/422/320 314/25/25 132/28/28 20/423/284
f 17/320/290 152/302/278 314/25/25 137/422/320
f 152/302/278 18/301/277 225/26/26 314/25/25
f 218/34/33 315/21/21 168/24/24 1/426/322
f 7/33/7 112/327/295 315/21/21 218/34/33
f 112/327/295 10/322/292 101/22/22 315/21/21
f 93/429/324 316/17/17 140/20/20 16/430/323
f 15/415/316 206/413/314 316/17/17 93/429/324
f 206/413/314 5/414/315 106/18/18 316/17/17
f 86/431/325 317/13/13 219/16/16 14/418/319
f 13/38/36 138/37/35 317/13/13 86/431/325
f 138/37/35 9/40/38 228/14/14 317/13/13
f 228/14/14 318/9/9 221/12/12 12/15/15
f 9/40/38 238/42/40 318/9/9 228/14/14
f 238/42/40 10/322/292 145/10/10 318/9/9
f 106/18/18 319/5/5 131/8/8 8/19/19
f 5/414/315 119/417/318 319/5/5 106/18/18
f 119/417/318 6/321/291 188/6/6 319/5/5
f 153/30/30 320/1/1 141/4/4 4/31/31
f 1/426/322 168/24/24 320/1/1 153/30/30
f 168/24/24 2/23/23 233/2/2 320/1/1
