# Blender v2.78 (sub 0) OBJ File: ''
# www.blender.org
mtllib Oak_Tree_NoLeaves_m_04.mtl
o Oak_Tree_NoLeaves_m_04
v 0.059717 1.186874 0.011701
v -0.141703 1.195240 0.058487
v -0.108989 0.386514 0.093600
v 0.157978 0.375695 0.068018
v -0.215635 0.394262 -0.152599
v -0.263267 0.033821 -0.185577
v -0.139261 0.032925 0.127396
v -0.112852 1.194644 -0.275035
v 0.077549 1.186506 -0.194426
v 0.216326 0.376756 -0.193991
v -0.014580 0.388231 -0.330340
v -0.003946 0.033131 -0.400256
v 0.196699 0.031682 0.106147
v 0.280328 0.031809 -0.219960
v -0.248511 1.193786 -0.118078
v -0.038440 2.098172 -0.053619
v -0.211332 2.109509 -0.066010
v -0.270397 1.962724 -0.192411
v -0.144904 2.095356 -0.278473
v 0.002758 2.089128 -0.190860
v 0.057249 3.193781 -0.039571
v -0.048482 3.234506 -0.027485
v -0.020792 4.400815 0.036809
v -0.073534 4.402699 0.046692
v 0.075925 3.178408 -0.151551
v -0.237141 2.281580 -0.194558
v -0.620360 2.255106 -0.382775
v -0.616951 2.327182 -0.308709
v -0.093815 3.254198 -0.131472
v -0.018263 3.209632 -0.208671
v -0.101207 4.415680 -0.000540
v -0.013269 4.412399 -0.017131
v -0.063464 4.421630 -0.040100
v -0.008212 5.717180 0.078704
v 0.006863 5.720264 0.061558
v 0.010030 5.641438 0.092465
v 0.027332 5.715156 0.070791
v -0.677996 2.213620 -0.322073
v -0.661033 2.264850 -0.245970
v -1.252277 2.667642 -0.551804
v -1.237300 2.704838 -0.505979
v -1.287110 2.648411 -0.515888
v -1.272217 2.673945 -0.471179
v -2.007926 2.841423 -0.786582
v -2.008032 2.855069 -0.774226
v -2.015421 2.833909 -0.774170
v -2.014440 2.844297 -0.761785
v -2.031224 2.853554 -0.775225
v -0.044160 4.478572 0.048893
v 0.026201 0.380721 0.100329
v -0.235516 2.240868 -0.130288
v -0.121954 1.629482 -0.273670
v -0.085247 4.419460 -0.022871
v 0.040570 2.621829 -0.176067
v -1.654616 2.796369 -0.650559
v -0.452297 2.099222 -0.253442
v 0.157157 0.032470 -0.339870
v 0.272680 0.031746 -0.048066
v -0.192581 1.194762 -0.206243
v 0.023557 5.746590 0.084303
v 0.110957 0.382283 -0.278970
v -1.282607 2.659204 -0.490654
v -0.244254 0.180587 -0.172642
v -0.033420 5.030946 0.071955
v -0.151954 2.724621 -0.164268
v 0.074496 3.182821 -0.093847
v -1.674282 2.776819 -0.627997
v 0.003858 5.123898 0.032928
v -0.054647 5.123564 0.045063
v -0.374568 2.156118 -0.327519
v 0.008854 2.635705 -0.051873
v -0.410149 2.253950 -0.246664
v -0.257438 1.993656 -0.125422
v -0.127951 0.392078 -0.256250
v -1.271055 2.655537 -0.537581
v -0.036723 4.418008 -0.032071
v -0.246250 1.600685 -0.149120
v -0.008040 2.093565 -0.118828
v -0.156051 0.033476 -0.320151
v -0.121496 0.771803 0.078811
v -1.253397 2.691882 -0.484844
v 0.001203 5.752850 0.072070
v 0.032744 3.782670 -0.086499
v -0.197285 2.232359 -0.245297
v -1.682045 2.759866 -0.655098
v -0.207994 1.195036 -0.021460
v 0.003546 5.747679 0.088746
v -0.063937 0.773023 -0.299087
v -0.126576 0.176255 0.116766
v 0.111405 0.761568 0.040380
v -0.012051 5.031695 0.067676
v 0.030869 0.032304 0.151997
v -0.049661 2.089505 -0.240187
v -0.110056 2.102607 -0.041929
v 0.021024 3.784534 -0.003107
v 0.002549 1.633511 -0.023585
v -0.637925 2.300928 -0.271206
v 0.146978 0.762322 -0.193173
v -0.614350 2.295269 -0.350647
v -0.012119 1.190390 -0.249052
v -1.241845 2.688214 -0.531771
v -0.058958 3.807465 0.008926
v 0.206228 0.375264 -0.058592
v 0.259814 0.170855 -0.209241
v -0.090813 4.408693 0.024955
v -1.661933 2.772346 -0.678170
v -0.029711 5.130011 0.018311
v -0.114536 2.666614 -0.046304
v 0.083952 1.186029 -0.090528
v -0.168484 1.636545 0.001986
v -0.429987 2.167894 -0.157468
v 0.005614 3.214446 -0.024891
v -2.034281 2.842979 -0.774996
v -0.953089 2.468951 -0.353171
v -0.923478 2.460947 -0.461614
v -0.039994 3.804450 -0.126004
v 0.032488 3.191694 -0.187689
v -0.005452 0.177250 -0.374126
v -0.096669 3.819774 -0.067028
v -0.234101 0.033373 -0.016161
v -0.673820 2.235111 -0.279116
v -0.078297 3.247813 -0.075855
v -0.037058 1.190833 0.049932
v -0.013104 4.406416 0.010253
v 0.031306 1.629145 -0.193951
v 0.184955 0.170240 0.094147
v -0.180333 0.391113 -0.021830
v -2.031073 2.841521 -0.787069
v -0.968664 2.431386 -0.413196
v 0.019177 5.751676 0.068031
v -0.063219 2.644161 -0.247254
v -0.909223 2.514316 -0.400397
v -0.650245 2.229451 -0.358558
v -0.229863 0.778883 -0.130991
v -2.028017 2.852096 -0.787297
v -0.219578 1.986340 -0.246220
v -0.061688 3.233752 -0.176469
v -2.090230 2.859126 -0.802015
v -1.679782 2.767039 -0.639690
v -1.663835 2.788262 -0.637051
v -1.672603 2.764439 -0.668861
v -1.656656 2.785661 -0.666221
v -0.929942 2.495334 -0.371849
v -0.964501 2.447119 -0.379291
v -0.947285 2.442466 -0.442339
v -0.912726 2.490681 -0.434898
v -0.445113 2.127740 -0.198810
v -0.420608 2.217699 -0.194870
v -0.141449 2.700051 -0.101849
v -0.412893 2.120894 -0.297677
v 0.017850 5.851727 0.084269
v 0.001954 5.118780 0.051676
v -0.011575 5.127580 0.023145
v -0.045425 5.118032 0.061387
v -0.044405 5.127435 0.029965
v 0.030849 0.173055 0.128427
v -0.000975 3.792894 -0.111768
v -0.072611 3.813433 -0.100990
v 0.032802 3.781870 -0.043739
v -0.083109 3.815101 -0.026299
v -0.006699 2.629030 -0.219705
v -0.113042 2.687623 -0.213084
v -0.388388 2.210852 -0.293737
v 0.033567 2.627087 -0.111408
v -0.017960 3.795594 0.009084
v 0.029487 1.630955 -0.106645
v -0.218812 1.617542 -0.067742
v -0.052662 2.649139 -0.039722
v -0.039389 1.630456 -0.245258
v -0.193056 1.613632 -0.220331
v -0.191133 0.775967 -0.018087
v 0.146389 0.761134 -0.073782
v -0.081064 1.636783 0.001637
v -0.159272 0.776642 -0.227272
v 0.139335 0.173947 -0.311246
v 0.244734 0.170067 -0.052034
v -0.139692 0.179334 -0.290987
v 0.049328 0.767475 -0.261693
v -0.206740 0.178783 -0.019254
v -0.002225 0.766382 0.076775
vt 0.9253 0.6580
vt 0.9219 0.6586
vt 0.9205 0.6478
vt 0.9244 0.6470
vt 0.9151 0.6447
vt 0.9110 0.6461
vt 0.9087 0.6421
vt 0.9133 0.6405
vt 0.9388 0.6585
vt 0.9354 0.6576
vt 0.9360 0.6464
vt 0.9398 0.6473
vt 0.9489 0.6457
vt 0.9451 0.6439
vt 0.9465 0.6395
vt 0.9507 0.6416
vt 0.9322 0.6418
vt 0.9279 0.6417
vt 0.9275 0.6373
vt 0.9324 0.6373
vt 0.9408 0.6429
vt 0.9366 0.6418
vt 0.9372 0.6373
vt 0.9419 0.6384
vt 0.9452 0.6605
vt 0.9420 0.6594
vt 0.9436 0.6483
vt 0.9470 0.6498
vt 0.9262 0.6806
vt 0.9287 0.6804
vt 0.9282 0.6924
vt 0.9261 0.6924
vt 0.9320 0.6575
vt 0.9287 0.6574
vt 0.9282 0.6462
vt 0.9321 0.6463
vt 0.9187 0.6594
vt 0.9155 0.6603
vt 0.9133 0.6501
vt 0.9169 0.6489
vt 0.9410 0.6815
vt 0.9435 0.6816
vt 0.9408 0.6913
vt 0.9386 0.6919
vt 0.9360 0.6811
vt 0.9384 0.6815
vt 0.9364 0.6926
vt 0.9344 0.6925
vt 0.9261 0.7072
vt 0.9280 0.7070
vt 0.9277 0.7216
vt 0.9260 0.7221
vt 0.9213 0.6808
vt 0.9237 0.6809
vt 0.9241 0.6924
vt 0.9220 0.6916
vt 0.9311 0.6805
vt 0.9291 0.6685
vt 0.9320 0.6687
vt 0.9609 0.6543
vt 0.9620 0.6538
vt 0.9628 0.6693
vt 0.9621 0.6693
vt 0.9298 0.7069
vt 0.9316 0.7068
vt 0.9309 0.7212
vt 0.9293 0.7214
vt 0.9588 0.7335
vt 0.9595 0.7354
vt 0.9528 0.7348
vt 0.9528 0.7332
vt 0.9370 0.7087
vt 0.9387 0.7100
vt 0.9373 0.7234
vt 0.9358 0.7228
vt 0.9335 0.7071
vt 0.9353 0.7074
vt 0.9342 0.7221
vt 0.9325 0.7217
vt 0.9586 0.6550
vt 0.9599 0.6547
vt 0.9613 0.6693
vt 0.9606 0.6696
vt 0.9631 0.6536
vt 0.9643 0.6534
vt 0.9643 0.6695
vt 0.9635 0.6694
vt 0.9677 0.6545
vt 0.9688 0.6549
vt 0.9674 0.6696
vt 0.9667 0.6697
vt 0.9655 0.6537
vt 0.9667 0.6540
vt 0.9659 0.6697
vt 0.9651 0.6696
vt 0.9236 0.6425
vt 0.9193 0.6434
vt 0.9180 0.6389
vt 0.9227 0.6381
vt 0.9661 0.6886
vt 0.9667 0.6885
vt 0.9659 0.7075
vt 0.9656 0.7075
vt 0.9620 0.6885
vt 0.9626 0.6883
vt 0.9639 0.7073
vt 0.9635 0.7074
vt 0.9650 0.6885
vt 0.9656 0.6886
vt 0.9653 0.7075
vt 0.9650 0.7075
vt 0.9639 0.6884
vt 0.9645 0.6884
vt 0.9646 0.7074
vt 0.9643 0.7074
vt 0.9706 0.6378
vt 0.9707 0.6381
vt 0.9704 0.6381
vt 0.9703 0.6378
vt 0.9587 0.7370
vt 0.9579 0.7386
vt 0.9520 0.7374
vt 0.9524 0.7361
vt 0.9224 0.7083
vt 0.9243 0.7075
vt 0.9244 0.7226
vt 0.9227 0.7226
vt 0.9587 0.7298
vt 0.9581 0.7316
vt 0.9529 0.7316
vt 0.9528 0.7300
vt 0.9586 0.7263
vt 0.9592 0.7279
vt 0.9527 0.7285
vt 0.9524 0.7271
vt 0.9428 0.7328
vt 0.9426 0.7340
vt 0.9325 0.7333
vt 0.9327 0.7325
vt 0.9423 0.7351
vt 0.9420 0.7361
vt 0.9319 0.7348
vt 0.9322 0.7340
vt 0.9424 0.7282
vt 0.9427 0.7292
vt 0.9327 0.7299
vt 0.9323 0.7292
vt 0.9428 0.7304
vt 0.9429 0.7316
vt 0.9329 0.7316
vt 0.9328 0.7307
vt 0.9207 0.7319
vt 0.9206 0.7325
vt 0.9087 0.7316
vt 0.9087 0.7314
vt 0.9204 0.7329
vt 0.9203 0.7334
vt 0.9087 0.7320
vt 0.9087 0.7318
vt 0.9208 0.7309
vt 0.9208 0.7314
vt 0.9087 0.7312
vt 0.9087 0.7310
vt 0.9205 0.7299
vt 0.9208 0.7304
vt 0.9088 0.7308
vt 0.9087 0.7305
vt 0.9705 0.6383
vt 0.9707 0.6384
vt 0.9707 0.6386
vt 0.9705 0.6385
vt 0.9703 0.6383
vt 0.9703 0.6385
vt 0.9702 0.6381
vt 0.9705 0.6381
vt 0.9707 0.6381
vt 0.9203 0.7294
vt 0.9087 0.7303
vt 0.9320 0.7285
vt 0.9420 0.7271
vt 0.9521 0.7258
vt 0.9581 0.7246
vt 0.9640 0.7234
vt 0.9649 0.7254
vt 0.9658 0.7274
vt 0.9646 0.7295
vt 0.9633 0.7316
vt 0.9206 0.7091
vt 0.9210 0.7226
vt 0.9202 0.6957
vt 0.9222 0.6940
vt 0.9661 0.7360
vt 0.9649 0.7379
vt 0.9638 0.7399
vt 0.9706 0.6374
vt 0.9702 0.6375
vt 0.9710 0.6373
vt 0.9710 0.6377
vt 0.9710 0.6381
vt 0.9634 0.6883
vt 0.9615 0.6887
vt 0.9632 0.7075
vt 0.9598 0.6698
vt 0.9643 0.6373
vt 0.9658 0.6379
vt 0.9674 0.6384
vt 0.9688 0.6393
vt 0.9702 0.6402
vt 0.9612 0.6383
vt 0.9627 0.6378
vt 0.9574 0.6552
vt 0.9550 0.6406
vt 0.9567 0.6403
vt 0.9584 0.6401
vt 0.9324 0.6924
vt 0.9383 0.6946
vt 0.9401 0.6966
vt 0.9647 0.7338
vt 0.9303 0.6924
vt 0.9598 0.6392
vt 0.9337 0.6806
vt 0.9349 0.6689
vt 0.9188 0.6806
vt 0.9199 0.6907
vt 0.9177 0.6706
vt 0.9205 0.6700
vt 0.9234 0.6693
vt 0.9377 0.6697
vt 0.9405 0.6704
vt 0.9434 0.6711
vt 0.9463 0.6719
vt 0.9262 0.6689
vt 0.9484 0.6616
vt 0.9505 0.6513
vt 0.9527 0.6474
vt 0.9550 0.6436
vn 0.1624 0.0741 0.9839
vn -0.4481 0.0209 0.8938
vn -0.4890 0.0797 0.8686
vn 0.1100 0.1036 0.9885
vn -0.9161 0.1324 0.3785
vn -0.9579 0.1674 -0.2335
vn -0.9500 0.1828 -0.2532
vn -0.9196 0.1465 0.3646
vn 0.4528 0.1027 -0.8857
vn 0.8806 0.1514 -0.4490
vn 0.9013 0.1923 -0.3882
vn 0.5017 0.1586 -0.8504
vn -0.6356 0.1729 -0.7524
vn -0.0658 0.2079 -0.9759
vn -0.0575 0.2140 -0.9751
vn -0.6252 0.1878 -0.7575
vn 0.9563 0.1747 0.2344
vn 0.6388 0.1680 0.7508
vn 0.6356 0.1580 0.7557
vn 0.9571 0.1640 0.2390
vn 0.5198 0.1987 -0.8309
vn 0.9076 0.2086 -0.3643
vn 0.9085 0.2004 -0.3666
vn 0.5236 0.1986 -0.8285
vn -0.7106 -0.0126 -0.7034
vn -0.1606 0.0457 -0.9860
vn -0.0905 0.1371 -0.9864
vn -0.6650 0.0791 -0.7427
vn 0.1251 0.1136 0.9856
vn 0.6919 0.1273 0.7107
vn 0.6262 0.0259 0.7792
vn 0.0172 0.0487 0.9987
vn 0.9762 0.1537 0.1527
vn 0.7027 0.1336 0.6988
vn 0.6636 0.1581 0.7312
vn 0.9632 0.1722 0.2066
vn -0.8888 -0.0301 0.4573
vn -0.9882 -0.0338 -0.1491
vn -0.9762 0.0632 -0.2072
vn -0.9116 0.0447 0.4085
vn -0.6806 -0.0574 -0.7304
vn -0.9864 -0.0418 -0.1588
vn -0.8627 -0.4664 -0.1957
vn -0.4095 -0.3088 -0.8584
vn 0.4600 0.0286 -0.8875
vn -0.1196 -0.0143 -0.9927
vn 0.1437 -0.0148 -0.9895
vn 0.5183 0.0048 -0.8552
vn 0.0293 -0.0197 0.9994
vn 0.6333 -0.0642 0.7712
vn 0.6916 -0.0316 0.7216
vn 0.0976 -0.0411 0.9944
vn -0.8839 0.0073 0.4677
vn -0.4612 0.0770 0.8840
vn -0.4086 0.0451 0.9116
vn -0.7794 -0.2339 0.5812
vn 0.9801 0.1050 0.1682
vn 0.7256 0.1393 0.6738
vn 0.9833 0.1373 0.1194
vn 0.1379 -0.0528 0.9890
vn 0.7088 0.0008 0.7054
vn 0.6929 -0.0198 0.7208
vn 0.1746 -0.0477 0.9835
vn 0.9661 -0.0783 0.2460
vn 0.9322 -0.0508 -0.3584
vn 0.9183 0.0255 -0.3950
vn 0.9830 -0.0129 0.1830
vn 0.2858 0.6165 -0.7337
vn 0.1599 -0.0407 -0.9863
vn 0.1890 -0.0874 -0.9781
vn 0.4770 0.6139 -0.6290
vn -0.6019 0.1350 -0.7871
vn -0.9552 0.1519 -0.2541
vn -0.9764 0.0643 -0.2063
vn -0.6676 0.0987 -0.7380
vn 0.5454 -0.0030 -0.8382
vn -0.0035 0.0699 -0.9975
vn -0.0579 0.1084 -0.9924
vn 0.5395 0.0712 -0.8390
vn -0.8981 -0.0475 0.4372
vn -0.4738 -0.0654 0.8782
vn -0.4267 -0.0465 0.9032
vn -0.8562 -0.0141 0.5165
vn 0.9875 0.0581 0.1468
vn 0.8985 0.1120 -0.4245
vn 0.8897 0.0649 -0.4519
vn 0.9831 0.0150 0.1823
vn -0.7074 0.0766 -0.7027
vn -0.9879 0.0119 -0.1549
vn -0.9946 0.0407 -0.0958
vn -0.7277 0.0835 -0.6808
vn 0.5016 0.1366 -0.8542
vn -0.1228 0.1319 -0.9836
vn -0.1851 0.1084 -0.9767
vn 0.4443 0.0964 -0.8907
vn 0.0780 0.1326 0.9881
vn -0.5155 0.1421 0.8450
vn -0.5321 0.1470 0.8338
vn 0.0675 0.1301 0.9892
vn -0.7395 0.0954 -0.6663
vn -0.9970 0.0751 -0.0180
vn -0.9955 0.0898 0.0311
vn -0.8071 0.2301 -0.5437
vn -0.7304 0.0217 0.6826
vn -0.2911 -0.0182 0.9565
vn 0.2110 -0.0300 0.9770
vn -0.5314 0.1316 0.8368
vn 0.4138 0.0500 -0.9090
vn -0.2036 0.0878 -0.9751
vn -0.2075 0.0956 -0.9735
vn 0.5226 0.1692 -0.8356
vn 0.9454 -0.0451 0.3228
vn 0.9049 0.0018 -0.4257
vn 0.9208 0.0021 -0.3901
vn 0.8431 0.0683 0.5334
vn 0.0682 0.9930 0.0959
vn -0.1554 -0.6484 -0.7452
vn -0.4950 -0.8636 -0.0961
vn -0.5080 -0.8567 -0.0892
vn -0.2184 -0.6935 -0.6866
vn -0.9209 0.1239 0.3695
vn -0.5347 0.0567 0.8431
vn -0.5057 -0.0148 0.8626
vn -0.9180 0.0200 0.3960
vn -0.1439 0.6773 0.7215
vn 0.1202 0.9926 -0.0188
vn 0.4203 0.9042 0.0759
vn 0.0898 0.6709 0.7361
vn -0.5442 -0.5776 0.6085
vn -0.4002 0.0362 0.9157
vn -0.3498 0.0024 0.9368
vn -0.5594 -0.6225 0.5474
vn 0.5386 0.5743 -0.6165
vn 0.2152 -0.0675 -0.9742
vn 0.2379 -0.0509 -0.9700
vn 0.4504 0.6228 -0.6398
vn -0.2708 -0.6797 -0.6816
vn -0.5586 -0.8247 -0.0884
vn -0.3995 -0.9166 -0.0145
vn -0.1591 -0.7817 -0.6030
vn -0.6003 -0.5925 0.5372
vn -0.3196 0.0444 0.9465
vn -0.3303 0.1150 0.9368
vn -0.5021 -0.6562 0.5633
vn 0.1517 0.6460 0.7481
vn 0.4967 0.8631 0.0916
vn 0.3641 0.9304 0.0427
vn 0.0489 0.7228 0.6893
vn 0.3538 0.6517 -0.6709
vn 0.2583 -0.1433 -0.9554
vn 0.2512 -0.1631 -0.9541
vn 0.2027 0.6426 -0.7389
vn -0.0384 -0.8577 -0.5127
vn -0.2548 -0.9662 0.0385
vn -0.2456 -0.9684 0.0446
vn -0.0948 -0.7423 -0.6633
vn -0.0717 0.7775 0.6248
vn 0.2005 0.9793 -0.0270
vn 0.1655 0.9850 -0.0488
vn -0.2257 0.7948 0.5634
vn -0.3910 -0.7207 0.5725
vn -0.3551 0.0700 0.9322
vn -0.3670 0.0610 0.9282
vn -0.5143 -0.5738 0.6374
vn -0.9286 0.1934 -0.3168
vn -0.6724 0.4009 0.6222
vn -0.7125 0.6524 -0.2581
vn 0.6252 -0.0477 0.7790
vn 0.9271 0.0025 -0.3749
vn -0.1920 0.3613 -0.9125
vn 0.9689 0.0033 0.2475
vn 0.8931 0.0759 -0.4435
vn 0.8660 0.1167 -0.4862
vn -0.9944 -0.0215 -0.1033
vn -0.8713 0.0003 0.4907
vn -0.4138 0.0571 0.9086
vn 0.4202 0.0615 -0.9054
vn -0.2082 0.0171 -0.9779
vn -0.7369 -0.0217 -0.6756
vn 0.1945 0.1004 0.9758
usemtl None
s 1
f 180/1/1 80/2/2 3/3/3 50/4/4
f 179/5/5 63/6/6 6/7/7 120/8/8
f 178/9/9 98/10/10 10/11/11 61/12/12
f 177/13/13 118/14/14 12/15/15 79/16/16
f 176/17/17 126/18/18 13/19/19 58/20/20
f 175/21/21 104/22/22 14/23/23 57/24/24
f 174/25/25 88/26/26 11/27/27 74/28/28
f 173/29/29 96/30/30 16/31/31 94/32/32
f 172/33/33 90/34/34 4/35/35 103/36/36
f 171/37/37 134/38/38 5/39/39 127/40/40
f 170/41/41 77/42/42 18/43/43 136/44/44
f 169/45/45 52/46/46 19/47/47 93/48/48
f 168/49/49 71/50/50 21/51/51 112/52/52
f 167/53/53 110/54/54 17/55/55 73/56/56
f 166/57/57 96/30/30 1/58/58 109/59/59
f 165/60/60 95/61/61 23/62/62 49/63/63
f 164/64/64 54/65/65 25/66/66 66/67/67
f 163/68/68 70/69/69 27/70/70 99/71/71
f 162/72/72 65/73/73 29/74/74 137/75/75
f 161/76/76 131/77/77 30/78/78 117/79/79
f 160/80/80 102/81/81 24/82/82 105/83/83
f 159/84/84 83/85/85 32/86/86 124/87/87
f 158/88/88 119/89/89 31/90/90 53/91/91
f 157/92/92 116/93/93 33/94/94 76/95/95
f 156/96/96 89/97/97 7/98/98 92/99/99
f 155/100/100 69/101/101 34/102/102 82/103/103
f 154/104/104 64/105/105 36/106/106 87/107/107
f 24/82/82 49/63/63 64/105/105
f 153/108/108 107/109/109 35/110/110 130/111/111
f 152/112/112 68/113/113 37/114/114 60/115/115
f 151/116/116 130/117/111 35/118/110 82/119/103
f 150/120/117 56/121/118 38/122/119 133/123/120
f 149/124/121 108/125/122 22/126/123 122/127/124
f 148/128/125 72/129/126 28/130/127 97/131/128
f 147/132/129 111/133/130 39/134/131 121/135/132
f 146/136/133 115/137/134 40/138/135 101/139/136
f 145/140/137 129/141/138 42/142/139 75/143/140
f 144/144/141 114/145/142 43/146/143 62/147/144
f 143/148/145 132/149/146 41/150/147 81/151/148
f 142/152/149 106/153/150 44/154/151 135/155/152
f 141/156/153 85/157/154 46/158/155 128/159/156
f 140/160/157 55/161/158 45/162/159 48/163/160
f 139/164/161 67/165/162 47/166/163 113/167/164
f 138/168/165 135/169/152 44/170/151 128/171/156
f 113/172/164 138/168/165 128/171/156 46/173/155
f 47/174/163 48/175/160 138/168/165 113/172/164
f 48/175/160 45/176/159 135/169/152 138/168/165
f 85/177/154 139/164/161 113/167/164 46/178/155
f 42/179/139 62/147/144 139/164/161 85/177/154
f 62/147/144 43/146/143 67/165/162 139/164/161
f 67/165/162 140/160/157 48/163/160 47/166/163
f 43/146/143 81/151/148 140/160/157 67/165/162
f 81/151/148 41/150/147 55/161/158 140/160/157
f 106/153/150 141/156/153 128/159/156 44/154/151
f 40/138/135 75/143/140 141/156/153 106/153/150
f 75/143/140 42/142/139 85/157/154 141/156/153
f 55/161/158 142/152/149 135/155/152 45/162/159
f 41/150/147 101/139/136 142/152/149 55/161/158
f 101/139/136 40/138/135 106/153/150 142/152/149
f 114/145/142 143/148/145 81/151/148 43/146/143
f 39/134/131 97/131/128 143/148/145 114/145/142
f 97/131/128 28/130/127 132/149/146 143/148/145
f 129/180/138 144/144/141 62/147/144 42/179/139
f 38/181/119 121/135/132 144/144/141 129/180/138
f 121/135/132 39/134/131 114/145/142 144/144/141
f 115/137/134 145/140/137 75/143/140 40/138/135
f 27/70/70 133/123/120 145/140/137 115/137/134
f 133/123/120 38/122/119 129/141/138 145/140/137
f 132/149/146 146/136/133 101/139/136 41/150/147
f 28/130/127 99/71/71 146/136/133 132/149/146
f 99/71/71 27/70/70 115/137/134 146/136/133
f 56/182/118 147/132/129 121/135/132 38/181/119
f 18/183/43 73/184/56 147/132/129 56/182/118
f 73/184/56 17/185/55 111/133/130 147/132/129
f 111/133/130 148/128/125 97/131/128 39/134/131
f 17/185/55 51/186/166 148/128/125 111/133/130
f 51/186/166 26/187/167 72/129/126 148/128/125
f 65/188/73 149/124/121 122/127/124 29/189/74
f 26/190/167 51/191/166 149/124/121 65/188/73
f 51/191/166 17/55/55 108/125/122 149/124/121
f 70/69/69 150/120/117 133/123/120 27/70/70
f 19/192/47 136/193/44 150/120/117 70/69/69
f 136/193/44 18/194/43 56/121/118 150/120/117
f 87/195/107 151/116/116 82/119/103 34/196/102
f 36/197/106 60/198/115 151/116/116 87/195/107
f 60/198/115 37/199/114 130/117/111 151/116/116
f 91/200/168 152/112/112 60/115/115 36/106/106
f 23/62/62 124/87/87 152/112/112 91/200/168
f 124/87/87 32/86/86 68/113/113 152/112/112
f 68/113/113 153/108/108 130/111/111 37/114/114
f 32/86/86 76/95/95 153/108/108 68/113/113
f 76/95/95 33/94/94 107/109/109 153/108/108
f 64/105/105 91/200/168 36/106/106
f 64/105/105 49/63/63 91/200/168
f 49/63/63 23/62/62 91/200/168
f 69/201/101 154/104/104 87/107/107 34/202/102
f 31/203/90 105/83/83 154/104/104 69/201/101
f 105/83/83 24/82/82 64/105/105 154/104/104
f 107/109/109 155/100/100 82/103/103 35/110/110
f 33/94/94 53/91/91 155/100/100 107/109/109
f 53/91/91 31/90/90 69/101/101 155/100/100
f 126/18/18 156/96/96 92/99/99 13/19/19
f 4/35/35 50/4/4 156/96/96 126/18/18
f 50/4/4 3/3/3 89/97/97 156/96/96
f 83/85/85 157/92/92 76/95/95 32/86/86
f 25/204/66 117/205/79 157/92/92 83/85/85
f 117/205/79 30/206/78 116/93/93 157/92/92
f 116/93/93 158/88/88 53/91/91 33/94/94
f 30/206/78 137/207/75 158/88/88 116/93/93
f 137/207/75 29/208/74 119/89/89 158/88/88
f 95/61/61 159/84/84 124/87/87 23/62/62
f 21/209/51 66/210/67 159/84/84 95/61/61
f 66/210/67 25/204/66 83/85/85 159/84/84
f 119/211/89 160/80/80 105/83/83 31/203/90
f 29/212/74 122/213/124 160/80/80 119/211/89
f 122/213/124 22/214/123 102/81/81 160/80/80
f 54/65/65 161/76/76 117/79/79 25/66/66
f 20/215/169 93/48/48 161/76/76 54/65/65
f 93/48/48 19/47/47 131/77/77 161/76/76
f 131/77/77 162/72/72 137/75/75 30/78/78
f 19/47/47 84/216/170 162/72/72 131/77/77
f 84/216/170 26/217/167 65/73/73 162/72/72
f 72/129/126 163/68/68 99/71/71 28/130/127
f 26/187/167 84/218/170 163/68/68 72/129/126
f 84/218/170 19/192/47 70/69/69 163/68/68
f 71/50/50 164/64/64 66/67/67 21/51/51
f 16/31/31 78/219/171 164/64/64 71/50/50
f 78/219/171 20/215/169 54/65/65 164/64/64
f 102/81/81 165/60/60 49/63/63 24/82/82
f 22/214/123 112/220/52 165/60/60 102/81/81
f 112/220/52 21/209/51 95/61/61 165/60/60
f 125/221/172 166/57/57 109/59/59 9/222/173
f 20/215/169 78/219/171 166/57/57 125/221/172
f 78/219/171 16/31/31 96/30/30 166/57/57
f 77/223/42 167/53/53 73/56/56 18/224/43
f 15/225/174 86/226/175 167/53/53 77/223/42
f 86/226/175 2/227/176 110/54/54 167/53/53
f 108/125/122 168/49/49 112/52/52 22/126/123
f 17/55/55 94/32/32 168/49/49 108/125/122
f 94/32/32 16/31/31 71/50/50 168/49/49
f 125/221/172 169/45/45 93/48/48 20/215/169
f 9/222/173 100/228/177 169/45/45 125/221/172
f 100/228/177 8/229/178 52/46/46 169/45/45
f 52/46/46 170/41/41 136/44/44 19/47/47
f 8/229/178 59/230/179 170/41/41 52/46/46
f 59/230/179 15/231/174 77/42/42 170/41/41
f 80/2/2 171/37/37 127/40/40 3/3/3
f 2/227/176 86/226/175 171/37/37 80/2/2
f 86/226/175 15/225/174 134/38/38 171/37/37
f 98/10/10 172/33/33 103/36/36 10/11/11
f 9/222/173 109/59/59 172/33/33 98/10/10
f 109/59/59 1/58/58 90/34/34 172/33/33
f 110/54/54 173/29/29 94/32/32 17/55/55
f 2/227/176 123/232/180 173/29/29 110/54/54
f 123/232/180 1/58/58 96/30/30 173/29/29
f 134/233/38 174/25/25 74/28/28 5/234/39
f 15/231/174 59/230/179 174/25/25 134/233/38
f 59/230/179 8/229/178 88/26/26 174/25/25
f 118/14/14 175/21/21 57/24/24 12/15/15
f 11/27/27 61/12/12 175/21/21 118/14/14
f 61/12/12 10/11/11 104/22/22 175/21/21
f 104/22/22 176/17/17 58/20/20 14/23/23
f 10/11/11 103/36/36 176/17/17 104/22/22
f 103/36/36 4/35/35 126/18/18 176/17/17
f 63/235/6 177/13/13 79/16/16 6/236/7
f 5/234/39 74/28/28 177/13/13 63/235/6
f 74/28/28 11/27/27 118/14/14 177/13/13
f 88/26/26 178/9/9 61/12/12 11/27/27
f 8/229/178 100/228/177 178/9/9 88/26/26
f 100/228/177 9/222/173 98/10/10 178/9/9
f 89/97/97 179/5/5 120/8/8 7/98/98
f 3/3/3 127/40/40 179/5/5 89/97/97
f 127/40/40 5/39/39 63/6/6 179/5/5
f 90/34/34 180/1/1 50/4/4 4/35/35
f 1/58/58 123/232/180 180/1/1 90/34/34
f 123/232/180 2/227/176 80/2/2 180/1/1
