# Blender v2.78 (sub 0) OBJ File: ''
# www.blender.org
mtllib Oak_Tree_crk_m_04.mtl
o Oak_Tree_crk_m_04
v 0.014854 0.426390 0.091921
v -0.111872 0.415438 -0.029748
v -0.189066 0.041251 0.033914
v -0.014912 0.043161 0.194613
v -0.113296 0.410264 -0.155838
v -0.190929 0.040595 -0.143609
v 0.204661 0.390892 0.000945
v 0.238453 0.039921 0.072161
v 0.125393 1.027342 -0.183934
v 0.258854 0.991078 -0.115021
v 0.204028 0.394738 -0.184145
v 0.011933 0.415728 -0.282907
v -0.018780 0.041849 -0.310741
v 0.235695 0.038850 -0.178054
v 0.030051 1.025450 -0.108013
v 0.137991 1.023542 0.046655
v 0.031155 1.029982 -0.014982
v 0.253882 0.830074 0.005748
v -0.019640 1.639631 -0.187575
v 0.068833 1.701848 -0.241569
v 0.185689 1.664177 -0.175350
v 0.072554 1.705376 -0.031121
v -0.027365 1.660009 -0.068313
v -4.691158 0.767726 1.239949
v -5.024076 1.176710 0.748831
v -5.226034 0.360522 0.594312
v -4.779147 0.362186 1.104249
v -4.256842 0.253787 1.352893
v -3.840053 0.884548 1.443968
v -4.252379 1.358253 0.955396
v -4.488116 1.432499 0.197814
v -4.582702 -0.060245 0.752874
v -4.757087 -0.032648 0.090142
v -4.209644 -0.262648 0.391261
v -3.035154 0.037980 0.441629
v -3.596627 0.073920 1.011589
v -3.337451 0.515434 1.274921
v -3.215402 0.263759 -0.484962
v -4.208811 -0.113769 -0.522438
v -4.235269 0.235456 -0.782666
v -3.713189 0.472390 -0.834795
v -4.212675 0.762611 -0.689372
v -3.360218 0.748375 -0.625066
v -2.643635 0.505551 0.014638
v -2.612392 0.880651 0.388630
v -2.647744 0.552224 0.667464
v -2.940749 1.094970 -0.332718
v -3.609749 -0.270317 -0.170365
v -3.643969 1.494675 0.273560
v -3.562383 1.398969 0.941185
v -2.974627 1.287817 0.400235
v -4.256654 1.281879 -0.360410
v -3.084008 1.064280 0.998299
v -4.944578 0.362893 -0.384377
v -5.186330 0.962034 0.047729
v -3.864664 0.871389 -1.934086
v -3.676581 1.248092 -1.322861
v -3.225824 1.351088 -1.908839
v -3.698870 0.959016 -2.333750
v -3.637969 0.509544 -2.454133
v -3.892726 0.341812 -1.849763
v -3.810252 0.807868 -1.213227
v -3.324116 1.160273 -0.811148
v -3.237981 0.895866 -2.522567
v -2.569976 1.210162 -2.158068
v -2.648712 0.739298 -2.506009
v -2.645380 0.106800 -2.142034
v -3.181475 0.230588 -2.435711
v -3.503003 0.074001 -2.090282
v -2.035790 0.472001 -1.487919
v -2.010831 1.048239 -1.886834
v -1.937855 1.218817 -1.411260
v -1.965054 0.894760 -1.144592
v -2.282496 1.194908 -0.975489
v -2.159202 0.655403 -0.918185
v -2.453804 -0.005716 -1.446115
v -2.915504 -0.086855 -1.278709
v -2.978352 -0.127174 -1.752064
v -2.508509 0.384921 -0.737445
v -2.159204 0.564866 -2.164794
v -3.293180 0.686398 -0.694503
v -3.732123 0.436653 -1.113659
v -3.164361 0.223361 -0.908846
v -2.804845 1.163915 -0.666264
v -3.495518 0.109888 -1.450544
v -2.392214 1.545304 -1.518451
v -3.068019 1.521132 -1.200738
v -0.150509 1.696593 -0.051502
v -0.137063 1.830800 -0.060817
v -1.028233 1.372992 0.082127
v -0.985844 1.292192 0.082717
v -0.178893 1.902643 -0.156875
v -0.149142 1.839744 -0.255476
v -1.032819 1.373883 -0.077392
v -1.048597 1.415912 0.009129
v -0.118438 1.651835 -0.154451
v -0.974530 1.248423 0.000993
v -0.131169 1.706777 -0.257401
v -0.991116 1.283270 -0.077496
v -1.869627 1.063982 -0.328731
v -1.949871 1.024060 -0.241614
v -1.871533 0.980740 -0.134786
v -1.921798 0.910839 -0.284374
v -1.836423 1.019237 -0.379131
v -1.842164 0.944967 -0.373489
v -2.176218 0.851326 -1.130212
v -2.205630 0.881692 -1.112768
v -2.183775 0.808509 -1.070819
v -2.244090 0.866589 -1.092234
v -2.060105 0.927410 -0.348222
v -2.447606 0.845406 0.083494
v -2.484349 0.877274 0.039521
v -2.253331 0.822182 -1.102062
v -2.469544 0.927836 0.106814
v -2.440242 0.887582 0.145961
v -2.954627 0.917553 0.047985
v -2.961012 0.937565 0.011966
v -2.970833 0.972166 0.055412
v -2.967494 0.947312 0.086855
v 0.181840 2.099223 -0.152685
v 0.262825 2.222186 -0.251745
v 0.177415 2.108494 -0.312796
v -1.888519 0.915590 -0.396474
v -2.260572 0.183221 -1.454274
v -2.855418 1.313377 -2.052038
v -2.783656 0.284916 0.574590
v -3.525167 1.225190 -1.049771
v -3.333330 1.252668 1.005600
v -5.198144 0.797426 0.709626
v -2.728181 0.879277 0.079945
v -1.438098 1.101407 -0.181411
v -3.241563 1.409629 0.315636
v -2.067136 1.045980 -1.057967
v 0.216739 1.034367 -0.026133
v -4.068105 1.138859 1.255047
v -3.027014 0.059535 -1.072434
v -2.942228 -0.134434 -1.495664
v -3.792874 0.402869 -2.190356
v -2.960947 0.929716 0.071740
v -2.868767 0.259614 -0.785052
v -2.085432 0.501852 -1.895492
v 0.221548 0.188007 -0.185458
v -2.851343 0.405836 -0.210496
v -3.941730 0.587699 -0.812861
v -4.407385 -0.182565 0.588324
v -3.650899 0.271806 -1.278911
v -2.310573 0.229374 -1.846802
v -1.919216 0.881774 -1.468558
v -3.400711 -0.066916 -0.309744
v -2.971088 0.963758 0.076141
v -3.263800 -0.035874 -1.927830
v -3.241512 -0.046211 -1.601883
v -3.797344 0.599860 -1.159708
v -2.581651 0.733749 0.523920
v -3.765794 0.199993 -0.702049
v -2.042221 0.919243 -0.778071
v -2.945222 0.475924 -2.524428
v -4.279080 0.821237 1.388845
v -0.541004 1.507333 -0.156986
v 0.198542 1.013584 -0.164587
v -4.879802 1.247613 0.119218
v -3.174876 0.792325 1.171783
v -3.035909 0.108466 -0.023568
v -2.903215 1.078349 -2.366052
v -5.174931 1.073326 0.427799
v -2.977371 0.545821 1.001920
v -3.212635 0.427535 -0.765024
v 0.117892 0.040350 -0.270711
v -0.016885 1.741895 -0.268322
v -3.074487 1.193247 -0.717324
v -2.786283 0.981273 0.686656
v -3.809892 0.671017 -2.231795
v 0.015904 1.356295 -0.038020
v -3.910755 -0.125509 0.740108
v -0.025957 1.634275 -0.128660
v -2.590811 1.000633 -2.366498
v -4.896358 0.986031 1.004857
v -2.268846 0.548150 -0.836583
v -0.162380 0.195574 -0.151356
v -0.150739 1.750044 -0.044018
v 0.016506 1.350823 -0.141691
v -2.060607 0.851802 -0.692185
v -4.790339 0.868624 -0.368227
v -5.020621 0.120235 0.303365
v 0.140304 1.694162 -0.196827
v -2.453876 0.911948 0.132471
v -2.039958 0.863310 -0.710757
v -4.793953 1.338362 0.483470
v -0.209346 0.040923 -0.054299
v -0.030653 1.790894 -0.260370
v -2.480031 0.905935 0.069249
v -0.179793 1.878211 -0.213228
v -2.791975 1.508105 -1.703951
v -4.523525 -0.182558 0.214024
v 0.121684 0.041541 0.159152
v -2.466995 0.857101 0.055424
v -1.012315 1.328220 -0.084574
v -3.573847 0.988698 -0.577831
v -4.055635 0.550629 1.457469
v -2.440839 0.863114 0.118646
v -3.222440 1.152237 -2.264817
v -2.707319 0.768381 -0.187978
v -0.056713 0.422375 0.039810
v -0.023004 1.787287 -0.045873
v -3.585709 0.255312 -2.308421
v -2.055490 0.775034 -1.041383
v -1.940650 1.038695 -1.263839
v -3.878404 1.391804 0.978109
v 0.042188 1.990938 -0.114467
v -3.465797 0.679978 -2.544532
v -2.707448 0.079060 -0.999647
v -3.774044 1.043116 -1.260437
v -3.669289 0.785677 -0.683644
v 0.224137 1.367713 -0.149370
v 0.071632 1.027689 -0.151564
v -3.587483 0.761377 -0.907133
v -2.666074 -0.068979 -1.329149
v -3.591417 1.478730 0.640751
v -4.725276 -0.075239 0.427996
v -0.034158 0.712772 -0.023265
v -5.026026 0.596957 0.967198
v -1.959948 0.718955 -1.276535
v -4.417939 1.377203 -0.093178
v -3.276684 1.355643 -0.061853
v -0.010870 0.199280 -0.307620
v -3.220152 0.576909 -0.587776
v -3.011185 0.914753 -0.622906
v -3.350498 0.113418 -2.272643
v -3.497260 1.323434 -1.602397
v -2.943133 0.691805 -0.437931
v -2.273753 1.165374 -2.035535
v -2.648136 0.816871 -0.640213
v 0.220890 0.390476 -0.091200
v -2.747596 0.947696 0.094420
v -0.126264 1.671306 -0.211492
v -3.583628 0.677621 1.403103
v -3.726608 0.008846 -0.574948
v -3.909234 0.573675 -1.542513
v 0.196309 2.118269 -0.236291
v -4.253548 -0.241880 -0.093069
v -4.491110 1.091219 1.161766
v -0.121087 0.041222 -0.244929
v -0.176355 1.875106 -0.099933
v -2.337929 1.447902 -1.235855
v -3.769894 0.928321 -2.180358
v -4.587152 0.286212 -0.656349
v -5.179837 0.360305 0.085787
v -3.225182 1.363879 -0.968361
v 0.073441 1.035040 0.026087
v -0.035566 0.707780 -0.129097
v -2.073081 1.268854 -1.208729
v 0.085182 1.749187 -0.142448
v -3.220836 0.567350 -2.554760
v -3.626663 1.230881 -0.395482
v -2.230556 0.807075 -1.107810
v -3.616627 -0.161807 0.480949
v 0.209706 0.910200 0.022510
v 0.114852 0.409759 0.059672
v 0.020084 1.664642 -0.230389
v -2.747867 0.905174 0.038687
v -3.405522 1.412528 -1.268129
v -5.129533 0.647475 -0.160850
v -1.835903 0.981292 -0.380786
v -0.142192 1.761279 -0.267639
v -0.046891 1.678807 -0.181504
v -2.142683 0.875782 -0.751207
v -2.188038 0.868259 -0.073753
v -4.751758 1.147024 -0.217981
v -4.691765 0.573842 -0.560689
v -4.729009 0.156304 0.955210
v -0.122526 0.411665 -0.092511
v -2.578812 0.506102 0.337160
v -4.575974 0.298152 1.228479
v 0.112191 1.385783 0.014193
v -2.104756 1.407226 -1.444363
v -2.696976 -0.109478 -1.613799
v -3.421215 0.365714 -2.489439
v -3.006833 1.206478 0.708601
v -2.375858 0.356810 -2.180033
v -2.522546 0.015848 -1.777103
v -1.457183 1.183908 -0.184205
v -2.909626 1.377118 -0.892037
v -3.044519 0.298630 0.876504
v -4.092060 1.489929 0.218271
v -3.083567 -0.000351 -2.118215
v -3.263468 1.377894 0.673496
v -1.889781 1.055122 -0.300083
v -1.446444 1.071867 -0.112928
v -1.442764 1.122271 -0.033275
v -2.736759 1.566398 -1.368539
v -4.301757 0.465597 -0.777305
v 0.113626 1.375123 -0.210448
v -0.047072 1.680351 -0.119712
v 0.258758 0.895771 -0.040844
v -0.063039 1.717239 -0.070841
v -3.355285 -0.151210 0.115099
v 0.073920 0.713880 0.071025
v -0.534840 1.508702 0.027713
v -3.519916 1.130847 -2.174575
v -3.517747 0.065765 -1.783050
v -2.765583 0.275760 0.209137
v -3.348474 0.152960 -1.155323
v -2.064393 0.771829 -2.049820
v -3.445460 0.995127 1.275027
v -4.775691 0.516580 1.182567
v 0.112828 0.405302 -0.247047
v 0.071799 0.709465 -0.228213
v -2.733051 0.915091 0.130469
v -0.980130 1.260273 -0.041520
v -3.850456 0.386757 -1.452805
v -1.945853 1.153011 -1.617412
v -3.576795 0.993160 -0.960296
v -1.040678 1.399459 0.049564
v -0.518687 1.460684 -0.065670
v -3.195281 -0.018650 -1.352467
v -4.137345 -0.047734 0.914280
v -0.977577 1.265656 0.045048
v -2.919647 0.142348 -2.313545
v -2.955895 0.923540 0.024968
v -5.310878 0.673870 0.315661
v -0.086513 1.870165 -0.170329
v -3.616418 1.137401 -1.919707
v -0.059023 0.413875 -0.228495
v -3.866342 -0.221110 -0.352884
v -2.886841 1.236310 0.057966
v 0.011866 1.689242 -0.029787
v -2.211190 0.965209 -0.041792
v -2.656510 1.428619 -1.072358
v -0.599731 1.658266 -0.056628
v -3.466035 0.337039 -0.980400
v -4.225841 0.072130 -0.688833
v 0.269273 0.039386 -0.052169
v -0.042207 1.703746 -0.235649
v -2.809340 0.814146 0.850843
v -1.043897 1.400607 -0.037131
v -2.767222 1.098172 0.379664
v -3.941972 0.128929 1.208180
v -3.279974 0.046617 0.755458
v -2.240724 0.904463 -0.117742
v -3.894469 0.830233 -1.580494
v -3.714830 0.188181 -2.009913
v -2.373313 0.813180 -0.766778
v 0.224106 0.192435 0.038902
v -1.006543 1.332455 0.088690
v -2.182882 0.825574 -1.127840
v -0.117955 0.042206 0.131240
v -2.032037 0.902554 -0.337134
v -0.007427 0.205241 0.151141
v 0.237838 2.171941 -0.209086
v -1.850745 1.045975 -0.356530
v -2.091976 0.539556 -1.113954
v -2.428730 0.135869 -1.102498
v -4.992642 0.340518 0.911738
v -3.173906 0.882504 -0.539055
v -2.046960 0.964864 -0.314873
v -1.894309 1.013312 -0.145105
v -3.693391 1.189517 1.221083
v -3.895962 1.416402 -0.102407
v -4.364861 1.442355 0.563276
v 0.037350 1.998783 -0.292144
v -2.905318 0.546133 -0.641506
v -2.577754 0.710089 0.174428
v -2.199164 0.866581 -0.895386
v -0.060487 1.762230 -0.051389
v -2.226789 0.352694 -1.073142
v -3.543725 0.599351 -0.734720
v -3.505279 0.948453 -2.431801
v -1.945621 0.783770 -1.715183
v -3.691576 0.767928 -2.421746
v -2.672723 0.991321 0.039010
v -0.123914 1.670248 -0.096222
v -2.288926 0.918310 -2.237909
v -1.487601 1.192744 -0.049993
v -3.314624 0.949011 -0.723990
v 0.234416 0.676730 -0.153477
v -2.142734 1.342688 -1.706787
v -4.475771 0.514158 1.363054
v -3.492594 0.378932 -0.716993
v -2.966036 0.957582 0.029370
v -4.535872 -0.082732 -0.228534
v 0.023171 1.027608 -0.061289
v -2.944749 0.816758 -2.551454
v -4.613145 0.096102 -0.512520
v -2.226294 0.878117 -1.101762
v -3.552608 0.551033 -0.886571
v -3.938064 0.362754 -0.824302
v -2.461799 1.400027 -1.848110
v -3.738456 0.208336 -1.653724
v 0.138589 1.698693 -0.114250
v -2.167976 0.918658 -0.002021
v -2.075174 0.957168 -0.746025
v -2.562580 1.181893 -0.799017
v -3.912807 0.594181 -1.921835
v -3.421239 0.293416 1.170785
v 0.228988 0.627140 0.000923
v -2.253826 0.844806 -1.094902
v -2.672088 0.393950 -2.400664
v -0.575040 1.606549 0.031238
v -4.886956 0.141137 -0.152735
v -4.944943 0.100052 0.663065
v -2.118656 0.936021 -0.714036
v -3.777330 0.363833 1.366712
v -0.584498 1.610484 -0.155008
v -4.668593 1.295168 0.866065
v -2.187243 0.870070 -1.122992
v -3.147097 1.500036 -1.533176
v -2.814913 -0.052595 -1.962659
v 0.235821 2.176305 -0.281902
v -4.246306 1.051116 -0.521548
v -4.402410 0.067858 1.085840
v -0.160704 0.198475 0.001379
v 0.087610 2.092357 -0.215116
v -2.361569 0.642907 -2.338892
v -3.784742 1.082855 -1.610107
v -1.878929 0.948660 -0.169885
v -1.481631 1.227391 -0.115025
v -3.955755 1.482428 0.623222
v -3.879199 -0.292511 0.077845
v -0.022414 1.800706 -0.149974
v 0.034887 1.984912 -0.202101
v 0.064550 2.051145 -0.267831
v 0.067710 2.046021 -0.151797
v -2.729031 0.894475 0.108786
v -2.740537 0.935020 0.117364
v -2.749316 0.929144 0.062975
v -2.737811 0.888599 0.054396
v -2.173568 0.889627 -0.034009
v -2.135143 0.906360 -0.731609
v -2.230397 0.938667 -0.083645
v -2.187287 0.947079 -0.015069
v -2.115877 0.856074 -0.749429
v -2.216678 0.881215 -0.102585
v -2.097147 0.950771 -0.726747
v -2.047463 0.887639 -0.777233
v -2.056178 0.941724 -0.763910
v -1.446119 1.142074 -0.188611
v -1.441851 1.080923 -0.150532
v -1.469862 1.210687 -0.152414
v -1.442957 1.092905 -0.069416
v -1.465147 1.158183 -0.035473
v -1.487785 1.214814 -0.080391
v -0.589716 1.638554 -0.008349
v -0.563045 1.558840 -0.164071
v -0.527300 1.477579 -0.115341
v -0.524139 1.478614 -0.015251
v -0.595028 1.640982 -0.109449
v -0.554572 1.557448 0.037119
v 0.008226 1.350924 -0.089571
v 0.058723 1.372291 -0.000043
v 0.177369 1.377638 -0.062460
v 0.178191 1.371595 -0.190522
v 0.059855 1.363291 -0.182741
v -0.043549 0.709629 -0.075936
v 0.245606 0.646344 -0.076040
v 0.155538 0.668366 0.046806
v 0.013194 0.717831 0.030999
v 0.010901 0.709709 -0.186012
v 0.111300 0.193678 -0.263167
v 0.243174 0.189051 -0.072787
v -0.096883 0.197866 -0.240707
v 0.157711 0.695888 -0.201923
v 0.114604 0.199397 0.111303
v -0.173769 0.196431 -0.074642
v -0.094155 0.202588 0.086988
vt 0.9034 0.7737
vt 0.8996 0.7745
vt 0.8978 0.7679
vt 0.9019 0.7666
vt 0.8974 0.7754
vt 0.8952 0.7764
vt 0.8927 0.7703
vt 0.8953 0.7691
vt 0.9120 0.7725
vt 0.9071 0.7728
vt 0.9060 0.7653
vt 0.9114 0.7653
vt 0.9268 0.7903
vt 0.9234 0.7896
vt 0.9244 0.7791
vt 0.9284 0.7798
vt 0.9377 0.7752
vt 0.9340 0.7743
vt 0.9355 0.7681
vt 0.9398 0.7693
vt 0.9208 0.7725
vt 0.9169 0.7722
vt 0.9167 0.7653
vt 0.9209 0.7659
vt 0.9294 0.7736
vt 0.9247 0.7728
vt 0.9251 0.7665
vt 0.9303 0.7673
vt 0.9327 0.7915
vt 0.9302 0.7910
vt 0.9324 0.7805
vt 0.9355 0.7811
vt 0.9078 0.7915
vt 0.9052 0.7918
vt 0.9014 0.7812
vt 0.9048 0.7808
vt 0.9139 0.7892
vt 0.9105 0.7911
vt 0.9082 0.7804
vt 0.9126 0.7798
vt 0.9204 0.7884
vt 0.9173 0.7872
vt 0.9171 0.7792
vt 0.9208 0.7792
vt 0.9035 0.7922
vt 0.9018 0.7926
vt 0.8976 0.7824
vt 0.8995 0.7818
vt 0.9296 0.8130
vt 0.9316 0.8127
vt 0.9313 0.8234
vt 0.9292 0.8241
vt 0.9251 0.8127
vt 0.9275 0.8132
vt 0.9271 0.8248
vt 0.9251 0.8246
vt 0.8000 0.6802
vt 0.7997 0.7045
vt 0.7922 0.7044
vt 0.7922 0.6809
vt 0.9118 0.8134
vt 0.9139 0.8136
vt 0.9149 0.8253
vt 0.9127 0.8247
vt 0.9079 0.8134
vt 0.9097 0.8133
vt 0.9105 0.8241
vt 0.9084 0.8242
vt 0.8073 0.7046
vt 0.8073 0.7089
vt 0.7114 0.5573
vt 0.7157 0.5560
vt 0.7148 0.5645
vt 0.7109 0.5663
vt 0.7052 0.5670
vt 0.7111 0.5618
vt 0.7054 0.5625
vt 0.7082 0.5538
vt 0.7131 0.5522
vt 0.7201 0.5547
vt 0.7175 0.5509
vt 0.7240 0.5505
vt 0.7010 0.5850
vt 0.7096 0.5783
vt 0.7101 0.5858
vt 0.6640 0.5387
vt 0.6714 0.5387
vt 0.6639 0.5410
vt 0.6638 0.5434
vt 0.6604 0.5481
vt 0.6564 0.5432
vt 0.7002 0.5764
vt 0.7060 0.5756
vt 0.6892 0.5757
vt 0.6892 0.5662
vt 0.6943 0.5717
vt 0.6647 0.5620
vt 0.6691 0.5567
vt 0.6712 0.5608
vt 0.6759 0.5652
vt 0.6803 0.5673
vt 0.6704 0.5681
vt 0.6590 0.5629
vt 0.6557 0.5652
vt 0.6552 0.5615
vt 0.6623 0.5676
vt 0.6618 0.5624
vt 0.6595 0.5681
vt 0.6609 0.5574
vt 0.6650 0.5579
vt 0.6652 0.5537
vt 0.6611 0.5532
vt 0.6645 0.5486
vt 0.6581 0.5579
vt 0.6557 0.5879
vt 0.6501 0.5875
vt 0.6535 0.5828
vt 0.7279 0.5464
vt 0.7214 0.5467
vt 0.7235 0.5394
vt 0.7191 0.5324
vt 0.7169 0.5397
vt 0.7148 0.5345
vt 0.6785 0.5821
vt 0.6693 0.5776
vt 0.6816 0.5757
vt 0.6847 0.5693
vt 0.6724 0.5712
vt 0.6748 0.5702
vt 0.6579 0.5805
vt 0.6993 0.5374
vt 0.7021 0.5439
vt 0.6943 0.5470
vt 0.6347 0.5533
vt 0.6418 0.5481
vt 0.6431 0.5567
vt 0.6524 0.5675
vt 0.6562 0.5703
vt 0.6518 0.5726
vt 0.6879 0.5567
vt 0.6808 0.5540
vt 0.6833 0.5477
vt 0.7192 0.5866
vt 0.7188 0.5791
vt 0.7285 0.5824
vt 0.7377 0.5782
vt 0.7335 0.5700
vt 0.7402 0.5734
vt 0.7183 0.5716
vt 0.7192 0.5632
vt 0.7238 0.5667
vt 0.7247 0.5583
vt 0.6712 0.5410
vt 0.6687 0.5474
vt 0.6564 0.5408
vt 0.6951 0.5803
vt 0.6694 0.5525
vt 0.6777 0.5595
vt 0.6812 0.5644
vt 0.6768 0.5623
vt 0.6648 0.5666
vt 0.7339 0.5521
vt 0.7286 0.5541
vt 0.6752 0.5878
vt 0.6671 0.5850
vt 0.6389 0.5745
vt 0.6450 0.5762
vt 0.6417 0.5807
vt 0.7105 0.5366
vt 0.7127 0.5418
vt 0.7077 0.5435
vt 0.6893 0.5567
vt 0.6971 0.5536
vt 0.6944 0.5623
vt 0.6368 0.5639
vt 0.6452 0.5673
vt 0.6514 0.5601
vt 0.6502 0.5515
vt 0.6543 0.5565
vt 0.6457 0.5710
vt 0.6863 0.5630
vt 0.6828 0.5581
vt 0.7428 0.5686
vt 0.7361 0.5652
vt 0.7413 0.5632
vt 0.7280 0.5749
vt 0.7049 0.5370
vt 0.6703 0.5636
vt 0.7114 0.5573
vt 0.7157 0.5560
vt 0.7160 0.5634
vt 0.7109 0.5663
vt 0.7052 0.5670
vt 0.7111 0.5618
vt 0.7054 0.5625
vt 0.7082 0.5538
vt 0.7131 0.5522
vt 0.7201 0.5547
vt 0.7175 0.5509
vt 0.7240 0.5505
vt 0.7041 0.5805
vt 0.7124 0.5750
vt 0.7117 0.5835
vt 0.6641 0.5360
vt 0.6714 0.5373
vt 0.6639 0.5397
vt 0.6638 0.5434
vt 0.6604 0.5481
vt 0.6564 0.5432
vt 0.7018 0.5741
vt 0.7075 0.5734
vt 0.6892 0.5757
vt 0.6892 0.5662
vt 0.6943 0.5717
vt 0.6647 0.5620
vt 0.6691 0.5567
vt 0.6712 0.5608
vt 0.6759 0.5652
vt 0.6803 0.5673
vt 0.6704 0.5681
vt 0.6590 0.5629
vt 0.6557 0.5652
vt 0.6552 0.5615
vt 0.6623 0.5676
vt 0.6618 0.5624
vt 0.6595 0.5681
vt 0.6609 0.5574
vt 0.6650 0.5579
vt 0.6652 0.5537
vt 0.6611 0.5532
vt 0.6645 0.5486
vt 0.6581 0.5579
vt 0.6557 0.5879
vt 0.6501 0.5875
vt 0.6535 0.5828
vt 0.7279 0.5464
vt 0.7214 0.5467
vt 0.7235 0.5394
vt 0.7191 0.5324
vt 0.7169 0.5397
vt 0.7148 0.5345
vt 0.6785 0.5821
vt 0.6693 0.5776
vt 0.6816 0.5757
vt 0.6847 0.5693
vt 0.6724 0.5712
vt 0.6748 0.5702
vt 0.6579 0.5805
vt 0.6993 0.5374
vt 0.7021 0.5439
vt 0.6943 0.5470
vt 0.6347 0.5533
vt 0.6418 0.5481
vt 0.6431 0.5567
vt 0.6524 0.5675
vt 0.6562 0.5703
vt 0.6518 0.5726
vt 0.6879 0.5567
vt 0.6808 0.5540
vt 0.6833 0.5477
vt 0.7192 0.5866
vt 0.7199 0.5781
vt 0.7285 0.5824
vt 0.7377 0.5782
vt 0.7335 0.5700
vt 0.7402 0.5734
vt 0.7206 0.5695
vt 0.7204 0.5621
vt 0.7250 0.5656
vt 0.7247 0.5583
vt 0.6712 0.5410
vt 0.6687 0.5474
vt 0.6565 0.5395
vt 0.6967 0.5781
vt 0.6694 0.5525
vt 0.6777 0.5595
vt 0.6812 0.5644
vt 0.6768 0.5623
vt 0.6648 0.5666
vt 0.7339 0.5521
vt 0.7286 0.5541
vt 0.6752 0.5878
vt 0.6671 0.5850
vt 0.6389 0.5745
vt 0.6450 0.5762
vt 0.6417 0.5807
vt 0.7105 0.5366
vt 0.7127 0.5418
vt 0.7077 0.5435
vt 0.6893 0.5567
vt 0.6971 0.5536
vt 0.6944 0.5623
vt 0.6368 0.5639
vt 0.6452 0.5673
vt 0.6514 0.5601
vt 0.6502 0.5515
vt 0.6543 0.5565
vt 0.6457 0.5710
vt 0.6863 0.5630
vt 0.6828 0.5581
vt 0.7428 0.5686
vt 0.7361 0.5652
vt 0.7413 0.5632
vt 0.7291 0.5739
vt 0.7049 0.5370
vt 0.6703 0.5636
vt 0.9141 0.8422
vt 0.9159 0.8420
vt 0.9169 0.8587
vt 0.9154 0.8588
vt 0.9213 0.8412
vt 0.9232 0.8410
vt 0.9233 0.8577
vt 0.9216 0.8579
vt 0.9104 0.8426
vt 0.9123 0.8425
vt 0.9139 0.8589
vt 0.9124 0.8589
vt 0.9288 0.8415
vt 0.9305 0.8418
vt 0.9299 0.8582
vt 0.9284 0.8579
vt 0.9251 0.8411
vt 0.9270 0.8413
vt 0.9270 0.8577
vt 0.9252 0.8577
vt 0.9176 0.8417
vt 0.9194 0.8413
vt 0.9198 0.8581
vt 0.9183 0.8584
vt 0.9515 0.7828
vt 0.9528 0.7830
vt 0.9527 0.7993
vt 0.9515 0.7994
vt 0.9488 0.7820
vt 0.9503 0.7825
vt 0.9503 0.7994
vt 0.9489 0.7986
vt 0.9458 0.7824
vt 0.9473 0.7815
vt 0.9475 0.7977
vt 0.9460 0.7990
vt 0.9542 0.7836
vt 0.9557 0.7841
vt 0.9554 0.8003
vt 0.9541 0.7998
vt 0.9600 0.7843
vt 0.9613 0.7840
vt 0.9609 0.8014
vt 0.9596 0.8014
vt 0.9572 0.7843
vt 0.9587 0.7845
vt 0.9583 0.8014
vt 0.9568 0.8009
vt 0.9549 0.8165
vt 0.9560 0.8167
vt 0.9565 0.8331
vt 0.9558 0.8332
vt 0.9584 0.8175
vt 0.9572 0.8171
vt 0.9585 0.8335
vt 0.9575 0.8333
vt 0.9529 0.8164
vt 0.9539 0.8162
vt 0.9551 0.8332
vt 0.9543 0.8334
vt 0.9696 0.7760
vt 0.9711 0.7756
vt 0.9705 0.7859
vt 0.9692 0.7864
vt 0.9490 0.8183
vt 0.9503 0.8188
vt 0.9520 0.8341
vt 0.9510 0.8340
vt 0.9631 0.7758
vt 0.9645 0.7761
vt 0.9641 0.7864
vt 0.9629 0.7860
vt 0.9663 0.7763
vt 0.9682 0.7764
vt 0.9680 0.7869
vt 0.9661 0.7867
vt 0.9511 0.8176
vt 0.9519 0.8166
vt 0.9536 0.8337
vt 0.9528 0.8339
vt 0.9728 0.7759
vt 0.9745 0.7763
vt 0.9734 0.7865
vt 0.9719 0.7862
vt 0.9678 0.7961
vt 0.9688 0.7959
vt 0.9671 0.8059
vt 0.9664 0.8059
vt 0.9653 0.7963
vt 0.9668 0.7964
vt 0.9656 0.8058
vt 0.9646 0.8060
vt 0.9629 0.7961
vt 0.9639 0.7963
vt 0.9636 0.8062
vt 0.9628 0.8062
vt 0.9700 0.7963
vt 0.9712 0.7967
vt 0.9689 0.8069
vt 0.9680 0.8064
vt 0.9723 0.8238
vt 0.9697 0.8247
vt 0.9706 0.8200
vt 0.9716 0.8146
vt 0.9719 0.8192
vt 0.9703 0.8154
vt 0.9872 0.8279
vt 0.9837 0.8246
vt 0.9880 0.8266
vt 0.9672 0.8256
vt 0.9639 0.8291
vt 0.9548 0.8461
vt 0.9496 0.8415
vt 0.9643 0.8415
vt 0.9734 0.8462
vt 0.9561 0.8555
vt 0.9600 0.8507
vt 0.9825 0.8509
vt 0.9748 0.8555
vt 0.8158 0.7123
vt 0.8124 0.7035
vt 0.8199 0.7052
vt 0.8171 0.6829
vt 0.8245 0.6844
vt 0.8240 0.6981
vt 0.8166 0.6964
vt 0.9889 0.8252
vt 0.9846 0.8233
vt 0.9901 0.8201
vt 0.9803 0.8213
vt 0.9767 0.8182
vt 0.9858 0.8182
vt 0.9750 0.8282
vt 0.9665 0.8282
vt 0.8177 0.6612
vt 0.8177 0.6531
vt 0.8264 0.6541
vt 0.8257 0.6624
vt 0.7922 0.6573
vt 0.7963 0.6507
vt 0.8002 0.6560
vt 0.8043 0.6494
vt 0.8082 0.6546
vt 0.8004 0.6441
vt 0.8176 0.6693
vt 0.8250 0.6707
vt 0.8102 0.6678
vt 0.8096 0.6600
vt 0.8091 0.6522
vt 0.9692 0.8325
vt 0.9607 0.8325
vt 0.9777 0.8325
vt 0.9822 0.8150
vt 0.9913 0.8150
vt 0.9731 0.8150
vt 0.8096 0.6813
vt 0.8091 0.6948
vt 0.9523 0.8601
vt 0.9672 0.8602
vt 0.9373 0.8601
vt 0.9374 0.8554
vt 0.9375 0.8506
vt 0.9362 0.8461
vt 0.9348 0.8415
vt 0.9689 0.8162
vt 0.9681 0.8209
vt 0.9620 0.7959
vt 0.9621 0.8062
vt 0.9618 0.7856
vt 0.9717 0.7653
vt 0.9736 0.7656
vt 0.9756 0.7660
vt 0.9485 0.8034
vt 0.9494 0.8014
vt 0.9648 0.7659
vt 0.9665 0.7659
vt 0.9683 0.7660
vt 0.9618 0.7755
vt 0.9618 0.7654
vt 0.9633 0.7657
vt 0.9477 0.8178
vt 0.9499 0.8340
vt 0.9456 0.8016
vt 0.9470 0.8025
vt 0.9700 0.7656
vt 0.9597 0.8175
vt 0.9560 0.7679
vt 0.9575 0.7678
vt 0.9591 0.7676
vt 0.9604 0.7672
vt 0.9617 0.7667
vt 0.9529 0.7667
vt 0.9545 0.7673
vt 0.9444 0.7832
vt 0.9446 0.8004
vt 0.9441 0.7661
vt 0.9456 0.7657
vt 0.9471 0.7653
vt 0.9487 0.7655
vt 0.9502 0.7656
vt 0.9516 0.7661
vt 0.9149 0.8253
vt 0.9169 0.8249
vt 0.9190 0.8245
vt 0.9231 0.8243
vt 0.9251 0.8246
vt 0.9271 0.8248
vt 0.9291 0.8251
vt 0.9312 0.8254
vt 0.9086 0.8426
vt 0.9109 0.8589
vt 0.9063 0.8264
vt 0.9085 0.8262
vt 0.9107 0.8261
vt 0.9211 0.8244
vt 0.9128 0.8257
vt 0.6650 0.5711
vt 0.7049 0.5504
vt 0.7293 0.5618
vt 0.7346 0.5598
vt 0.7399 0.5578
vt 0.6757 0.5554
vt 0.6736 0.5514
vt 0.6512 0.5778
vt 0.6519 0.5638
vt 0.6530 0.5479
vt 0.6571 0.5528
vt 0.6489 0.5429
vt 0.7021 0.5591
vt 0.6994 0.5678
vt 0.7099 0.5487
vt 0.7148 0.5470
vt 0.6479 0.5824
vt 0.6445 0.5870
vt 0.6600 0.5732
vt 0.6639 0.5907
vt 0.6720 0.5936
vt 0.6625 0.5721
vt 0.6761 0.5451
vt 0.6787 0.5387
vt 0.7157 0.5679
vt 0.6556 0.5755
vt 0.6650 0.5711
vt 0.7049 0.5504
vt 0.7293 0.5618
vt 0.7346 0.5598
vt 0.7399 0.5578
vt 0.6757 0.5554
vt 0.6736 0.5514
vt 0.6512 0.5778
vt 0.6519 0.5638
vt 0.6530 0.5479
vt 0.6571 0.5528
vt 0.6489 0.5429
vt 0.7021 0.5591
vt 0.6994 0.5678
vt 0.7099 0.5487
vt 0.7148 0.5470
vt 0.6479 0.5824
vt 0.6445 0.5870
vt 0.6600 0.5732
vt 0.6639 0.5907
vt 0.6720 0.5936
vt 0.6625 0.5721
vt 0.6761 0.5451
vt 0.6787 0.5387
vt 0.7146 0.5689
vt 0.6556 0.5755
vt 0.7997 0.7089
vt 0.8072 0.7133
vt 0.9061 0.8137
vt 0.9063 0.8244
vt 0.9060 0.8029
vt 0.9075 0.8026
vt 0.9089 0.8024
vt 0.9109 0.8022
vt 0.9128 0.8019
vt 0.8077 0.6796
vt 0.9227 0.8123
vt 0.9231 0.8243
vt 0.9224 0.8002
vt 0.9252 0.8009
vt 0.9279 0.8016
vt 0.9299 0.8018
vt 0.9320 0.8020
vt 0.9200 0.7977
vt 0.9176 0.7952
vt 0.9152 0.7986
vt 0.9353 0.7918
vt 0.9386 0.7817
vt 0.9413 0.7761
vt 0.9441 0.7705
vn -0.6748 0.2672 0.6880
vn -0.8888 0.2534 0.3818
vn -0.8784 0.2539 0.4049
vn -0.6608 0.2713 0.6999
vn -0.9756 0.2194 0.0028
vn -0.9079 0.1796 -0.3787
vn -0.9156 0.1630 -0.3675
vn -0.9772 0.2110 0.0224
vn 0.4341 0.2358 0.8695
vn -0.1519 0.2834 0.9469
vn -0.1461 0.2926 0.9450
vn 0.4189 0.2579 0.8706
vn 0.4464 0.0640 -0.8925
vn 0.8515 -0.0160 -0.5241
vn 0.8259 0.0277 -0.5632
vn 0.4479 0.0680 -0.8915
vn -0.7044 0.1336 -0.6971
vn -0.1555 0.0940 -0.9834
vn -0.1603 0.0617 -0.9851
vn -0.7097 0.1074 -0.6963
vn 0.9922 0.1242 -0.0138
vn 0.8262 0.1997 0.5268
vn 0.8029 0.2227 0.5530
vn 0.9897 0.1429 0.0063
vn 0.4591 0.0500 -0.8870
vn 0.8337 0.0781 -0.5466
vn 0.8457 0.0824 -0.5273
vn 0.4634 0.0369 -0.8854
vn -0.6607 0.2314 -0.7141
vn -0.1333 0.1760 -0.9753
vn -0.1569 0.1662 -0.9735
vn -0.6928 0.2105 -0.6897
vn -0.6293 0.1577 0.7610
vn -0.8879 0.2020 0.4132
vn -0.8943 0.2434 0.3756
vn -0.6815 0.2236 0.6968
vn 0.3904 -0.0159 0.9205
vn -0.0985 0.0855 0.9915
vn -0.1644 0.1864 0.9686
vn 0.4304 0.0969 0.8974
vn 0.9963 -0.0848 -0.0099
vn 0.8215 -0.0794 0.5647
vn 0.8379 0.0568 0.5428
vn 0.9999 0.0076 -0.0122
vn -0.9728 0.2318 0.0028
vn -0.8865 0.2431 -0.3937
vn -0.8946 0.2315 -0.3823
vn -0.9699 0.2437 -0.0035
vn -0.5379 -0.1401 -0.8313
vn -0.8799 -0.1287 -0.4575
vn -0.7907 -0.4032 -0.4607
vn -0.2963 -0.3645 -0.8828
vn 0.4812 -0.0112 -0.8765
vn 0.0035 -0.0807 -0.9967
vn 0.3501 0.2906 -0.8905
vn 0.6029 0.5421 -0.5853
vn 0.8141 0.1566 0.5592
vn 0.7587 0.5442 0.3580
vn 0.4099 0.4459 0.7957
vn 0.3160 0.1412 0.9382
vn -0.4568 0.0405 0.8887
vn -0.3196 0.0031 0.9475
vn -0.9961 -0.0876 -0.0076
vn -0.8849 -0.0397 0.4641
vn -0.8290 -0.2632 0.4934
vn -0.9603 -0.2789 -0.0002
vn 0.9115 0.3429 -0.2272
vn -0.5009 0.2154 0.8383
vn -0.5925 0.3913 0.7042
vn -0.7517 -0.0386 0.6584
vn -0.5694 -0.4562 0.6838
vn -0.4599 -0.4999 0.7339
vn -0.5970 -0.1610 0.7859
vn -0.3681 -0.1096 0.9233
vn -0.2506 0.2918 0.9231
vn -0.3215 0.5797 0.7488
vn -0.6532 0.6520 0.3850
vn -0.3346 0.8213 0.4620
vn -0.4102 0.9109 0.0447
vn -0.3441 -0.8526 0.3933
vn -0.5852 -0.7502 0.3078
vn -0.4779 -0.8740 0.0881
vn -0.2190 -0.9309 0.2924
vn -0.0845 -0.9826 0.1653
vn 0.2328 -0.9350 0.2676
vn 0.1095 -0.9126 0.3938
vn -0.2339 -0.7996 0.5532
vn -0.4794 -0.6800 0.5548
vn 0.2675 -0.8034 0.5319
vn 0.4028 -0.6163 0.6767
vn 0.1140 -0.7659 0.6327
vn 0.5573 -0.4817 -0.6763
vn 0.2590 -0.6220 -0.7389
vn 0.2254 -0.4927 -0.8405
vn 0.2180 -0.0254 -0.9756
vn -0.0408 0.3164 -0.9477
vn 0.3245 0.2316 -0.9171
vn 0.8606 -0.3629 -0.3572
vn 0.9844 0.0677 -0.1622
vn 0.9366 -0.3499 0.0199
vn 0.6311 -0.0561 -0.7737
vn 0.7002 -0.4796 -0.5289
vn 0.8393 0.0516 -0.5412
vn 0.6241 -0.7277 -0.2846
vn 0.5046 -0.7161 -0.4823
vn 0.2868 -0.9285 -0.2360
vn 0.4437 -0.8962 0.0033
vn 0.0551 -0.9977 0.0388
vn 0.7157 -0.6857 -0.1326
vn 0.0999 0.9899 -0.1005
vn 0.1308 0.9810 0.1433
vn 0.3105 0.9501 -0.0300
vn -0.2570 0.9591 -0.1190
vn -0.1805 0.9735 0.1406
vn -0.0697 0.9920 -0.1055
vn -0.0558 0.9872 0.1496
vn -0.1669 0.7449 -0.6460
vn 0.1000 0.7490 -0.6549
vn -0.1992 0.5174 -0.8322
vn -0.2133 0.4377 -0.8735
vn 0.1100 0.5181 -0.8482
vn 0.1051 0.4247 -0.8992
vn 0.2404 0.9094 -0.3395
vn 0.5881 0.4939 0.6405
vn 0.3873 0.3990 0.8312
vn 0.5731 0.1306 0.8090
vn 0.4840 -0.2740 0.8311
vn 0.6427 -0.2594 0.7209
vn 0.9011 0.4190 0.1112
vn 0.8612 0.4582 -0.2200
vn 0.7448 0.6501 0.1506
vn -0.7390 -0.2516 -0.6249
vn -0.5171 -0.6405 -0.5678
vn -0.6506 -0.6887 -0.3199
vn -0.5420 -0.8239 -0.1654
vn -0.6743 -0.7357 -0.0630
vn -0.8212 0.0717 -0.5661
vn -0.5162 0.2376 -0.8229
vn -0.8811 -0.3974 0.2562
vn -0.8905 0.1612 0.4254
vn -0.9987 0.0149 -0.0489
vn -0.8165 0.5762 0.0359
vn -0.3844 -0.9223 -0.0396
vn -0.2354 -0.9560 -0.1748
vn -0.0135 -0.8859 0.4637
vn 0.0665 -0.8897 -0.4517
vn -0.1619 -0.3151 -0.9352
vn -0.2924 0.1460 -0.9451
vn 0.0281 -0.2460 -0.9689
vn 0.4838 -0.0723 -0.8722
vn -0.2500 0.9000 -0.3572
vn -0.5135 0.8184 -0.2581
vn 0.0268 0.9322 -0.3609
vn 0.5937 0.7156 0.3680
vn 0.4144 0.7049 0.5757
vn 0.1929 0.8746 0.4448
vn -0.0376 0.8848 0.4644
vn 0.1323 0.6621 0.7377
vn 0.3123 -0.0275 0.9496
vn 0.2060 -0.4556 0.8660
vn 0.7411 0.2060 0.6390
vn 0.8360 -0.2480 0.4894
vn 0.5423 -0.6026 0.5855
vn 0.6900 -0.6485 0.3215
vn 0.7505 0.5175 0.4110
vn -0.4962 -0.2165 -0.8408
vn -0.5210 0.3932 -0.7576
vn -0.8648 -0.4266 -0.2648
vn 0.4129 -0.3144 -0.8548
vn -0.9030 0.3909 -0.1781
vn -0.8051 0.5856 -0.0940
vn -0.5916 0.7719 -0.2327
vn -0.6485 0.5523 -0.5239
vn -0.6691 0.1583 -0.7261
vn -0.8265 0.4908 -0.2758
vn -0.9048 0.0318 -0.4245
vn -0.9851 0.0023 -0.1717
vn -0.9713 0.2253 0.0757
vn -0.7118 0.6880 0.1415
vn -0.8706 0.3580 0.3374
vn -0.6158 0.5926 0.5192
vn -0.0753 0.4404 -0.8946
vn -0.1191 0.7983 -0.5904
vn 0.0630 0.6907 -0.7204
vn 0.0973 0.2578 -0.9613
vn 0.3452 0.0624 -0.9365
vn 0.3704 -0.4554 -0.8095
vn 0.1581 -0.3014 -0.9403
vn -0.2482 0.0664 -0.9664
vn -0.2668 0.5741 -0.7741
vn -0.0005 -0.6024 -0.7982
vn -0.2083 -0.8092 -0.5493
vn -0.2291 -0.4421 -0.8672
vn 0.8711 -0.4910 0.0122
vn 0.9715 -0.1511 -0.1825
vn 0.9964 -0.0849 0.0051
vn 0.8958 -0.0073 0.4444
vn 0.6941 0.2934 0.6574
vn 0.8155 -0.1088 0.5684
vn 0.5612 -0.8253 0.0632
vn 0.2638 -0.9256 0.2714
vn 0.2826 -0.9560 -0.0781
vn 0.7164 -0.5771 0.3921
vn 0.7405 -0.6716 0.0259
vn 0.5240 -0.7433 0.4159
vn 0.6800 -0.6800 -0.2741
vn 0.8343 -0.4853 -0.2617
vn 0.7416 -0.3182 -0.5906
vn 0.5683 -0.5920 -0.5715
vn 0.5549 -0.1346 -0.8210
vn 0.5375 -0.8009 -0.2638
vn -0.3929 -0.1270 0.9108
vn -0.5983 -0.2660 0.7558
vn -0.3193 -0.4683 0.8239
vn -0.4833 0.4846 0.7291
vn -0.7099 0.2798 0.6464
vn -0.4666 0.1906 0.8637
vn -0.6987 0.0729 0.7117
vn 0.1545 0.4750 0.8663
vn 0.2672 0.0551 0.9621
vn 0.3902 0.5464 0.7410
vn 0.4546 0.5400 0.7083
vn 0.4831 0.1238 0.8667
vn 0.6114 0.1669 0.7735
vn -0.0450 -0.2627 0.9638
vn -0.4802 -0.8423 0.2450
vn -0.6195 -0.7727 0.1380
vn -0.4572 -0.8885 0.0387
vn -0.4031 -0.8705 -0.2823
vn -0.2632 -0.9492 -0.1725
vn -0.0837 -0.9283 0.3622
vn 0.1541 -0.8116 0.5635
vn -0.2213 -0.8186 0.5299
vn 0.2570 0.9615 -0.0976
vn 0.5567 0.7218 -0.4112
vn 0.2314 0.8314 -0.5052
vn 0.2278 0.7425 -0.6299
vn 0.0005 0.8453 -0.5343
vn 0.0228 0.9926 0.1197
vn 0.3200 0.8385 0.4410
vn -0.2621 0.8872 -0.3798
vn -0.5042 0.8383 -0.2072
vn -0.2642 0.9508 -0.1620
vn -0.4501 0.8796 0.1537
vn 0.3127 0.5295 -0.7885
vn 0.5794 0.3285 -0.7459
vn -0.0187 -0.1282 -0.9916
vn 0.8507 -0.0000 -0.5256
vn 0.9008 0.4243 0.0923
vn 0.6383 0.5867 0.4983
vn 0.9399 0.1615 0.3009
vn 0.8338 -0.4176 0.3611
vn -0.2213 0.5297 0.8188
vn -0.3272 0.7892 0.5197
vn -0.1274 0.0965 0.9871
vn -0.4271 -0.7908 0.4384
vn -0.5636 -0.7441 0.3587
vn -0.7246 -0.4430 0.5279
vn -0.8783 -0.0700 0.4729
vn -0.8513 -0.4575 0.2567
vn -0.6372 -0.7401 -0.2151
vn -0.5125 -0.6342 -0.5789
vn -0.3688 -0.9254 0.0876
vn -0.0718 -0.9880 -0.1371
vn -0.0310 -0.8962 -0.4426
vn 0.2146 -0.9054 -0.3662
vn -0.3757 -0.8772 0.2988
vn 0.5994 0.7996 0.0367
vn 0.1953 0.8460 0.4961
vn -0.0331 0.9396 -0.3406
vn 0.9438 -0.2670 0.1948
vn 0.1409 0.0318 0.9895
vn -0.0835 0.4387 0.8947
vn -0.2587 0.4061 0.8765
vn -0.0727 -0.0062 0.9973
vn -0.4966 0.7276 -0.4733
vn -0.3790 0.3799 -0.8438
vn -0.1942 0.4806 -0.8552
vn -0.3597 0.8048 -0.4722
vn 0.4423 -0.7604 0.4755
vn 0.3363 -0.4164 0.8447
vn 0.1464 -0.4659 0.8726
vn 0.3075 -0.8094 0.5003
vn 0.3022 -0.8261 -0.4756
vn 0.4277 -0.9039 0.0053
vn 0.3730 -0.9242 0.0823
vn 0.3669 -0.8338 -0.4126
vn -0.1799 -0.0534 -0.9822
vn 0.0723 -0.5150 -0.8541
vn 0.2465 -0.5056 -0.8268
vn 0.0347 -0.0011 -0.9994
vn -0.3092 0.7559 0.5771
vn -0.4776 0.8764 0.0622
vn -0.4361 0.8982 0.0561
vn -0.3919 0.7547 0.5262
vn -0.4490 0.8305 0.3296
vn -0.3518 0.9314 -0.0935
vn -0.2279 0.9565 -0.1821
vn -0.4416 0.8923 0.0937
vn -0.3064 0.1417 0.9413
vn -0.4412 0.6439 0.6251
vn -0.3962 0.9081 0.1355
vn -0.1524 0.6532 0.7417
vn 0.1777 -0.8503 0.4955
vn -0.0485 -0.4780 0.8770
vn 0.1312 -0.3631 0.9225
vn 0.2779 -0.8693 0.4088
vn -0.1325 0.8213 -0.5549
vn 0.1131 0.4932 -0.8625
vn 0.5419 0.4346 -0.7193
vn 0.1944 0.8276 -0.5266
vn 0.4305 -0.8421 -0.3249
vn 0.3068 -0.9458 0.1067
vn 0.2103 -0.9734 0.0908
vn 0.4254 -0.9029 -0.0611
vn 0.3320 0.0212 -0.9430
vn 0.4571 -0.4391 -0.7735
vn 0.6378 -0.5300 -0.5589
vn 0.7082 -0.1440 -0.6912
vn 0.4945 0.7760 -0.3915
vn 0.8515 0.2826 -0.4417
vn 0.9121 0.1572 -0.3785
vn 0.5756 0.7347 -0.3590
vn 0.6669 -0.7175 -0.2011
vn 0.8815 -0.3462 -0.3212
vn 0.3763 -0.9261 -0.0269
vn 0.9028 -0.3143 -0.2936
vn -0.4346 0.9004 -0.0198
vn -0.0044 0.9745 -0.2242
vn 0.0936 0.9687 -0.2301
vn -0.4141 0.9096 -0.0354
vn -0.2138 -0.9049 -0.3681
vn 0.1517 -0.9867 0.0582
vn 0.0162 -0.9925 0.1208
vn -0.1630 -0.8715 -0.4624
vn -0.3921 -0.8936 0.2187
vn -0.8581 -0.4194 0.2963
vn -0.7840 -0.5275 0.3271
vn -0.4481 -0.8550 0.2610
vn 0.1762 0.7795 0.6011
vn -0.1753 0.9837 0.0391
vn -0.0119 0.9952 0.0976
vn 0.1277 0.7061 0.6965
vn -0.4566 0.7884 -0.4122
vn -0.6741 -0.0663 -0.7356
vn -0.2666 -0.0413 -0.9629
vn -0.1541 0.8156 -0.5578
vn -0.9298 0.3043 0.2070
vn -0.6254 0.7777 0.0634
vn -0.7779 0.6113 0.1456
vn -0.9505 0.1200 0.2865
vn 0.3598 -0.8200 0.4451
vn 0.4522 -0.1298 0.8824
vn 0.2255 -0.1416 0.9639
vn 0.1409 -0.8198 0.5550
vn -0.0893 -0.8517 -0.5164
vn -0.1470 -0.9846 0.0944
vn -0.1733 -0.9818 0.0780
vn -0.0573 -0.8226 -0.5657
vn 0.1385 0.7868 -0.6014
vn 0.0693 0.0020 -0.9976
vn 0.1569 0.2180 -0.9632
vn 0.1903 0.7873 -0.5864
vn -0.0105 0.7220 0.6919
vn 0.0922 0.9957 -0.0076
vn 0.1237 0.9909 -0.0528
vn -0.0173 0.7824 0.6225
vn -0.1590 -0.8081 0.5672
vn -0.1268 -0.1347 0.9827
vn -0.1759 0.0396 0.9836
vn -0.2153 -0.7907 0.5731
vn -0.2156 -0.5325 0.8185
vn -0.4733 -0.8403 0.2645
vn -0.3677 -0.8918 -0.2635
vn 0.3422 -0.9390 -0.0357
vn 0.2301 -0.8404 -0.4907
vn 0.3367 -0.4088 0.8482
vn 0.1556 0.0223 0.9876
vn -0.3801 0.7270 0.5718
vn 0.4412 -0.1821 0.8787
vn 0.4999 -0.0969 0.8606
vn 0.6479 0.2413 0.7225
vn -0.5702 0.6732 -0.4708
vn -0.5650 0.8227 0.0626
vn 0.5231 0.8486 -0.0793
vn 0.4640 0.2191 -0.8583
vn 0.6406 -0.7652 -0.0637
vn 0.1109 -0.2969 -0.9484
vn 0.2221 -0.1514 -0.9632
vn 0.7246 -0.6868 -0.0570
vn -0.0937 -0.7261 -0.6812
vn 0.0310 -0.4944 -0.8687
vn -0.1156 -0.0049 -0.9933
vn 0.1484 -0.1184 -0.9818
vn -0.1373 -0.1003 0.9854
vn 0.5405 0.8414 0.0016
vn 0.5663 0.8242 -0.0053
vn 0.3823 0.5627 -0.7330
vn 0.1839 0.1424 0.9726
vn 0.5802 0.1292 0.8042
vn 0.8111 0.1797 0.5566
vn 0.9667 0.1030 0.2342
vn 0.9553 0.0983 -0.2789
vn 0.8191 -0.0037 0.5737
vn 0.9876 -0.1197 -0.1019
vn -0.0947 0.3707 -0.9239
vn 0.1219 0.4738 0.8721
vn 0.2417 0.5913 0.7694
vn -0.5416 0.6632 -0.5166
vn -0.5373 0.8419 0.0504
vn -0.3217 0.7251 0.6089
vn 0.3619 -0.7935 0.4892
vn -0.9557 -0.2816 -0.0859
vn -0.6603 0.7350 -0.1541
vn 0.1785 -0.9824 0.0541
vn -0.2538 -0.9666 -0.0371
vn 0.7435 -0.1584 0.6497
vn -0.8944 -0.4401 -0.0796
vn -0.1594 0.9561 0.2457
vn 0.0340 0.8244 0.5650
vn 0.9080 0.3462 -0.2361
vn 0.8159 0.3279 -0.4762
vn -0.3076 -0.7048 0.6393
vn -0.0926 -0.9895 0.1109
vn 0.1877 -0.7050 -0.6839
vn 0.4219 -0.7359 -0.5296
vn -0.8227 -0.3562 -0.4431
vn -0.5895 -0.2456 -0.7695
vn -0.9866 -0.0618 0.1511
vn -0.8985 0.1374 0.4168
vn -0.4695 -0.6373 0.6110
vn 0.3583 -0.4485 0.8188
vn 0.6220 -0.2753 0.7330
vn 0.4746 0.6254 -0.6193
vn -0.4019 0.8304 -0.3858
vn -0.0524 -0.6308 0.7742
vn 0.3038 0.2263 -0.9255
vn 0.0618 0.2999 0.9520
vn -0.8085 0.4445 -0.3858
vn -0.4754 0.6389 -0.6048
vn -0.1310 -0.5827 -0.8020
vn -0.1740 -0.8083 -0.5625
vn 0.5489 0.8265 0.1250
vn 0.9476 0.1579 0.2779
vn 0.3848 -0.8090 0.4443
vn 0.5309 -0.8320 0.1608
vn -0.0401 -0.1196 0.9920
vn -0.1479 -0.5421 0.8272
vn -0.1361 0.6371 0.7586
vn -0.1751 0.8649 0.4704
vn 0.3908 0.8861 0.2490
vn 0.5270 0.5710 -0.6295
vn 0.3528 0.3115 -0.8823
vn -0.4618 -0.8384 -0.2895
vn -0.6695 -0.4436 0.5959
vn 0.5742 0.8005 -0.1717
vn -0.8983 0.0744 -0.4331
vn -0.9966 0.0813 0.0110
vn -0.8792 0.0868 0.4686
vn -0.5264 0.0878 0.8457
vn 0.9708 0.1004 -0.2178
vn 0.4731 0.0121 -0.8809
vn -0.1051 0.0297 -0.9940
vn -0.6229 0.0532 -0.7805
usemtl None
s 1
f 464/1/1 411/2/2 3/3/3 346/4/4
f 463/5/5 179/6/6 6/7/7 189/8/8
f 462/9/9 348/10/10 4/11/11 195/12/12
f 461/13/13 375/14/14 11/15/15 306/16/16
f 460/17/17 225/18/18 13/19/19 242/20/20
f 459/21/21 343/22/22 8/23/23 332/24/24
f 458/25/25 142/26/26 14/27/27 168/28/28
f 457/29/29 307/30/30 12/31/31 323/32/32
f 456/33/33 220/34/34 2/35/35 203/36/36
f 455/37/37 297/38/38 1/39/39 258/40/40
f 454/41/41 395/42/42 7/43/43 233/44/44
f 453/45/45 250/46/46 5/47/47 271/48/48
f 452/49/49 181/50/50 19/51/51 259/52/52
f 451/53/53 292/54/54 20/55/55 185/56/56
f 450/57/57 389/58/58 22/59/59 274/60/60
f 449/61/61 274/62/60 22/63/59 326/64/62
f 448/65/63 173/66/64 23/67/65 175/68/66
f 21/69/67 185/70/56 389/58/58
f 24/71/68 177/72/69 221/73/70
f 27/74/71 273/75/72 305/76/73
f 24/71/68 377/77/74 158/78/75
f 24/71/68 241/79/76 177/72/69
f 25/80/77 404/81/78 188/82/79
f 24/71/68 158/78/75 241/79/76
f 32/83/80 400/84/81 219/85/82
f 32/86/80 219/87/82 145/88/83
f 34/89/84 256/90/85 174/91/86
f 32/83/80 410/92/87 270/93/88
f 36/94/89 394/95/90 337/96/91
f 38/97/92 237/98/93 155/99/94
f 41/100/95 144/101/96 366/102/97
f 44/103/98 362/104/99 272/105/100
f 38/97/92 230/106/101 143/107/102
f 44/103/98 202/108/103 362/104/99
f 38/97/92 163/109/104 149/110/105
f 48/111/106 296/112/107 418/113/108
f 44/103/98 272/105/100 301/114/109
f 49/115/110 218/116/111 132/117/112
f 31/118/113 359/119/114 284/120/115
f 49/121/110 417/122/116 218/123/111
f 52/124/117 254/125/118 409/126/119
f 42/127/120 198/128/121 213/129/122
f 49/115/110 132/117/112 224/130/123
f 53/131/124 304/132/125 162/133/126
f 37/134/127 394/135/90 166/136/128
f 45/137/129 370/138/130 336/139/131
f 54/140/132 383/141/133 399/142/134
f 33/143/135 184/144/136 399/145/134
f 54/146/132 262/147/137 269/148/138
f 26/149/139 129/150/140 320/151/141
f 25/80/77 188/82/79 165/152/142
f 24/71/68 221/73/70 305/76/73
f 32/83/80 270/93/88 400/84/81
f 34/89/84 194/153/143 240/154/144
f 32/86/80 145/88/83 316/155/145
f 32/83/80 316/156/145 410/92/87
f 38/97/92 149/110/105 237/98/93
f 48/111/106 418/113/108 324/157/146
f 40/158/147 291/159/148 386/160/149
f 38/97/92 226/161/150 230/106/101
f 38/97/92 143/107/102 163/109/104
f 31/118/113 223/162/151 161/163/152
f 52/124/117 223/164/151 358/165/153
f 52/124/117 358/165/153 254/125/118
f 53/166/124 278/167/154 128/168/155
f 50/169/156 208/170/157 357/171/158
f 37/172/127 236/173/159 402/174/160
f 53/166/124 162/175/126 334/176/161
f 46/177/162 283/178/163 126/179/164
f 53/166/124 334/176/161 171/180/165
f 53/166/124 171/180/165 278/167/154
f 54/140/132 269/181/138 246/182/166
f 54/140/132 246/182/166 383/141/133
f 42/183/120 183/184/167 409/185/119
f 54/146/132 247/186/168 262/147/137
f 53/131/124 128/187/155 304/132/125
f 38/97/92 378/188/169 226/161/150
f 38/97/92 155/99/94 378/188/169
f 56/189/170 414/190/171 322/191/172
f 59/192/173 369/193/174 245/194/175
f 56/189/170 172/195/176 393/196/177
f 56/189/170 340/197/178 414/190/171
f 57/198/179 212/199/180 127/200/181
f 56/189/170 393/196/177 340/197/178
f 64/201/182 201/202/183 164/203/184
f 64/204/182 164/205/184 382/206/185
f 66/207/186 397/208/187 157/209/188
f 64/201/182 210/210/189 367/211/190
f 68/212/191 228/213/192 277/214/193
f 70/215/194 368/216/195 148/217/196
f 73/218/197 133/219/198 206/220/199
f 76/221/200 217/222/201 276/223/202
f 70/215/194 365/224/203 124/225/204
f 76/221/200 352/226/205 217/222/201
f 70/215/194 147/227/206 141/228/207
f 80/229/208 279/230/209 413/231/210
f 76/221/200 276/223/202 280/232/211
f 81/233/212 385/234/213 167/235/214
f 63/236/215 312/237/216 374/238/217
f 81/239/212 216/240/218 385/241/213
f 84/242/219 232/243/220 392/244/221
f 74/245/222 342/246/223 363/247/224
f 81/233/212 167/235/214 361/248/225
f 85/249/226 388/250/227 300/251/228
f 69/252/229 228/253/192 151/254/230
f 77/255/231 211/256/232 136/257/233
f 86/258/234 376/259/235 387/260/236
f 65/261/237 125/262/238 387/263/236
f 86/264/234 290/265/239 244/266/240
f 58/267/241 229/268/242 406/269/243
f 57/198/179 127/200/181 261/270/244
f 56/189/170 322/191/172 245/194/175
f 64/201/182 367/211/190 201/202/183
f 66/207/186 176/271/245 372/272/246
f 64/204/182 382/206/185 253/273/247
f 64/201/182 253/274/247 210/210/189
f 70/215/194 141/228/207 368/216/195
f 80/229/208 413/231/210 303/275/248
f 72/276/249 251/277/250 207/278/251
f 70/215/194 351/279/252 365/224/203
f 70/215/194 124/225/204 147/227/206
f 63/236/215 170/280/253 248/281/254
f 84/242/219 170/282/253 227/283/255
f 84/242/219 227/283/255 232/243/220
f 85/284/226 302/285/256 146/286/257
f 82/287/258 153/288/259 310/289/260
f 69/290/229 341/291/261 205/292/262
f 85/284/226 300/293/228 152/294/263
f 78/295/264 285/296/265 407/297/266
f 85/284/226 152/294/263 315/298/267
f 85/284/226 315/298/267 302/285/256
f 86/258/234 244/299/240 275/300/268
f 86/258/234 275/300/268 376/259/235
f 74/301/222 328/302/269 392/303/221
f 86/264/234 193/304/270 290/265/239
f 85/249/226 146/305/257 388/250/227
f 70/215/194 222/306/271 351/279/252
f 70/215/194 148/217/196 222/306/271
f 447/307/272 398/308/273 90/309/274 344/310/275
f 446/311/276 403/312/277 94/313/278 335/314/279
f 445/315/280 298/316/281 91/317/282 317/318/283
f 444/319/284 314/320/285 97/321/286 309/322/287
f 443/323/288 159/324/289 99/325/290 197/326/291
f 442/327/292 329/328/293 95/329/294 313/330/295
f 441/331/296 416/332/297 100/333/298 287/334/299
f 440/335/300 373/336/301 101/337/302 356/338/303
f 439/339/304 289/340/305 102/341/306 415/342/307
f 438/343/308 281/344/309 104/345/310 350/346/311
f 437/347/312 288/348/313 103/349/314 123/350/315
f 436/351/316 131/352/317 105/353/318 263/354/319
f 435/355/320 156/356/321 106/357/322 405/358/323
f 105/353/318 123/350/315 187/359/324
f 434/360/325 187/359/324 108/361/326 345/362/327
f 433/363/328 391/364/329 107/365/330 384/366/331
f 432/367/332 267/368/333 111/369/334 196/370/335
f 431/371/336 266/372/337 113/373/338 255/374/339
f 430/375/340 327/376/341 114/377/342 186/378/343
f 429/379/344 339/380/345 112/381/346 191/382/347
f 428/383/348 401/384/349 109/385/350 396/386/351
f 427/387/352 390/388/353 115/389/354 200/390/355
f 426/391/356 130/392/357 116/393/358 319/394/359
f 425/395/360 260/396/361 117/397/362 379/398/363
f 424/399/364 234/400/365 118/401/366 150/402/367
f 423/403/368 308/404/369 119/405/370 139/406/371
f 23/407/65 295/408/372 293/409/373
f 19/410/51 175/411/66 265/412/374
f 96/413/375 235/414/376 265/415/374
f 88/416/377 295/408/372 180/417/378
f 422/418/379 209/419/380 120/420/381 349/421/382
f 421/422/383 412/423/384 121/424/385 408/425/386
f 121/426/385 349/427/382 408/428/386
f 420/429/387 360/430/388 122/431/389 239/432/390
f 19/433/51 333/434/391 259/435/52
f 98/436/392 264/437/393 169/438/394
f 23/407/65 326/439/62 364/440/395
f 419/441/396 252/442/397 20/443/55 190/444/398
f 16/445/399 257/446/400 134/447/401
f 134/447/401 294/448/402 10/449/403
f 134/447/401 257/446/400 294/448/402
f 257/446/400 18/450/404 294/448/402
f 321/451/405 419/441/396 190/444/398 93/452/406
f 89/453/407 204/454/408 419/441/396 321/451/405
f 204/454/408 22/455/59 252/442/397 419/441/396
f 364/440/395 204/456/408 89/457/407
f 364/440/395 326/439/62 204/456/408
f 326/439/62 22/458/59 204/456/408
f 169/438/394 190/459/398 20/460/55
f 169/438/394 264/437/393 190/459/398
f 264/437/393 93/461/406 190/459/398
f 259/435/52 169/438/394 20/460/55
f 259/435/52 333/434/391 169/438/394
f 333/434/391 98/436/392 169/438/394
f 209/462/380 420/429/387 239/432/390 120/463/381
f 89/453/407 321/451/405 420/429/387 209/462/380
f 321/451/405 93/452/406 360/430/388 420/429/387
f 408/428/386 239/432/390 122/431/389
f 408/428/386 349/427/382 239/432/390
f 349/427/382 120/463/381 239/432/390
f 360/464/388 421/422/383 408/425/386 122/465/389
f 93/466/406 192/467/409 421/422/383 360/464/388
f 192/467/409 92/468/410 412/423/384 421/422/383
f 412/423/384 422/418/379 349/421/382 121/424/385
f 92/468/410 243/469/411 422/418/379 412/423/384
f 243/469/411 89/470/407 209/419/380 422/418/379
f 180/417/378 364/440/395 89/457/407
f 180/417/378 295/408/372 364/440/395
f 295/408/372 23/407/65 364/440/395
f 265/415/374 333/434/391 19/433/51
f 265/415/374 235/414/376 333/434/391
f 235/414/376 98/436/392 333/434/391
f 265/412/374 293/409/373 96/471/375
f 265/412/374 175/411/66 293/409/373
f 175/411/66 23/407/65 293/409/373
f 293/409/373 371/472/412 96/471/375
f 293/409/373 295/408/372 371/472/412
f 295/408/372 88/416/377 371/472/412
f 130/392/357 423/403/368 139/406/371 116/393/358
f 111/369/334 200/390/355 423/403/368 130/392/357
f 200/390/355 115/389/354 308/404/369 423/403/368
f 308/473/369 424/399/364 150/402/367 119/474/370
f 115/475/354 186/378/343 424/399/364 308/473/369
f 186/378/343 114/377/342 234/400/365 424/399/364
f 234/400/365 425/395/360 379/398/363 118/401/366
f 114/377/342 191/382/347 425/395/360 234/400/365
f 191/382/347 112/381/346 260/396/361 425/395/360
f 260/396/361 426/391/356 319/394/359 117/397/362
f 112/381/346 196/370/335 426/391/356 260/396/361
f 196/370/335 111/369/334 130/392/357 426/391/356
f 267/368/333 427/387/352 200/390/355 111/369/334
f 103/476/314 415/477/307 427/387/352 267/368/333
f 415/477/307 102/478/306 390/388/353 427/387/352
f 266/372/337 428/383/348 396/386/351 113/373/338
f 110/479/413 355/480/414 428/383/348 266/372/337
f 355/480/414 101/337/302 401/384/349 428/383/348
f 327/376/341 429/379/344 191/382/347 114/377/342
f 101/481/302 355/482/414 429/379/344 327/376/341
f 355/482/414 110/483/413 339/380/345 429/379/344
f 390/484/353 430/375/340 186/378/343 115/475/354
f 102/485/306 356/486/303 430/375/340 390/484/353
f 356/486/303 101/481/302 327/376/341 430/375/340
f 182/487/415 431/371/336 255/374/339 108/488/326
f 103/489/314 347/490/416 431/371/336 182/487/415
f 347/490/416 110/479/413 266/372/337 431/371/336
f 339/380/345 432/367/332 196/370/335 112/381/346
f 110/483/413 347/491/416 432/367/332 339/380/345
f 347/491/416 103/476/314 267/368/333 432/367/332
f 401/384/349 433/363/328 384/366/331 109/385/350
f 101/337/302 287/334/299 433/363/328 401/384/349
f 287/334/299 100/333/298 391/364/329 433/363/328
f 156/356/321 434/360/325 345/362/327 106/357/322
f 104/345/310 263/354/319 434/360/325 156/356/321
f 263/354/319 105/353/318 187/359/324 434/360/325
f 187/359/324 182/492/415 108/361/326
f 187/359/324 123/350/315 182/492/415
f 123/350/315 103/349/314 182/492/415
f 391/364/329 435/355/320 405/358/323 107/365/330
f 100/333/298 350/346/311 435/355/320 391/364/329
f 350/346/311 104/345/310 156/356/321 435/355/320
f 281/344/309 436/351/316 263/354/319 104/345/310
f 94/493/278 197/494/291 436/351/316 281/344/309
f 197/494/291 99/495/290 131/352/317 436/351/316
f 131/352/317 437/347/312 123/350/315 105/353/318
f 99/495/290 309/496/287 437/347/312 131/352/317
f 309/496/287 97/497/286 288/348/313 437/347/312
f 416/332/297 438/343/308 350/346/311 100/333/298
f 95/498/294 335/499/279 438/343/308 416/332/297
f 335/499/279 94/493/278 281/344/309 438/343/308
f 288/500/313 439/339/304 415/342/307 103/501/314
f 97/502/286 317/503/283 439/339/304 288/500/313
f 317/503/283 91/504/282 289/340/305 439/339/304
f 289/340/305 440/335/300 356/338/303 102/341/306
f 91/504/282 344/505/275 440/335/300 289/340/305
f 344/505/275 90/506/274 373/336/301 440/335/300
f 373/336/301 441/331/296 287/334/299 101/337/302
f 90/506/274 313/507/295 441/331/296 373/336/301
f 313/507/295 95/498/294 416/332/297 441/331/296
f 398/308/273 442/327/292 313/330/295 90/309/274
f 89/508/407 243/509/411 442/327/292 398/308/273
f 243/509/411 92/510/410 329/328/293 442/327/292
f 403/312/277 443/323/288 197/326/291 94/313/278
f 93/511/406 264/512/393 443/323/288 403/312/277
f 264/512/393 98/513/392 159/324/289 443/323/288
f 159/324/289 444/319/284 309/322/287 99/325/290
f 98/513/392 235/514/376 444/319/284 159/324/289
f 235/514/376 96/515/375 314/320/285 444/319/284
f 314/516/285 445/315/280 317/318/283 97/517/286
f 96/518/375 371/519/412 445/315/280 314/516/285
f 371/519/412 88/520/377 298/316/281 445/315/280
f 329/328/293 446/311/276 335/314/279 95/329/294
f 92/510/410 192/521/409 446/311/276 329/328/293
f 192/521/409 93/511/406 403/312/277 446/311/276
f 298/316/281 447/307/272 344/310/275 91/317/282
f 88/520/377 180/522/378 447/307/272 298/316/281
f 180/522/378 89/508/407 398/308/273 447/307/272
f 222/306/271 207/278/251 73/218/197
f 222/306/271 148/217/196 207/278/251
f 148/217/196 72/276/249 207/278/251
f 351/279/252 206/220/199 75/523/417
f 351/279/252 222/306/271 206/220/199
f 222/306/271 73/218/197 206/220/199
f 388/250/227 310/289/260 61/524/418
f 388/250/227 146/305/257 310/289/260
f 146/305/257 82/287/258 310/289/260
f 290/265/239 406/269/243 87/525/419
f 290/265/239 193/304/270 406/269/243
f 193/304/270 58/267/241 406/269/243
f 392/303/221 282/526/420 84/527/219
f 392/303/221 328/302/269 282/526/420
f 328/302/269 87/525/419 282/526/420
f 376/259/235 311/528/421 71/529/422
f 376/259/235 275/300/268 311/528/421
f 275/300/268 72/276/249 311/528/421
f 275/300/268 251/277/250 72/276/249
f 275/300/268 244/299/240 251/277/250
f 244/299/240 74/245/222 251/277/250
f 302/285/256 136/257/233 83/530/423
f 302/285/256 315/298/267 136/257/233
f 315/298/267 77/255/231 136/257/233
f 315/298/267 137/531/424 77/255/231
f 315/298/267 152/294/263 137/531/424
f 152/294/263 78/295/264 137/531/424
f 407/297/266 318/532/425 67/533/426
f 407/297/266 285/296/265 318/532/425
f 285/296/265 68/534/191 318/532/425
f 152/294/263 151/254/230 78/295/264
f 152/294/263 300/293/228 151/254/230
f 300/293/228 69/252/229 151/254/230
f 205/292/262 138/535/427 60/536/428
f 205/292/262 341/291/261 138/535/427
f 341/291/261 61/524/418 138/535/427
f 310/289/260 238/537/429 61/524/418
f 310/289/260 153/288/259 238/537/429
f 153/288/259 62/538/430 238/537/429
f 146/286/257 330/539/431 82/540/258
f 146/286/257 302/285/256 330/539/431
f 302/285/256 83/530/423 330/539/431
f 232/243/220 361/248/225 79/541/432
f 232/243/220 227/283/255 361/248/225
f 227/283/255 81/233/212 361/248/225
f 227/283/255 374/542/217 81/233/212
f 227/283/255 170/282/253 374/542/217
f 170/282/253 63/543/215 374/542/217
f 248/281/254 282/526/420 87/525/419
f 248/281/254 170/280/253 282/526/420
f 170/280/253 84/527/219 282/526/420
f 147/227/206 280/232/211 67/533/426
f 147/227/206 124/225/204 280/232/211
f 124/225/204 76/221/200 280/232/211
f 365/224/203 178/544/433 79/541/432
f 365/224/203 351/279/252 178/544/433
f 351/279/252 75/523/417 178/544/433
f 207/278/251 133/219/198 73/218/197
f 207/278/251 251/277/250 133/219/198
f 251/277/250 74/245/222 133/219/198
f 303/275/248 372/272/246 71/529/422
f 303/275/248 413/231/210 372/272/246
f 413/231/210 66/207/186 372/272/246
f 368/216/195 303/275/248 71/529/422
f 368/216/195 141/228/207 303/275/248
f 141/228/207 80/229/208 303/275/248
f 210/210/189 277/214/193 60/536/428
f 210/210/189 253/274/247 277/214/193
f 253/274/247 68/212/191 277/214/193
f 253/273/247 157/209/188 68/534/191
f 253/273/247 382/206/185 157/209/188
f 382/206/185 66/207/186 157/209/188
f 372/272/246 231/545/434 71/529/422
f 372/272/246 176/271/245 231/545/434
f 176/271/245 65/546/237 231/545/434
f 201/202/183 299/547/435 58/267/241
f 201/202/183 367/211/190 299/547/435
f 367/211/190 59/192/173 299/547/435
f 245/194/175 299/547/435 59/192/173
f 245/194/175 322/191/172 299/547/435
f 322/191/172 58/267/241 299/547/435
f 261/270/244 248/281/254 87/525/419
f 261/270/244 127/200/181 248/281/254
f 127/200/181 63/236/215 248/281/254
f 406/269/243 261/270/244 87/525/419
f 406/269/243 229/268/242 261/270/244
f 229/268/242 57/198/179 261/270/244
f 244/266/240 328/302/269 74/301/222
f 244/266/240 290/265/239 328/302/269
f 290/265/239 87/525/419 328/302/269
f 387/263/236 193/304/270 86/264/234
f 387/263/236 125/262/238 193/304/270
f 125/262/238 58/267/241 193/304/270
f 387/260/236 231/545/434 65/546/237
f 387/260/236 376/259/235 231/545/434
f 376/259/235 71/529/422 231/545/434
f 136/257/233 140/548/436 83/530/423
f 136/257/233 211/256/232 140/548/436
f 211/256/232 79/541/432 140/548/436
f 151/254/230 285/296/265 78/295/264
f 151/254/230 228/253/192 285/296/265
f 228/253/192 68/534/191 285/296/265
f 300/251/228 341/291/261 69/290/229
f 300/251/228 388/250/227 341/291/261
f 388/250/227 61/524/418 341/291/261
f 361/248/225 140/548/436 79/541/432
f 361/248/225 167/235/214 140/548/436
f 167/235/214 83/530/423 140/548/436
f 363/247/224 178/544/433 75/523/417
f 363/247/224 342/246/223 178/544/433
f 342/246/223 79/541/432 178/544/433
f 392/244/221 342/246/223 74/245/222
f 392/244/221 232/243/220 342/246/223
f 232/243/220 79/541/432 342/246/223
f 385/241/213 153/288/259 82/287/258
f 385/241/213 216/240/218 153/288/259
f 216/240/218 62/538/430 153/288/259
f 374/238/217 216/240/218 81/239/212
f 374/238/217 312/237/216 216/240/218
f 312/237/216 62/538/430 216/240/218
f 167/235/214 330/539/431 83/530/423
f 167/235/214 385/234/213 330/539/431
f 385/234/213 82/540/258 330/539/431
f 280/232/211 407/297/266 67/533/426
f 280/232/211 276/223/202 407/297/266
f 276/223/202 78/295/264 407/297/266
f 413/231/210 397/208/187 66/207/186
f 413/231/210 279/230/209 397/208/187
f 279/230/209 67/533/426 397/208/187
f 141/228/207 279/230/209 80/229/208
f 141/228/207 147/227/206 279/230/209
f 147/227/206 67/533/426 279/230/209
f 217/222/201 211/256/232 77/255/231
f 217/222/201 352/226/205 211/256/232
f 352/226/205 79/541/432 211/256/232
f 124/225/204 352/226/205 76/221/200
f 124/225/204 365/224/203 352/226/205
f 365/224/203 79/541/432 352/226/205
f 276/223/202 137/531/424 78/295/264
f 276/223/202 217/222/201 137/531/424
f 217/222/201 77/255/231 137/531/424
f 206/220/199 363/247/224 75/523/417
f 206/220/199 133/219/198 363/247/224
f 133/219/198 74/245/222 363/247/224
f 148/217/196 311/528/421 72/276/249
f 148/217/196 368/216/195 311/528/421
f 368/216/195 71/529/422 311/528/421
f 277/214/193 205/292/262 60/536/428
f 277/214/193 228/213/192 205/292/262
f 228/213/192 69/290/229 205/292/262
f 367/211/190 369/193/174 59/192/173
f 367/211/190 210/210/189 369/193/174
f 210/210/189 60/536/428 369/193/174
f 157/209/188 318/532/425 68/534/191
f 157/209/188 397/208/187 318/532/425
f 397/208/187 67/533/426 318/532/425
f 382/206/185 176/271/245 66/207/186
f 382/206/185 164/205/184 176/271/245
f 164/205/184 65/546/237 176/271/245
f 164/203/184 125/262/238 65/261/237
f 164/203/184 201/202/183 125/262/238
f 201/202/183 58/267/241 125/262/238
f 340/197/178 238/537/429 62/538/430
f 340/197/178 393/196/177 238/537/429
f 393/196/177 61/524/418 238/537/429
f 127/200/181 312/237/216 63/236/215
f 127/200/181 212/199/180 312/237/216
f 212/199/180 62/538/430 312/237/216
f 414/190/171 212/199/180 57/198/179
f 414/190/171 340/197/178 212/199/180
f 340/197/178 62/538/430 212/199/180
f 393/196/177 138/535/427 61/524/418
f 393/196/177 172/195/176 138/535/427
f 172/195/176 60/536/428 138/535/427
f 245/194/175 172/195/176 56/189/170
f 245/194/175 369/193/174 172/195/176
f 369/193/174 60/536/428 172/195/176
f 322/191/172 229/268/242 58/267/241
f 322/191/172 414/190/171 229/268/242
f 414/190/171 57/198/179 229/268/242
f 378/188/169 386/160/149 41/100/95
f 378/188/169 155/99/94 386/160/149
f 155/99/94 40/158/147 386/160/149
f 226/161/150 366/102/97 43/549/437
f 226/161/150 378/188/169 366/102/97
f 378/188/169 41/100/95 366/102/97
f 304/132/125 357/171/158 29/550/438
f 304/132/125 128/187/155 357/171/158
f 128/187/155 50/169/156 357/171/158
f 262/147/137 320/151/141 55/551/439
f 262/147/137 247/186/168 320/151/141
f 247/186/168 26/149/139 320/151/141
f 409/185/119 268/552/440 52/553/117
f 409/185/119 183/184/167 268/552/440
f 183/184/167 55/551/439 268/552/440
f 383/141/133 331/554/441 39/555/442
f 383/141/133 246/182/166 331/554/441
f 246/182/166 40/158/147 331/554/441
f 246/182/166 291/159/148 40/158/147
f 246/182/166 269/181/138 291/159/148
f 269/181/138 42/127/120 291/159/148
f 278/167/154 336/139/131 51/556/443
f 278/167/154 171/180/165 336/139/131
f 171/180/165 45/137/129 336/139/131
f 171/180/165 154/557/444 45/137/129
f 171/180/165 334/176/161 154/557/444
f 334/176/161 46/177/162 154/557/444
f 126/179/164 338/558/445 35/559/446
f 126/179/164 283/178/163 338/558/445
f 283/178/163 36/560/89 338/558/445
f 334/176/161 166/136/128 46/177/162
f 334/176/161 162/175/126 166/136/128
f 162/175/126 37/134/127 166/136/128
f 402/174/160 199/561/447 28/562/448
f 402/174/160 236/173/159 199/561/447
f 236/173/159 29/550/438 199/561/447
f 357/171/158 135/563/449 29/550/438
f 357/171/158 208/170/157 135/563/449
f 208/170/157 30/564/450 135/563/449
f 128/168/155 286/565/451 50/566/156
f 128/168/155 278/167/154 286/565/451
f 278/167/154 51/556/443 286/565/451
f 254/125/118 224/130/123 47/567/452
f 254/125/118 358/165/153 224/130/123
f 358/165/153 49/115/110 224/130/123
f 358/165/153 284/568/115 49/115/110
f 358/165/153 223/164/151 284/568/115
f 223/164/151 31/569/113 284/568/115
f 161/163/152 268/552/440 55/551/439
f 161/163/152 223/162/151 268/552/440
f 223/162/151 52/553/117 268/552/440
f 163/109/104 301/114/109 35/559/446
f 163/109/104 143/107/102 301/114/109
f 143/107/102 44/103/98 301/114/109
f 230/106/101 354/570/453 47/567/452
f 230/106/101 226/161/150 354/570/453
f 226/161/150 43/549/437 354/570/453
f 386/160/149 144/101/96 41/100/95
f 386/160/149 291/159/148 144/101/96
f 291/159/148 42/127/120 144/101/96
f 324/157/146 240/154/144 39/555/442
f 324/157/146 418/113/108 240/154/144
f 418/113/108 34/89/84 240/154/144
f 237/98/93 324/157/146 39/555/442
f 237/98/93 149/110/105 324/157/146
f 149/110/105 48/111/106 324/157/146
f 410/92/87 337/96/91 28/562/448
f 410/92/87 316/156/145 337/96/91
f 316/156/145 36/94/89 337/96/91
f 316/155/145 174/91/86 36/560/89
f 316/155/145 145/88/83 174/91/86
f 145/88/83 34/89/84 174/91/86
f 240/154/144 380/571/454 39/555/442
f 240/154/144 194/153/143 380/571/454
f 194/153/143 33/572/135 380/571/454
f 400/84/81 353/573/455 26/149/139
f 400/84/81 270/93/88 353/573/455
f 270/93/88 27/74/71 353/573/455
f 305/76/73 353/573/455 27/74/71
f 305/76/73 221/73/70 353/573/455
f 221/73/70 26/149/139 353/573/455
f 165/152/142 161/163/152 55/551/439
f 165/152/142 188/82/79 161/163/152
f 188/82/79 31/118/113 161/163/152
f 320/151/141 165/152/142 55/551/439
f 320/151/141 129/150/140 165/152/142
f 129/150/140 25/80/77 165/152/142
f 269/148/138 183/184/167 42/183/120
f 269/148/138 262/147/137 183/184/167
f 262/147/137 55/551/439 183/184/167
f 399/145/134 247/186/168 54/146/132
f 399/145/134 184/144/136 247/186/168
f 184/144/136 26/149/139 247/186/168
f 399/142/134 380/571/454 33/572/135
f 399/142/134 383/141/133 380/571/454
f 383/141/133 39/555/442 380/571/454
f 336/139/131 325/574/456 51/556/443
f 336/139/131 370/138/130 325/574/456
f 370/138/130 47/567/452 325/574/456
f 166/136/128 283/178/163 46/177/162
f 166/136/128 394/135/90 283/178/163
f 394/135/90 36/560/89 283/178/163
f 162/133/126 236/173/159 37/172/127
f 162/133/126 304/132/125 236/173/159
f 304/132/125 29/550/438 236/173/159
f 224/130/123 325/574/456 47/567/452
f 224/130/123 132/117/112 325/574/456
f 132/117/112 51/556/443 325/574/456
f 213/129/122 354/570/453 43/549/437
f 213/129/122 198/128/121 354/570/453
f 198/128/121 47/567/452 354/570/453
f 409/126/119 198/128/121 42/127/120
f 409/126/119 254/125/118 198/128/121
f 254/125/118 47/567/452 198/128/121
f 218/123/111 208/170/157 50/169/156
f 218/123/111 417/122/116 208/170/157
f 417/122/116 30/564/450 208/170/157
f 284/120/115 417/122/116 49/121/110
f 284/120/115 359/119/114 417/122/116
f 359/119/114 30/564/450 417/122/116
f 132/117/112 286/565/451 51/556/443
f 132/117/112 218/116/111 286/565/451
f 218/116/111 50/566/156 286/565/451
f 301/114/109 126/179/164 35/559/446
f 301/114/109 272/105/100 126/179/164
f 272/105/100 46/177/162 126/179/164
f 418/113/108 256/90/85 34/89/84
f 418/113/108 296/112/107 256/90/85
f 296/112/107 35/559/446 256/90/85
f 149/110/105 296/112/107 48/111/106
f 149/110/105 163/109/104 296/112/107
f 163/109/104 35/559/446 296/112/107
f 362/104/99 370/138/130 45/137/129
f 362/104/99 202/108/103 370/138/130
f 202/108/103 47/567/452 370/138/130
f 143/107/102 202/108/103 44/103/98
f 143/107/102 230/106/101 202/108/103
f 230/106/101 47/567/452 202/108/103
f 272/105/100 154/557/444 46/177/162
f 272/105/100 362/104/99 154/557/444
f 362/104/99 45/137/129 154/557/444
f 366/102/97 213/129/122 43/549/437
f 366/102/97 144/101/96 213/129/122
f 144/101/96 42/127/120 213/129/122
f 155/99/94 331/554/441 40/158/147
f 155/99/94 237/98/93 331/554/441
f 237/98/93 39/555/442 331/554/441
f 337/96/91 402/174/160 28/562/448
f 337/96/91 394/95/90 402/174/160
f 394/95/90 37/172/127 402/174/160
f 270/93/88 273/75/72 27/74/71
f 270/93/88 410/92/87 273/75/72
f 410/92/87 28/562/448 273/75/72
f 174/91/86 338/558/445 36/560/89
f 174/91/86 256/90/85 338/558/445
f 256/90/85 35/559/446 338/558/445
f 145/88/83 194/153/143 34/89/84
f 145/88/83 219/87/82 194/153/143
f 219/87/82 33/572/135 194/153/143
f 219/85/82 184/144/136 33/143/135
f 219/85/82 400/84/81 184/144/136
f 400/84/81 26/149/139 184/144/136
f 241/79/76 135/563/449 30/564/450
f 241/79/76 158/78/75 135/563/449
f 158/78/75 29/550/438 135/563/449
f 188/82/79 359/119/114 31/118/113
f 188/82/79 404/81/78 359/119/114
f 404/81/78 30/564/450 359/119/114
f 177/72/69 404/81/78 25/80/77
f 177/72/69 241/79/76 404/81/78
f 241/79/76 30/564/450 404/81/78
f 158/78/75 199/561/447 29/550/438
f 158/78/75 377/77/74 199/561/447
f 377/77/74 28/562/448 199/561/447
f 305/76/73 377/77/74 24/71/68
f 305/76/73 273/75/72 377/77/74
f 273/75/72 28/562/448 377/77/74
f 221/73/70 129/150/140 26/149/139
f 221/73/70 177/72/69 129/150/140
f 177/72/69 25/80/77 129/150/140
f 389/58/58 252/575/397 22/59/59
f 389/58/58 185/70/56 252/575/397
f 185/70/56 20/576/55 252/575/397
f 181/577/50 448/65/63 175/68/66 19/578/51
f 15/579/457 381/580/458 448/65/63 181/577/50
f 381/580/458 17/581/459 173/66/64 448/65/63
f 173/66/64 449/61/61 326/64/62 23/67/65
f 17/581/459 249/582/460 449/61/61 173/66/64
f 249/582/460 16/583/399 274/62/60 449/61/61
f 134/447/401 450/57/57 274/60/60 16/445/399
f 10/449/403 214/584/461 450/57/57 134/447/401
f 214/584/461 21/69/67 389/58/58 450/57/57
f 214/585/461 451/53/53 185/56/56 21/586/67
f 10/587/403 160/588/462 451/53/53 214/585/461
f 160/588/462 9/589/463 292/54/54 451/53/53
f 292/54/54 452/49/49 259/52/52 20/55/55
f 9/589/463 215/590/464 452/49/49 292/54/54
f 215/590/464 15/591/457 181/50/50 452/49/49
f 220/34/34 453/45/45 271/48/48 2/35/35
f 17/581/459 381/580/458 453/45/45 220/34/34
f 381/580/458 15/579/457 250/46/46 453/45/45
f 375/14/14 454/41/41 233/44/44 11/15/15
f 10/587/403 294/592/402 454/41/41 375/14/14
f 294/592/402 18/593/404 395/42/42 454/41/41
f 395/42/42 455/37/37 258/40/40 7/43/43
f 18/593/404 257/594/400 455/37/37 395/42/42
f 257/594/400 16/583/399 297/38/38 455/37/37
f 297/38/38 456/33/33 203/36/36 1/39/39
f 16/583/399 249/582/460 456/33/33 297/38/38
f 249/582/460 17/581/459 220/34/34 456/33/33
f 250/595/46 457/29/29 323/32/32 5/596/47
f 15/591/457 215/590/464 457/29/29 250/595/46
f 215/590/464 9/589/463 307/30/30 457/29/29
f 225/18/18 458/25/25 168/28/28 13/19/19
f 12/31/31 306/16/16 458/25/25 225/18/18
f 306/16/16 11/15/15 142/26/26 458/25/25
f 142/26/26 459/21/21 332/24/24 14/27/27
f 11/15/15 233/44/44 459/21/21 142/26/26
f 233/44/44 7/43/43 343/22/22 459/21/21
f 179/597/6 460/17/17 242/20/20 6/598/7
f 5/596/47 323/32/32 460/17/17 179/597/6
f 323/32/32 12/31/31 225/18/18 460/17/17
f 307/30/30 461/13/13 306/16/16 12/31/31
f 9/589/463 160/588/462 461/13/13 307/30/30
f 160/588/462 10/587/403 375/14/14 461/13/13
f 343/22/22 462/9/9 195/12/12 8/23/23
f 7/43/43 258/40/40 462/9/9 343/22/22
f 258/40/40 1/39/39 348/10/10 462/9/9
f 411/2/2 463/5/5 189/8/8 3/3/3
f 2/35/35 271/48/48 463/5/5 411/2/2
f 271/48/48 5/47/47 179/6/6 463/5/5
f 348/10/10 464/1/1 346/4/4 4/11/11
f 1/39/39 203/36/36 464/1/1 348/10/10
f 203/36/36 2/35/35 411/2/2 464/1/1
