%YAML 1.1
%TAG !u! tag:unity3d.com,2011:
--- !u!21 &2100000
Material:
  serializedVersion: 6
  m_ObjectHideFlags: 0
  m_PrefabParentObject: {fileID: 0}
  m_PrefabInternal: {fileID: 0}
  m_Name: WaterMoving
  m_Shader: {fileID: 4800000, guid: 66fed5dd5b3755d4199f36edae55e880, type: 3}
  m_ShaderKeywords: _SPECULARIBL_ON
  m_LightmapFlags: 5
  m_CustomRenderQueue: -1
  stringTagMap: {}
  m_SavedProperties:
    serializedVersion: 2
    m_TexEnvs:
    - first:
        name: _BumpMap
      second:
        m_Texture: {fileID: 2800000, guid: 4a47b70b0fd12cf478f564ee0720e386, type: 3}
        m_Scale: {x: 3, y: 3}
        m_Offset: {x: 0, y: 0}
    - first:
        name: _DiffuseSide
      second:
        m_Texture: {fileID: 0}
        m_Scale: {x: 1, y: 1}
        m_Offset: {x: 0, y: 0}
    - first:
        name: _DiffuseUp
      second:
        m_Texture: {fileID: 0}
        m_Scale: {x: 1, y: 1}
        m_Offset: {x: 0, y: 0}
    - first:
        name: _IBLMap
      second:
        m_Texture: {fileID: 8900000, guid: 522f3190ed4a3384ba9a182f6b53d4d0, type: 2}
        m_Scale: {x: 1, y: 1}
        m_Offset: {x: 0, y: 0}
    - first:
        name: _MainTex
      second:
        m_Texture: {fileID: 2800000, guid: 19478835b394f834fa4bcd1bcf28e5d4, type: 3}
        m_Scale: {x: 1, y: 1}
        m_Offset: {x: 0, y: 0}
    - first:
        name: _Noise
      second:
        m_Texture: {fileID: 2800000, guid: 3c2350f6b56610444b69e99c29ee60ca, type: 3}
        m_Scale: {x: 1, y: 1}
        m_Offset: {x: 0, y: 0}
    - first:
        name: _NormalSide
      second:
        m_Texture: {fileID: 0}
        m_Scale: {x: 1, y: 1}
        m_Offset: {x: 0, y: 0}
    - first:
        name: _NormalUp
      second:
        m_Texture: {fileID: 0}
        m_Scale: {x: 1, y: 1}
        m_Offset: {x: 0, y: 0}
    - first:
        name: _ParallaxMap
      second:
        m_Texture: {fileID: 2800000, guid: 0f9e0eccaa7c11f47ba60bd0bfcdf6eb, type: 3}
        m_Scale: {x: 1, y: 1}
        m_Offset: {x: 0, y: 0}
    - first:
        name: _RampTex
      second:
        m_Texture: {fileID: 0}
        m_Scale: {x: 1, y: 1}
        m_Offset: {x: 0, y: 0}
    - first:
        name: _node_1231
      second:
        m_Texture: {fileID: 0}
        m_Scale: {x: 1, y: 1}
        m_Offset: {x: 0, y: 0}
    - first:
        name: _node_4149
      second:
        m_Texture: {fileID: 2800000, guid: 8875f803b2d1b3742837c4450eff8fbc, type: 3}
        m_Scale: {x: 1, y: 1}
        m_Offset: {x: 0, y: 0}
    - first:
        name: _node_5886
      second:
        m_Texture: {fileID: 0}
        m_Scale: {x: 1, y: 1}
        m_Offset: {x: 0, y: 0}
    - first:
        name: _node_6219
      second:
        m_Texture: {fileID: 2800000, guid: 8875f803b2d1b3742837c4450eff8fbc, type: 3}
        m_Scale: {x: 10, y: 10}
        m_Offset: {x: 0, y: 0}
    m_Floats:
    - first:
        name: _1stVelocity
      second: 1
    - first:
        name: _2ndVelocity
      second: 2
    - first:
        name: _Cutoff
      second: 0.5
    - first:
        name: _CutoffIntensity
      second: 0.5
    - first:
        name: _DepthOP
      second: 0.11
    - first:
        name: _Detail
      second: -0.32
    - first:
        name: _FoamPower
      second: 4.4
    - first:
        name: _FresnelPower
      second: 0
    - first:
        name: _FresnelRim
      second: 5.97
    - first:
        name: _GameTime
      second: 0
    - first:
        name: _Gloss
      second: 0
    - first:
        name: _GradIntensity
      second: 0.3
    - first:
        name: _GradYCap
      second: 1
    - first:
        name: _HighIntensity
      second: 1
    - first:
        name: _IBLAmbient
      second: 0.39
    - first:
        name: _IBLEnable
      second: 0
    - first:
        name: _IBLPower
      second: 1.15
    - first:
        name: _InvertOpacity
      second: 0
    - first:
        name: _LightScalar
      second: 1
    - first:
        name: _LowIntensity
      second: 0
    - first:
        name: _MasterTiling
      second: 26.96
    - first:
        name: _NoiseTiling
      second: 5
    - first:
        name: _OpacityPower
      second: 1
    - first:
        name: _Parallax
      second: 0.04
    - first:
        name: _ParallaxVelocity
      second: 0.5
    - first:
        name: _Quality
      second: 100
    - first:
        name: _RampIntensity
      second: 0.3
    - first:
        name: _RampLevels
      second: 2
    - first:
        name: _RefractionPower
      second: 1
    - first:
        name: _RimPower
      second: 1
    - first:
        name: _RimScalar
      second: 1.4
    - first:
        name: _SecondTiling
      second: 8
    - first:
        name: _Shininess
      second: 0.28610244
    - first:
        name: _Specular
      second: 1
    - first:
        name: _SpecularIBL
      second: 1
    - first:
        name: _TopDownMask
      second: 0.8270677
    - first:
        name: _Trans
      second: 0
    - first:
        name: _TransDistance
      second: 0.001
    - first:
        name: _TransparentValue
      second: 2.4
    - first:
        name: _UpMoveRange
      second: 1
    - first:
        name: _UpVelocity
      second: 0
    - first:
        name: _UpmoveMix
      second: 0.5
    - first:
        name: _Velocitymain
      second: 1
    - first:
        name: _Velocitymove
      second: 0.77
    - first:
        name: _Velocitynoise
      second: -1
    - first:
        name: _Velocitysecond
      second: 0.5
    - first:
        name: _WindScalar
      second: 1
    - first:
        name: _WorldUV
      second: 0
    - first:
        name: _node_8712
      second: 18.45
    - first:
        name: _noiseseed
      second: -6.08
    m_Colors:
    - first:
        name: _Color
      second: {r: 1, g: 1, b: 1, a: 1}
    - first:
        name: _FarColor
      second: {r: 0.92113113, g: 0.9411765, b: 0.7958478, a: 1}
    - first:
        name: _FoamColor
      second: {r: 0.4299308, g: 0.5029979, b: 0.52205884, a: 1}
    - first:
        name: _HighColor
      second: {r: 1, g: 1, b: 1, a: 1}
    - first:
        name: _LowColor
      second: {r: 1, g: 1, b: 1, a: 1}
    - first:
        name: _RimColor
      second: {r: 0.5, g: 0.5, b: 0.5, a: 1}
    - first:
        name: _WaterColor
      second: {r: 0.53676474, g: 0.5288711, b: 0.5288711, a: 1}
    - first:
        name: _node_3536
      second: {r: 0.5, g: 0.5, b: 0.5, a: 0.3254902}
