%YAML 1.1
%TAG !u! tag:unity3d.com,2011:
--- !u!21 &2100000
Material:
  serializedVersion: 6
  m_ObjectHideFlags: 0
  m_PrefabParentObject: {fileID: 0}
  m_PrefabInternal: {fileID: 0}
  m_Name: BrickStones01
  m_Shader: {fileID: 4800000, guid: 66fed5dd5b3755d4199f36edae55e880, type: 3}
  m_ShaderKeywords: _EMISSION _INVERTAXIS_ON _SPECULARIBL_ON _USEGLOSSMAP_ON
  m_LightmapFlags: 1
  m_CustomRenderQueue: -1
  stringTagMap: {}
  m_SavedProperties:
    serializedVersion: 2
    m_TexEnvs:
    - first:
        name: _BumpMap
      second:
        m_Texture: {fileID: 0}
        m_Scale: {x: 1, y: 1}
        m_Offset: {x: 0, y: 0}
    - first:
        name: _DetailAlbedoMap
      second:
        m_Texture: {fileID: 0}
        m_Scale: {x: 1, y: 1}
        m_Offset: {x: 0, y: 0}
    - first:
        name: _DetailMask
      second:
        m_Texture: {fileID: 0}
        m_Scale: {x: 1, y: 1}
        m_Offset: {x: 0, y: 0}
    - first:
        name: _DetailNormalMap
      second:
        m_Texture: {fileID: 0}
        m_Scale: {x: 1, y: 1}
        m_Offset: {x: 0, y: 0}
    - first:
        name: _DiffuseMap
      second:
        m_Texture: {fileID: 2800000, guid: 69b4a3289bb0bc94baf35fa26a9accb8, type: 3}
        m_Scale: {x: 1, y: 1}
        m_Offset: {x: 0, y: 0}
    - first:
        name: _EmissionMap
      second:
        m_Texture: {fileID: 0}
        m_Scale: {x: 1, y: 1}
        m_Offset: {x: 0, y: 0}
    - first:
        name: _FogRamp
      second:
        m_Texture: {fileID: 2800000, guid: f1dbb0d042882054c900bf39c1603a5a, type: 3}
        m_Scale: {x: 1, y: 1}
        m_Offset: {x: 0, y: 0}
    - first:
        name: _GlossMap
      second:
        m_Texture: {fileID: 2800000, guid: f313f4a56b429fd47abe21711ab45bb5, type: 3}
        m_Scale: {x: 1, y: 1}
        m_Offset: {x: 0, y: 0}
    - first:
        name: _HeightMap
      second:
        m_Texture: {fileID: 2800000, guid: ba90bafe7b4b4cf4294635f81def3815, type: 3}
        m_Scale: {x: 1, y: 1}
        m_Offset: {x: 0, y: 0}
    - first:
        name: _IBLMap
      second:
        m_Texture: {fileID: 8900000, guid: 522f3190ed4a3384ba9a182f6b53d4d0, type: 2}
        m_Scale: {x: 1, y: 1}
        m_Offset: {x: 0, y: 0}
    - first:
        name: _MainTex
      second:
        m_Texture: {fileID: 2800000, guid: bdcc9320eb51c884092452116ff8ddeb, type: 3}
        m_Scale: {x: 1, y: 1}
        m_Offset: {x: 0, y: 0}
    - first:
        name: _MetallicGlossMap
      second:
        m_Texture: {fileID: 0}
        m_Scale: {x: 1, y: 1}
        m_Offset: {x: 0, y: 0}
    - first:
        name: _NormalMap
      second:
        m_Texture: {fileID: 2800000, guid: 81ce625d4869bed4ba5c94a57fedc759, type: 3}
        m_Scale: {x: 1, y: 1}
        m_Offset: {x: 0, y: 0}
    - first:
        name: _OcclusionMap
      second:
        m_Texture: {fileID: 2800000, guid: bff728b612e24764ba0672729efd7926, type: 3}
        m_Scale: {x: 1, y: 1}
        m_Offset: {x: 0, y: 0}
    - first:
        name: _OclussionMap
      second:
        m_Texture: {fileID: 2800000, guid: fc643b2e79e70944792834d158f7d7fa, type: 3}
        m_Scale: {x: 1, y: 1}
        m_Offset: {x: 0, y: 0}
    - first:
        name: _ParallaxMap
      second:
        m_Texture: {fileID: 0}
        m_Scale: {x: 1, y: 1}
        m_Offset: {x: 0, y: 0}
    - first:
        name: _RampTex
      second:
        m_Texture: {fileID: 0}
        m_Scale: {x: 1, y: 1}
        m_Offset: {x: 0, y: 0}
    - first:
        name: _SpecularMap
      second:
        m_Texture: {fileID: 2800000, guid: f313f4a56b429fd47abe21711ab45bb5, type: 3}
        m_Scale: {x: 1, y: 1}
        m_Offset: {x: 0, y: 0}
    - first:
        name: _TopAO
      second:
        m_Texture: {fileID: 2800000, guid: 4e426801d0ea0904881529727498d59a, type: 3}
        m_Scale: {x: 1, y: 1}
        m_Offset: {x: 0, y: 0}
    - first:
        name: _TopBump
      second:
        m_Texture: {fileID: 2800000, guid: 48679a7136cb4de49862528970a4bdc3, type: 3}
        m_Scale: {x: 1, y: 1}
        m_Offset: {x: 0, y: 0}
    - first:
        name: _TopSpecTex
      second:
        m_Texture: {fileID: 2800000, guid: 75b64e108bed4bb49b103786da8a9e75, type: 3}
        m_Scale: {x: 1, y: 1}
        m_Offset: {x: 0, y: 0}
    - first:
        name: _TopTexture
      second:
        m_Texture: {fileID: 2800000, guid: 69dd83014f2bc044487df3d2646e3396, type: 3}
        m_Scale: {x: 1, y: 1}
        m_Offset: {x: 0, y: 0}
    - first:
        name: _UpAlbedo
      second:
        m_Texture: {fileID: 0}
        m_Scale: {x: 1, y: 1}
        m_Offset: {x: 0, y: 0}
    - first:
        name: _UpAmbientOc
      second:
        m_Texture: {fileID: 0}
        m_Scale: {x: 1, y: 1}
        m_Offset: {x: 0, y: 0}
    - first:
        name: _UpMetalness
      second:
        m_Texture: {fileID: 0}
        m_Scale: {x: 1, y: 1}
        m_Offset: {x: 0, y: 0}
    - first:
        name: _UpNormal
      second:
        m_Texture: {fileID: 0}
        m_Scale: {x: 1, y: 1}
        m_Offset: {x: 0, y: 0}
    m_Floats:
    - first:
        name: Depth
      second: 0
    - first:
        name: _AOBlendPower
      second: -16.38
    - first:
        name: _AOPower
      second: 2
    - first:
        name: _BumpPower
      second: 0
    - first:
        name: _BumpScale
      second: 1
    - first:
        name: _Cutoff
      second: 0.5
    - first:
        name: _CutoffIntensity
      second: 0.5
    - first:
        name: _Depth
      second: 0.06
    - first:
        name: _DepthDirection
      second: 0.26785716
    - first:
        name: _DetailMaskMult
      second: 0
    - first:
        name: _DetailNormalMapScale
      second: 1
    - first:
        name: _Diffusepower
      second: 1
    - first:
        name: _DstBlend
      second: 0
    - first:
        name: _EmissionScaleUI
      second: 0
    - first:
        name: _GameTime
      second: 0
    - first:
        name: _Gloss
      second: 0.2
    - first:
        name: _GlossMapScale
      second: 1
    - first:
        name: _Glossiness
      second: 0.21
    - first:
        name: _GlossyReflections
      second: 1
    - first:
        name: _GradIntensity
      second: 0.3
    - first:
        name: _GradYCap
      second: 1
    - first:
        name: _HgtMapSmooth
      second: 5
    - first:
        name: _HighIntensity
      second: 2.32
    - first:
        name: _IBLAmbient
      second: 0.5
    - first:
        name: _IBLPower
      second: 2
    - first:
        name: _InvertAxis
      second: 1
    - first:
        name: _InvertDepth
      second: 0
    - first:
        name: _LightScalar
      second: 0
    - first:
        name: _LightWrap
      second: 0
    - first:
        name: _LightWrapPower
      second: 2
    - first:
        name: _LowIntensity
      second: 2.61
    - first:
        name: _MainTiling
      second: 1
    - first:
        name: _Metallic
      second: 0
    - first:
        name: _Mode
      second: 0
    - first:
        name: _NormalSmooth
      second: 0
    - first:
        name: _OcclusionStrenght
      second: 1
    - first:
        name: _OcclusionStrength
      second: 1
    - first:
        name: _OclussionPower
      second: 1
    - first:
        name: _Parallax
      second: 0.04
    - first:
        name: _Quality
      second: 2
    - first:
        name: _RampIntensity
      second: 0
    - first:
        name: _RampLevels
      second: 4.97
    - first:
        name: _RimFresnel
      second: 3
    - first:
        name: _RimPower
      second: 50
    - first:
        name: _RimScalar
      second: 1.4
    - first:
        name: _Shininess
      second: 0.05
    - first:
        name: _SmoothnessTextureChannel
      second: 0
    - first:
        name: _SpecularHighlights
      second: 1
    - first:
        name: _SpecularIBL
      second: 1
    - first:
        name: _SpecularLevel
      second: 1
    - first:
        name: _SpecularPower
      second: 2
    - first:
        name: _SrcBlend
      second: 1
    - first:
        name: _TopAOPower
      second: 1
    - first:
        name: _TopBottom
      second: 1
    - first:
        name: _TopBottomLevel
      second: 0.67
    - first:
        name: _TopBottomMult
      second: 1
    - first:
        name: _TopBottomPower
      second: 2.16
    - first:
        name: _TopBottomSmooth
      second: 1
    - first:
        name: _TopReliefPower
      second: 0
    - first:
        name: _TopShininess
      second: 0.5
    - first:
        name: _TopSpec
      second: 1
    - first:
        name: _UVMasterTiling
      second: 1
    - first:
        name: _UVSec
      second: 0
    - first:
        name: _UpAOMult
      second: 1
    - first:
        name: _UpAlbPower
      second: 1
    - first:
        name: _UpGloss
      second: 1
    - first:
        name: _UpGlossSmooth
      second: 1
    - first:
        name: _UpMetallic
      second: 0
    - first:
        name: _UpNormalSmooth
      second: 0
    - first:
        name: _UseGlossMap
      second: 1
    - first:
        name: _UseLocalNormals
      second: 0
    - first:
        name: _WindScalar
      second: 1
    - first:
        name: _ZWrite
      second: 1
    m_Colors:
    - first:
        name: _Color
      second: {r: 0.60784316, g: 0.60784316, b: 0.60784316, a: 1}
    - first:
        name: _ColorTint
      second: {r: 1, g: 1, b: 1, a: 1}
    - first:
        name: _EmissionColor
      second: {r: 0, g: 0, b: 0, a: 0}
    - first:
        name: _EmissionColorUI
      second: {r: 1, g: 1, b: 1, a: 1}
    - first:
        name: _HighColor
      second: {r: 1, g: 1, b: 1, a: 1}
    - first:
        name: _LightWrapColor
      second: {r: 0.5, g: 0.5, b: 0.5, a: 1}
    - first:
        name: _LowColor
      second: {r: 0.9522059, g: 1, b: 0.9044118, a: 1}
    - first:
        name: _RimLightColor
      second: {r: 0.5147059, g: 0.5147059, b: 0.5147059, a: 1}
    - first:
        name: _SpecColor
      second: {r: 1, g: 1, b: 1, a: 1}
    - first:
        name: _SpecularColor
      second: {r: 0.5, g: 0.5, b: 0.5, a: 1}
    - first:
        name: _TopSpecColor
      second: {r: 0.5, g: 0.5, b: 0.5, a: 1}
    - first:
        name: _UpColor
      second: {r: 0.31329796, g: 0.39705884, b: 0.28027683, a: 1}
