# Blender v2.78 (sub 0) OBJ File: ''
# www.blender.org
mtllib Birch_Tree_crk_m_01.mtl
o Birch_Tree_crk_m_01
v 1.031738 0.092574 0.467336
v 1.005337 0.147188 0.506244
v 1.992767 0.361353 1.071286
v 2.010135 0.325930 1.045252
v 1.007444 0.040582 0.527253
v 1.994144 0.291681 1.085016
v 0.984456 0.103288 0.548052
v 1.979235 0.332933 1.098003
v 3.203177 1.222724 2.243927
v 3.576291 1.369009 2.001561
v 2.846680 1.297751 1.646921
v 2.314589 0.871289 1.338669
v 2.109572 0.584737 1.579951
v 2.538620 0.851353 2.044339
v 3.193193 1.143304 1.246919
v 3.893450 1.126736 1.761462
v 3.514558 0.804576 1.174975
v 3.937675 0.656128 1.688912
v 3.365648 0.356612 1.128512
v 2.726759 0.602665 0.878366
v 3.603322 0.208030 1.658816
v 3.920233 0.626327 2.102834
v 3.220198 0.144082 2.042740
v 2.772351 -0.066958 1.314845
v 2.756573 0.151685 0.934133
v 3.718287 0.911413 2.371091
v 2.975758 0.554046 2.325101
v 2.397576 0.156016 1.818309
v 2.099785 0.204972 1.299965
v 2.278155 0.246182 0.979657
v 0.011615 0.207573 -0.160454
v 0.080379 1.630426 -0.142847
v 0.186263 1.687002 -0.063787
v 0.122017 0.211083 -0.079876
v 0.079578 0.193758 0.050638
v 0.159657 1.486222 0.042086
v 0.049856 1.653594 0.039633
v -0.056616 0.205404 0.050503
v -0.007573 1.610478 -0.076625
v -0.098786 0.204063 -0.079876
v 0.087032 2.830566 -0.072568
v 0.018283 2.826932 -0.124633
v -0.106052 5.700683 -0.088107
v -0.074551 5.703307 -0.064127
v -0.024305 2.824687 0.011831
v 0.060601 2.836952 0.011168
v -0.084904 5.678524 -0.025332
v -0.124901 5.690698 -0.025403
v -0.050527 2.823298 -0.072471
v -0.137170 5.692890 -0.064175
v 0.347794 1.821256 0.132477
v 0.260003 1.876243 0.132619
v 0.151137 1.900638 0.029637
v 0.278258 1.947484 0.079996
v 0.365104 1.901018 0.043328
v 0.365098 2.195121 0.206604
v 0.355835 2.217448 0.142420
v 0.439773 2.172950 0.212525
v 0.432694 2.195926 0.125405
v -0.917532 8.163712 0.246820
v -0.693907 8.507715 -0.310221
v -1.043002 7.359239 -0.389098
v -0.836688 6.283342 -0.241288
v -0.761532 6.059894 0.343812
v -0.925804 7.039830 0.544054
v -0.421905 7.396445 -0.914490
v -0.058570 8.577166 -0.564944
v 0.261049 7.538753 -0.896331
v 0.559898 8.322284 -0.337904
v 0.688939 7.088081 -0.572640
v -0.004401 6.292668 -0.786897
v 0.834103 7.665563 0.083496
v 0.410843 8.581485 0.197871
v 0.447459 7.455584 0.759700
v 0.639842 6.295368 0.204870
v 0.526763 6.123211 -0.410515
v -0.195037 8.690590 0.408493
v -0.344819 7.592539 0.916633
v -0.126838 6.336052 0.820182
v -0.207431 5.642581 0.274648
v 0.017361 5.645364 -0.221802
v -0.654220 7.325459 0.807864
v 0.615454 6.489032 -0.496694
v 0.082221 2.833759 -0.027892
v 0.467868 8.139374 0.508251
v 2.492356 0.760820 1.046319
v 3.757665 1.275341 1.892259
v 2.178126 0.220572 1.135985
v -0.965181 7.636635 0.411175
v -0.257918 8.166819 0.731782
v -0.847283 8.413322 -0.033357
v 2.870818 1.064023 2.172594
v 2.663952 1.130712 1.851224
v 0.395870 2.217463 0.133162
v 0.057901 2.828749 -0.106031
v 2.425044 0.490191 1.995066
v 0.822827 7.401430 -0.233587
v 3.481221 1.098024 2.366164
v 3.073976 0.320373 2.226901
v -1.075527 7.200269 0.056424
v -0.561231 5.799804 0.028465
v 0.018118 2.830819 0.020696
v -0.096563 0.204733 -0.008558
v 0.676759 7.774198 -0.481948
v -0.048933 7.441055 -0.980020
v 2.340405 0.009643 1.290669
v 3.416689 1.338078 2.155067
v 0.104274 1.855671 0.043878
v 0.011481 0.199581 0.070404
v -0.394885 8.591757 -0.453465
v -0.850514 6.452872 0.457323
v 2.266866 0.693295 1.789190
v -0.096176 5.625799 0.029826
v -0.016276 0.839254 0.044267
v 3.422397 0.123141 1.832628
v 1.984614 0.307902 1.096183
v -0.055243 0.205818 -0.136210
v 2.771840 0.033732 1.060719
v 0.307630 6.239807 0.602776
v 0.060525 2.144575 -0.134539
v 0.252242 1.706303 0.081262
v 1.500690 0.162176 0.807756
v -0.445468 6.223231 -0.595426
v 2.721950 0.333900 0.867622
v 0.181169 1.876259 -0.014758
v 0.406674 2.011920 0.180824
v 3.828801 0.432430 1.689085
v 0.151042 0.859652 -0.079433
v 3.454838 0.593212 1.128714
v 0.151277 8.171462 0.692133
v 0.214679 1.875864 0.052342
v 0.323252 2.049177 0.176424
v 2.203498 0.124821 1.511517
v 0.325765 5.849708 -0.326013
v -0.570825 6.675647 0.787835
v -0.075503 5.689824 -0.043308
v 0.980083 0.113130 0.461437
v -0.600569 8.509891 0.368976
v 0.665817 8.167851 0.201410
v -0.045820 2.823992 -0.027414
v -0.049352 4.357802 -0.105583
v -0.098434 4.353007 -0.068186
v 2.421350 0.434165 0.904732
v 2.102917 0.514901 1.279884
v 2.986572 1.262923 1.436962
v 0.130535 1.642218 -0.118602
v 0.011666 2.142608 0.021886
v -0.018004 4.343401 -0.007949
v 3.113187 0.914833 2.350661
v 2.154928 0.724509 1.506607
v 0.431394 7.999569 -0.656449
v 2.774860 0.068983 1.929846
v 3.025371 1.308909 1.976348
v 0.139402 2.163006 -0.074858
v -0.018420 2.131968 -0.074749
v 3.846856 0.749641 2.242114
v -0.900730 7.953588 -0.420211
v -0.135260 5.692886 -0.043416
v -0.591561 8.039116 -0.677219
v 2.442654 0.033086 1.087087
v 3.240025 0.033418 1.488817
v -0.681130 6.771894 -0.682831
v 0.163678 1.775316 0.086803
v 0.030224 1.618633 -0.118602
v 3.986346 0.662910 1.910569
v 3.735255 0.993925 1.430270
v 0.718926 7.531424 0.432511
v 2.981439 -0.036375 1.693479
v 0.955067 0.060028 0.517769
v 0.119660 0.202421 -0.008490
v 3.964111 0.892961 1.728370
v 3.128715 0.094084 1.194081
v 0.048346 7.511060 0.921271
v 3.063702 0.473002 0.934890
v 3.146130 0.719448 0.975853
v 0.323404 1.932866 0.053620
v 2.916839 0.891016 1.018662
v 0.217028 5.812566 0.301443
v 0.625541 6.167700 -0.177929
v 3.990340 0.902385 2.007228
v 2.680850 0.320667 2.122972
v 2.222389 0.529983 1.096549
v 0.312331 6.133748 -0.607048
v 0.481314 7.321090 -0.777840
v -0.088000 5.705502 -0.079800
v 3.897019 1.075359 2.127203
v -0.117903 5.872091 0.547513
v -0.000157 4.360658 -0.068216
v 2.375418 0.938807 1.704227
v 0.736577 8.073430 -0.133181
v 0.047734 0.853040 -0.155934
v 3.719542 1.218821 2.230490
v 0.441636 2.195748 0.171616
v -0.079573 4.352900 -0.007706
v 0.078473 0.209328 -0.136210
v 2.182840 0.382239 1.693389
v -0.534998 5.820502 0.316726
v 2.588437 1.134616 1.498273
v -0.994833 6.861503 -0.347345
v -1.018226 6.652572 0.133314
v -0.104712 5.682026 -0.020821
v 0.108390 8.082834 -0.810306
v 0.406120 2.196079 0.215464
v 3.643648 0.384737 2.121615
v 3.607135 1.188294 1.478081
v -0.055674 0.840434 -0.079484
v 0.821216 7.023038 0.151172
v 0.108706 2.204551 0.021017
v 0.282053 1.807901 -0.006411
v 3.002124 0.222765 0.988822
v 0.110742 0.807129 0.044670
v 3.517905 0.251805 1.396336
v 0.186690 1.527560 -0.008841
v 2.004408 0.303416 1.062391
v 0.228947 6.811477 0.860952
v 1.480448 0.218879 0.824787
v 0.354313 5.799791 -0.007487
v 3.712929 0.503978 1.406465
v 1.983732 0.352533 1.087387
v 0.258896 1.917464 0.108116
v 2.003526 0.348047 1.053596
v 0.150294 8.661694 0.311621
v 1.522681 0.209308 0.752688
v -0.021335 2.825116 -0.106031
v -0.145761 8.814903 -0.081674
v 0.782800 6.714608 -0.206620
v 3.351708 0.709981 2.392981
v -1.049886 7.810462 -0.068014
v -0.221112 6.975489 0.958094
v 0.302175 1.840135 0.140590
v 0.499350 8.541500 -0.091415
v 0.613984 6.827963 0.559745
v 0.150818 6.917867 -0.925797
v 3.431758 1.317032 1.622659
v -0.497785 8.758111 0.017180
v 2.718579 1.052534 1.221351
v 2.068342 0.412014 1.443626
v -0.511890 6.117268 0.596111
v -0.059333 5.861738 -0.507111
v 0.392155 6.658331 -0.766384
v -0.250491 6.772259 -0.899370
v 2.740448 0.689947 2.234864
v 0.181081 8.744999 -0.144812
v -0.408777 5.817186 -0.256911
v 3.510570 0.503472 2.295091
v 3.224092 1.378749 1.797286
v 0.286070 8.509815 -0.468913
v -0.124104 5.695865 -0.079800
v 2.545422 -0.031270 1.582768
v -0.000773 1.611344 -0.019663
v -0.804691 7.354527 -0.680175
v -0.859783 6.136435 0.135620
v 3.365346 0.974673 1.154410
v 0.410063 2.060611 0.088485
v 3.789742 0.385040 1.921281
v 0.105662 1.506972 0.052609
v -0.241537 8.071909 -0.836265
v 0.953900 0.119063 0.506135
v 0.321822 2.092037 0.113125
v 0.981250 0.054095 0.473071
v 2.520175 0.164609 0.929910
v -0.670678 7.967567 0.634081
v 3.778406 0.749028 1.428523
v 0.366683 1.855537 0.086094
v 1.498808 0.257401 0.788990
v 0.360354 2.217794 0.177010
v 0.408930 2.241002 0.182037
v 0.105693 2.151787 -0.112816
v 0.060152 2.176492 0.031499
v 0.015356 2.137362 -0.112816
v -0.012559 2.132904 -0.023255
v 0.133236 2.188162 -0.023853
v -0.011431 0.845827 -0.128159
v 0.417949 2.032432 0.133525
v 0.366052 2.081434 0.092118
v 0.364854 2.025439 0.187310
v 0.312957 2.074440 0.145904
v 0.275850 1.749457 0.033837
v -0.003294 4.351620 -0.036146
v 0.252876 1.853164 0.016149
v 0.180476 1.833235 0.073161
v -0.094790 4.353363 -0.035978
v 0.203450 1.729528 0.090849
v -0.077434 4.355059 -0.091996
v -0.048732 4.347181 -0.001525
v -0.021270 4.360545 -0.091996
v -0.047997 0.841370 -0.013642
v 0.142914 0.831865 -0.013365
v 0.047182 0.820195 0.057410
v 0.106899 0.860253 -0.128159
v 0.848569 0.058593 0.421748
v 1.488317 0.185747 0.821342
v 1.487166 0.243989 0.809865
v 1.514148 0.179893 0.777246
v 1.512997 0.238135 0.765768
vt 0.1734 0.7356
vt 0.1781 0.7360
vt 0.1779 0.8211
vt 0.1746 0.8207
vt 0.1629 0.7357
vt 0.1687 0.7352
vt 0.1714 0.8203
vt 0.1675 0.8202
vt 0.1818 0.7357
vt 0.1856 0.7355
vt 0.1830 0.8203
vt 0.1804 0.8207
vt 0.1902 0.7357
vt 0.1948 0.7358
vt 0.1894 0.8201
vt 0.1862 0.8202
vt 0.4329 0.0309
vt 0.4319 0.0265
vt 0.4387 0.0280
vt 0.4496 0.0312
vt 0.4498 0.0351
vt 0.4440 0.0358
vt 0.4490 0.0090
vt 0.4399 0.0155
vt 0.4381 0.0090
vt 0.4650 0.0606
vt 0.4650 0.0730
vt 0.4593 0.0664
vt 0.4537 0.0722
vt 0.4520 0.0797
vt 0.4496 0.0738
vt 0.4484 0.0645
vt 0.4493 0.0201
vt 0.4467 0.0170
vt 0.4417 0.0853
vt 0.4438 0.0901
vt 0.4369 0.0887
vt 0.4370 0.0820
vt 0.4324 0.0787
vt 0.4347 0.0747
vt 0.4390 0.0770
vt 0.4320 0.0920
vt 0.4390 0.0934
vt 0.4393 0.0996
vt 0.4277 0.0519
vt 0.4303 0.0414
vt 0.4331 0.0461
vt 0.4374 0.0543
vt 0.4237 0.1064
vt 0.4199 0.0972
vt 0.4279 0.0992
vt 0.4161 0.0880
vt 0.4243 0.0834
vt 0.4241 0.0900
vt 0.4607 0.0454
vt 0.4552 0.0383
vt 0.4642 0.0399
vt 0.4676 0.0343
vt 0.4586 0.0327
vt 0.4661 0.0264
vt 0.4265 0.0627
vt 0.4318 0.0667
vt 0.4294 0.0707
vt 0.4214 0.0671
vt 0.4164 0.0715
vt 0.4244 0.0751
vt 0.4162 0.0798
vt 0.4459 0.0949
vt 0.4480 0.0910
vt 0.4554 0.0901
vt 0.4309 0.0220
vt 0.4235 0.0276
vt 0.4445 0.0250
vt 0.4414 0.0327
vt 0.4471 0.0281
vt 0.4593 0.0788
vt 0.4541 0.0587
vt 0.4431 0.0568
vt 0.4443 0.0661
vt 0.4401 0.0637
vt 0.4568 0.0137
vt 0.4436 0.0803
vt 0.4460 0.0862
vt 0.4351 0.1067
vt 0.4219 0.0425
vt 0.4470 0.0568
vt 0.4427 0.0486
vt 0.4485 0.0479
vt 0.4539 0.0511
vt 0.4553 0.0422
vt 0.4348 0.0598
vt 0.4466 0.1071
vt 0.4462 0.1010
vt 0.4558 0.0962
vt 0.4161 0.0332
vt 0.4216 0.0211
vt 0.3174 0.9373
vt 0.3336 0.9390
vt 0.3350 0.9526
vt 0.3181 0.9543
vt 0.0795 0.2110
vt 0.0775 0.2946
vt 0.0705 0.2960
vt 0.0712 0.2118
vt 0.1299 0.2092
vt 0.1205 0.2886
vt 0.1130 0.2922
vt 0.1213 0.2104
vt 0.0627 0.2082
vt 0.0633 0.2890
vt 0.0561 0.2820
vt 0.0542 0.2046
vt 0.1129 0.2097
vt 0.1058 0.2914
vt 0.0987 0.2907
vt 0.1046 0.2089
vt 0.0795 0.5196
vt 0.0865 0.5197
vt 0.0711 0.7603
vt 0.0658 0.7609
vt 0.1218 0.5200
vt 0.1289 0.5188
vt 0.1033 0.7547
vt 0.0978 0.7575
vt 0.0935 0.5198
vt 0.1005 0.5200
vt 0.0817 0.7590
vt 0.0764 0.7596
vt 0.1967 0.5831
vt 0.2045 0.5829
vt 0.2073 0.5978
vt 0.1995 0.5984
vt 0.1076 0.5206
vt 0.1147 0.5212
vt 0.0923 0.7603
vt 0.0870 0.7596
vt 0.1840 0.5900
vt 0.1888 0.5833
vt 0.1916 0.5990
vt 0.1851 0.6025
vt 0.1704 0.5948
vt 0.1793 0.5968
vt 0.1787 0.6060
vt 0.1695 0.6072
vt 0.0655 0.5170
vt 0.0724 0.5196
vt 0.0605 0.7616
vt 0.0556 0.7566
vt 0.1518 0.5892
vt 0.1616 0.5927
vt 0.1603 0.6084
vt 0.1513 0.6054
vt 0.1842 0.6266
vt 0.1899 0.6248
vt 0.1882 0.6506
vt 0.1832 0.6508
vt 0.1969 0.6248
vt 0.2038 0.6247
vt 0.2003 0.6516
vt 0.1942 0.6511
vt 0.1708 0.6288
vt 0.1785 0.6285
vt 0.1782 0.6509
vt 0.1720 0.6505
vt 0.1548 0.6283
vt 0.1631 0.6292
vt 0.1659 0.6501
vt 0.1583 0.6513
vt 0.0963 0.2096
vt 0.0916 0.2919
vt 0.0845 0.2932
vt 0.0879 0.2102
vt 0.0761 0.2239
vt 0.0857 0.2202
vt 0.0844 0.2776
vt 0.0755 0.2774
vt 0.1344 0.2210
vt 0.1442 0.2223
vt 0.1372 0.2821
vt 0.1283 0.2815
vt 0.1149 0.2198
vt 0.1247 0.2198
vt 0.1194 0.2809
vt 0.1107 0.2800
vt 0.1534 0.2282
vt 0.1627 0.2341
vt 0.1545 0.2829
vt 0.1459 0.2825
vt 0.0955 0.2201
vt 0.1052 0.2199
vt 0.1020 0.2791
vt 0.0932 0.2783
vt 0.3012 0.0309
vt 0.3002 0.0265
vt 0.3070 0.0280
vt 0.3180 0.0312
vt 0.3181 0.0351
vt 0.3123 0.0358
vt 0.3174 0.0090
vt 0.3083 0.0155
vt 0.3064 0.0090
vt 0.3334 0.0606
vt 0.3334 0.0730
vt 0.3278 0.0664
vt 0.3221 0.0722
vt 0.3203 0.0797
vt 0.3180 0.0738
vt 0.3167 0.0645
vt 0.3177 0.0201
vt 0.3151 0.0170
vt 0.3100 0.0853
vt 0.3122 0.0901
vt 0.3052 0.0887
vt 0.3054 0.0820
vt 0.3008 0.0787
vt 0.3031 0.0747
vt 0.3073 0.0770
vt 0.3004 0.0920
vt 0.3073 0.0934
vt 0.3077 0.0996
vt 0.2960 0.0519
vt 0.2986 0.0414
vt 0.3013 0.0461
vt 0.3057 0.0543
vt 0.2921 0.1064
vt 0.2883 0.0972
vt 0.2962 0.0992
vt 0.2845 0.0880
vt 0.2926 0.0834
vt 0.2925 0.0900
vt 0.3290 0.0454
vt 0.3235 0.0383
vt 0.3325 0.0399
vt 0.3359 0.0343
vt 0.3270 0.0327
vt 0.3344 0.0264
vt 0.2948 0.0627
vt 0.3002 0.0667
vt 0.2978 0.0707
vt 0.2898 0.0671
vt 0.2847 0.0715
vt 0.2928 0.0751
vt 0.2846 0.0798
vt 0.3143 0.0949
vt 0.3164 0.0910
vt 0.3238 0.0901
vt 0.2992 0.0220
vt 0.2919 0.0276
vt 0.3128 0.0250
vt 0.3097 0.0327
vt 0.3154 0.0281
vt 0.3277 0.0788
vt 0.3224 0.0587
vt 0.3114 0.0568
vt 0.3126 0.0661
vt 0.3084 0.0637
vt 0.3252 0.0137
vt 0.3119 0.0803
vt 0.3142 0.0862
vt 0.3036 0.1067
vt 0.2903 0.0425
vt 0.3154 0.0568
vt 0.3110 0.0486
vt 0.3169 0.0479
vt 0.3222 0.0511
vt 0.3237 0.0422
vt 0.3031 0.0598
vt 0.3150 0.1071
vt 0.3146 0.1010
vt 0.3241 0.0962
vt 0.2845 0.0332
vt 0.2900 0.0211
vt 0.3248 0.9333
vt 0.3419 0.9324
vt 0.3419 0.9494
vt 0.3281 0.9493
vt 0.3078 0.9343
vt 0.3144 0.9492
vt 0.3012 0.9194
vt 0.3216 0.9173
vt 0.3419 0.9153
vt 0.2973 0.0155
vt 0.2954 0.0090
vt 0.3333 0.0854
vt 0.3055 0.0706
vt 0.3183 0.0391
vt 0.3125 0.0397
vt 0.3067 0.0404
vt 0.2929 0.0320
vt 0.3139 0.0753
vt 0.3185 0.0872
vt 0.3162 0.0812
vt 0.3255 0.0248
vt 0.3329 0.0185
vt 0.3097 0.0730
vt 0.3259 0.0863
vt 0.3060 0.0235
vt 0.3040 0.0356
vt 0.3006 0.0853
vt 0.0871 0.1629
vt 0.0978 0.1618
vt 0.1084 0.1606
vt 0.1512 0.1625
vt 0.1610 0.1738
vt 0.1709 0.1852
vt 0.1191 0.1596
vt 0.1299 0.1587
vt 0.1405 0.1606
vt 0.0664 0.2277
vt 0.0665 0.2771
vt 0.0664 0.1782
vt 0.0767 0.1706
vt 0.1010 0.1272
vt 0.0914 0.1272
vt 0.1105 0.1272
vt 0.1465 0.6274
vt 0.1507 0.6525
vt 0.1424 0.6023
vt 0.1421 0.5857
vt 0.1418 0.5691
vt 0.1523 0.5731
vt 0.1628 0.5770
vt 0.0586 0.5143
vt 0.0506 0.7515
vt 0.1714 0.5823
vt 0.1799 0.5876
vt 0.1830 0.5776
vt 0.1860 0.5676
vt 0.1939 0.5678
vt 0.2018 0.5680
vt 0.1200 0.1279
vt 0.1295 0.1286
vt 0.0620 0.1274
vt 0.0522 0.1273
vt 0.0718 0.1275
vt 0.1392 0.1299
vt 0.1489 0.1312
vt 0.1385 0.2081
vt 0.1281 0.2849
vt 0.0816 0.1274
vt 0.3012 0.9356
vt 0.3012 0.9560
vt 0.3012 0.9152
vt 0.3167 0.9202
vt 0.3321 0.9253
vt 0.4290 0.0155
vt 0.4271 0.0090
vt 0.4650 0.0854
vt 0.4371 0.0706
vt 0.4500 0.0391
vt 0.4442 0.0397
vt 0.4384 0.0404
vt 0.4245 0.0320
vt 0.4455 0.0753
vt 0.4502 0.0872
vt 0.4478 0.0812
vt 0.4571 0.0248
vt 0.4646 0.0185
vt 0.4413 0.0730
vt 0.4576 0.0863
vt 0.4377 0.0235
vt 0.4356 0.0356
vt 0.4322 0.0853
vt 0.1882 0.6506
vt 0.1942 0.6511
vt 0.2003 0.6516
vt 0.1782 0.6509
vt 0.1832 0.6508
vt 0.1572 0.7363
vt 0.1636 0.8201
vt 0.1507 0.6525
vt 0.1583 0.6513
vt 0.1659 0.6501
vt 0.1720 0.6505
vn 0.2652 0.6511 -0.7111
vn -0.1347 0.9807 -0.1414
vn -0.1288 0.9819 -0.1390
vn 0.2604 0.6688 -0.6963
vn 0.4556 -0.7590 -0.4650
vn 0.5203 -0.0932 -0.8489
vn 0.5236 -0.0669 -0.8493
vn 0.4614 -0.7570 -0.4627
vn -0.4562 0.7186 0.5249
vn -0.5103 0.1861 0.8396
vn -0.5066 0.2021 0.8382
vn -0.4455 0.7339 0.5127
vn -0.3679 -0.4088 0.8352
vn 0.0776 -0.9549 0.2865
vn 0.0841 -0.9529 0.2914
vn -0.3650 -0.4010 0.8402
vn -0.2761 0.6435 0.7139
vn -0.0212 0.8764 0.4812
vn -0.3620 0.8721 0.3292
vn -0.6559 0.6795 -0.3288
vn -0.8539 0.5196 0.0315
vn -0.7138 0.6530 0.2530
vn 0.0981 0.7513 -0.6526
vn 0.1928 0.9182 -0.3460
vn 0.4374 0.7205 -0.5382
vn 0.3486 0.4842 -0.8025
vn 0.5773 0.1643 -0.7998
vn 0.7765 -0.0069 -0.6300
vn 0.5812 -0.0956 -0.8081
vn 0.2935 0.2245 -0.9292
vn -0.2988 0.7543 -0.5846
vn -0.1268 0.8931 -0.4316
vn 0.5992 -0.7937 -0.1048
vn 0.6766 -0.7061 0.2087
vn 0.3980 -0.8873 0.2329
vn 0.3898 -0.9075 -0.1562
vn 0.0637 -0.9841 -0.1659
vn 0.1503 -0.8264 -0.5427
vn 0.4159 -0.7667 -0.4891
vn 0.1692 -0.8149 0.5544
vn 0.4549 -0.6872 0.5664
vn 0.2584 -0.4945 0.8299
vn -0.2326 -0.2186 0.9477
vn -0.2715 0.2087 0.9395
vn -0.4936 0.0625 0.8674
vn -0.4019 -0.4375 0.8044
vn -0.0431 -0.5760 0.8163
vn -0.5493 -0.6006 0.5810
vn -0.2550 -0.9389 0.2311
vn -0.1698 -0.8128 0.5572
vn -0.8906 -0.4303 -0.1473
vn -0.9088 0.2525 -0.3320
vn -0.7894 -0.3705 -0.4894
vn -0.6094 -0.2766 -0.7430
vn -0.7165 0.3275 -0.6160
vn -0.3769 0.1475 -0.9144
vn -0.1705 -0.4900 -0.8549
vn -0.2906 -0.8311 -0.4741
vn -0.4391 -0.8905 -0.1193
vn -0.7007 -0.6500 0.2942
vn 0.7825 -0.4021 0.4755
vn 0.9572 -0.2875 0.0347
vn 0.9674 0.1432 0.2090
vn 0.2650 0.9594 0.0962
vn 0.4715 0.6567 0.5886
vn -0.3730 0.9257 -0.0628
vn -0.5846 0.7381 0.3369
vn -0.5303 0.8297 -0.1744
vn 0.6826 0.3525 -0.6402
vn -0.0286 0.5632 -0.8258
vn -0.0588 0.2813 -0.9578
vn 0.3349 -0.0988 -0.9371
vn 0.0642 -0.1468 -0.9871
vn 0.6144 -0.6545 -0.4407
vn 0.7952 -0.5639 -0.2226
vn 0.0082 -0.1580 0.9874
vn -0.6714 -0.1050 0.7336
vn -0.8193 -0.2035 0.5361
vn -0.9915 -0.0555 0.1180
vn 0.4326 0.0442 0.9005
vn 0.6712 -0.2111 0.7106
vn 0.8208 0.4133 0.3944
vn -0.8596 -0.1750 -0.4801
vn -0.6347 0.7057 0.3149
vn -0.1804 0.9688 -0.1697
vn 0.0358 0.5471 -0.8363
vn 0.5909 -0.0147 -0.8066
vn 0.5855 0.0112 -0.8106
vn 0.7621 -0.0437 -0.6460
vn 0.9354 -0.0375 -0.3517
vn -0.0027 0.0112 0.9999
vn -0.0532 -0.0536 0.9971
vn -0.5701 -0.0014 0.8216
vn -0.5686 0.0480 0.8212
vn 0.9640 -0.0488 0.2613
vn 0.9793 -0.1969 0.0467
vn 0.5963 -0.1542 0.7878
vn 0.5936 -0.0255 0.8044
vn -0.9427 0.0670 0.3268
vn -0.9339 0.0268 0.3564
vn -0.9520 0.0226 -0.3054
vn -0.9506 0.0650 -0.3036
vn 0.6013 0.0378 -0.7982
vn -0.0015 0.0126 -0.9999
vn 0.0577 0.0152 -0.9982
vn 0.6054 0.0375 -0.7951
vn 0.0083 0.0144 0.9999
vn 0.5988 0.0441 0.7997
vn 0.6254 0.0413 0.7792
vn -0.0362 0.0131 0.9993
vn -0.6038 -0.0142 -0.7970
vn -0.9534 -0.0279 -0.3006
vn -0.9485 -0.0267 -0.3158
vn -0.5879 -0.0129 -0.8088
vn -0.1404 -0.1965 0.9704
vn 0.5838 -0.5000 0.6397
vn 0.6071 -0.5554 0.5683
vn -0.1192 -0.2571 0.9590
vn -0.9539 -0.0279 0.2989
vn -0.5951 -0.0105 0.8036
vn -0.6652 -0.0129 0.7466
vn -0.9564 -0.0271 0.2909
vn -0.5149 0.3944 0.7612
vn -0.4022 0.0464 0.9144
vn -0.5332 0.0643 0.8436
vn -0.8581 0.4184 0.2977
vn 0.1107 0.5540 -0.8251
vn -0.3226 0.9464 -0.0164
vn -0.6801 0.5099 -0.5268
vn -0.1418 0.3972 -0.9067
vn 0.9533 0.0543 0.2970
vn 0.9514 0.0542 -0.3031
vn 0.9114 0.0515 -0.4084
vn 0.9714 0.0539 0.2311
vn 0.8395 -0.4354 -0.3252
vn 0.5612 0.0013 -0.8276
vn 0.6319 -0.0008 -0.7751
vn 0.8967 -0.4009 -0.1876
vn -0.9497 0.2687 0.1610
vn -0.6420 0.0425 0.7655
vn -0.5606 0.2775 0.7802
vn -0.6737 0.6928 0.2572
vn -0.1160 -0.1762 0.9775
vn 0.6576 -0.3142 0.6847
vn 0.7133 0.0082 0.7008
vn 0.1155 0.3439 0.9319
vn -0.1613 0.2975 -0.9410
vn -0.7440 0.3668 -0.5585
vn -0.6334 0.6245 -0.4569
vn 0.0515 0.7241 -0.6877
vn 0.9762 -0.2020 -0.0792
vn 0.6392 0.0765 -0.7652
vn 0.6612 0.3538 -0.6615
vn 0.9356 0.3505 0.0418
vn -0.5945 0.0439 -0.8029
vn -0.5976 0.0168 -0.8016
vn 0.0086 0.0141 -0.9999
vn -0.0023 0.0146 -0.9999
vn 0.9633 0.1065 0.2465
vn 0.9135 0.0832 -0.3983
vn 0.9489 0.0656 -0.3085
vn 0.9542 0.0664 0.2917
vn -0.9409 -0.0344 0.3369
vn -0.5654 -0.0081 0.8248
vn -0.5985 -0.0156 0.8010
vn -0.9535 -0.0364 0.2991
vn -0.5999 -0.0159 -0.7999
vn -0.9524 -0.0310 -0.3033
vn -0.9530 -0.0363 -0.3009
vn -0.6026 -0.0194 -0.7978
vn 0.0047 0.0310 0.9995
vn 0.5930 0.0778 0.8015
vn 0.5947 0.0483 0.8025
vn 0.0025 0.0101 0.9999
vn 0.5855 0.0450 -0.8095
vn 0.0013 0.0149 -0.9999
vn -0.0035 0.0132 -0.9999
vn 0.5983 0.0444 -0.8001
vn -0.8595 0.3620 0.3609
vn -0.8432 0.5373 -0.0164
vn -0.9805 0.1914 -0.0439
vn -0.8017 -0.4311 -0.4140
vn -0.8810 -0.4727 0.0179
vn -0.9738 -0.2053 0.0979
vn -0.3638 0.0378 -0.9307
vn -0.5312 0.3226 -0.7834
vn -0.1889 0.3514 -0.9170
vn 0.0251 0.0663 -0.9975
vn 0.4020 0.1321 -0.9061
vn 0.5980 0.3097 -0.7393
vn 0.6133 0.0358 -0.7891
vn 0.2376 -0.1340 -0.9621
vn -0.5983 -0.2437 -0.7633
vn -0.6590 0.0180 -0.7519
vn 0.9830 0.1344 0.1253
vn 0.8675 0.3797 0.3213
vn 0.8555 0.1035 0.5074
vn 0.9755 -0.0986 0.1967
vn 0.8640 -0.3905 0.3178
vn 0.8899 -0.4462 -0.0952
vn 0.9700 -0.1873 -0.1547
vn 0.5853 0.1038 0.8041
vn 0.6338 0.3835 0.6718
vn 0.3014 0.4255 0.8533
vn -0.2148 0.1935 0.9573
vn -0.5737 0.3154 0.7560
vn -0.5564 0.0503 0.8294
vn -0.0915 -0.0906 0.9917
vn 0.2081 0.1495 0.9666
vn 0.0214 -0.3756 0.9265
vn 0.5464 -0.4352 0.7156
vn 0.4009 -0.1634 0.9014
vn -0.0946 -0.9368 0.3370
vn -0.5967 -0.7902 -0.1397
vn 0.0074 -1.0000 -0.0043
vn 0.0999 -0.9452 -0.3109
vn -0.4741 -0.7472 -0.4658
vn -0.0652 -0.6878 -0.7229
vn 0.5367 -0.7287 -0.4253
vn 0.6377 -0.7651 0.0888
vn 0.5065 -0.7332 0.4537
vn 0.0593 -0.6529 0.7551
vn 0.6080 0.7044 0.3664
vn 0.7333 0.6719 -0.1039
vn 0.3472 0.9223 -0.1694
vn -0.6484 0.6090 -0.4568
vn -0.4336 0.9003 0.0390
vn -0.9199 0.0127 -0.3919
vn -0.9955 -0.0309 0.0899
vn -0.8968 -0.2016 -0.3938
vn 0.2642 0.3619 -0.8940
vn -0.2339 -0.2158 -0.9480
vn 0.0112 -0.4070 -0.9134
vn 0.5195 -0.2235 -0.8247
vn 0.4262 -0.4804 -0.7665
vn 0.9738 0.0350 -0.2247
vn 0.9381 0.3174 -0.1385
vn -0.1448 0.4263 0.8929
vn -0.4813 -0.2171 0.8493
vn -0.4272 -0.4663 0.7746
vn -0.5211 -0.7511 0.4053
vn -0.0536 0.7956 0.6034
vn 0.3307 0.7997 0.5011
vn 0.0019 0.9946 -0.1040
vn 0.2317 0.9441 0.2347
vn -0.3247 0.7181 -0.6155
vn 0.0525 0.7095 -0.7028
vn 0.7435 -0.4747 -0.4711
vn -0.7422 -0.5236 0.4182
vn -0.7968 -0.2693 0.5409
vn -0.8339 -0.0648 0.5480
vn -0.5523 0.6106 0.5676
vn 0.8262 -0.0563 -0.5606
vn 0.7638 0.4628 -0.4499
vn 0.8287 0.1923 -0.5257
vn -0.4769 -0.4649 -0.7460
vn 0.8011 -0.2606 -0.5388
vn 0.4749 0.6358 -0.6084
vn -0.8113 0.2841 -0.5109
vn -0.8769 0.1341 0.4615
vn 0.7802 -0.1699 0.6021
vn -0.1851 0.1486 0.9714
vn 0.4275 0.4305 0.7949
vn 0.8536 0.4531 -0.2569
vn -0.6018 0.0466 -0.7973
vn -0.0210 0.0135 -0.9997
vn -0.9518 0.0693 -0.2989
vn -0.9509 0.0701 0.3014
vn -0.5899 0.0506 0.8059
vn 0.9465 -0.0375 0.3205
vn 0.5780 -0.0160 0.8158
vn 0.9526 -0.0380 -0.3017
vn 0.0051 0.0158 0.9999
vn 0.5838 -0.0201 -0.8117
vn 0.1931 -0.7977 -0.5713
vn 0.4638 -0.1106 -0.8790
vn 0.0185 -0.9683 0.2490
vn -0.5348 -0.5810 0.6135
vn -0.5534 0.1729 0.8148
vn 0.5705 0.8181 -0.0729
vn 0.7909 0.5565 -0.2544
vn 0.1555 -0.5395 -0.8275
vn -0.9331 0.1978 0.3003
vn -0.7950 0.2755 0.5404
vn -0.6545 0.3766 0.6556
vn 0.0279 0.3906 0.9201
vn 0.5577 -0.4088 -0.7224
vn 0.9053 -0.2220 -0.3621
vn 0.7467 -0.3364 -0.5739
vn -0.4143 0.5681 -0.7110
vn 0.3757 -0.4742 -0.7962
vn 0.9325 0.1478 -0.3294
vn -0.0653 0.9960 -0.0605
vn -0.4950 0.5254 0.6920
vn 0.1135 -0.9732 0.2000
usemtl None
s 1
f 295/1/1 265/2/2 3/3/3 221/4/4
f 294/5/5 223/6/6 4/7/7 214/8/8
f 293/9/9 216/10/10 8/11/11 219/12/12
f 292/13/13 122/14/14 6/15/15 116/16/16
f 9/17/17 107/18/18 153/19/19
f 12/20/20 150/21/21 189/22/22
f 15/23/23 234/24/24 205/25/25
f 15/26/23 205/27/25 253/28/26
f 17/29/27 263/30/28 129/31/29
f 17/29/27 129/31/29 175/32/30
f 15/23/23 236/33/31 145/34/32
f 21/35/33 255/36/34 115/37/35
f 21/35/33 115/37/35 161/38/36
f 24/39/37 118/40/38 172/41/39
f 23/42/40 204/43/41 245/44/42
f 27/45/43 149/46/44 242/47/45
f 27/45/43 242/47/45 181/48/46
f 27/49/43 181/50/46 99/51/47
f 28/52/48 249/53/49 152/54/50
f 29/55/51 144/56/52 88/57/53
f 30/58/54 182/59/55 143/60/56
f 30/61/54 261/62/57 160/63/58
f 30/61/54 160/63/58 88/64/53
f 29/65/51 106/66/59 133/67/60
f 22/68/61 165/69/62 180/70/63
f 10/71/64 107/18/18 192/72/65
f 11/73/66 93/74/67 153/19/19
f 11/73/66 198/75/68 93/74/67
f 15/23/23 145/34/32 234/24/24
f 17/29/27 166/76/69 263/30/28
f 15/26/23 253/28/26 177/77/70
f 20/78/71 174/79/72 124/80/73
f 15/23/23 177/81/70 236/33/31
f 21/35/33 212/82/74 127/83/75
f 21/35/33 127/83/75 255/36/34
f 21/35/33 161/38/36 212/82/74
f 27/49/43 99/51/47 227/84/76
f 27/45/43 227/85/76 149/46/44
f 28/86/48 96/87/77 196/88/78
f 29/55/51 133/89/60 237/90/79
f 29/55/51 237/90/79 144/56/52
f 30/61/54 143/91/56 261/62/57
f 26/92/80 156/93/81 186/94/82
f 26/95/80 186/96/82 192/72/65
f 291/97/83 258/98/84 2/99/85 137/100/86
f 290/101/87 146/102/88 33/103/89 128/104/90
f 289/105/91 256/106/92 37/107/93 114/108/94
f 288/109/95 213/110/96 36/111/97 211/112/98
f 287/113/99 250/114/100 39/115/101 206/116/102
f 286/117/103 141/118/104 43/119/105 185/120/106
f 285/121/107 148/122/108 47/123/109 201/124/110
f 284/125/111 142/126/112 50/127/113 248/128/114
f 283/129/115 121/130/116 51/131/117 230/132/118
f 282/133/119 194/134/120 48/135/121 158/136/122
f 281/137/123 163/138/124 52/139/125 220/140/126
f 280/141/127 131/142/128 54/143/129 176/144/130
f 279/145/131 188/146/132 44/147/133 136/148/134
f 278/149/135 209/150/136 55/151/137 264/152/138
f 277/153/139 132/154/140 56/155/141 266/156/142
f 276/157/143 126/158/144 58/159/145 203/160/146
f 275/161/147 259/162/148 57/163/149 94/164/150
f 274/165/151 254/166/152 59/167/153 193/168/154
f 273/169/155 164/170/156 32/171/157 191/172/158
f 272/173/159 154/174/160 41/175/161 84/176/162
f 271/177/163 147/178/164 45/179/165 140/180/166
f 270/181/167 155/182/168 49/183/169 224/184/170
f 269/185/171 208/186/172 46/187/173 102/188/174
f 268/189/175 120/190/176 42/191/177 95/192/178
f 60/193/179 91/194/180 228/195/181
f 63/196/182 252/197/183 200/198/184
f 66/199/185 159/200/186 257/201/187
f 66/202/185 257/203/187 105/204/188
f 68/205/189 151/206/190 184/207/191
f 68/205/189 184/207/191 233/208/192
f 66/199/185 162/209/193 251/210/194
f 72/211/195 139/212/196 167/213/197
f 72/211/195 167/213/197 207/214/198
f 75/215/199 179/216/200 226/217/201
f 74/218/202 85/219/203 130/220/204
f 78/221/205 262/222/206 82/223/207
f 78/221/205 82/223/207 229/224/208
f 78/225/205 229/226/208 173/227/209
f 79/228/210 119/229/211 215/230/212
f 80/231/213 101/232/214 113/233/215
f 81/234/216 244/235/217 239/236/218
f 81/237/216 134/238/219 217/239/220
f 81/237/216 217/239/220 113/240/215
f 80/241/213 178/242/221 187/243/222
f 73/244/223 231/245/224 243/246/225
f 61/247/226 91/194/180 235/248/227
f 62/249/228 100/250/229 228/195/181
f 62/249/228 199/251/230 100/250/229
f 66/199/185 251/210/194 159/200/186
f 68/205/189 202/252/231 151/206/190
f 66/202/185 105/204/188 241/253/232
f 71/254/233 240/255/234 183/256/235
f 66/199/185 241/257/232 162/209/193
f 72/211/195 97/258/236 190/259/237
f 72/211/195 190/259/237 139/212/196
f 72/211/195 207/214/198 97/258/236
f 78/225/205 173/227/209 90/260/238
f 78/221/205 90/261/238 262/222/206
f 79/262/210 135/263/239 238/264/240
f 80/231/213 187/265/222 197/266/241
f 80/231/213 197/266/241 101/232/214
f 81/237/216 239/267/218 134/238/219
f 77/268/242 222/269/243 225/270/244
f 77/271/242 225/272/244 235/248/227
f 267/273/245 94/274/150 57/275/149 266/276/142
f 203/277/146 267/273/245 266/276/142 56/278/141
f 58/279/145 193/280/154 267/273/245 203/277/146
f 193/280/154 59/281/153 94/274/150 267/273/245
f 235/248/227 110/282/246 61/247/226
f 235/248/227 225/272/244 110/282/246
f 225/272/244 67/283/247 110/282/246
f 225/270/244 243/246/225 67/284/247
f 225/270/244 222/269/243 243/246/225
f 222/269/243 73/244/223 243/246/225
f 134/238/219 183/256/235 76/285/248
f 134/238/219 239/267/218 183/256/235
f 239/267/218 71/254/233 183/256/235
f 101/232/214 252/197/183 63/196/182
f 101/232/214 197/266/241 252/197/183
f 197/266/241 64/286/249 252/197/183
f 197/266/241 238/264/240 64/286/249
f 197/266/241 187/265/222 238/264/240
f 187/265/222 79/262/210 238/264/240
f 238/264/240 111/287/250 64/286/249
f 238/264/240 135/263/239 111/287/250
f 135/263/239 65/288/251 111/287/250
f 262/222/206 138/289/252 60/193/179
f 262/222/206 90/261/238 138/289/252
f 90/261/238 77/271/242 138/289/252
f 90/260/238 130/220/204 77/268/242
f 90/260/238 173/227/209 130/220/204
f 173/227/209 74/218/202 130/220/204
f 97/258/236 226/217/201 70/290/253
f 97/258/236 207/214/198 226/217/201
f 207/214/198 75/215/199 226/217/201
f 139/212/196 231/245/224 73/244/223
f 139/212/196 190/259/237 231/245/224
f 190/259/237 69/291/254 231/245/224
f 190/259/237 104/292/255 69/291/254
f 190/259/237 97/258/236 104/292/255
f 97/258/236 70/290/253 104/292/255
f 162/209/193 123/293/256 63/196/182
f 162/209/193 241/257/232 123/293/256
f 241/257/232 71/294/233 123/293/256
f 183/256/235 83/295/257 76/285/248
f 183/256/235 240/255/234 83/295/257
f 240/255/234 70/290/253 83/295/257
f 241/253/232 233/208/192 71/254/233
f 241/253/232 105/204/188 233/208/192
f 105/204/188 68/205/189 233/208/192
f 151/206/190 247/296/258 69/291/254
f 151/206/190 202/252/231 247/296/258
f 202/252/231 67/284/247 247/296/258
f 159/200/186 157/297/259 61/247/226
f 159/200/186 251/210/194 157/297/259
f 251/210/194 62/249/228 157/297/259
f 100/250/229 200/198/184 65/288/251
f 100/250/229 199/251/230 200/198/184
f 199/251/230 63/196/182 200/198/184
f 228/195/181 89/298/260 60/193/179
f 228/195/181 100/250/229 89/298/260
f 100/250/229 65/288/251 89/298/260
f 235/248/227 138/289/252 77/271/242
f 235/248/227 91/194/180 138/289/252
f 91/194/180 60/193/179 138/289/252
f 243/246/225 247/296/258 67/284/247
f 243/246/225 231/245/224 247/296/258
f 231/245/224 69/291/254 247/296/258
f 187/243/222 119/229/211 79/228/210
f 187/243/222 178/242/221 119/229/211
f 178/242/221 75/215/199 119/229/211
f 113/240/215 178/242/221 80/241/213
f 113/240/215 217/239/220 178/242/221
f 217/239/220 75/215/199 178/242/221
f 217/239/220 179/216/200 75/215/199
f 217/239/220 134/238/219 179/216/200
f 134/238/219 76/285/248 179/216/200
f 239/236/218 123/293/256 71/294/233
f 239/236/218 244/235/217 123/293/256
f 244/235/217 63/196/182 123/293/256
f 113/233/215 244/235/217 81/234/216
f 113/233/215 101/232/214 244/235/217
f 101/232/214 63/196/182 244/235/217
f 215/230/212 232/299/261 74/218/202
f 215/230/212 119/229/211 232/299/261
f 119/229/211 75/215/199 232/299/261
f 173/227/209 215/230/212 74/218/202
f 173/227/209 229/226/208 215/230/212
f 229/226/208 79/228/210 215/230/212
f 229/224/208 135/263/239 79/262/210
f 229/224/208 82/223/207 135/263/239
f 82/223/207 65/288/251 135/263/239
f 82/223/207 89/298/260 65/288/251
f 82/223/207 262/222/206 89/298/260
f 262/222/206 60/193/179 89/298/260
f 130/220/204 222/269/243 77/268/242
f 130/220/204 85/219/203 222/269/243
f 85/219/203 73/244/223 222/269/243
f 226/217/201 83/295/257 70/290/253
f 226/217/201 179/216/200 83/295/257
f 179/216/200 76/285/248 83/295/257
f 207/214/198 232/299/261 75/215/199
f 207/214/198 167/213/197 232/299/261
f 167/213/197 74/218/202 232/299/261
f 167/213/197 85/219/203 74/218/202
f 167/213/197 139/212/196 85/219/203
f 139/212/196 73/244/223 85/219/203
f 251/210/194 199/251/230 62/249/228
f 251/210/194 162/209/193 199/251/230
f 162/209/193 63/196/182 199/251/230
f 233/208/192 240/255/234 71/254/233
f 233/208/192 184/207/191 240/255/234
f 184/207/191 70/290/253 240/255/234
f 184/207/191 104/292/255 70/290/253
f 184/207/191 151/206/190 104/292/255
f 151/206/190 69/291/254 104/292/255
f 105/204/188 202/252/231 68/205/189
f 105/204/188 257/203/187 202/252/231
f 257/203/187 67/284/247 202/252/231
f 257/201/187 110/282/246 67/283/247
f 257/201/187 159/200/186 110/282/246
f 159/200/186 61/247/226 110/282/246
f 200/198/184 111/287/250 65/288/251
f 200/198/184 252/197/183 111/287/250
f 252/197/183 64/286/249 111/287/250
f 228/195/181 157/297/259 62/249/228
f 228/195/181 91/194/180 157/297/259
f 91/194/180 61/247/226 157/297/259
f 154/174/160 268/189/175 95/192/178 41/175/161
f 33/300/89 146/301/88 268/189/175 154/174/160
f 146/301/88 32/302/157 120/190/176 268/189/175
f 147/178/164 269/185/171 102/188/174 45/179/165
f 37/303/93 108/304/262 269/185/171 147/178/164
f 108/304/262 53/305/263 208/186/172 269/185/171
f 120/190/176 270/181/167 224/184/170 42/191/177
f 32/302/157 164/306/156 270/181/167 120/190/176
f 164/306/156 39/307/101 155/182/168 270/181/167
f 155/182/168 271/177/163 140/180/166 49/183/169
f 39/307/101 250/308/100 271/177/163 155/182/168
f 250/308/100 37/303/93 147/178/164 271/177/163
f 208/309/172 272/173/159 84/176/162 46/310/173
f 53/311/263 125/312/264 272/173/159 208/309/172
f 125/312/264 33/300/89 154/174/160 272/173/159
f 117/313/265 273/169/155 191/172/158 31/314/266
f 40/315/267 206/116/102 273/169/155 117/313/265
f 206/116/102 39/115/101 164/170/156 273/169/155
f 126/316/144 274/165/151 193/168/154 58/317/145
f 51/318/117 264/152/138 274/165/151 126/316/144
f 264/152/138 55/151/137 254/166/152 274/165/151
f 254/166/152 275/161/147 94/164/150 59/167/153
f 55/151/137 176/144/130 275/161/147 254/166/152
f 176/144/130 54/143/129 259/162/148 275/161/147
f 132/154/140 276/157/143 203/160/146 56/155/141
f 52/139/125 230/132/118 276/157/143 132/154/140
f 230/132/118 51/131/117 126/158/144 276/157/143
f 259/162/148 277/153/139 266/156/142 57/163/149
f 54/143/129 220/140/126 277/153/139 259/162/148
f 220/140/126 52/139/125 132/154/140 277/153/139
f 121/319/116 278/149/135 264/152/138 51/318/117
f 36/320/97 213/321/96 278/149/135 121/319/116
f 213/321/96 33/322/89 209/150/136 278/149/135
f 148/323/108 279/145/131 136/148/134 47/324/109
f 46/310/173 84/176/162 279/145/131 148/323/108
f 84/176/162 41/175/161 188/146/132 279/145/131
f 209/150/136 280/141/127 176/144/130 55/151/137
f 33/322/89 125/325/264 280/141/127 209/150/136
f 125/325/264 53/326/263 131/142/128 280/141/127
f 131/142/128 281/137/123 220/140/126 54/143/129
f 53/326/263 108/327/262 281/137/123 131/142/128
f 108/327/262 37/328/93 163/138/124 281/137/123
f 142/126/112 282/133/119 158/136/122 50/127/113
f 49/183/169 140/180/166 282/133/119 142/126/112
f 140/180/166 45/179/165 194/134/120 282/133/119
f 163/138/124 283/129/115 230/132/118 52/139/125
f 37/328/93 256/329/92 283/129/115 163/138/124
f 256/329/92 36/330/97 121/130/116 283/129/115
f 141/118/104 284/125/111 248/128/114 43/119/105
f 42/191/177 224/184/170 284/125/111 141/118/104
f 224/184/170 49/183/169 142/126/112 284/125/111
f 194/134/120 285/121/107 201/124/110 48/135/121
f 45/179/165 102/188/174 285/121/107 194/134/120
f 102/188/174 46/187/173 148/122/108 285/121/107
f 188/146/132 286/117/103 185/120/106 44/147/133
f 41/175/161 95/192/178 286/117/103 188/146/132
f 95/192/178 42/191/177 141/118/104 286/117/103
f 103/331/268 287/113/99 206/116/102 40/315/267
f 38/332/269 114/108/94 287/113/99 103/331/268
f 114/108/94 37/107/93 250/114/100 287/113/99
f 170/333/270 288/109/95 211/112/98 35/334/271
f 34/335/272 128/104/90 288/109/95 170/333/270
f 128/104/90 33/103/89 213/110/96 288/109/95
f 109/336/273 289/105/91 114/108/94 38/332/269
f 35/337/271 211/338/98 289/105/91 109/336/273
f 211/338/98 36/339/97 256/106/92 289/105/91
f 195/340/274 290/101/87 128/104/90 34/335/272
f 31/314/266 191/172/158 290/101/87 195/340/274
f 191/172/158 32/171/157 146/102/88 290/101/87
f 260/341/275 291/97/83 137/100/86 1/342/276
f 5/343/277 169/344/278 291/97/83 260/341/275
f 169/344/278 7/345/279 258/98/84 291/97/83
f 192/72/65 87/346/280 10/71/64
f 192/72/65 186/96/82 87/346/280
f 186/96/82 16/347/281 87/346/280
f 186/94/82 180/70/63 16/348/281
f 186/94/82 156/93/81 180/70/63
f 156/93/81 22/68/61 180/70/63
f 261/62/57 124/80/73 25/349/282
f 261/62/57 143/91/56 124/80/73
f 143/91/56 20/78/71 124/80/73
f 144/56/52 150/21/21 12/20/20
f 144/56/52 237/90/79 150/21/21
f 237/90/79 13/350/283 150/21/21
f 237/90/79 196/88/78 13/350/283
f 237/90/79 133/89/60 196/88/78
f 133/89/60 28/86/48 196/88/78
f 196/88/78 112/351/284 13/350/283
f 196/88/78 96/87/77 112/351/284
f 96/87/77 14/352/285 112/351/284
f 149/46/44 98/353/286 9/17/17
f 149/46/44 227/85/76 98/353/286
f 227/85/76 26/95/80 98/353/286
f 227/84/76 245/44/42 26/92/80
f 227/84/76 99/51/47 245/44/42
f 99/51/47 23/42/40 245/44/42
f 212/82/74 172/41/39 19/354/287
f 212/82/74 161/38/36 172/41/39
f 161/38/36 24/39/37 172/41/39
f 255/36/34 165/69/62 22/68/61
f 255/36/34 127/83/75 165/69/62
f 127/83/75 18/355/288 165/69/62
f 127/83/75 218/356/289 18/355/288
f 127/83/75 212/82/74 218/356/289
f 212/82/74 19/354/287 218/356/289
f 236/33/31 86/357/290 12/20/20
f 236/33/31 177/81/70 86/357/290
f 177/81/70 20/358/71 86/357/290
f 124/80/73 210/359/291 25/349/282
f 124/80/73 174/79/72 210/359/291
f 174/79/72 19/354/287 210/359/291
f 177/77/70 175/32/30 20/78/71
f 177/77/70 253/28/26 175/32/30
f 253/28/26 17/29/27 175/32/30
f 263/30/28 171/360/292 18/355/288
f 263/30/28 166/76/69 171/360/292
f 166/76/69 16/348/281 171/360/292
f 234/24/24 246/361/293 10/71/64
f 234/24/24 145/34/32 246/361/293
f 145/34/32 11/73/66 246/361/293
f 93/74/67 189/22/22 14/352/285
f 93/74/67 198/75/68 189/22/22
f 198/75/68 12/20/20 189/22/22
f 153/19/19 92/362/294 9/17/17
f 153/19/19 93/74/67 92/362/294
f 93/74/67 14/352/285 92/362/294
f 192/72/65 98/353/286 26/95/80
f 192/72/65 107/18/18 98/353/286
f 107/18/18 9/17/17 98/353/286
f 180/70/63 171/360/292 16/348/281
f 180/70/63 165/69/62 171/360/292
f 165/69/62 18/355/288 171/360/292
f 133/67/60 249/53/49 28/52/48
f 133/67/60 106/66/59 249/53/49
f 106/66/59 24/39/37 249/53/49
f 88/64/53 106/66/59 29/65/51
f 88/64/53 160/63/58 106/66/59
f 160/63/58 24/39/37 106/66/59
f 160/63/58 118/40/38 24/39/37
f 160/63/58 261/62/57 118/40/38
f 261/62/57 25/349/282 118/40/38
f 143/60/56 86/357/290 20/358/71
f 143/60/56 182/59/55 86/357/290
f 182/59/55 12/20/20 86/357/290
f 88/57/53 182/59/55 30/58/54
f 88/57/53 144/56/52 182/59/55
f 144/56/52 12/20/20 182/59/55
f 152/54/50 168/363/295 23/42/40
f 152/54/50 249/53/49 168/363/295
f 249/53/49 24/39/37 168/363/295
f 99/51/47 152/54/50 23/42/40
f 99/51/47 181/50/46 152/54/50
f 181/50/46 28/52/48 152/54/50
f 181/48/46 96/87/77 28/86/48
f 181/48/46 242/47/45 96/87/77
f 242/47/45 14/352/285 96/87/77
f 242/47/45 92/362/294 14/352/285
f 242/47/45 149/46/44 92/362/294
f 149/46/44 9/17/17 92/362/294
f 245/44/42 156/93/81 26/92/80
f 245/44/42 204/43/41 156/93/81
f 204/43/41 22/68/61 156/93/81
f 172/41/39 210/359/291 19/354/287
f 172/41/39 118/40/38 210/359/291
f 118/40/38 25/349/282 210/359/291
f 161/38/36 168/363/295 24/39/37
f 161/38/36 115/37/35 168/363/295
f 115/37/35 23/42/40 168/363/295
f 115/37/35 204/43/41 23/42/40
f 115/37/35 255/36/34 204/43/41
f 255/36/34 22/68/61 204/43/41
f 145/34/32 198/75/68 11/73/66
f 145/34/32 236/33/31 198/75/68
f 236/33/31 12/20/20 198/75/68
f 175/32/30 174/79/72 20/78/71
f 175/32/30 129/31/29 174/79/72
f 129/31/29 19/354/287 174/79/72
f 129/31/29 218/356/289 19/354/287
f 129/31/29 263/30/28 218/356/289
f 263/30/28 18/355/288 218/356/289
f 253/28/26 166/76/69 17/29/27
f 253/28/26 205/27/25 166/76/69
f 205/27/25 16/348/281 166/76/69
f 205/25/25 87/346/280 16/347/281
f 205/25/25 234/24/24 87/346/280
f 234/24/24 10/71/64 87/346/280
f 189/22/22 112/351/284 14/352/285
f 189/22/22 150/21/21 112/351/284
f 150/21/21 13/350/283 112/351/284
f 153/19/19 246/361/293 11/73/66
f 153/19/19 107/18/18 246/361/293
f 107/18/18 10/71/64 246/361/293
f 216/10/10 292/13/13 116/16/16 8/11/11
f 7/364/279 169/365/278 292/13/13 216/10/10
f 169/365/278 5/366/277 122/14/14 292/13/13
f 265/2/2 293/9/9 219/12/12 3/3/3
f 2/367/85 258/368/84 293/9/9 265/2/2
f 258/368/84 7/364/279 216/10/10 293/9/9
f 122/369/14 294/5/5 214/8/8 6/370/15
f 5/371/277 260/372/275 294/5/5 122/369/14
f 260/372/275 1/373/276 223/6/6 294/5/5
f 223/6/6 295/1/1 221/4/4 4/7/7
f 1/373/276 137/374/86 295/1/1 223/6/6
f 137/374/86 2/367/85 265/2/2 295/1/1
