# Blender v2.78 (sub 0) OBJ File: ''
# www.blender.org
mtllib Birch_Tree_NoLeaves_m_04.mtl
o Birch_Tree_NoLeaves_m_04
v 0.105130 0.104982 -0.037285
v 0.104054 1.357479 -0.034254
v 0.070142 1.357517 0.070115
v 0.065312 0.104982 0.085264
v -0.063545 0.104982 0.085264
v -0.046235 1.399457 0.066700
v -0.086945 1.310482 -0.035650
v -0.103422 0.102590 -0.037294
v 0.000883 0.104982 -0.113025
v 0.007194 1.399415 -0.097736
v 0.161876 2.312927 -0.030668
v 0.133150 2.313521 0.057749
v 0.040194 2.315214 0.057760
v 0.014848 2.335830 -0.029742
v -0.026378 1.742604 -0.021676
v 0.086672 2.314253 -0.085303
v -0.184922 1.948325 0.023802
v -0.223545 1.920812 -0.051731
v 0.151489 3.522722 -0.072995
v 0.210770 3.522105 -0.029905
v 0.188127 3.522762 0.039811
v 0.114852 3.523788 0.039811
v 0.092209 3.523765 -0.029905
v 0.091712 5.000601 -0.048385
v 0.124114 5.004411 -0.072280
v 0.157910 5.009051 -0.048251
v 0.145178 5.007872 -0.008636
v 0.103979 5.002613 -0.008508
v -0.026322 6.509624 -0.065058
v -0.018856 6.447307 -0.087744
v -0.001607 6.513038 -0.083282
v -0.007116 6.512509 -0.064657
v -0.120040 1.988885 -0.036105
v -0.476234 2.839753 -0.033684
v -0.524299 2.812616 0.011614
v -0.147237 1.948740 -0.092338
v -0.549605 2.785246 -0.045739
v -0.496550 2.818393 -0.076128
v -0.987225 3.674679 -0.011407
v -1.021320 3.656694 0.021523
v -1.039459 3.635010 -0.018498
v -1.001805 3.657821 -0.041012
v -1.482135 4.537089 -0.060359
v -1.478648 4.544940 -0.049480
v -1.493155 4.525258 -0.051179
v -1.488869 4.535236 -0.036548
v -1.252680 4.142373 -0.030110
v 0.098239 4.249861 -0.037789
v 0.121919 2.902104 -0.078855
v -1.274328 4.128777 -0.007505
v 0.153804 5.008801 -0.027709
v 0.119289 3.523276 -0.054974
v 0.066811 0.692189 0.079568
v 0.066301 5.818198 -0.038526
v 0.047546 2.325102 -0.061946
v -1.490222 4.559322 -0.055781
v -1.285251 4.113040 -0.034309
v -0.992150 3.667555 -0.028026
v -0.311353 2.375526 -0.085198
v -0.285401 2.397007 -0.036170
v 0.101218 5.075150 -0.063453
v 0.022321 2.325625 0.015699
v 0.131141 1.840165 -0.032380
v 0.190999 4.253463 -0.037896
v 0.054235 2.903559 -0.029675
v 0.000883 0.104982 0.095815
v -1.261478 4.130136 -0.049910
v 0.127487 2.313524 -0.062410
v -0.055184 0.691292 0.079564
v -0.007300 6.543861 -0.074877
v 0.063429 1.357524 -0.071690
v 0.099388 3.523864 0.006298
v 0.000435 1.851471 0.064278
v -0.376231 2.344616 -0.050225
v -0.208946 1.933003 -0.010791
v -0.343831 2.372241 0.016009
v 0.075189 5.819128 -0.066765
v 0.189603 2.900901 -0.029676
v -1.500603 4.548326 -0.044695
v 0.142409 5.006911 -0.062215
v 0.093191 1.357498 0.019910
v -0.498837 2.827770 -0.007838
v 0.095586 5.001287 -0.027695
v -0.145076 1.628924 -0.043734
v -0.093198 0.678214 -0.036486
v -0.524506 2.800234 -0.064130
v 0.163750 2.901612 0.049896
v 0.095256 0.104982 0.027250
v -0.009703 1.625116 -0.063670
v 0.183689 3.522346 -0.054973
v -0.015475 6.542432 -0.087308
v 0.080088 2.903255 0.049897
v 0.005803 0.691292 -0.108132
v 0.124578 5.005271 -0.006170
v -0.057471 0.103786 -0.083696
v -1.497264 4.549312 -0.056594
v -1.032755 3.644547 0.003329
v -0.065638 1.665828 -0.095155
v -0.019862 6.542126 -0.065615
v 0.203591 3.522359 0.006299
v -0.038584 1.625147 0.025215
v 0.015271 1.357574 0.076523
v 0.059209 0.104982 -0.083691
v -0.483190 2.831081 -0.057325
v 0.151489 3.523296 0.044166
v -0.006174 1.998744 -0.025289
v 0.099887 1.840475 0.063817
v -0.789895 3.207662 -0.030826
v -0.768163 3.232616 0.018187
v 0.037024 5.813880 -0.038601
v -1.003186 3.666950 0.007333
v 0.053332 5.740041 -0.079580
v 0.039317 5.738137 -0.069225
v 0.152713 2.313123 0.015230
v -0.726930 3.255667 -0.021188
v -0.128927 1.970378 -0.067396
v 0.144618 4.251386 -0.071683
v -0.075408 1.321766 0.018278
v 0.104503 0.692189 -0.036435
v 0.173283 4.253182 0.016864
v 0.051006 1.850969 -0.091373
v -1.493561 4.558337 -0.043882
v -1.021718 3.645153 -0.032030
v -0.744389 3.236235 -0.057442
v -0.540153 2.796923 -0.014644
v -0.110551 1.665833 0.043071
v -0.093519 0.103786 0.027246
v -0.187707 1.933210 -0.076234
v -0.150165 1.970171 -0.001952
v 0.086672 2.314371 0.063223
v -0.045885 1.321766 -0.072586
v 0.115954 4.250958 0.016930
v -0.063643 1.824390 -0.028611
v -0.029047 6.540559 -0.077300
v -0.027252 6.635422 -0.079068
v -1.524545 4.608404 -0.052776
v -1.281247 4.119924 -0.019681
v -1.262871 4.136473 -0.017312
v -1.273997 4.120690 -0.043605
v -1.255622 4.137239 -0.041236
v -0.732876 3.247608 -0.041432
v -0.768399 3.220524 -0.046870
v -0.781812 3.218483 -0.004202
v -0.746289 3.245566 0.001236
v -0.363988 2.356642 -0.014312
v -0.294421 2.388053 -0.063480
v -0.106528 1.641104 -0.074365
v -0.060586 1.751381 -0.065833
v -0.345665 2.358496 -0.071410
v -0.085925 1.751384 0.012151
v 0.019771 1.929927 -0.062907
v -0.312744 2.386199 -0.006382
v 0.072508 5.818930 -0.052194
v 0.051546 5.816046 -0.036726
v 0.062466 5.817119 -0.075591
v 0.032621 5.813031 -0.053559
v 0.144618 4.252095 0.020276
v 0.169787 4.252480 -0.057526
v 0.103896 4.250294 -0.009381
v 0.185342 4.253455 -0.009475
v 0.119450 4.250525 -0.057468
v 0.062490 2.903503 0.011629
v 0.181348 2.901169 0.011628
v 0.085190 2.902878 -0.058238
v 0.121919 2.902446 0.054808
v 0.158648 2.901436 -0.058239
v -0.131867 1.641107 0.003618
v 0.049316 1.840934 0.069758
v 0.093719 1.840493 -0.066908
v -0.007671 1.930200 0.021557
v 0.121161 1.840269 0.017553
v -0.047918 0.684304 -0.078103
v 0.005825 0.692189 0.086728
v 0.059373 0.692189 -0.078075
v -0.081012 0.684304 0.023750
v 0.092467 0.692189 0.023779
vt 0.1232 0.2361
vt 0.1228 0.3418
vt 0.1137 0.3417
vt 0.1131 0.2360
vt 0.0829 0.2351
vt 0.0866 0.3392
vt 0.0775 0.3371
vt 0.0728 0.2342
vt 0.1434 0.2362
vt 0.1409 0.3417
vt 0.1319 0.3419
vt 0.1332 0.2362
vt 0.1031 0.2360
vt 0.1047 0.3415
vt 0.0957 0.3413
vt 0.0930 0.2359
vt 0.1636 0.2354
vt 0.1591 0.3396
vt 0.1500 0.3416
vt 0.1535 0.2362
vt 0.0816 0.5701
vt 0.0820 0.6324
vt 0.0752 0.6324
vt 0.0741 0.5701
vt 0.0531 0.5820
vt 0.0548 0.6323
vt 0.0480 0.6325
vt 0.0471 0.5943
vt 0.0965 0.5700
vt 0.0957 0.6323
vt 0.0889 0.6325
vt 0.0890 0.5702
vt 0.0667 0.5699
vt 0.0684 0.6322
vt 0.0616 0.6320
vt 0.0592 0.5697
vt 0.1666 0.5511
vt 0.1736 0.5518
vt 0.1746 0.5898
vt 0.1682 0.5890
vt 0.0949 0.7137
vt 0.0941 0.7951
vt 0.0887 0.7950
vt 0.0888 0.7138
vt 0.0704 0.7137
vt 0.0724 0.7952
vt 0.0670 0.7953
vt 0.0643 0.7136
vt 0.1071 0.7137
vt 0.1049 0.7953
vt 0.0995 0.7951
vt 0.1010 0.7136
vt 0.0826 0.7137
vt 0.0833 0.7950
vt 0.0778 0.7950
vt 0.0765 0.7137
vt 0.0582 0.7139
vt 0.0616 0.7956
vt 0.0562 0.7959
vt 0.0521 0.7142
vt 0.1008 0.8957
vt 0.0967 0.9962
vt 0.0937 0.9963
vt 0.0966 0.8957
vt 0.0840 0.8958
vt 0.0847 0.9965
vt 0.0817 0.9965
vt 0.0798 0.8958
vt 0.0671 0.8959
vt 0.0726 0.9962
vt 0.0696 0.9962
vt 0.0629 0.8960
vt 0.0924 0.8957
vt 0.0907 0.9964
vt 0.0877 0.9966
vt 0.0882 0.8958
vt 0.0755 0.8957
vt 0.0786 0.9963
vt 0.0756 0.9961
vt 0.0713 0.8957
vt 0.1672 0.8841
vt 0.1704 0.9961
vt 0.1684 0.9962
vt 0.1648 0.8842
vt 0.1822 0.8843
vt 0.1822 0.9961
vt 0.1802 0.9962
vt 0.1797 0.8844
vt 0.1722 0.8842
vt 0.1743 0.9961
vt 0.1723 0.9960
vt 0.1697 0.8841
vt 0.1912 0.7720
vt 0.1876 0.8840
vt 0.1882 0.7722
vt 0.1772 0.8843
vt 0.1782 0.9962
vt 0.1763 0.9961
vt 0.1747 0.8843
vt 0.1780 0.6547
vt 0.1839 0.6551
vt 0.1798 0.7199
vt 0.1748 0.7194
vt 0.1106 0.5819
vt 0.1172 0.5939
vt 0.1162 0.6320
vt 0.1093 0.6321
vt 0.1811 0.5634
vt 0.1885 0.5749
vt 0.1879 0.5902
vt 0.1813 0.5900
vt 0.1977 0.6544
vt 0.2034 0.6546
vt 0.1966 0.7184
vt 0.1917 0.7185
vt 0.1957 0.5634
vt 0.2029 0.5518
vt 0.1973 0.5896
vt 0.1926 0.5899
vt 0.2100 0.5526
vt 0.2171 0.5533
vt 0.2102 0.5909
vt 0.2037 0.5903
vt 0.1880 0.6546
vt 0.1921 0.6542
vt 0.1868 0.7187
vt 0.1833 0.7193
vt 0.1666 0.6533
vt 0.1722 0.6544
vt 0.1698 0.7189
vt 0.1650 0.7177
vt 0.1717 0.7853
vt 0.1761 0.7855
vt 0.1723 0.8512
vt 0.1686 0.8512
vt 0.1632 0.7840
vt 0.1673 0.7851
vt 0.1649 0.8512
vt 0.1614 0.8504
vt 0.1865 0.7846
vt 0.1907 0.7846
vt 0.1848 0.8509
vt 0.1812 0.8506
vt 0.1791 0.7851
vt 0.1822 0.7845
vt 0.1776 0.8504
vt 0.1750 0.8508
vt 0.1695 0.9248
vt 0.1714 0.9244
vt 0.1653 0.9984
vt 0.1641 0.9988
vt 0.1739 0.9243
vt 0.1763 0.9243
vt 0.1678 0.9976
vt 0.1665 0.9980
vt 0.1652 0.9251
vt 0.1676 0.9252
vt 0.1629 0.9993
vt 0.1618 0.9989
vt 0.1604 0.9242
vt 0.1628 0.9248
vt 0.1606 0.9985
vt 0.1594 0.9979
vt 0.0191 0.9432
vt 0.0178 0.9432
vt 0.0178 0.9419
vt 0.0191 0.9421
vt 0.0193 0.8415
vt 0.0195 0.8431
vt 0.0178 0.8433
vt 0.0178 0.8416
vt 0.0192 0.8400
vt 0.0178 0.8399
vt 0.0206 0.8401
vt 0.0209 0.8414
vt 0.0212 0.8428
vt 0.0204 0.9432
vt 0.0204 0.9423
vt 0.0203 0.9441
vt 0.0191 0.9442
vt 0.0178 0.9444
vt 0.1581 0.9235
vt 0.1582 0.9974
vt 0.1579 0.8496
vt 0.1591 0.7831
vt 0.1603 0.7165
vt 0.1610 0.6523
vt 0.1617 0.5882
vt 0.2085 0.5140
vt 0.2163 0.5149
vt 0.2240 0.5157
vt 0.1892 0.5596
vt 0.1989 0.5368
vt 0.1726 0.5139
vt 0.1809 0.5367
vt 0.1039 0.5698
vt 0.1025 0.6321
vt 0.1053 0.5076
vt 0.1118 0.5317
vt 0.1183 0.5558
vt 0.1761 0.7725
vt 0.1731 0.7724
vt 0.1792 0.7726
vt 0.1847 0.8842
vt 0.1852 0.7723
vt 0.1841 0.9960
vt 0.1701 0.7722
vt 0.1671 0.7721
vt 0.1822 0.7724
vt 0.1641 0.7721
vt 0.1611 0.7722
vt 0.1103 0.7955
vt 0.1050 0.8957
vt 0.0998 0.9960
vt 0.1133 0.7138
vt 0.1595 0.5504
vt 0.1573 0.5127
vt 0.1649 0.5133
vt 0.0649 0.5076
vt 0.0568 0.5074
vt 0.0730 0.5077
vt 0.0972 0.5078
vt 0.0892 0.5079
vt 0.0515 0.5318
vt 0.0462 0.5562
vt 0.0811 0.5078
vt 0.1680 0.1313
vt 0.1569 0.1309
vt 0.1792 0.1317
vt 0.1737 0.2346
vt 0.1682 0.3375
vt 0.1014 0.1305
vt 0.0903 0.1305
vt 0.1125 0.1304
vt 0.1458 0.1307
vt 0.1346 0.1305
vt 0.0792 0.1309
vt 0.0680 0.1313
vt 0.1235 0.1305
vn 0.9510 0.0023 0.3090
vn 0.9505 -0.0264 0.3095
vn 0.5820 -0.0081 0.8132
vn 0.5872 0.0089 0.8094
vn -0.9469 0.0163 0.3211
vn -0.9261 -0.0502 0.3739
vn -0.9473 -0.0705 -0.3124
vn -0.9509 0.0156 -0.3092
vn 0.5802 0.0056 -0.8145
vn 0.5692 -0.0088 -0.8221
vn 0.9498 -0.0254 -0.3117
vn 0.9510 0.0030 -0.3093
vn -0.0040 0.0146 0.9999
vn -0.0091 0.0147 0.9999
vn -0.4948 -0.0249 0.8686
vn -0.5809 0.0191 0.8137
vn -0.5805 0.0124 -0.8142
vn -0.5434 -0.0376 -0.8386
vn 0.0441 -0.0278 -0.9986
vn -0.0014 0.0113 -0.9999
vn 0.9494 -0.0576 0.3088
vn 0.9497 -0.0531 0.3087
vn 0.5891 -0.0255 0.8077
vn 0.5863 -0.0282 0.8096
vn -0.9733 0.0865 0.2127
vn -0.9592 0.0718 0.2736
vn -0.9496 0.0656 -0.3064
vn -0.9515 0.0683 -0.3000
vn 0.5767 -0.0292 -0.8164
vn 0.5928 -0.0299 -0.8048
vn 0.9496 -0.0556 -0.3085
vn 0.9483 -0.0558 -0.3124
vn -0.0021 0.0136 0.9999
vn 0.0022 0.0140 0.9999
vn -0.5964 0.0558 0.8008
vn -0.6079 0.0681 0.7911
vn -0.8708 -0.1729 0.4603
vn -0.2751 0.0185 0.9612
vn -0.1668 -0.0125 0.9859
vn -0.8334 -0.2471 0.4944
vn 0.5879 -0.0195 -0.8087
vn 0.5896 -0.0056 -0.8077
vn 0.9524 -0.0051 -0.3047
vn 0.9506 -0.0384 -0.3080
vn 0.0008 0.0157 0.9999
vn 0.0024 0.0249 0.9997
vn -0.5807 0.0362 0.8133
vn -0.5866 0.0481 0.8085
vn -0.5908 0.0402 -0.8058
vn -0.5869 0.0169 -0.8095
vn 0.0088 0.0054 -0.9999
vn -0.0034 0.0100 -0.9999
vn 0.9503 -0.0379 0.3090
vn 0.9512 -0.0005 0.3086
vn 0.5929 0.0134 0.8051
vn 0.5886 -0.0150 0.8083
vn -0.9504 0.0637 0.3045
vn -0.9502 0.0359 0.3096
vn -0.9503 0.0314 -0.3099
vn -0.9490 0.0624 -0.3089
vn -0.5933 -0.0098 -0.8049
vn -0.5849 -0.0589 -0.8090
vn 0.0028 0.0008 -1.0000
vn 0.0130 0.0002 -0.9999
vn 0.9507 0.0387 0.3077
vn 0.9491 0.0758 0.3057
vn 0.5917 0.0678 0.8033
vn 0.5893 0.0432 0.8068
vn -0.9521 0.0047 0.3057
vn -0.9648 -0.0353 0.2606
vn -0.9500 -0.0342 -0.3105
vn -0.9559 -0.0047 -0.2935
vn 0.5866 0.0122 -0.8098
vn 0.5508 0.0266 -0.8342
vn 0.9437 0.0632 -0.3246
vn 0.9505 0.0299 -0.3092
vn 0.0004 0.0348 0.9994
vn -0.0013 0.0360 0.9993
vn -0.5973 -0.0019 0.8020
vn -0.5869 0.0223 0.8093
vn -0.9925 -0.0793 0.0928
vn -0.9890 0.0366 -0.1433
vn -0.5865 -0.0548 -0.8081
vn -0.9012 -0.0788 -0.4262
vn 0.3949 0.0258 -0.9184
vn 0.1511 0.1272 -0.9803
vn 0.8949 0.1010 -0.4348
vn 0.9184 0.0899 -0.3854
vn -0.0098 0.0375 0.9992
vn -0.1419 0.1541 0.9778
vn -0.6904 -0.0234 0.7230
vn -0.6492 -0.0265 0.7602
vn 0.9480 0.1087 0.2991
vn 0.9531 0.2412 0.1831
vn 0.5818 0.1016 0.8070
vn 0.5836 0.0897 0.8071
vn 0.5833 0.2424 0.7752
vn 0.9075 0.3787 0.1819
vn 0.8751 0.4520 0.1729
vn 0.5722 0.2821 0.7701
vn -0.6851 0.0581 -0.7262
vn -0.6232 0.0452 -0.7808
vn 0.4920 0.2312 0.8394
vn 0.9222 0.3374 0.1890
vn 0.9208 0.3490 0.1741
vn 0.5721 0.2264 0.7883
vn -0.4169 -0.1493 -0.8966
vn -0.8951 -0.3341 -0.2953
vn -0.8654 -0.3999 -0.3019
vn -0.4032 -0.1721 -0.8988
vn 0.7358 0.2527 -0.6283
vn 0.1348 0.0546 -0.9894
vn 0.2107 0.0778 -0.9744
vn 0.7744 0.2745 -0.5700
vn -0.4769 -0.1190 -0.8708
vn -0.9300 -0.2063 -0.3042
vn -0.9100 -0.2815 -0.3045
vn -0.4394 -0.1394 -0.8874
vn 0.7669 0.3219 -0.5553
vn 0.2080 0.1011 -0.9729
vn 0.2124 0.1316 -0.9683
vn 0.7370 0.3891 -0.5527
vn -0.8007 -0.3043 0.5160
vn -0.1466 -0.0441 0.9882
vn -0.1055 -0.0607 0.9926
vn -0.7628 -0.3748 0.5270
vn 0.5547 0.3196 0.7682
vn 0.8426 0.5113 0.1690
vn 0.8476 0.5022 0.1713
vn 0.5532 0.3360 0.7623
vn -0.7221 -0.4311 0.5410
vn -0.1114 -0.0776 0.9907
vn -0.1348 -0.0460 0.9898
vn -0.7373 -0.4011 0.5435
vn -0.3994 -0.2009 -0.8945
vn -0.8365 -0.4728 -0.2769
vn -0.8457 -0.4681 -0.2563
vn -0.4022 -0.2216 -0.8883
vn 0.6934 0.4416 -0.5694
vn 0.1691 0.1422 -0.9753
vn 0.1686 0.1101 -0.9795
vn 0.7057 0.4163 -0.5734
vn 0.7321 0.3906 -0.5581
vn 0.1882 0.0826 -0.9786
vn 0.1934 0.0956 -0.9764
vn 0.6201 0.5117 -0.5947
vn -0.4087 -0.2393 -0.8807
vn -0.8545 -0.4455 -0.2670
vn -0.8612 -0.4321 -0.2678
vn -0.5591 -0.1750 -0.8104
vn 0.5614 0.3514 0.7492
vn 0.8570 0.4907 0.1571
vn 0.8514 0.5014 0.1541
vn 0.3799 0.4270 0.8206
vn -0.7653 -0.3685 0.5278
vn -0.1510 -0.0127 0.9884
vn -0.1533 0.0100 0.9881
vn -0.8368 -0.2203 0.5012
vn -0.5415 0.8386 -0.0592
vn -0.1069 0.9938 -0.0310
vn -0.5988 0.7325 -0.3239
vn -0.0292 0.1706 -0.9849
vn -0.4213 0.2113 0.8820
vn -0.0732 0.0220 -0.9971
vn -0.0196 0.0084 -0.9998
vn -0.1166 -0.0232 -0.9929
vn -0.5895 0.0150 -0.8076
vn -0.0056 0.0112 -0.9999
vn -0.9513 0.0202 -0.3078
vn -0.0008 0.0130 0.9999
vn -0.5916 0.0190 0.8060
vn 0.5859 0.0091 0.8104
vn 0.5873 0.0051 -0.8093
vn 0.9510 0.0042 -0.3093
vn -0.9514 0.0198 0.3074
vn 0.9509 0.0039 0.3094
usemtl None
s 1
f 176/1/1 81/2/2 3/3/3 53/4/4
f 175/5/5 118/6/6 7/7/7 85/8/8
f 174/9/9 71/10/10 2/11/11 119/12/12
f 173/13/13 102/14/14 6/15/15 69/16/16
f 172/17/17 131/18/18 10/19/19 93/20/20
f 171/21/21 114/22/22 12/23/23 107/24/24
f 170/25/25 62/26/26 14/27/27 106/28/28
f 169/29/29 68/30/30 11/31/31 63/32/32
f 168/33/33 130/34/34 13/35/35 73/36/36
f 167/37/37 126/38/38 17/39/39 75/40/40
f 166/41/41 90/42/42 20/43/43 78/44/44
f 165/45/45 105/46/46 22/47/47 92/48/48
f 164/49/49 52/50/50 19/51/51 49/52/52
f 163/53/53 100/54/54 21/55/55 87/56/56
f 162/57/57 72/58/58 23/59/59 65/60/60
f 161/61/61 61/62/62 25/63/63 117/64/64
f 160/65/65 51/66/66 27/67/67 120/68/68
f 159/69/69 83/70/70 24/71/71 48/72/72
f 158/73/73 80/74/74 26/75/75 64/76/76
f 157/77/77 94/78/78 28/79/79 132/80/80
f 156/81/81 134/82/82 30/83/83 113/84/84
f 155/85/85 91/86/86 31/87/87 77/88/88
f 154/89/89 99/90/90 29/91/91 110/92/92
f 24/93/71 113/94/84 61/95/62
f 153/96/93 70/97/94 32/98/95 54/99/96
f 152/100/97 60/101/98 34/102/99 82/103/100
f 151/104/101 106/105/28 14/106/27 55/107/102
f 150/108/103 133/109/104 33/110/105 129/111/106
f 149/112/107 74/113/108 37/114/109 86/115/110
f 148/116/111 98/117/112 36/118/113 116/119/114
f 147/120/115 84/121/116 18/122/117 128/123/118
f 146/124/119 59/125/120 38/126/121 104/127/122
f 145/128/123 76/129/124 35/130/125 125/131/126
f 144/132/127 115/133/128 39/134/129 111/135/130
f 143/136/131 109/137/132 40/138/133 97/139/134
f 142/140/135 108/141/136 41/142/137 123/143/138
f 141/144/139 124/145/140 42/146/141 58/147/142
f 140/148/143 67/149/144 43/150/145 56/151/146
f 139/152/147 57/153/148 45/154/149 96/155/150
f 138/156/151 47/157/152 44/158/153 122/159/154
f 137/160/155 50/161/156 46/162/157 79/163/158
f 136/164/159 79/165/158 46/166/157 122/167/154
f 135/168/160 91/169/86 30/170/83 134/171/82
f 99/172/90 135/168/160 134/171/82 29/173/91
f 32/174/95 70/175/94 135/168/160 99/172/90
f 70/175/94 31/176/87 91/169/86 135/168/160
f 56/177/146 136/164/159 122/167/154 44/178/153
f 43/179/145 96/180/150 136/164/159 56/177/146
f 96/180/150 45/181/149 79/165/158 136/164/159
f 57/182/148 137/160/155 79/163/158 45/183/149
f 41/184/137 97/139/134 137/160/155 57/182/148
f 97/139/134 40/138/133 50/161/156 137/160/155
f 50/161/156 138/156/151 122/159/154 46/162/157
f 40/138/133 111/135/130 138/156/151 50/161/156
f 111/135/130 39/134/129 47/157/152 138/156/151
f 67/149/144 139/152/147 96/155/150 43/150/145
f 42/146/141 123/143/138 139/152/147 67/149/144
f 123/143/138 41/142/137 57/153/148 139/152/147
f 47/157/152 140/148/143 56/151/146 44/158/153
f 39/134/129 58/147/142 140/148/143 47/157/152
f 58/147/142 42/146/141 67/149/144 140/148/143
f 115/133/128 141/144/139 58/147/142 39/134/129
f 34/102/99 104/127/122 141/144/139 115/133/128
f 104/127/122 38/126/121 124/145/140 141/144/139
f 124/145/140 142/140/135 123/143/138 42/146/141
f 38/126/121 86/115/110 142/140/135 124/145/140
f 86/115/110 37/114/109 108/141/136 142/140/135
f 108/185/136 143/136/131 97/139/134 41/184/137
f 37/186/109 125/131/126 143/136/131 108/185/136
f 125/131/126 35/130/125 109/137/132 143/136/131
f 109/137/132 144/132/127 111/135/130 40/138/133
f 35/130/125 82/103/100 144/132/127 109/137/132
f 82/103/100 34/102/99 115/133/128 144/132/127
f 74/187/108 145/128/123 125/131/126 37/186/109
f 18/188/117 75/40/40 145/128/123 74/187/108
f 75/40/40 17/39/39 76/129/124 145/128/123
f 60/101/98 146/124/119 104/127/122 34/102/99
f 33/110/105 116/119/114 146/124/119 60/101/98
f 116/119/114 36/118/113 59/125/120 146/124/119
f 98/117/112 147/120/115 128/123/118 36/118/113
f 10/189/19 131/190/18 147/120/115 98/117/112
f 131/190/18 7/191/7 84/121/116 147/120/115
f 133/109/104 148/116/111 116/119/114 33/110/105
f 15/192/161 89/193/162 148/116/111 133/109/104
f 89/193/162 10/189/19 98/117/112 148/116/111
f 59/125/120 149/112/107 86/115/110 38/126/121
f 36/118/113 128/123/118 149/112/107 59/125/120
f 128/123/118 18/122/117 74/113/108 149/112/107
f 126/38/38 150/108/103 129/111/106 17/39/39
f 6/194/15 101/195/163 150/108/103 126/38/38
f 101/195/163 15/192/161 133/109/104 150/108/103
f 121/196/164 151/104/101 55/107/102 16/197/165
f 10/198/19 89/199/162 151/104/101 121/196/164
f 89/199/162 15/200/161 106/105/28 151/104/101
f 76/129/124 152/100/97 82/103/100 35/130/125
f 17/39/39 129/111/106 152/100/97 76/129/124
f 129/111/106 33/110/105 60/101/98 152/100/97
f 51/201/66 153/96/93 54/99/96 27/202/67
f 26/203/75 77/88/88 153/96/93 51/201/66
f 77/88/88 31/87/87 70/97/94 153/96/93
f 61/95/62 112/204/166 25/205/63
f 61/95/62 113/94/84 112/204/166
f 113/94/84 30/206/83 112/204/166
f 94/207/78 154/89/89 110/92/92 28/208/79
f 27/202/67 54/99/96 154/89/89 94/207/78
f 54/99/96 32/98/95 99/90/90 154/89/89
f 80/209/74 155/85/85 77/88/88 26/203/75
f 25/205/63 112/204/166 155/85/85 80/209/74
f 112/204/166 30/206/83 91/86/86 155/85/85
f 83/210/70 156/81/81 113/84/84 24/211/71
f 28/208/79 110/92/92 156/81/81 83/210/70
f 110/92/92 29/91/91 134/82/82 156/81/81
f 105/46/46 157/77/77 132/80/80 22/47/47
f 21/55/55 120/68/68 157/77/77 105/46/46
f 120/68/68 27/67/67 94/78/78 157/77/77
f 90/42/42 158/73/73 64/76/76 20/43/43
f 19/51/51 117/64/64 158/73/73 90/42/42
f 117/64/64 25/63/63 80/74/74 158/73/73
f 72/58/58 159/69/69 48/72/72 23/59/59
f 22/47/47 132/80/80 159/69/69 72/58/58
f 132/80/80 28/79/79 83/70/70 159/69/69
f 100/54/54 160/65/65 120/68/68 21/55/55
f 20/43/43 64/76/76 160/65/65 100/54/54
f 64/76/76 26/75/75 51/66/66 160/65/65
f 52/50/50 161/61/61 117/64/64 19/51/51
f 23/212/59 48/213/72 161/61/61 52/50/50
f 48/213/72 24/214/71 61/62/62 161/61/61
f 62/26/26 162/57/57 65/60/60 14/27/27
f 13/35/35 92/48/48 162/57/57 62/26/26
f 92/48/48 22/47/47 72/58/58 162/57/57
f 114/22/22 163/53/53 87/56/56 12/23/23
f 11/31/31 78/44/44 163/53/53 114/22/22
f 78/44/44 20/43/43 100/54/54 163/53/53
f 55/107/102 164/49/49 49/52/52 16/197/165
f 14/106/27 65/215/60 164/49/49 55/107/102
f 65/215/60 23/212/59 52/50/50 164/49/49
f 130/34/34 165/45/45 92/48/48 13/35/35
f 12/23/23 87/56/56 165/45/45 130/34/34
f 87/56/56 21/55/55 105/46/46 165/45/45
f 68/30/30 166/41/41 78/44/44 11/31/31
f 16/197/165 49/52/52 166/41/41 68/30/30
f 49/52/52 19/51/51 90/42/42 166/41/41
f 84/216/116 167/37/37 75/40/40 18/188/117
f 7/217/7 118/218/6 167/37/37 84/216/116
f 118/218/6 6/194/15 126/38/38 167/37/37
f 102/219/14 168/33/33 73/36/36 6/220/15
f 3/221/3 107/24/24 168/33/33 102/219/14
f 107/24/24 12/23/23 130/34/34 168/33/33
f 71/222/10 169/29/29 63/32/32 2/223/11
f 10/198/19 121/196/164 169/29/29 71/222/10
f 121/196/164 16/197/165 68/30/30 169/29/29
f 101/224/163 170/25/25 106/28/28 15/225/161
f 6/220/15 73/36/36 170/25/25 101/224/163
f 73/36/36 13/35/35 62/26/26 170/25/25
f 81/226/2 171/21/21 107/24/24 3/221/3
f 2/223/11 63/32/32 171/21/21 81/226/2
f 63/32/32 11/31/31 114/22/22 171/21/21
f 95/227/167 172/17/17 93/20/20 9/228/168
f 8/229/169 85/230/8 172/17/17 95/227/167
f 85/230/8 7/231/7 131/18/18 172/17/17
f 66/232/170 173/13/13 69/16/16 5/233/171
f 4/234/172 53/4/4 173/13/13 66/232/170
f 53/4/4 3/3/3 102/14/14 173/13/13
f 103/235/173 174/9/9 119/12/12 1/236/174
f 9/228/168 93/20/20 174/9/9 103/235/173
f 93/20/20 10/19/19 71/10/10 174/9/9
f 127/237/175 175/5/5 85/8/8 8/238/169
f 5/233/171 69/16/16 175/5/5 127/237/175
f 69/16/16 6/15/15 118/6/6 175/5/5
f 88/239/176 176/1/1 53/4/4 4/234/172
f 1/236/174 119/12/12 176/1/1 88/239/176
f 119/12/12 2/11/11 81/2/2 176/1/1
