# Blender v2.78 (sub 0) OBJ File: ''
# www.blender.org
mtllib Birch_Tree_NoLeaves_m_05.mtl
o Birch_Tree_NoLeaves_m_05
v 0.007809 0.061872 -0.117146
v -0.063924 1.124544 -0.097539
v 0.024184 1.150497 -0.032143
v 0.099365 0.277471 -0.037077
v 0.075139 0.061925 0.086387
v -0.009071 1.133290 0.073560
v -0.118777 1.115797 0.073560
v -0.070772 0.067908 0.091843
v -0.112275 0.067532 -0.035987
v -0.152679 1.110392 -0.032185
v 0.242449 0.352599 -0.026554
v 0.177438 0.429782 -0.070916
v -0.165276 2.532521 -0.027983
v -0.191746 2.527208 0.055110
v -0.277404 2.510019 0.055110
v -0.303874 2.504707 -0.027983
v -0.234575 2.518613 -0.079337
v -0.492742 4.037024 -0.048099
v -0.456065 4.044464 -0.020285
v -0.469814 4.041675 0.022893
v -0.515508 4.032406 0.023397
v -0.529580 4.029553 -0.020790
v -0.865371 5.637143 -0.005785
v -0.904014 5.686708 0.004252
v -0.911065 5.685279 -0.016545
v -0.893381 5.688864 -0.029140
v 0.547941 1.769641 -0.265399
v 0.493675 1.805891 -0.286266
v 0.118976 0.014440 -0.039307
v 0.264402 0.299297 -0.095490
v 0.567739 1.742774 -0.312058
v 0.176118 0.359673 -0.144137
v 0.503211 1.773895 -0.338135
v 0.650876 3.232316 -0.433263
v 0.695492 3.223350 -0.419703
v 0.680129 3.229378 -0.388324
v 0.640764 3.242560 -0.397849
v 0.731967 4.701807 -0.379207
v 0.737386 4.699292 -0.395740
v 0.758307 4.697424 -0.390213
v 0.750831 4.697897 -0.375607
v -0.898728 5.716483 -0.000306
v -0.660604 4.851133 -0.011783
v -0.390371 3.262589 0.039283
v 0.064960 0.678776 -0.034231
v 0.742591 4.724012 -0.376802
v 0.536234 1.756860 -0.327591
v 0.560857 1.754523 -0.287558
v 0.582967 2.500779 -0.391569
v -0.914344 5.713315 -0.006074
v -0.174640 2.530650 0.014847
v 0.257488 0.322475 -0.058749
v 0.092177 0.183339 0.028022
v 0.495425 1.791578 -0.313371
v 0.659785 3.236344 -0.391376
v 0.172716 0.398200 -0.109800
v 0.637551 2.481459 -0.372120
v 0.032540 0.566045 0.084424
v -0.111321 1.116958 -0.069077
v 0.689967 3.225838 -0.403437
v 0.619790 2.497231 -0.333172
v -0.357563 3.269243 -0.063747
v 0.156623 0.155031 0.034358
v 0.340164 1.040276 -0.239265
v -0.718513 4.908272 0.013111
v -0.512393 4.033039 -0.036175
v -0.294510 2.506578 0.014847
v -0.193732 1.803319 0.064606
v 0.106900 0.016395 0.026090
v -0.908951 5.714409 -0.023010
v -0.892994 5.717645 -0.018312
v -0.016850 1.138030 -0.069056
v 0.673845 3.227458 -0.428194
v 0.069656 0.016655 -0.085384
v 0.572840 2.521284 -0.347996
v -0.091540 0.550920 0.084403
v 0.690164 4.017285 -0.390827
v 0.055305 0.183306 -0.083156
v -0.728741 4.906198 -0.018503
v -0.476110 4.106517 0.001631
v -0.271617 2.511175 -0.057020
v 0.416565 0.992300 -0.202377
v 0.396073 1.034388 -0.145787
v -0.065480 1.826891 -0.030148
v -0.129983 0.548070 -0.034647
v 0.719019 4.009330 -0.384561
v 0.520048 1.789240 -0.273338
v -0.099834 0.067720 0.030628
v 0.755932 4.721881 -0.382385
v -0.197533 2.526052 -0.057020
v 0.643663 3.237964 -0.416132
v -0.492661 4.037041 0.025285
v 0.012443 1.142718 0.022319
v -0.144744 1.812323 -0.088709
v -0.063083 0.068024 -0.082558
v -0.524538 4.030575 0.001965
v -0.234575 2.518613 0.059263
v 0.730389 4.006678 -0.407242
v 0.333553 1.087608 -0.176462
v -0.702255 4.911569 -0.037945
v -0.410648 3.258476 -0.024393
v 0.749133 4.722587 -0.392555
v -0.666712 4.849895 0.007395
v -0.095756 1.821326 0.064606
v 0.209322 0.394274 -0.045145
v 0.697976 4.011476 -0.416511
v -0.063924 1.124544 0.078771
v 0.735793 4.724719 -0.386972
v -0.304478 3.280011 -0.024393
v -0.029661 0.561433 -0.108203
v -0.224008 1.797755 -0.030148
v 0.220882 0.326401 -0.123403
v -0.003618 0.068516 0.100581
v -0.324755 3.275898 0.039283
v -0.140614 1.112270 0.022298
v -0.473171 4.040994 -0.035923
v 0.089067 0.158852 -0.127193
v 0.184496 0.120211 -0.062106
v 0.132196 0.300311 -0.048771
v 0.749580 4.795884 -0.383138
v 0.704103 4.013524 -0.386462
v 0.726265 4.007679 -0.395506
v 0.714671 4.008861 -0.413109
v 0.692509 4.014706 -0.404065
v 0.631258 2.488240 -0.351773
v 0.575316 2.512137 -0.370656
v 0.333319 1.066521 -0.209585
v 0.379055 1.014010 -0.223863
v 0.595605 2.510182 -0.338481
v 0.610970 2.490194 -0.383948
v 0.107578 0.234268 -0.091759
v 0.136393 0.135040 -0.099106
v 0.409859 1.010766 -0.172360
v 0.173614 0.132934 -0.010097
v 0.054148 0.625773 0.026925
v 0.364123 1.063277 -0.158082
v -0.923716 5.797520 -0.011959
v -0.716365 4.908707 -0.029624
v -0.701307 4.911762 0.012209
v -0.688854 4.914287 -0.026896
v -0.725135 4.906929 -0.002084
v -0.403442 3.259938 0.008417
v -0.311684 3.278549 0.008417
v -0.385918 3.263492 -0.046615
v -0.357563 3.269243 0.042429
v -0.329208 3.274994 -0.046615
v -0.187082 1.804541 -0.063216
v -0.144744 1.812323 0.069288
v -0.102406 1.820104 -0.063216
v -0.213248 1.799732 0.018676
v -0.076240 1.824914 0.018676
v -0.116321 0.549083 0.026696
v 0.144798 0.232163 -0.002750
v -0.083097 0.551546 -0.076194
v -0.029338 0.555532 0.090285
v 0.020924 0.623309 -0.075965
vt 0.0778 0.2145
vt 0.0822 0.3045
vt 0.0715 0.3057
vt 0.0663 0.2266
vt 0.1497 0.2021
vt 0.1470 0.3033
vt 0.1362 0.3021
vt 0.1376 0.2017
vt 0.1014 0.2020
vt 0.1038 0.3025
vt 0.0930 0.3034
vt 0.0894 0.2023
vt 0.0913 0.6430
vt 0.0979 0.6313
vt 0.1004 0.6559
vt 0.0926 0.6601
vt 0.1255 0.2017
vt 0.1253 0.3019
vt 0.1145 0.3016
vt 0.1135 0.2017
vt 0.1637 0.4335
vt 0.1590 0.5619
vt 0.1504 0.5613
vt 0.1540 0.4329
vt 0.1251 0.4308
vt 0.1248 0.5597
vt 0.1163 0.5596
vt 0.1154 0.4306
vt 0.0865 0.4331
vt 0.0906 0.5616
vt 0.0821 0.5623
vt 0.0768 0.4340
vt 0.1444 0.4319
vt 0.1418 0.5606
vt 0.1333 0.5599
vt 0.1348 0.4310
vt 0.1058 0.4313
vt 0.1077 0.5602
vt 0.0992 0.5608
vt 0.0961 0.4321
vt 0.0540 0.7780
vt 0.0608 0.9182
vt 0.0569 0.9184
vt 0.0483 0.7785
vt 0.0879 0.7775
vt 0.0841 0.9180
vt 0.0802 0.9180
vt 0.0822 0.7771
vt 0.0653 0.7773
vt 0.0686 0.9180
vt 0.0647 0.9181
vt 0.0597 0.7776
vt 0.0992 0.7783
vt 0.0919 0.9183
vt 0.0880 0.9181
vt 0.0935 0.7779
vt 0.0766 0.7770
vt 0.0764 0.9180
vt 0.0725 0.9180
vt 0.0710 0.7770
vt 0.1479 0.6294
vt 0.1410 0.7970
vt 0.1434 0.6292
vt 0.1255 0.7968
vt 0.1255 0.9649
vt 0.1226 0.9649
vt 0.1218 0.7968
vt 0.1107 0.7970
vt 0.1139 0.9648
vt 0.1110 0.9648
vt 0.1071 0.7970
vt 0.1328 0.7968
vt 0.1312 0.9647
vt 0.1283 0.9648
vt 0.1292 0.7968
vt 0.1181 0.7969
vt 0.1197 0.9649
vt 0.1168 0.9648
vt 0.1144 0.7969
vt 0.0154 0.7977
vt 0.0153 0.7958
vt 0.0174 0.7954
vt 0.0174 0.7976
vt 0.0883 0.7756
vt 0.0948 0.7723
vt 0.0892 0.8887
vt 0.0841 0.8910
vt 0.1732 0.2147
vt 0.1847 0.2269
vt 0.1792 0.3059
vt 0.1684 0.3052
vt 0.1059 0.6318
vt 0.1140 0.6323
vt 0.1140 0.6511
vt 0.1072 0.6535
vt 0.1005 0.7705
vt 0.1062 0.7687
vt 0.0984 0.8864
vt 0.0938 0.8875
vt 0.0626 0.6318
vt 0.0718 0.6320
vt 0.0703 0.6559
vt 0.0611 0.6529
vt 0.0782 0.6433
vt 0.0847 0.6546
vt 0.0847 0.6644
vt 0.0775 0.6601
vt 0.1686 0.8514
vt 0.1736 0.8526
vt 0.1710 0.9646
vt 0.1670 0.9641
vt 0.1856 0.8540
vt 0.1899 0.8525
vt 0.1841 0.9647
vt 0.1806 0.9654
vt 0.0624 0.7700
vt 0.0699 0.7724
vt 0.0696 0.8890
vt 0.0636 0.8871
vt 0.0759 0.7757
vt 0.0819 0.7788
vt 0.0790 0.8933
vt 0.0743 0.8911
vt 0.1774 0.8540
vt 0.1813 0.8554
vt 0.1772 0.9661
vt 0.1741 0.9654
vt 0.1936 0.8519
vt 0.1974 0.8513
vt 0.1900 0.9646
vt 0.1870 0.9647
vt 0.0255 0.5088
vt 0.0280 0.5094
vt 0.0235 0.6282
vt 0.0215 0.6278
vt 0.0199 0.5080
vt 0.0230 0.5082
vt 0.0195 0.6275
vt 0.0174 0.6274
vt 0.0360 0.5086
vt 0.0386 0.5085
vt 0.0317 0.6281
vt 0.0296 0.6280
vt 0.0308 0.5090
vt 0.0336 0.5085
vt 0.0276 0.6279
vt 0.0256 0.6280
vt 0.0148 0.9076
vt 0.0132 0.9075
vt 0.0131 0.9061
vt 0.0147 0.9062
vt 0.0165 0.9076
vt 0.0162 0.9064
vt 0.0168 0.9089
vt 0.0150 0.9089
vt 0.0133 0.9089
vt 0.0326 0.3906
vt 0.0360 0.3899
vt 0.0395 0.3892
vt 0.0425 0.3891
vt 0.0454 0.3890
vt 0.0169 0.5077
vt 0.0153 0.6274
vt 0.0184 0.3880
vt 0.0224 0.3885
vt 0.0264 0.3890
vt 0.0295 0.3898
vt 0.1956 0.7403
vt 0.2002 0.7391
vt 0.2048 0.7379
vt 0.1761 0.7405
vt 0.1807 0.7426
vt 0.1854 0.7448
vt 0.0548 0.7675
vt 0.0577 0.8852
vt 0.0519 0.6499
vt 0.1905 0.7426
vt 0.1636 0.8502
vt 0.1630 0.9636
vt 0.1642 0.7368
vt 0.1701 0.7386
vt 0.0732 0.6080
vt 0.0789 0.6265
vt 0.0846 0.6449
vt 0.0534 0.6316
vt 0.0549 0.6134
vt 0.0641 0.6107
vt 0.0954 0.6067
vt 0.1047 0.6101
vt 0.1140 0.6135
vt 0.1618 0.2025
vt 0.1577 0.3044
vt 0.1658 0.1006
vt 0.1779 0.1242
vt 0.1901 0.1479
vt 0.0157 0.7996
vt 0.0174 0.7997
vt 0.0139 0.7995
vt 0.0135 0.7978
vt 0.0131 0.7961
vt 0.1165 0.6289
vt 0.1120 0.6290
vt 0.1210 0.6288
vt 0.1344 0.6289
vt 0.1300 0.6288
vt 0.1389 0.6290
vt 0.1365 0.7968
vt 0.1341 0.9647
vt 0.1076 0.6292
vt 0.1031 0.6293
vt 0.1255 0.6288
vt 0.0768 0.6360
vt 0.0694 0.6359
vt 0.0842 0.6362
vt 0.1066 0.6382
vt 0.0991 0.6376
vt 0.1140 0.6388
vt 0.1049 0.7787
vt 0.0958 0.9185
vt 0.0620 0.6365
vt 0.0546 0.6371
vt 0.0917 0.6369
vt 0.0472 0.6378
vt 0.0397 0.6386
vt 0.1734 0.4342
vt 0.1676 0.5625
vt 0.1257 0.1015
vt 0.1124 0.1017
vt 0.1390 0.1013
vt 0.0900 0.6258
vt 0.0991 0.1014
vt 0.0858 0.1012
vt 0.1524 0.1010
vt 0.0734 0.1243
vt 0.0610 0.1475
vn 0.5765 0.0553 -0.8152
vn 0.5809 0.0666 -0.8112
vn 0.9465 0.1057 -0.3051
vn 0.9484 0.0828 -0.3061
vn 0.0066 0.0209 0.9998
vn -0.0051 0.0162 0.9999
vn -0.5819 -0.0350 0.8125
vn -0.5861 -0.0113 0.8101
vn -0.5832 -0.0183 -0.8121
vn -0.5871 -0.0384 -0.8086
vn 0.0041 0.0155 -0.9999
vn -0.0026 0.0210 -0.9998
vn -0.1416 0.4443 0.8846
vn 0.5397 0.0544 0.8401
vn 0.4381 0.0851 0.8949
vn -0.3320 0.2896 0.8977
vn -0.9507 -0.0356 0.3080
vn -0.9488 -0.0684 0.3085
vn -0.9480 -0.0664 -0.3113
vn -0.9505 -0.0342 -0.3088
vn 0.9418 0.1286 0.3105
vn 0.9387 0.1536 0.3086
vn 0.5819 0.1079 0.8061
vn 0.5835 0.0872 0.8074
vn -0.9457 -0.1026 0.3083
vn -0.9435 -0.1202 0.3087
vn -0.9432 -0.1186 -0.3102
vn -0.9456 -0.1015 -0.3090
vn 0.5815 0.0827 -0.8093
vn 0.5802 0.0992 -0.8084
vn 0.9389 0.1551 -0.3072
vn 0.9424 0.1299 -0.3081
vn -0.0028 0.0183 0.9998
vn -0.0072 0.0164 0.9998
vn -0.5810 -0.0670 0.8112
vn -0.5828 -0.0554 0.8107
vn -0.5858 -0.0603 -0.8082
vn -0.5840 -0.0701 -0.8087
vn 0.0028 0.0171 -0.9999
vn -0.0011 0.0129 -0.9999
vn 0.5782 0.1164 -0.8075
vn 0.6070 0.1425 -0.7819
vn 0.9423 0.2038 -0.2656
vn 0.9373 0.1823 -0.2970
vn -0.0017 0.0195 0.9998
vn 0.0415 0.0287 0.9987
vn -0.5575 -0.0951 0.8247
vn -0.5818 -0.0740 0.8100
vn -0.5826 -0.0811 -0.8087
vn -0.5761 -0.1057 -0.8105
vn 0.0254 0.0224 -0.9994
vn -0.0009 0.0205 -0.9998
vn 0.9338 0.1800 0.3092
vn 0.9239 0.2276 0.3076
vn 0.6130 0.1380 0.7779
vn 0.5829 0.1248 0.8029
vn -0.9409 -0.1393 0.3087
vn -0.9338 -0.1779 0.3106
vn -0.9335 -0.1765 -0.3121
vn -0.9409 -0.1376 -0.3093
vn 0.9468 0.2442 -0.2095
vn -0.9248 -0.2131 0.3151
vn -0.9059 -0.0460 0.4210
vn -0.9295 -0.2016 -0.3088
vn -0.9269 -0.2126 -0.3094
vn 0.7239 0.1896 -0.6633
vn 0.8123 0.3699 -0.4509
vn 0.9166 0.2540 0.3088
vn 0.2059 0.0654 0.9764
vn 0.3932 0.2690 0.8792
vn -0.4653 -0.0820 0.8814
vn -0.5079 -0.1079 0.8546
vn -0.5684 -0.1279 -0.8128
vn -0.4982 0.0522 -0.8655
vn 0.1258 0.0608 -0.9902
vn 0.0772 0.0317 -0.9965
vn -0.2270 0.9739 0.0014
vn -0.2846 0.2164 0.9339
vn 0.4001 0.0688 0.9139
vn 0.4273 0.0607 0.9021
vn -0.2624 0.1603 0.9515
vn 0.9424 0.0797 0.3249
vn 0.9431 0.1016 0.3167
vn 0.8521 -0.3372 0.4004
vn 0.8311 -0.4654 -0.3045
vn 0.8695 -0.3526 -0.3458
vn 0.8918 -0.2075 0.4020
vn 0.9013 -0.1249 0.4148
vn 0.8860 -0.2464 -0.3927
vn 0.8939 -0.1886 -0.4066
vn 0.9040 -0.0835 0.4194
vn 0.4113 -0.3341 -0.8481
vn -0.1629 0.0638 -0.9846
vn -0.3986 0.0398 -0.9163
vn 0.3689 -0.2480 -0.8958
vn -0.7753 0.4459 -0.4474
vn -0.7540 0.5259 0.3935
vn -0.8225 0.3211 0.4694
vn -0.9413 0.2651 -0.2088
vn 0.3055 -0.0935 -0.9476
vn -0.4570 -0.0106 -0.8894
vn -0.4434 0.0202 -0.8961
vn 0.2901 -0.0396 -0.9562
vn -0.2517 0.1029 0.9623
vn 0.4099 0.0408 0.9112
vn 0.4205 0.0073 0.9073
vn -0.2297 0.0488 0.9720
vn 0.3227 -0.2034 -0.9244
vn -0.4611 -0.0144 -0.8872
vn -0.4335 -0.0093 -0.9011
vn 0.3137 -0.1503 -0.9375
vn -0.9539 0.1868 -0.2348
vn -0.8314 0.2675 0.4870
vn -0.8457 0.1861 0.5002
vn -0.9579 0.1313 -0.2555
vn -0.9617 0.0802 -0.2620
vn -0.8517 0.1254 0.5088
vn -0.8600 0.0791 0.5041
vn -0.9550 0.0693 -0.2883
vn 0.9036 -0.0457 0.4259
vn 0.9028 -0.1093 -0.4159
vn 0.8999 -0.0679 -0.4307
vn 0.8987 -0.0434 0.4365
vn -0.9514 0.0647 -0.3010
vn -0.8579 0.0473 0.5116
vn -0.8565 0.0596 0.5127
vn -0.9276 0.2350 -0.2903
vn 0.2768 0.0089 -0.9609
vn -0.4513 0.0498 -0.8910
vn -0.4568 0.0669 -0.8871
vn 0.3014 0.1507 -0.9415
vn 0.8921 -0.0459 0.4494
vn 0.9067 -0.0297 -0.4208
vn 0.9076 -0.0110 -0.4196
vn 0.9467 0.1172 0.3000
vn -0.2156 0.0020 0.9765
vn 0.4163 -0.0276 0.9088
vn 0.4207 -0.0196 0.9070
vn -0.2616 0.1372 0.9554
vn 0.0704 0.9973 0.0186
vn -0.0669 -0.0770 -0.9948
vn -0.0360 0.3221 -0.9460
vn 0.6389 0.7517 -0.1635
vn 0.8101 -0.5132 -0.2834
vn 0.4205 -0.3733 -0.8269
vn 0.5297 -0.0435 0.8471
vn 0.8267 -0.3818 0.4133
vn 0.5816 0.0580 0.8114
vn 0.5857 0.0682 0.8076
vn 0.5854 0.3146 0.7473
vn 0.6477 0.1737 0.7419
vn -0.9504 -0.0325 0.3094
vn -0.9495 -0.0314 -0.3121
vn -0.5788 -0.0096 0.8154
vn -0.5732 -0.0172 -0.8192
vn 0.0210 0.0177 0.9996
usemtl None
s 1
f 156/1/1 72/2/2 3/3/3 45/4/4
f 155/5/5 107/6/6 7/7/7 76/8/8
f 154/9/9 59/10/10 2/11/11 110/12/12
f 153/13/13 63/14/14 11/15/15 105/16/16
f 152/17/17 115/18/18 10/19/19 85/20/20
f 151/21/21 51/22/22 14/23/23 104/24/24
f 150/25/25 67/26/26 16/27/27 111/28/28
f 149/29/29 90/30/30 13/31/31 84/32/32
f 148/33/33 97/34/34 15/35/35 68/36/36
f 147/37/37 81/38/38 17/39/39 94/40/40
f 146/41/41 116/42/42 19/43/43 109/44/44
f 145/45/45 92/46/46 21/47/47 44/48/48
f 144/49/49 66/50/50 18/51/51 62/52/52
f 143/53/53 80/54/54 20/55/55 114/56/56
f 142/57/57 96/58/58 22/59/59 101/60/60
f 19/61/43 43/62/61 80/63/54
f 141/64/62 50/65/63 25/66/64 79/67/65
f 140/68/66 71/69/67 23/70/68 43/71/61
f 139/72/69 42/73/70 24/74/71 65/75/72
f 138/76/73 70/77/74 26/78/75 100/79/76
f 137/80/77 42/81/70 23/82/68 71/83/67
f 136/84/78 83/85/79 27/86/80 87/87/81
f 135/88/82 45/89/4 3/90/3 93/91/83
f 134/92/84 118/93/85 30/94/86 52/95/87
f 133/96/88 82/97/89 31/98/90 48/99/91
f 132/100/92 117/101/93 32/102/94 112/103/95
f 131/104/96 119/105/97 12/106/98 56/107/99
f 130/108/100 49/109/101 34/110/102 73/111/103
f 129/112/104 61/113/105 36/114/106 55/115/107
f 128/116/108 64/117/109 33/118/110 47/119/111
f 127/120/112 99/121/113 28/122/114 54/123/115
f 126/124/116 75/125/117 37/126/118 91/127/119
f 125/128/120 57/129/121 35/130/122 60/131/123
f 124/132/124 77/133/125 38/134/126 108/135/127
f 123/136/128 106/137/129 39/138/130 102/139/131
f 122/140/132 98/141/133 40/142/134 89/143/135
f 121/144/136 86/145/137 41/146/138 46/147/139
f 120/148/140 108/149/127 38/150/126 46/151/139
f 89/152/135 120/148/140 46/151/139 41/153/138
f 40/154/134 102/155/131 120/148/140 89/152/135
f 102/155/131 39/156/130 108/149/127 120/148/140
f 77/133/125 121/144/136 46/147/139 38/134/126
f 37/157/118 55/158/107 121/144/136 77/133/125
f 55/158/107 36/159/106 86/145/137 121/144/136
f 86/145/137 122/140/132 89/143/135 41/146/138
f 36/159/106 60/160/123 122/140/132 86/145/137
f 60/160/123 35/161/122 98/141/133 122/140/132
f 98/162/133 123/136/128 102/139/131 40/163/134
f 35/164/122 73/165/103 123/136/128 98/162/133
f 73/165/103 34/166/102 106/137/129 123/136/128
f 106/137/129 124/132/124 108/135/127 39/138/130
f 34/166/102 91/167/119 124/132/124 106/137/129
f 91/167/119 37/157/118 77/133/125 124/132/124
f 61/113/105 125/128/120 60/131/123 36/114/106
f 27/168/80 48/169/91 125/128/120 61/113/105
f 48/169/91 31/170/90 57/129/121 125/128/120
f 49/109/101 126/124/116 91/127/119 34/110/102
f 33/171/110 54/172/115 126/124/116 49/109/101
f 54/172/115 28/173/114 75/125/117 126/124/116
f 64/117/109 127/120/112 54/123/115 33/118/110
f 32/102/94 56/107/99 127/120/112 64/117/109
f 56/107/99 12/106/98 99/121/113 127/120/112
f 82/174/89 128/116/108 47/119/111 31/175/90
f 30/176/86 112/103/95 128/116/108 82/174/89
f 112/103/95 32/102/94 64/117/109 128/116/108
f 75/125/117 129/112/104 55/115/107 37/126/118
f 28/173/114 87/177/81 129/112/104 75/125/117
f 87/177/81 27/168/80 61/113/105 129/112/104
f 57/178/121 130/108/100 73/111/103 35/179/122
f 31/180/90 47/181/111 130/108/100 57/178/121
f 47/181/111 33/171/110 49/109/101 130/108/100
f 117/101/93 131/104/96 56/107/99 32/102/94
f 1/182/141 78/183/142 131/104/96 117/101/93
f 78/183/142 4/184/143 119/105/97 131/104/96
f 118/185/85 132/100/92 112/103/95 30/176/86
f 29/186/144 74/187/145 132/100/92 118/185/85
f 74/187/145 1/182/141 117/101/93 132/100/92
f 83/85/79 133/96/88 48/99/91 27/86/80
f 11/15/15 52/95/87 133/96/88 83/85/79
f 52/95/87 30/94/86 82/97/89 133/96/88
f 63/14/14 134/92/84 52/95/87 11/15/15
f 5/188/146 69/189/147 134/92/84 63/14/14
f 69/189/147 29/190/144 118/93/85 134/92/84
f 58/191/148 135/88/82 93/91/83 6/192/149
f 5/193/146 53/194/150 135/88/82 58/191/148
f 53/194/150 4/195/143 45/89/4 135/88/82
f 99/121/113 136/84/78 87/87/81 28/122/114
f 12/106/98 105/16/16 136/84/78 99/121/113
f 105/16/16 11/15/15 83/85/79 136/84/78
f 70/196/74 137/80/77 71/83/67 26/197/75
f 25/198/64 50/199/63 137/80/77 70/196/74
f 50/199/63 24/200/71 42/81/70 137/80/77
f 66/201/50 138/76/73 100/79/76 18/202/51
f 22/203/59 79/67/65 138/76/73 66/201/50
f 79/67/65 25/66/64 70/77/74 138/76/73
f 92/204/46 139/72/69 65/75/72 21/205/47
f 20/206/55 103/207/151 139/72/69 92/204/46
f 103/207/151 23/208/68 42/73/70 139/72/69
f 116/209/42 140/68/66 43/71/61 19/210/43
f 18/202/51 100/79/76 140/68/66 116/209/42
f 100/79/76 26/78/75 71/69/67 140/68/66
f 96/211/58 141/64/62 79/67/65 22/203/59
f 21/205/47 65/75/72 141/64/62 96/211/58
f 65/75/72 24/74/71 50/65/63 141/64/62
f 80/63/54 103/207/151 20/206/55
f 80/63/54 43/62/61 103/207/151
f 43/62/61 23/208/68 103/207/151
f 67/212/26 142/57/57 101/60/60 16/213/27
f 15/214/35 44/48/48 142/57/57 67/212/26
f 44/48/48 21/47/47 96/58/58 142/57/57
f 51/215/22 143/53/53 114/56/56 14/216/23
f 13/217/31 109/218/44 143/53/53 51/215/22
f 109/218/44 19/219/43 80/54/54 143/53/53
f 81/220/38 144/49/49 62/52/52 17/221/39
f 16/213/27 101/60/60 144/49/49 81/220/38
f 101/60/60 22/59/59 66/50/50 144/49/49
f 97/222/34 145/45/45 44/48/48 15/214/35
f 14/216/23 114/56/56 145/45/45 97/222/34
f 114/56/56 20/55/55 92/46/46 145/45/45
f 90/223/30 146/41/41 109/44/44 13/224/31
f 17/221/39 62/52/52 146/41/41 90/223/30
f 62/52/52 18/51/51 116/42/42 146/41/41
f 59/10/10 147/37/37 94/40/40 2/11/11
f 10/19/19 111/28/28 147/37/37 59/10/10
f 111/28/28 16/27/27 81/38/38 147/37/37
f 107/6/6 148/33/33 68/36/36 7/7/7
f 6/192/149 104/24/24 148/33/33 107/6/6
f 104/24/24 14/23/23 97/34/34 148/33/33
f 72/2/2 149/29/29 84/32/32 3/3/3
f 2/11/11 94/40/40 149/29/29 72/2/2
f 94/40/40 17/39/39 90/30/30 149/29/29
f 115/18/18 150/25/25 111/28/28 10/19/19
f 7/7/7 68/36/36 150/25/25 115/18/18
f 68/36/36 15/35/35 67/26/26 150/25/25
f 93/91/83 151/21/21 104/24/24 6/192/149
f 3/90/3 84/225/32 151/21/21 93/91/83
f 84/225/32 13/226/31 51/22/22 151/21/21
f 88/227/152 152/17/17 85/20/20 9/228/153
f 8/229/154 76/8/8 152/17/17 88/227/152
f 76/8/8 7/7/7 115/18/18 152/17/17
f 119/105/97 153/13/13 105/16/16 12/106/98
f 4/184/143 53/230/150 153/13/13 119/105/97
f 53/230/150 5/188/146 63/14/14 153/13/13
f 95/231/155 154/9/9 110/12/12 1/232/141
f 9/228/153 85/20/20 154/9/9 95/231/155
f 85/20/20 10/19/19 59/10/10 154/9/9
f 113/233/156 155/5/5 76/8/8 8/229/154
f 5/193/146 58/191/148 155/5/5 113/233/156
f 58/191/148 6/192/149 107/6/6 155/5/5
f 78/234/142 156/1/1 45/4/4 4/235/143
f 1/232/141 110/12/12 156/1/1 78/234/142
f 110/12/12 2/11/11 72/2/2 156/1/1
