# Blender v2.78 (sub 0) OBJ File: ''
# www.blender.org
mtllib Birch_Tree_crk_l_02.mtl
o Birch_Tree_crk_l_02
v 0.140641 0.079145 0.262258
v 0.151639 0.760412 0.231442
v -0.166155 0.760421 0.223931
v -0.178201 0.079145 0.279829
v -0.236284 0.079145 -0.091133
v -0.249837 0.747488 -0.090082
v 0.015788 0.760376 -0.276163
v 0.046660 0.079145 -0.337971
v 0.279612 0.079145 -0.119563
v 0.264086 0.760384 -0.077633
v 0.164198 2.405040 -0.039190
v 0.085688 4.036748 -0.013597
v -0.003023 4.048432 0.231664
v 0.068792 2.405318 0.224220
v -0.225169 3.939069 0.188729
v -0.202375 2.395045 0.184782
v -0.068840 2.394656 -0.183901
v -0.114661 3.938395 -0.118004
v 0.237411 4.358773 -0.053408
v 1.747195 3.882592 0.449380
v 1.672497 3.699772 0.539060
v 0.272683 4.123601 0.057188
v 0.194109 4.169825 0.275735
v 1.613909 3.742748 0.742368
v 1.652412 3.952010 0.778331
v 0.122753 4.430222 0.263250
v 0.206454 4.549724 0.080779
v 1.734788 4.038329 0.597256
v 3.415974 3.535686 1.466102
v 5.341233 3.000612 2.121845
v 5.322989 2.881673 1.997314
v 3.417868 3.393942 1.327072
v 3.352563 3.224443 1.410823
v 5.284767 2.683761 2.131734
v 4.980325 2.769408 2.230170
v 3.292773 3.265622 1.596136
v 3.349451 3.453686 1.635798
v 5.312774 2.871069 2.324445
v 7.206107 2.419614 2.436114
v 7.156075 2.304419 2.491761
v 5.398658 2.104391 2.954674
v 5.535160 2.192823 3.001480
v 7.184336 2.528315 2.566302
v 7.121112 2.345460 2.653205
v 5.592988 2.628496 2.380392
v 6.878222 2.534482 2.639146
v 9.206009 2.059078 2.922748
v 9.386381 1.974184 2.853040
v 9.352402 1.891063 2.889088
v 9.313218 1.918098 2.973325
v 7.322729 2.578938 3.163720
v 7.414298 2.620327 3.090574
v 7.454578 2.409361 2.709842
v 5.510121 2.036224 2.878509
v 5.645068 2.115850 2.946210
v 6.601840 1.556237 3.808308
v 6.522811 1.459557 3.816409
v 6.461264 1.495744 3.897637
v 6.536142 1.586178 3.883970
v 7.729395 1.344864 4.473362
v 7.766063 1.328442 4.425311
v 7.687781 1.292695 4.486539
v 7.722037 1.272761 4.435764
v 7.370846 2.465313 3.160880
v 7.471046 2.513325 3.101430
v 8.234755 2.617025 3.719067
v 8.185984 2.596710 3.774582
v 8.215144 2.690657 3.727426
v 8.166375 2.670342 3.782942
v 9.048120 0.010314 4.380192
v 8.124980 -0.079733 4.504204
v 7.599806 0.597256 3.726150
v 8.811195 0.926226 3.822163
v 7.955470 1.595570 3.751938
v 9.193052 1.730309 4.396146
v 9.908846 0.796485 4.645857
v 9.875891 0.196657 4.984536
v 8.089380 2.226864 4.511958
v 6.979424 1.958505 4.461427
v 8.091767 2.198095 5.761717
v 9.084895 2.127584 5.451685
v 9.542759 1.260471 6.511900
v 10.028806 1.398067 5.627541
v 8.325346 1.671954 6.523676
v 7.381350 1.330769 6.294977
v 6.492042 1.064511 5.261209
v 7.810521 0.216075 6.114015
v 8.750923 0.799925 6.809517
v 6.871163 0.328961 4.736873
v 7.676248 0.252601 5.230284
v 9.083502 0.138247 5.515457
v 9.461205 0.250773 6.327377
v 10.119043 0.487969 5.752858
v 6.576190 0.984457 4.239238
v 6.813721 1.797179 5.476831
v 7.020107 1.339615 3.800043
v 11.444706 1.155651 4.013139
v 10.324277 0.941411 4.114338
v 9.702101 1.942911 3.161462
v 11.166575 2.346110 3.336839
v 10.129320 3.154643 3.210284
v 11.614386 3.298104 4.039816
v 12.479124 2.144484 4.373028
v 12.434092 1.289978 4.774576
v 10.273273 3.898185 4.122312
v 8.930455 3.588496 4.006224
v 10.249338 3.855890 5.610845
v 11.459409 3.765465 5.291566
v 11.993958 2.704936 6.577102
v 12.601408 2.882340 5.548349
v 10.517504 3.223199 6.529958
v 9.379839 2.814873 6.210012
v 8.325554 2.493489 4.934022
v 9.907608 1.288393 6.015815
v 11.029694 2.139085 6.891611
v 8.798786 1.470891 4.328451
v 9.765064 0.894182 4.956491
v 11.464087 0.766532 5.366916
v 11.902826 1.260463 6.352983
v 12.711103 1.678646 5.701928
v 8.449720 2.414610 3.721109
v 8.708323 3.391890 5.207163
v 8.995859 2.857410 3.220457
v 13.228807 0.017715 2.657668
v 11.569521 -0.039937 2.649485
v 10.221988 0.905204 1.652586
v 12.362277 1.128179 1.848176
v 10.747145 2.070611 1.712290
v 13.219721 1.903588 2.647523
v 14.717295 0.586346 3.168892
v 14.909886 -0.037456 3.584599
v 11.247862 2.707003 2.708300
v 9.327753 2.547595 2.587092
v 11.778767 2.515709 4.286001
v 13.444165 2.205938 3.943410
v 14.789658 0.920343 5.103195
v 15.185658 1.021091 4.212017
v 12.607940 1.720692 5.224531
v 10.845581 1.524212 4.929436
v 8.893106 1.430578 3.559526
v 11.693302 0.183770 4.687825
v 13.689299 0.562050 5.469332
v 9.402933 0.453547 2.890622
v 11.081619 0.185951 3.555582
v 13.877405 -0.046426 4.030608
v 14.766617 0.061529 4.893602
v 15.477422 0.162649 4.358073
v 8.633385 1.436495 2.268593
v 9.456938 2.269030 3.864063
v 9.183086 1.876294 1.742136
v -0.271621 2.104897 -0.057969
v -0.931869 4.915496 -0.067330
v -0.824346 4.845687 -0.359101
v -1.025606 5.031857 -0.281010
v 6.798245 1.192178 3.958439
v 6.849521 1.132706 5.856001
v 6.236778 2.650125 2.225492
v 9.779045 1.982901 1.672405
v 12.102880 3.353594 5.491291
v 8.050060 2.321958 5.069464
v 11.447107 2.834440 3.575459
v 8.358974 0.215788 3.957967
v 12.061366 1.173732 4.471341
v 8.595350 -0.012113 4.956460
v 7.633550 1.856404 6.099454
v 11.739464 0.381878 2.014657
v 7.336412 2.517159 3.170191
v -0.508166 4.829875 -0.131783
v 14.989908 -0.014432 4.279665
v 10.965809 3.859663 5.489489
v 9.709665 1.613338 5.027229
v 12.283180 0.057822 3.817662
v 10.770849 2.747286 6.778599
v 6.175517 2.699995 2.462481
v -0.939743 4.910144 -0.232012
v 0.051735 4.286725 0.245198
v 2.563041 3.640004 0.880320
v 8.416855 2.169461 2.667895
v 10.504790 2.120599 3.155110
v 15.190739 0.941851 4.701533
v 8.511471 2.988570 3.833390
v 9.241625 2.488285 3.102827
v 14.311947 0.231487 5.243415
v 12.132000 1.870586 6.578724
v 8.490957 0.126572 5.913099
v 7.145052 1.361790 4.247899
v 9.369947 2.015319 2.890005
v 3.317310 3.226479 1.506022
v 7.184714 2.355176 2.453130
v 0.284179 4.203918 -0.012068
v 6.068431 1.820716 3.373554
v 0.142025 2.405179 0.101807
v 10.165009 0.652487 5.221583
v 6.999695 1.620769 5.855690
v 8.721363 1.998621 2.398003
v -0.087237 3.275388 -0.155952
v -0.237864 0.753955 0.075489
v 0.869645 4.200798 0.505047
v 0.283988 0.332077 -0.104357
v 6.600687 0.614335 5.044820
v 11.297295 0.064214 3.131364
v 7.511415 0.731361 6.303596
v 0.153271 0.332076 0.254784
v 8.768490 2.058020 3.012741
v 7.918095 1.573817 6.464573
v 8.881744 1.704938 1.929878
v 14.431305 0.670777 5.396347
v 12.338169 2.054129 4.928415
v 8.403568 3.088392 4.412800
v 8.582137 2.257129 4.967839
v 9.838408 0.358300 6.100187
v 5.322992 2.977738 2.205065
v -0.188855 2.223898 -0.104167
v 8.920264 0.439670 4.019433
v 9.953225 0.389194 4.822790
v 5.556311 2.713693 2.404771
v 12.040193 1.622571 4.080044
v 8.188600 2.691038 3.756713
v 11.405289 2.756943 3.418579
v 11.174702 3.050326 6.629712
v 10.909559 3.678385 4.006942
v 7.453048 2.571793 3.088112
v 5.539694 2.606540 2.294955
v 11.776050 3.367113 5.998331
v 8.225046 2.284341 2.738625
v 10.304979 0.213850 3.303380
v 10.675290 2.751734 3.185058
v 6.931874 0.761949 3.942910
v 8.373217 2.070442 2.713986
v 9.310425 1.087340 4.721673
v 14.192631 1.641499 4.596562
v 12.151527 2.405607 2.592391
v 12.390497 -0.047093 2.612149
v 9.375988 1.926801 2.858156
v 9.330538 1.973311 2.976375
v 6.568941 1.504637 3.803141
v 11.526262 0.834653 4.641171
v 9.501233 1.179557 4.083354
v 6.965146 1.633783 4.011825
v 7.426918 2.476712 3.131071
v 5.439332 2.060909 2.910398
v 9.364462 2.452784 3.351664
v 1.626091 3.845153 0.779890
v 9.313816 3.656725 5.371461
v 12.602991 1.427304 5.159013
v 11.570263 3.631361 4.676607
v 3.387748 3.299976 1.352074
v 13.665030 -0.126530 3.308765
v 7.175899 2.409074 2.884375
v 3.384465 3.511868 1.559804
v -0.172932 2.509006 -0.009639
v 15.352137 0.332833 3.834804
v 0.193995 0.079145 -0.275639
v 0.124821 4.176458 -0.001071
v 10.328294 0.195578 2.613982
v 8.346197 0.461610 6.583472
v 14.616090 -0.077191 3.789827
v 11.140599 2.147623 4.708032
v 9.384856 0.857374 4.168500
v 2.479889 3.704861 1.199214
v 7.463323 2.217993 5.059109
v 7.864820 0.123918 4.095623
v 9.037930 0.850707 3.279562
v 12.325338 2.572801 3.322201
v 9.124079 -0.025890 4.904360
v 12.440561 2.809700 6.112464
v 6.237188 2.761025 2.333044
v 15.242981 0.095552 4.674562
v 10.881109 3.276690 3.506993
v 9.093143 1.353229 5.170227
v 14.450315 1.603259 4.131867
v 10.469756 0.774813 5.189332
v 11.863056 1.698003 5.155132
v 7.316147 2.023488 5.593517
v 10.898512 0.279722 2.129140
v 14.925575 0.153726 3.403786
v 10.021235 0.322788 5.301168
v 13.571259 0.869113 2.433962
v -0.184493 1.528323 0.214553
v 4.315773 3.188810 1.978500
v 7.446217 0.114511 4.506828
v 8.567904 1.462979 2.825004
v 8.887715 2.140206 3.386041
v 0.237060 0.760398 0.087531
v 7.127736 2.533031 2.882910
v 1.694975 4.013662 0.697145
v 0.831473 3.979945 0.468043
v 8.923819 3.206656 3.469977
v 4.363650 3.136345 1.685728
v -0.266286 1.475351 -0.075359
v 9.149495 2.212927 2.012131
v 5.297125 2.799563 2.019121
v -0.215567 3.275994 0.199432
v -0.025269 0.079145 0.326785
v 0.036203 0.332077 -0.320226
v 7.126265 0.275088 5.432914
v 9.166865 2.012200 4.931889
v 9.138381 1.145934 1.901292
v 9.904406 1.339969 6.106469
v 5.979116 1.867857 3.444152
v 8.260710 0.175727 5.401113
v 11.854359 2.244175 3.778162
v 8.580240 1.703417 3.974655
v 8.212530 2.596328 3.745295
v 12.740571 0.541808 2.156528
v 9.503040 3.889990 4.742446
v 13.410177 1.851961 4.806048
v 10.016856 1.325300 3.614712
v 6.549863 1.542597 4.821033
v 12.864969 0.326783 5.229496
v 7.220287 1.034792 3.692871
v 10.384872 2.729183 3.374679
v 12.828326 1.533061 2.138731
v 10.545423 1.684116 6.601950
v 5.219859 2.445346 2.572939
v 9.539194 2.049781 6.226685
v 5.030485 2.726115 2.163848
v 10.884842 0.752787 4.676598
v 9.056286 1.959970 3.724057
v 14.307690 -0.051010 3.232218
v 6.630003 1.454812 4.331157
v 9.654890 0.645425 6.508647
v -0.018654 1.528098 -0.242123
v 8.926014 3.176138 5.667693
v 6.492088 1.544221 3.900021
v 0.070440 2.404971 -0.146877
v 12.777552 1.946574 5.071557
v 9.541307 0.362143 4.415459
v 0.170584 4.520845 0.194074
v 8.537020 1.278723 6.723574
v 7.235395 2.576510 2.806803
v 0.217891 1.534596 -0.057085
v 15.219610 0.040471 3.919463
v 8.868536 1.531343 6.584509
v 8.612011 2.044781 4.393038
v -0.008342 0.760417 0.258739
v -0.179078 3.990600 0.033620
v 9.614017 0.615876 2.162173
v 12.227032 3.148464 4.817384
v 9.355778 1.797353 6.033737
v 7.298186 0.211516 5.049061
v 9.687965 3.450957 5.989952
v 8.231429 2.656380 3.714900
v 8.404572 1.259901 3.711840
v 5.386772 2.537766 2.645110
v 10.860342 3.926780 4.690052
v 10.737371 0.870010 5.810698
v 7.874950 2.568322 3.438034
v 15.091677 0.818810 3.702357
v 10.025693 3.108597 6.439055
v 6.888264 2.459637 2.645414
v 13.372333 2.138520 3.311963
v 11.296027 1.746672 3.577161
v 12.530430 1.616907 4.585890
v 7.770074 2.630986 3.508699
v 9.446470 2.997639 3.163823
v 0.169837 4.270185 0.304089
v 10.159615 0.329809 3.796172
v 10.005474 0.766996 4.177441
v 12.364319 1.410408 6.101415
v 8.463361 1.898076 4.681671
v 11.591415 2.352087 6.863862
v 0.053026 4.436058 0.066469
v 8.812031 0.951250 2.503761
v 11.550411 1.602465 1.669648
v 7.703648 1.321345 4.486836
v 1.748911 3.974140 0.509556
v 11.941845 2.068770 2.042154
v 10.336311 2.734763 2.615491
v 9.610209 0.141642 5.225791
v 0.159066 0.760380 -0.201383
v 4.202504 3.026638 1.922869
v 9.918745 2.445863 2.021143
v 14.053748 0.266050 2.817955
v 6.858412 1.920902 5.070281
v 15.094056 0.333919 5.088507
v 7.362542 2.612239 3.127232
v 9.989260 0.805233 6.219634
v 7.200561 1.434622 4.230124
v 10.011423 0.875459 4.566337
v 7.140021 0.394849 4.152916
v 0.900649 3.932444 0.256853
v 9.563660 0.094489 4.743135
v 5.505304 2.414388 2.609924
v -0.072047 2.405386 0.246521
v 7.385751 2.354766 2.715319
v 4.374522 3.266896 1.819046
v -1.035147 4.994729 -0.198583
v 0.022187 3.275900 0.223284
v 13.617613 1.396653 5.235644
v -0.247654 0.332077 -0.094500
v 10.445802 3.504364 6.236489
v 9.617754 1.785147 5.596931
v 8.680919 2.205014 5.634927
v 8.875977 1.867744 6.219085
v 9.047176 1.337849 4.012478
v 7.202704 2.477971 2.474671
v 0.037398 4.211965 0.238327
v 8.262156 0.736659 3.692806
v 11.496395 1.654462 6.704010
v 13.165373 1.161858 5.413047
v 8.500010 1.961460 3.954069
v 10.213342 4.007812 4.784324
v 9.506161 1.490313 1.603485
v 7.249732 1.413396 4.166026
v 11.310139 0.131558 4.054277
v 9.792588 0.979725 5.412119
v 10.618086 1.470525 3.475662
v 9.747034 1.417773 4.345778
v 0.244340 4.472544 -0.009941
v 8.724117 2.678349 3.397904
v 8.745616 2.573424 5.660400
v 12.771822 2.317864 5.705292
v 6.236637 2.527316 2.454098
v 7.190723 1.335378 4.179849
v 5.960422 1.724025 3.351230
v 10.943262 2.481712 2.150239
v 3.315266 3.357395 1.634413
v 9.950562 1.984462 4.360266
v 8.771548 0.154787 6.317069
v 15.434807 0.422222 4.812919
v 7.784503 1.108446 3.601547
v 7.748992 1.298036 4.423652
v 7.753695 1.343947 4.447690
v 6.437747 1.042431 4.685011
v 1.713365 3.781136 0.476364
v 2.555121 3.788896 1.023797
v -0.127556 3.990923 0.211804
v 0.040787 4.059859 0.110433
v 9.486084 3.489061 3.485642
v 8.041389 1.012213 6.639857
v 8.006338 1.979524 4.082665
v -0.250684 0.079145 0.114447
v 12.649366 2.548604 4.964358
v 9.309258 0.153997 5.997936
v 5.875376 1.777603 3.429811
v 9.639669 1.287241 4.497019
v -0.026033 3.990277 -0.070107
v 8.437937 3.051220 5.079807
v 7.138278 2.304836 2.557604
v 14.390081 1.483686 3.486280
v 12.268760 1.115650 5.612806
v 9.654341 3.844019 4.035896
v 12.926678 -0.002358 4.469122
v 6.924965 2.569642 2.591892
v 11.168154 0.801588 4.921953
v 10.058944 1.127092 5.135966
v 10.430470 1.518878 1.502127
v 10.872097 0.976654 4.036806
v 6.196069 2.515106 2.292449
v 5.051165 2.835900 2.278357
v 12.785153 2.392028 4.137899
v 8.918036 1.876387 5.515176
v 10.173058 2.415559 6.653897
v 0.115397 1.534735 0.225157
v 5.454548 2.156308 2.985095
v 13.559022 0.019249 4.913237
v -0.240074 2.224026 0.037148
v 4.298208 2.977653 1.762778
v 8.251644 2.254805 2.786466
v 9.328442 1.890440 2.936121
v 1.637459 3.701361 0.643440
v 10.170524 0.946477 5.753414
v 6.484050 1.466705 3.859226
v 5.605170 2.163736 2.980039
v 6.588087 1.513465 5.379479
v 3.423841 3.477661 1.383618
v 0.981573 4.124054 0.163335
v 7.556314 2.427926 2.681864
v 0.962412 4.289788 0.316728
v 0.110505 3.275483 -0.021295
v -0.115171 0.079145 -0.257872
v -0.175301 0.332076 0.260876
v 6.988092 0.597751 5.728311
v 7.429734 1.873966 4.005307
v 9.751656 0.245126 5.693635
v -0.358828 4.642676 -0.237749
v 0.151373 4.243288 -0.027345
v 8.262414 1.906031 6.279881
v 7.577473 2.176975 4.461035
v 8.272246 2.471683 4.245053
v 8.575766 -0.086738 4.420052
v 8.169700 2.630986 3.787108
v 11.190565 3.453814 6.194947
v 10.182661 3.608452 3.606809
v 7.873560 0.094813 4.894358
v 6.576980 1.582153 3.843935
v 12.267805 0.972582 5.320971
v 11.067858 1.144304 6.305981
v 2.441314 3.503908 1.164152
v 12.154661 2.756067 4.182333
v 9.926921 2.572951 3.022470
v 7.840073 2.662558 3.443691
v 7.314581 2.476361 2.857498
v 14.414148 -0.029334 4.564000
v -0.986990 4.963462 -0.329261
v 11.726670 0.950642 5.952929
v 2.492738 3.463868 0.967048
v 11.359646 1.009659 1.641180
v 7.391226 1.459767 3.736789
v 14.106647 1.232950 2.879019
v 12.542686 2.117684 6.251387
v 7.705960 0.196684 5.611583
v 15.508371 0.539635 4.365786
v 5.589954 2.068336 2.905343
v 9.132046 0.472121 6.635966
v 8.336768 2.097850 2.819002
v 7.698943 1.275433 4.462798
v 0.226996 4.124550 0.169499
v 0.249557 0.079145 0.085699
v 12.107767 1.010568 5.048482
v 10.360066 2.458094 4.044747
v 7.804952 2.536750 3.503041
v 9.136650 1.643643 3.646535
v 8.770850 3.540509 4.725251
v 9.214273 0.980579 6.766609
v 5.336074 2.952885 2.047871
v -0.476243 4.718908 0.080863
v 5.354701 2.369766 2.488015
v -0.134400 0.753932 -0.208882
v 12.704063 -0.087051 3.274946
v 6.620193 0.648876 4.433053
v 0.194008 1.534666 0.093996
v -0.035615 1.534770 0.249038
v -0.253300 1.498617 0.077554
v 0.117458 1.534562 -0.172485
v -0.158696 1.498489 -0.182961
v -0.508492 4.790476 0.000465
v -0.428277 4.738396 -0.217204
v -0.406468 4.662586 -0.071929
v 0.102570 4.281166 0.105739
v -0.084253 4.146204 0.072912
v 0.066765 4.157183 0.122730
v 7.801277 2.657027 3.476811
v 7.779895 2.580432 3.512945
v 7.865130 2.618876 3.433788
v 7.843747 2.542281 3.469922
v 7.252169 2.430523 2.873774
v 7.288393 2.532463 2.826547
v 7.138412 2.465025 2.889246
v 7.161656 1.340375 4.215593
v 7.225388 1.371794 4.165747
v 7.167646 1.400799 4.246202
v 7.231378 1.432218 4.196356
v 5.917758 1.828210 3.445099
v 6.035296 1.854458 3.410849
v 5.906376 1.740641 3.388525
v 6.023915 1.766889 3.354274
v 5.443789 2.381251 2.542434
v 5.463315 2.483534 2.638078
v 6.205185 2.611126 2.473166
v 5.270002 2.400099 2.519917
v 2.454144 3.602143 1.200676
v 2.519069 3.764716 1.120608
v 2.530916 3.542304 0.906320
v 2.566502 3.727714 0.938693
v 2.461475 3.464662 1.068234
v 8.385509 2.153350 2.830581
v 8.399321 2.114348 2.680697
v 7.174635 2.566965 2.842019
v 8.346847 2.073328 2.768857
v 8.403849 2.218064 2.707151
v 6.202457 2.745157 2.403518
v 6.217896 2.505400 2.376357
v 6.243315 2.715306 2.269470
v 5.289528 2.502382 2.615561
v 6.213338 2.576578 2.245053
v 4.250989 3.106309 1.966890
v 4.335975 3.047664 1.709521
v 4.352198 3.242597 1.908634
v 4.240970 2.985856 1.843828
v 4.374527 3.213916 1.740048
v 0.916997 4.265002 0.420595
v 0.859989 3.935164 0.365330
v 0.980848 4.221229 0.225662
v 0.842302 4.088258 0.506914
v 0.945614 4.017378 0.191506
v -0.175099 3.275692 0.013115
v 0.023423 3.275380 -0.121270
v -0.108479 3.276003 0.244004
v 0.090043 3.275691 0.109619
v 0.181232 0.332077 -0.242111
v -0.242702 0.332076 0.095007
v 0.248015 0.332076 0.085909
v -0.122048 0.332077 -0.236488
v -0.013991 0.332076 0.294259
vt 0.1840 0.0351
vt 0.1809 0.0613
vt 0.1661 0.0599
vt 0.1694 0.0331
vt 0.1207 0.0319
vt 0.1212 0.0584
vt 0.1063 0.0579
vt 0.1045 0.0310
vt 0.0585 0.0360
vt 0.0624 0.0614
vt 0.0480 0.0633
vt 0.0417 0.0384
vt 0.1532 0.0329
vt 0.1511 0.0595
vt 0.1361 0.0590
vt 0.1369 0.0327
vt 0.0899 0.0323
vt 0.0916 0.0587
vt 0.0768 0.0596
vt 0.0753 0.0335
vt 0.0747 0.2736
vt 0.0787 0.3443
vt 0.0677 0.3446
vt 0.0628 0.2743
vt 0.1701 0.2732
vt 0.1666 0.3438
vt 0.1558 0.3436
vt 0.1583 0.2727
vt 0.0986 0.2729
vt 0.1010 0.3442
vt 0.0898 0.3441
vt 0.0865 0.2730
vt 0.3202 0.9373
vt 0.3310 0.9371
vt 0.3321 0.9762
vt 0.3221 0.9764
vt 0.1028 0.4081
vt 0.1046 0.4720
vt 0.0952 0.4724
vt 0.0925 0.4083
vt 0.1643 0.4090
vt 0.1619 0.4741
vt 0.1521 0.4741
vt 0.1540 0.4089
vt 0.1233 0.4082
vt 0.1234 0.4721
vt 0.1140 0.4716
vt 0.1130 0.4079
vt 0.0822 0.4090
vt 0.0856 0.4736
vt 0.0761 0.4747
vt 0.0719 0.4096
vt 0.1438 0.4086
vt 0.1425 0.4734
vt 0.1328 0.4727
vt 0.1336 0.4084
vt 0.1245 0.3205
vt 0.1268 0.4015
vt 0.1153 0.4002
vt 0.1123 0.3199
vt 0.0751 0.3185
vt 0.0803 0.3957
vt 0.0685 0.3900
vt 0.0626 0.3160
vt 0.1491 0.3220
vt 0.1497 0.4040
vt 0.1383 0.4027
vt 0.1367 0.3212
vt 0.1000 0.3205
vt 0.1037 0.4008
vt 0.0921 0.4015
vt 0.0877 0.3210
vt 0.1740 0.3187
vt 0.1729 0.3971
vt 0.1611 0.4054
vt 0.1614 0.3228
vt 0.1045 0.4725
vt 0.1053 0.5441
vt 0.0964 0.5436
vt 0.0943 0.4726
vt 0.2032 0.5895
vt 0.2113 0.5885
vt 0.2090 0.6201
vt 0.2024 0.6219
vt 0.1248 0.4726
vt 0.1229 0.5437
vt 0.1141 0.5447
vt 0.1147 0.4725
vt 0.0844 0.4765
vt 0.0876 0.5425
vt 0.0788 0.5413
vt 0.0746 0.4804
vt 0.1452 0.4717
vt 0.1407 0.5393
vt 0.1316 0.5426
vt 0.1350 0.4726
vt 0.1268 0.6416
vt 0.1307 0.7397
vt 0.1229 0.7414
vt 0.1185 0.6431
vt 0.0955 0.6413
vt 0.1034 0.7401
vt 0.0969 0.7394
vt 0.0879 0.6403
vt 0.1357 0.6859
vt 0.1399 0.6864
vt 0.1398 0.7006
vt 0.1357 0.7007
vt 0.1108 0.6427
vt 0.1164 0.7412
vt 0.1099 0.7409
vt 0.1031 0.6423
vt 0.1513 0.6431
vt 0.1468 0.7384
vt 0.1385 0.7379
vt 0.1425 0.6467
vt 0.0872 0.5508
vt 0.0887 0.6281
vt 0.0799 0.6303
vt 0.0780 0.5525
vt 0.1240 0.5487
vt 0.1247 0.6253
vt 0.1157 0.6239
vt 0.1148 0.5477
vt 0.1056 0.5484
vt 0.1066 0.6249
vt 0.0975 0.6259
vt 0.0963 0.5491
vt 0.1424 0.5510
vt 0.1424 0.6285
vt 0.1337 0.6268
vt 0.1332 0.5497
vt 0.1610 0.5521
vt 0.1599 0.6301
vt 0.1511 0.6303
vt 0.1516 0.5522
vt 0.1612 0.5882
vt 0.1682 0.5888
vt 0.1681 0.6227
vt 0.1620 0.6212
vt 0.1650 0.4761
vt 0.1747 0.4815
vt 0.1671 0.5423
vt 0.1584 0.5391
vt 0.1890 0.5945
vt 0.1952 0.5904
vt 0.1957 0.6237
vt 0.1894 0.6259
vt 0.1756 0.5936
vt 0.1829 0.5985
vt 0.1831 0.6282
vt 0.1756 0.6255
vt 0.1747 0.6833
vt 0.1812 0.6852
vt 0.1793 0.7422
vt 0.1738 0.7411
vt 0.1628 0.6804
vt 0.1682 0.6813
vt 0.1684 0.7399
vt 0.1635 0.7395
vt 0.1866 0.6839
vt 0.1919 0.6826
vt 0.1882 0.7414
vt 0.1838 0.7418
vt 0.1979 0.6815
vt 0.2038 0.6804
vt 0.1986 0.7407
vt 0.1934 0.7411
vt 0.1801 0.7965
vt 0.1834 0.7964
vt 0.1787 0.8513
vt 0.1764 0.8512
vt 0.1874 0.7960
vt 0.1914 0.7957
vt 0.1843 0.8506
vt 0.1815 0.8510
vt 0.1726 0.7957
vt 0.1767 0.7967
vt 0.1741 0.8511
vt 0.1713 0.8504
vt 0.1647 0.7947
vt 0.1684 0.7948
vt 0.1685 0.8497
vt 0.1660 0.8498
vt 0.1101 0.6859
vt 0.1143 0.6856
vt 0.1146 0.7012
vt 0.1105 0.7009
vt 0.1277 0.6877
vt 0.1316 0.6854
vt 0.1316 0.7008
vt 0.1272 0.7012
vt 0.1390 0.5490
vt 0.1350 0.6402
vt 0.1190 0.6878
vt 0.1238 0.6899
vt 0.1228 0.7017
vt 0.1187 0.7014
vt 0.1196 0.7348
vt 0.1226 0.7350
vt 0.1225 0.7684
vt 0.1206 0.7682
vt 0.1258 0.7348
vt 0.1289 0.7345
vt 0.1261 0.7682
vt 0.1243 0.7683
vt 0.1132 0.7345
vt 0.1167 0.7347
vt 0.1187 0.7681
vt 0.1160 0.7681
vt 0.1323 0.7344
vt 0.1357 0.7344
vt 0.1315 0.7681
vt 0.1288 0.7681
vt 0.4668 0.0647
vt 0.4672 0.0681
vt 0.4614 0.0673
vt 0.4565 0.0611
vt 0.4528 0.0617
vt 0.4542 0.0569
vt 0.4560 0.0699
vt 0.4526 0.0661
vt 0.4563 0.0655
vt 0.4592 0.0576
vt 0.4619 0.0541
vt 0.4653 0.0554
vt 0.4643 0.0594
vt 0.4520 0.0528
vt 0.4506 0.0575
vt 0.4461 0.0542
vt 0.4402 0.0555
vt 0.4447 0.0588
vt 0.4384 0.0617
vt 0.4107 0.0400
vt 0.4168 0.0427
vt 0.4091 0.0472
vt 0.3973 0.0510
vt 0.4002 0.0599
vt 0.3943 0.0591
vt 0.4448 0.0400
vt 0.4527 0.0400
vt 0.4484 0.0464
vt 0.4102 0.0620
vt 0.4089 0.0582
vt 0.4137 0.0631
vt 0.4173 0.0642
vt 0.4221 0.0635
vt 0.4193 0.0703
vt 0.4139 0.0677
vt 0.4104 0.0713
vt 0.4067 0.0701
vt 0.4103 0.0667
vt 0.4066 0.0654
vt 0.4214 0.0764
vt 0.4241 0.0696
vt 0.4290 0.0734
vt 0.4739 0.0820
vt 0.4676 0.0835
vt 0.4707 0.0768
vt 0.4675 0.0715
vt 0.4737 0.0685
vt 0.4145 0.0907
vt 0.4115 0.0864
vt 0.4180 0.0835
vt 0.4085 0.0821
vt 0.4026 0.0822
vt 0.4731 0.0481
vt 0.4675 0.0511
vt 0.4668 0.0441
vt 0.4030 0.0688
vt 0.4057 0.0755
vt 0.4365 0.0574
vt 0.4365 0.0640
vt 0.4317 0.0601
vt 0.4269 0.0627
vt 0.4237 0.0600
vt 0.4248 0.0541
vt 0.4478 0.0711
vt 0.4485 0.0666
vt 0.4519 0.0705
vt 0.4487 0.0758
vt 0.4496 0.0805
vt 0.4528 0.0752
vt 0.4555 0.0828
vt 0.4617 0.0629
vt 0.4425 0.0477
vt 0.4040 0.0455
vt 0.4024 0.0527
vt 0.4075 0.0544
vt 0.4151 0.0499
vt 0.4140 0.0558
vt 0.4563 0.0464
vt 0.4570 0.0534
vt 0.4124 0.0593
vt 0.4189 0.0608
vt 0.4315 0.0838
vt 0.4265 0.0801
vt 0.4340 0.0772
vt 0.4645 0.0783
vt 0.4618 0.0707
vt 0.4769 0.0737
vt 0.4799 0.0654
vt 0.4733 0.0650
vt 0.4743 0.0611
vt 0.4230 0.0873
vt 0.4150 0.0792
vt 0.4159 0.0738
vt 0.4765 0.0567
vt 0.4708 0.0525
vt 0.3968 0.0824
vt 0.3940 0.0749
vt 0.3999 0.0756
vt 0.4297 0.0514
vt 0.4431 0.0741
vt 0.4421 0.0694
vt 0.5947 0.0647
vt 0.5950 0.0681
vt 0.5893 0.0673
vt 0.5844 0.0611
vt 0.5808 0.0617
vt 0.5821 0.0569
vt 0.5839 0.0699
vt 0.5805 0.0661
vt 0.5841 0.0655
vt 0.5871 0.0576
vt 0.5899 0.0541
vt 0.5933 0.0554
vt 0.5923 0.0594
vt 0.5799 0.0528
vt 0.5785 0.0575
vt 0.5740 0.0542
vt 0.5681 0.0555
vt 0.5726 0.0588
vt 0.5662 0.0617
vt 0.5386 0.0400
vt 0.5447 0.0427
vt 0.5371 0.0472
vt 0.5252 0.0510
vt 0.5281 0.0599
vt 0.5222 0.0591
vt 0.5728 0.0400
vt 0.5806 0.0400
vt 0.5763 0.0464
vt 0.5381 0.0620
vt 0.5368 0.0582
vt 0.5416 0.0631
vt 0.5452 0.0642
vt 0.5500 0.0635
vt 0.5473 0.0703
vt 0.5418 0.0677
vt 0.5384 0.0713
vt 0.5347 0.0701
vt 0.5382 0.0667
vt 0.5346 0.0654
vt 0.5494 0.0764
vt 0.5521 0.0696
vt 0.5569 0.0734
vt 0.6018 0.0820
vt 0.5956 0.0835
vt 0.5986 0.0768
vt 0.5954 0.0715
vt 0.6016 0.0685
vt 0.5424 0.0907
vt 0.5394 0.0864
vt 0.5459 0.0835
vt 0.5364 0.0821
vt 0.5306 0.0822
vt 0.6011 0.0481
vt 0.5955 0.0511
vt 0.5948 0.0441
vt 0.5310 0.0688
vt 0.5337 0.0755
vt 0.5644 0.0574
vt 0.5644 0.0640
vt 0.5596 0.0601
vt 0.5548 0.0627
vt 0.5516 0.0600
vt 0.5527 0.0541
vt 0.5757 0.0711
vt 0.5764 0.0666
vt 0.5798 0.0705
vt 0.5766 0.0758
vt 0.5775 0.0805
vt 0.5807 0.0752
vt 0.5834 0.0828
vt 0.5896 0.0629
vt 0.5704 0.0477
vt 0.5319 0.0455
vt 0.5303 0.0527
vt 0.5355 0.0544
vt 0.5431 0.0499
vt 0.5419 0.0558
vt 0.5842 0.0464
vt 0.5849 0.0534
vt 0.5403 0.0593
vt 0.5468 0.0608
vt 0.5594 0.0838
vt 0.5544 0.0801
vt 0.5619 0.0772
vt 0.5924 0.0783
vt 0.5896 0.0707
vt 0.6048 0.0737
vt 0.6078 0.0654
vt 0.6012 0.0650
vt 0.6022 0.0611
vt 0.5509 0.0873
vt 0.5429 0.0792
vt 0.5439 0.0738
vt 0.6044 0.0567
vt 0.5989 0.0525
vt 0.5247 0.0824
vt 0.5219 0.0749
vt 0.5279 0.0756
vt 0.5576 0.0514
vt 0.5710 0.0741
vt 0.5701 0.0694
vt 0.4668 0.0647
vt 0.4672 0.0681
vt 0.4614 0.0673
vt 0.4565 0.0611
vt 0.4528 0.0617
vt 0.4542 0.0569
vt 0.4560 0.0699
vt 0.4526 0.0661
vt 0.4563 0.0655
vt 0.4592 0.0576
vt 0.4619 0.0541
vt 0.4653 0.0554
vt 0.4643 0.0594
vt 0.4520 0.0528
vt 0.4506 0.0575
vt 0.4461 0.0542
vt 0.4402 0.0555
vt 0.4447 0.0588
vt 0.4384 0.0617
vt 0.4107 0.0400
vt 0.4168 0.0427
vt 0.4091 0.0472
vt 0.3973 0.0510
vt 0.4002 0.0599
vt 0.3943 0.0591
vt 0.4448 0.0400
vt 0.4527 0.0400
vt 0.4484 0.0464
vt 0.4102 0.0620
vt 0.4089 0.0582
vt 0.4137 0.0631
vt 0.4173 0.0642
vt 0.4221 0.0635
vt 0.4193 0.0703
vt 0.4139 0.0677
vt 0.4104 0.0713
vt 0.4067 0.0701
vt 0.4103 0.0667
vt 0.4066 0.0654
vt 0.4214 0.0764
vt 0.4241 0.0696
vt 0.4290 0.0734
vt 0.4739 0.0820
vt 0.4676 0.0835
vt 0.4707 0.0768
vt 0.4675 0.0715
vt 0.4737 0.0685
vt 0.4145 0.0907
vt 0.4115 0.0864
vt 0.4180 0.0835
vt 0.4085 0.0821
vt 0.4026 0.0822
vt 0.4731 0.0481
vt 0.4675 0.0511
vt 0.4668 0.0441
vt 0.4030 0.0688
vt 0.4057 0.0755
vt 0.4365 0.0574
vt 0.4365 0.0640
vt 0.4317 0.0601
vt 0.4269 0.0627
vt 0.4237 0.0600
vt 0.4248 0.0541
vt 0.4478 0.0711
vt 0.4485 0.0666
vt 0.4519 0.0705
vt 0.4487 0.0758
vt 0.4496 0.0805
vt 0.4528 0.0752
vt 0.4555 0.0828
vt 0.4617 0.0629
vt 0.4425 0.0477
vt 0.4040 0.0455
vt 0.4024 0.0527
vt 0.4075 0.0544
vt 0.4151 0.0499
vt 0.4140 0.0558
vt 0.4563 0.0464
vt 0.4570 0.0534
vt 0.4124 0.0593
vt 0.4189 0.0608
vt 0.4315 0.0838
vt 0.4265 0.0801
vt 0.4340 0.0772
vt 0.4645 0.0783
vt 0.4618 0.0707
vt 0.4769 0.0737
vt 0.4799 0.0654
vt 0.4733 0.0650
vt 0.4743 0.0611
vt 0.4230 0.0873
vt 0.4150 0.0792
vt 0.4159 0.0738
vt 0.4765 0.0567
vt 0.4708 0.0525
vt 0.3968 0.0824
vt 0.3940 0.0749
vt 0.3999 0.0756
vt 0.4297 0.0514
vt 0.4431 0.0741
vt 0.4421 0.0694
vt 0.0787 0.3443
vt 0.0898 0.3441
vt 0.0898 0.3441
vt 0.0787 0.3443
vt 0.0677 0.3446
vt 0.1117 0.3441
vt 0.0677 0.3446
vt 0.1010 0.3442
vt 0.3223 0.9822
vt 0.3142 0.9824
vt 0.3122 0.9766
vt 0.3066 0.8985
vt 0.3122 0.8931
vt 0.3183 0.8982
vt 0.2975 0.9009
vt 0.2988 0.8943
vt 0.3050 0.8941
vt 0.3055 0.9017
vt 0.2952 0.9365
vt 0.3057 0.9384
vt 0.3055 0.9675
vt 0.2943 0.9654
vt 0.2927 0.9837
vt 0.2878 0.9735
vt 0.2991 0.9756
vt 0.1193 0.4219
vt 0.1040 0.4354
vt 0.1040 0.3622
vt 0.1194 0.3383
vt 0.1508 0.4182
vt 0.1346 0.4085
vt 0.1348 0.3144
vt 0.1515 0.3343
vt 0.1217 0.1269
vt 0.1222 0.1954
vt 0.1092 0.2011
vt 0.1077 0.1295
vt 0.0939 0.1301
vt 0.0962 0.2015
vt 0.0833 0.2019
vt 0.0801 0.1308
vt 0.1496 0.1276
vt 0.1481 0.1957
vt 0.1353 0.1897
vt 0.1357 0.1244
vt 0.1773 0.1319
vt 0.1737 0.2025
vt 0.1609 0.2018
vt 0.1635 0.1309
vt 0.0665 0.1322
vt 0.0706 0.2029
vt 0.0579 0.2039
vt 0.0530 0.1336
vt 0.1957 0.0626
vt 0.1911 0.1330
vt 0.1865 0.2033
vt 0.1670 0.4279
vt 0.1683 0.3542
vt 0.1656 0.5016
vt 0.1500 0.5021
vt 0.1345 0.5026
vt 0.1192 0.5056
vt 0.1040 0.5085
vt 0.2830 0.9634
vt 0.2846 0.9346
vt 0.2863 0.9057
vt 0.2961 0.9075
vt 0.3059 0.9093
vt 0.2895 0.9001
vt 0.2927 0.8944
vt 0.3238 0.8929
vt 0.3299 0.8980
vt 0.3178 0.8877
vt 0.3303 0.9821
vt 0.3286 0.9880
vt 0.3224 0.9881
vt 0.3163 0.9882
vt 0.1010 0.3442
vt 0.1121 0.3443
vt 0.1117 0.3441
vt 0.1558 0.3436
vt 0.4428 0.0650
vt 0.4492 0.0622
vt 0.4365 0.0678
vt 0.4228 0.0454
vt 0.3971 0.0680
vt 0.3912 0.0673
vt 0.4686 0.0568
vt 0.4094 0.0767
vt 0.4677 0.0608
vt 0.4587 0.0774
vt 0.4614 0.0850
vt 0.4365 0.0705
vt 0.4205 0.0573
vt 0.4613 0.0470
vt 0.4606 0.0400
vt 0.4053 0.0616
vt 0.4216 0.0514
vt 0.4317 0.0666
vt 0.4057 0.0865
vt 0.5708 0.0650
vt 0.5772 0.0622
vt 0.5644 0.0678
vt 0.5507 0.0454
vt 0.5251 0.0680
vt 0.5191 0.0673
vt 0.5966 0.0568
vt 0.5374 0.0767
vt 0.5956 0.0608
vt 0.5866 0.0774
vt 0.5893 0.0850
vt 0.5644 0.0705
vt 0.5484 0.0573
vt 0.5892 0.0470
vt 0.5885 0.0400
vt 0.5332 0.0616
vt 0.5495 0.0514
vt 0.5596 0.0666
vt 0.5336 0.0865
vt 0.4428 0.0650
vt 0.4492 0.0622
vt 0.4365 0.0678
vt 0.4228 0.0454
vt 0.3971 0.0680
vt 0.3912 0.0673
vt 0.4686 0.0568
vt 0.4094 0.0767
vt 0.4677 0.0608
vt 0.4587 0.0774
vt 0.4614 0.0850
vt 0.4365 0.0705
vt 0.4205 0.0573
vt 0.4613 0.0470
vt 0.4606 0.0400
vt 0.4053 0.0616
vt 0.4216 0.0514
vt 0.4317 0.0666
vt 0.4057 0.0865
vt 0.1098 0.7343
vt 0.1132 0.7680
vt 0.1064 0.7006
vt 0.1140 0.6701
vt 0.1194 0.6741
vt 0.1247 0.6781
vt 0.1464 0.5555
vt 0.1282 0.6741
vt 0.1316 0.6701
vt 0.1058 0.6861
vt 0.1052 0.6715
vt 0.1096 0.6708
vt 0.1610 0.7946
vt 0.1634 0.8499
vt 0.1586 0.7392
vt 0.1573 0.6794
vt 0.1559 0.6196
vt 0.1684 0.5548
vt 0.1755 0.5618
vt 0.1827 0.5689
vt 0.1887 0.5630
vt 0.1947 0.5571
vt 0.1554 0.4707
vt 0.1497 0.5359
vt 0.1717 0.4130
vt 0.1823 0.4207
vt 0.1542 0.5877
vt 0.1524 0.5559
vt 0.1604 0.5553
vt 0.1718 0.4741
vt 0.1703 0.5519
vt 0.1688 0.6298
vt 0.1558 0.5479
vt 0.1652 0.5402
vt 0.1601 0.6395
vt 0.1550 0.7389
vt 0.1358 0.6711
vt 0.1400 0.6722
vt 0.0812 0.4104
vt 0.0703 0.4194
vt 0.2041 0.5570
vt 0.2136 0.5570
vt 0.1750 0.2404
vt 0.1617 0.2402
vt 0.1883 0.2405
vt 0.1865 0.3146
vt 0.1848 0.3887
vt 0.0962 0.2401
vt 0.0832 0.2406
vt 0.1093 0.2396
vt 0.1484 0.2399
vt 0.1352 0.2396
vt 0.0700 0.2413
vt 0.0568 0.2420
vt 0.1222 0.2396
vt 0.1451 0.3439
vt 0.1344 0.3441
vt 0.1232 0.3442
vt 0.1666 0.3438
vt 0.1774 0.3440
vt 0.1746 0.4090
vt 0.3094 0.9376
vt 0.1107 0.2727
vt 0.1121 0.3443
vt 0.1820 0.2736
vt 0.1774 0.3440
vt 0.0883 0.0058
vt 0.0738 0.0075
vt 0.1028 0.0041
vt 0.1553 0.0065
vt 0.1378 0.0065
vt 0.1728 0.0064
vt 0.0545 0.0105
vt 0.0353 0.0135
vt 0.1203 0.0053
vt 0.1872 0.0089
vt 0.2016 0.0114
vt 0.1987 0.0370
vn 0.0142 0.0818 0.9965
vn -0.0141 0.0448 0.9989
vn -0.6258 0.0321 0.7793
vn -0.6406 0.0790 0.7638
vn -0.6161 0.0301 -0.7871
vn -0.5832 0.0234 -0.8120
vn 0.0224 0.0693 -0.9973
vn 0.0009 0.0930 -0.9957
vn 0.9398 0.0083 0.3415
vn 0.9394 0.0389 0.3407
vn 0.5804 0.0419 0.8132
vn 0.6056 0.0378 0.7949
vn -0.9783 0.0219 0.2060
vn -0.9693 0.0014 0.2459
vn -0.9390 -0.0012 -0.3439
vn -0.9393 0.0010 -0.3431
vn 0.6504 0.0959 -0.7535
vn 0.6294 0.0817 -0.7728
vn 0.9655 0.0641 -0.2526
vn 0.9741 0.0463 -0.2215
vn 0.9391 0.0480 0.3404
vn 0.9383 0.0429 0.3433
vn 0.4039 0.4482 0.7975
vn 0.5467 0.0320 0.8367
vn -0.1488 0.0076 0.9888
vn -0.3688 0.4528 0.8118
vn -0.8720 0.2236 0.4355
vn -0.8791 -0.0024 0.4767
vn 0.5118 0.0618 -0.8569
vn 0.2163 0.4927 -0.8429
vn 0.8220 0.4418 -0.3594
vn 0.9517 0.0645 -0.3002
vn -0.9407 -0.0028 -0.3391
vn -0.8481 0.4314 -0.3075
vn 0.1523 -0.4698 -0.8695
vn 0.2239 -0.4991 -0.8371
vn -0.0530 -0.8851 -0.4624
vn -0.1039 -0.8772 -0.4688
vn -0.3344 -0.0918 0.9379
vn -0.4124 -0.0824 0.9073
vn -0.2043 0.5020 0.8404
vn -0.1406 0.4648 0.8742
vn 0.4266 0.6182 -0.6602
vn 0.4720 0.6216 -0.6252
vn 0.4252 0.0720 -0.9022
vn 0.3452 0.0889 -0.9343
vn -0.3182 -0.9427 0.1005
vn -0.3193 -0.9421 0.1021
vn -0.4538 -0.6424 0.6176
vn -0.4042 -0.6531 0.6404
vn 0.1174 0.8593 0.4978
vn 0.0821 0.8876 0.4532
vn 0.3460 0.9310 -0.1163
vn 0.3474 0.9319 -0.1042
vn 0.4029 0.6398 -0.6545
vn 0.3618 0.6505 -0.6678
vn 0.3003 0.1047 -0.9481
vn 0.3531 0.0920 -0.9311
vn -0.3066 -0.9483 0.0818
vn -0.4156 -0.8948 -0.1632
vn -0.6520 -0.5039 0.5665
vn -0.4252 -0.6283 0.6515
vn 0.0853 0.8765 0.4739
vn 0.1017 0.8666 0.4885
vn 0.2886 0.9503 -0.1166
vn 0.3014 0.9466 -0.1147
vn 0.1669 -0.5008 -0.8494
vn 0.1185 -0.5052 -0.8548
vn -0.0502 -0.7754 -0.6294
vn -0.0722 -0.8747 -0.4793
vn -0.3547 -0.0343 0.9344
vn -0.4163 0.2514 0.8738
vn -0.0487 0.6622 0.7477
vn -0.1427 0.5257 0.8386
vn 0.0851 -0.4832 -0.8714
vn 0.0794 -0.4609 -0.8839
vn -0.0920 -0.8841 -0.4581
vn -0.0735 -0.8675 -0.4919
vn -0.5120 0.4658 0.7217
vn -0.9147 -0.2239 0.3365
vn -0.8801 -0.2513 0.4028
vn -0.5397 0.4127 0.7337
vn 0.3251 0.6764 -0.6609
vn 0.2957 0.7252 -0.6218
vn 0.2299 0.1501 -0.9616
vn 0.2536 0.1189 -0.9600
vn -0.2003 -0.9734 0.1109
vn -0.2248 -0.9623 0.1530
vn -0.2722 -0.8608 0.4301
vn -0.2571 -0.7129 0.6525
vn 0.1098 0.8774 0.4670
vn 0.0087 0.9517 0.3068
vn 0.2455 0.9330 -0.2631
vn 0.2709 0.9549 -0.1217
vn 0.2735 0.8094 -0.5197
vn 0.2715 0.7303 -0.6268
vn 0.2231 0.2102 -0.9519
vn 0.2270 0.2240 -0.9478
vn -0.2116 -0.9598 0.1844
vn -0.2033 -0.9674 0.1512
vn -0.2286 -0.5383 0.8111
vn -0.2266 -0.6027 0.7651
vn -0.2261 0.9706 0.0826
vn -0.6895 0.4726 0.5488
vn -0.6871 0.4478 0.5721
vn -0.3113 0.9382 0.1513
vn 0.0789 -0.4464 -0.8913
vn 0.0867 -0.4183 -0.9042
vn -0.0653 -0.8524 -0.5187
vn -0.0838 -0.8847 -0.4585
vn -0.1139 0.1427 0.9832
vn -0.1388 0.0685 0.9879
vn 0.1326 0.8916 0.4330
vn 0.0406 0.6371 0.7697
vn -0.3222 -0.9407 0.1062
vn -0.3066 -0.9444 0.1191
vn -0.4476 -0.6223 0.6422
vn -0.4882 -0.6200 0.6143
vn 0.5007 0.6140 -0.6101
vn 0.4585 0.6285 -0.6283
vn 0.4279 0.0753 -0.9007
vn 0.4781 0.0613 -0.8761
vn 0.2780 -0.5119 -0.8128
vn 0.2332 -0.5051 -0.8310
vn -0.0515 -0.8990 -0.4350
vn -0.0275 -0.8990 -0.4372
vn 0.0384 0.8946 0.4453
vn 0.0543 0.8875 0.4576
vn 0.3123 0.9449 -0.0980
vn 0.3337 0.9370 -0.1031
vn -0.4647 -0.0616 0.8833
vn -0.4077 -0.0700 0.9104
vn -0.2168 0.4953 0.8412
vn -0.2641 0.5106 0.8183
vn -0.5715 -0.7354 -0.3640
vn -0.0390 -0.7794 -0.6254
vn -0.0384 -0.8248 -0.5642
vn -0.6088 -0.7734 -0.1766
vn -0.1991 -0.1179 0.9729
vn -0.4440 -0.3119 0.8400
vn 0.6350 0.5780 0.5126
vn -0.0126 0.6822 0.7310
vn -0.0053 0.7422 0.6702
vn 0.6264 0.7560 0.1900
vn 0.5538 -0.6009 -0.5763
vn 0.9925 -0.0362 -0.1165
vn 0.8627 0.2326 -0.4490
vn 0.5740 -0.4218 -0.7019
vn 0.5017 -0.3789 -0.7776
vn 0.7310 0.3384 -0.5926
vn 0.5956 0.3717 -0.7122
vn 0.4208 -0.4074 -0.8105
vn -0.5136 -0.8577 0.0231
vn 0.0025 -0.8553 -0.5181
vn 0.0282 -0.8948 -0.4455
vn -0.3850 -0.9118 0.1431
vn 0.4998 0.8658 0.0239
vn 0.0019 0.8212 0.5706
vn -0.0374 0.8448 0.5337
vn 0.3676 0.9281 -0.0600
vn -0.4665 0.3948 0.7916
vn -0.7321 -0.3273 0.5974
vn -0.5942 -0.3696 0.7143
vn -0.3903 0.4046 0.8270
vn 0.2610 0.9550 -0.1406
vn -0.0529 0.8822 0.4679
vn -0.0096 0.9325 0.3610
vn 0.2536 0.9484 -0.1905
vn -0.3271 0.4241 0.8445
vn -0.4497 -0.3831 0.8068
vn -0.4165 -0.3330 0.8460
vn -0.2956 0.4842 0.8235
vn 0.3670 -0.4139 -0.8331
vn 0.4829 0.4035 -0.7772
vn 0.4554 0.4646 -0.7594
vn 0.3709 -0.3665 -0.8533
vn -0.2531 -0.9422 0.2193
vn 0.0817 -0.9029 -0.4220
vn 0.1388 -0.8536 -0.5022
vn -0.2106 -0.9547 0.2104
vn -0.6947 -0.4030 0.5958
vn -0.2904 -0.8653 0.4086
vn -0.2522 -0.8667 0.4305
vn -0.6680 -0.2804 0.6893
vn 0.7248 0.6584 -0.2032
vn 0.1991 0.9618 -0.1877
vn 0.2369 0.9180 -0.3180
vn 0.6904 0.3122 -0.6526
vn 0.2137 0.8627 0.4584
vn 0.2254 0.9735 0.0391
vn 0.2979 -0.9299 0.2158
vn 0.8756 -0.4204 0.2378
vn 0.6906 -0.4599 -0.5581
vn 0.3389 -0.9318 -0.1303
vn 0.2758 -0.9468 -0.1661
vn 0.5891 -0.4793 -0.6505
vn 0.5777 -0.4783 -0.6614
vn 0.2667 -0.9493 -0.1661
vn 0.5883 0.2578 -0.7665
vn 0.2482 0.8773 -0.4107
vn 0.2704 0.8517 -0.4488
vn 0.5771 0.2442 -0.7793
vn -0.5516 -0.2499 0.7958
vn -0.2048 -0.8653 0.4575
vn -0.1881 -0.8734 0.4493
vn -0.5328 -0.2486 0.8089
vn -0.2397 0.9502 0.1991
vn -0.5533 0.4790 0.6815
vn -0.5265 0.5048 0.6841
vn -0.2099 0.9612 0.1790
vn 0.3119 -0.8173 -0.4845
vn 0.0534 -0.9671 -0.2487
vn 0.1087 -0.6374 -0.7628
vn 0.3973 -0.0610 -0.9157
vn 0.2532 0.2043 -0.9456
vn 0.5068 0.3149 -0.8024
vn -0.1830 -0.4671 -0.8650
vn -0.0144 0.0406 -0.9991
vn 0.1613 -0.2482 -0.9552
vn 0.5922 -0.0333 -0.8051
vn 0.8078 0.0391 -0.5881
vn 0.7945 -0.3916 -0.4642
vn 0.5744 -0.4202 -0.7025
vn 0.5392 0.6417 -0.5455
vn 0.3173 0.5734 -0.7553
vn 0.3115 0.8220 -0.4768
vn 0.0660 0.9357 -0.3466
vn 0.0699 0.7670 -0.6379
vn -0.1923 0.9269 -0.3223
vn -0.0386 0.9992 0.0103
vn 0.3991 0.9127 0.0881
vn 0.4293 0.7827 0.4506
vn 0.6031 0.7918 0.0963
vn 0.4924 0.8337 -0.2502
vn -0.0900 0.5814 0.8086
vn -0.0639 0.7876 0.6129
vn -0.3284 0.4390 0.8363
vn -0.5381 0.1872 0.8218
vn -0.7554 -0.0655 0.6520
vn -0.5327 -0.3370 0.7764
vn -0.3538 -0.0368 0.9346
vn -0.0520 -0.1719 0.9837
vn 0.2877 0.0882 0.9537
vn -0.0904 0.2792 0.9560
vn 0.1849 0.5763 0.7961
vn -0.3230 -0.8335 0.4482
vn -0.6778 -0.5037 0.5357
vn -0.4532 -0.8544 0.2543
vn -0.0243 -0.9956 0.0900
vn -0.1937 -0.9764 0.0959
vn -0.1873 -0.9437 0.2726
vn -0.1529 -0.9872 -0.0447
vn -0.0657 -0.9684 0.2405
vn 0.0547 -0.9905 0.1259
vn 0.1689 -0.9813 0.0921
vn -0.0473 -0.9985 0.0287
vn 0.3295 -0.8072 0.4898
vn 0.5927 -0.7022 0.3944
vn 0.8522 -0.4792 0.2100
vn 0.9753 -0.1144 -0.1888
vn 0.9778 0.1279 0.1660
vn 0.5046 0.4213 0.7536
vn 0.5532 -0.2573 0.7923
vn -0.8695 -0.1149 -0.4804
vn -0.7855 -0.5388 -0.3045
vn -0.9941 -0.0503 -0.0965
vn -0.9460 -0.1074 0.3059
vn -0.8862 0.3342 0.3209
vn -0.8949 0.4423 -0.0591
vn -0.4761 0.2509 -0.8428
vn -0.1886 0.3870 -0.9026
vn -0.3358 -0.0987 -0.9367
vn -0.7132 0.0763 -0.6968
vn -0.5624 -0.4198 -0.7124
vn 0.3825 -0.3955 -0.8350
vn 0.2335 0.9621 -0.1410
vn 0.1700 0.9475 0.2708
vn -0.0988 0.9252 0.3664
vn -0.3034 0.9508 0.0627
vn -0.3886 0.8411 0.3762
vn 0.7072 0.6482 -0.2823
vn 0.7152 0.3745 -0.5902
vn -0.3660 0.6909 0.6235
vn -0.6119 0.4622 0.6419
vn -0.0957 -0.9954 -0.0078
vn -0.3172 -0.9406 -0.1212
vn -0.1894 -0.8152 -0.5473
vn -0.1042 -0.9892 0.1032
vn 0.1392 -0.9853 0.0988
vn 0.2510 -0.9562 0.1504
vn -0.0149 -0.9070 0.4210
vn -0.2376 -0.5416 0.8063
vn 0.3565 -0.9251 0.1308
vn 0.7159 -0.6981 0.0069
vn 0.8122 -0.0533 0.5810
vn -0.8404 0.3903 -0.3761
vn -0.5432 0.5572 -0.6280
vn 0.3515 -0.6762 -0.6474
vn 0.1041 -0.8431 -0.5277
vn 0.1452 -0.5735 -0.8062
vn 0.4253 -0.0557 -0.9034
vn 0.2880 0.2047 -0.9355
vn 0.5325 0.3138 -0.7861
vn -0.1394 -0.4425 -0.8859
vn 0.0272 0.0428 -0.9987
vn 0.1976 -0.2376 -0.9511
vn 0.6114 -0.0289 -0.7908
vn 0.8187 0.0411 -0.5728
vn 0.8129 -0.3218 -0.4854
vn 0.5881 -0.3611 -0.7237
vn 0.5574 0.6392 -0.5298
vn 0.3461 0.5733 -0.7427
vn 0.3305 0.8219 -0.4640
vn 0.0851 0.9370 -0.3389
vn 0.0998 0.7691 -0.6313
vn -0.1704 0.9316 -0.3211
vn -0.0313 0.9994 0.0151
vn 0.3941 0.9135 0.1007
vn 0.4111 0.7818 0.4688
vn 0.5983 0.7933 0.1122
vn 0.4994 0.8335 -0.2363
vn -0.1174 0.5774 0.8080
vn -0.0831 0.7853 0.6135
vn -0.3544 0.4325 0.8290
vn -0.5588 0.1839 0.8086
vn -0.7689 -0.0587 0.6367
vn -0.5617 -0.2941 0.7733
vn -0.3842 -0.0281 0.9228
vn -0.0970 -0.1425 0.9850
vn 0.2485 0.0931 0.9641
vn -0.1237 0.2727 0.9541
vn 0.1599 0.5710 0.8052
vn -0.4346 -0.6444 0.6292
vn -0.7182 -0.4320 0.5455
vn -0.6477 -0.6805 0.3426
vn -0.3176 -0.9470 0.0483
vn -0.4918 -0.8705 -0.0173
vn -0.2133 -0.9601 -0.1806
vn -0.1108 -0.9027 -0.4158
vn 0.0084 -0.9871 -0.1598
vn 0.1673 -0.9814 0.0942
vn 0.2411 -0.8944 0.3766
vn -0.1341 -0.9093 0.3939
vn 0.3264 -0.6696 0.6672
vn 0.6666 -0.5626 0.4889
vn 0.9090 -0.3502 0.2262
vn 0.9804 -0.0792 -0.1804
vn 0.9730 0.1325 0.1887
vn 0.4749 0.4122 0.7776
vn 0.5175 -0.2157 0.8281
vn -0.8537 -0.1036 -0.5104
vn -0.7920 -0.4959 -0.3562
vn -0.9920 -0.0420 -0.1190
vn -0.9524 -0.0962 0.2891
vn -0.8925 0.3313 0.3061
vn -0.8940 0.4418 -0.0747
vn -0.4400 0.2542 -0.8612
vn -0.1467 0.3886 -0.9096
vn -0.2944 -0.0923 -0.9512
vn -0.6872 0.0800 -0.7221
vn -0.5314 -0.3946 -0.7496
vn 0.4058 -0.3658 -0.8376
vn 0.2409 0.9617 -0.1305
vn 0.1616 0.9469 0.2779
vn -0.1058 0.9238 0.3679
vn -0.2951 0.9534 0.0620
vn -0.3922 0.8404 0.3742
vn 0.7159 0.6448 -0.2679
vn 0.7317 0.3692 -0.5730
vn -0.3812 0.6858 0.6199
vn -0.6251 0.4558 0.6337
vn -0.3916 -0.8556 0.3385
vn -0.3469 -0.8485 -0.3997
vn -0.1407 -0.7339 -0.6645
vn -0.1295 -0.9870 0.0955
vn 0.2714 -0.9251 -0.2655
vn 0.4849 -0.8698 -0.0906
vn -0.0828 -0.7362 0.6716
vn -0.2866 -0.4518 0.8448
vn 0.5797 -0.7977 0.1661
vn 0.8361 -0.5451 -0.0614
vn 0.7941 -0.0219 0.6073
vn -0.8301 0.3929 -0.3956
vn -0.5164 0.5653 -0.6433
vn 0.2006 -0.7804 -0.5922
vn 0.0344 -0.9267 -0.3742
vn 0.0916 -0.6249 -0.7753
vn 0.3226 -0.0463 -0.9454
vn 0.2283 0.2371 -0.9443
vn 0.4437 0.3440 -0.8275
vn -0.1362 -0.4867 -0.8629
vn 0.0055 0.0557 -0.9984
vn 0.1237 -0.2587 -0.9580
vn 0.4812 -0.0130 -0.8765
vn 0.6447 0.0829 -0.7600
vn 0.6111 -0.3754 -0.6969
vn 0.4278 -0.4012 -0.8100
vn 0.4888 0.6589 -0.5718
vn 0.3092 0.6071 -0.7320
vn 0.3216 0.8381 -0.4407
vn 0.1451 0.9503 -0.2755
vn 0.1338 0.8067 -0.5756
vn -0.0604 0.9755 -0.2115
vn 0.0751 0.9934 0.0863
vn 0.4193 0.9042 0.0814
vn 0.4345 0.8061 0.4017
vn 0.5675 0.8233 0.0100
vn 0.4681 0.8420 -0.2682
vn 0.0499 0.5310 0.8459
vn 0.0705 0.7680 0.6366
vn -0.1667 0.3699 0.9140
vn -0.3660 0.1195 0.9229
vn -0.5764 -0.1321 0.8064
vn -0.3804 -0.3931 0.8371
vn -0.2115 -0.1123 0.9709
vn -0.0036 -0.2527 0.9675
vn 0.2816 0.0751 0.9566
vn 0.0122 0.2246 0.9744
vn 0.2478 0.5829 0.7738
vn -0.2534 -0.8255 0.5044
vn -0.5185 -0.5410 0.6622
vn -0.3889 -0.8408 0.3764
vn -0.0774 -0.9955 0.0540
vn -0.2110 -0.9736 0.0873
vn -0.1478 -0.9771 0.1533
vn -0.0944 -0.9785 -0.1835
vn -0.0718 -0.9944 0.0771
vn -0.0223 -0.9965 0.0799
vn 0.0408 -0.9922 0.1174
vn -0.0791 -0.9930 0.0877
vn 0.1703 -0.8961 0.4099
vn 0.4396 -0.8301 0.3430
vn 0.8236 -0.5671 0.0109
vn 0.8693 -0.0784 -0.4881
vn 0.9664 0.2518 -0.0519
vn 0.4766 0.5188 0.7098
vn 0.4970 -0.3073 0.8115
vn -0.9048 -0.1581 -0.3953
vn -0.7452 -0.6366 -0.1986
vn -0.9839 -0.1007 0.1477
vn -0.8163 -0.1681 0.5526
vn -0.7428 0.3379 0.5780
vn -0.8306 0.5148 0.2123
vn -0.4215 0.2997 -0.8559
vn -0.1112 0.4390 -0.8916
vn -0.2740 -0.1065 -0.9558
vn -0.7088 0.1003 -0.6983
vn -0.5089 -0.4748 -0.7180
vn 0.2907 -0.4005 -0.8690
vn 0.2816 0.9538 -0.1047
vn 0.2428 0.9258 0.2899
vn 0.0371 0.9072 0.4190
vn -0.1411 0.9713 0.1914
vn -0.2160 0.8330 0.5093
vn 0.6241 0.6860 -0.3740
vn 0.6043 0.3987 -0.6898
vn -0.1965 0.6563 0.7284
vn -0.4253 0.4293 0.7967
vn -0.1400 -0.9870 0.0789
vn -0.2329 -0.9522 -0.1978
vn -0.1118 -0.8014 -0.5875
vn -0.0958 -0.9925 0.0752
vn 0.0261 -0.9972 -0.0695
vn 0.0722 -0.9970 0.0280
vn -0.0461 -0.9271 0.3720
vn -0.1723 -0.6095 0.7738
vn 0.1802 -0.9802 0.0815
vn 0.5642 -0.7908 -0.2373
vn 0.8442 -0.0412 0.5344
vn -0.8398 0.4941 -0.2249
vn -0.4675 0.6863 -0.5572
vn 0.5259 -0.7868 0.3230
vn 0.6985 -0.7056 -0.1195
vn -0.1020 -0.8755 -0.4724
vn -0.2883 -0.9535 0.0877
vn -0.3608 -0.6669 0.6520
vn -0.3407 -0.0652 0.9379
vn 0.3680 -0.4362 0.8211
vn 0.1057 -0.4329 -0.8952
vn -0.2462 0.9661 -0.0782
vn -0.3939 0.2541 -0.8833
vn -0.2643 0.1070 -0.9585
vn -0.7374 0.1782 -0.6515
vn -0.9378 0.0776 -0.3383
vn -0.9301 0.1233 -0.3460
vn -0.9031 0.2433 -0.3539
vn -0.3631 -0.8434 0.3962
vn -0.8792 0.1272 0.4592
vn -0.4372 -0.8977 0.0540
vn -0.3921 -0.1861 0.9009
vn -0.4991 -0.0364 0.8658
vn -0.5673 -0.8234 -0.0114
vn -0.5116 0.7924 -0.3321
vn -0.4419 0.0039 -0.8971
vn -0.8410 0.3105 0.4431
vn 0.4302 0.6697 -0.6054
vn -0.0000 -0.5050 -0.8631
vn -0.0795 -0.3907 -0.9171
vn 0.2070 0.8716 0.4445
vn 0.3773 0.9209 -0.0981
vn -0.5664 0.0270 -0.8237
vn -0.0242 0.0544 -0.9982
vn 0.5957 0.0634 -0.8007
vn 0.5536 0.0581 -0.8308
vn 0.9590 0.0648 -0.2760
vn 0.9600 0.0648 -0.2725
vn -0.9631 -0.0051 0.2690
vn -0.9875 0.1557 0.0267
vn -0.9346 0.1124 -0.3374
vn -0.9395 0.0047 -0.3425
vn -0.0581 0.0100 0.9983
vn -0.1097 0.0020 0.9940
vn -0.8226 0.0596 0.5655
vn -0.6614 0.0029 0.7500
vn 0.9387 0.0514 0.3408
vn 0.9389 0.0530 0.3401
vn 0.5595 0.0309 0.8282
vn 0.5620 0.0323 0.8265
vn -0.4660 0.3142 0.8271
vn 0.1496 0.8324 0.5335
vn 0.3723 0.9237 -0.0906
vn 0.4303 0.5991 -0.6752
vn 0.0282 -0.0151 -0.9995
vn -0.7117 -0.6969 -0.0880
vn -0.4793 -0.1318 -0.8677
vn 0.0136 -0.8005 -0.5992
vn 0.1786 0.9835 0.0301
vn 0.8969 -0.2693 0.3508
vn -0.1032 0.7980 -0.5937
vn 0.1025 0.5221 -0.8467
vn -0.4117 0.9028 -0.1243
vn 0.6856 0.6259 0.3718
vn 0.7495 0.6509 -0.1204
vn 0.4018 -0.8552 -0.3274
vn 0.1076 -0.6546 0.7483
vn 0.2533 -0.8600 -0.4431
vn -0.3568 -0.7795 -0.5148
vn -0.4842 -0.8749 -0.0052
vn -0.4716 0.6761 0.5661
vn 0.7590 0.4258 -0.4925
vn 0.2870 0.7954 0.5338
vn -0.4583 0.8486 0.2642
vn -0.7042 -0.6049 0.3718
vn -0.1771 0.7229 -0.6679
vn 0.0994 0.4767 -0.8734
vn -0.5270 0.7984 -0.2913
vn 0.7117 0.4944 0.4990
vn 0.8413 0.5362 0.0685
vn 0.7043 -0.6449 -0.2969
vn 0.1058 -0.4446 0.8895
vn 0.5178 -0.7037 -0.4865
vn -0.4258 -0.6787 -0.5984
vn -0.6500 -0.7418 -0.1652
vn -0.6581 0.6651 0.3529
vn 0.9074 0.3225 -0.2696
vn 0.2030 0.7971 0.5686
vn -0.6156 0.7864 0.0514
vn -0.8632 -0.4777 0.1634
vn -0.2106 0.7169 -0.6646
vn 0.0617 0.4762 -0.8772
vn -0.5430 0.7907 -0.2827
vn 0.7275 0.4986 0.4713
vn 0.8412 0.5385 0.0490
vn 0.5865 -0.7983 -0.1368
vn 0.1614 -0.5321 0.8311
vn 0.4348 -0.8562 -0.2792
vn -0.4434 -0.7403 -0.5052
vn -0.5510 -0.8313 -0.0731
vn -0.6529 0.6657 0.3614
vn 0.8998 0.3296 -0.2859
vn 0.2225 0.7981 0.5599
vn -0.6196 0.7827 0.0598
vn -0.8245 -0.5375 0.1772
vn 0.0776 -0.4279 0.9005
vn 0.3466 0.0839 0.9343
vn -0.3290 0.5047 0.7981
vn 0.1422 -0.9444 -0.2966
vn 0.4243 -0.6690 0.6102
vn 0.1928 0.3223 0.9268
vn -0.0478 0.5206 0.8524
vn -0.3691 0.0406 -0.9285
vn 0.6535 0.0924 -0.7513
vn 0.9762 0.0312 -0.2146
vn -0.0011 0.0921 -0.9957
vn -0.9804 0.0225 0.1958
vn -0.9395 -0.0072 -0.3426
vn -0.6416 0.0868 0.7621
vn 0.9397 -0.0113 0.3417
vn 0.6108 0.0280 0.7913
vn -0.6246 0.0256 -0.7805
vn 0.0180 0.0871 0.9960
usemtl None
s 1
f 586/1/1 336/2/2 3/3/3 473/4/4
f 585/5/5 520/6/6 7/7/7 295/8/8
f 584/9/9 284/10/10 2/11/11 203/12/12
f 583/13/13 197/14/14 6/15/15 391/16/16
f 582/17/17 371/18/18 10/19/19 199/20/20
f 581/21/21 429/22/22 13/23/23 389/24/24
f 580/25/25 428/26/26 15/27/27 293/28/28
f 579/29/29 438/30/30 12/31/31 471/32/32
f 578/33/33 293/34/28 15/35/27 337/36/34
f 577/37/35 426/38/36 21/39/37 382/40/38
f 576/41/39 243/42/40 25/43/41 198/44/42
f 575/45/43 367/46/44 20/47/45 468/48/46
f 574/49/47 462/50/48 24/51/49 287/52/50
f 573/53/51 286/54/52 28/55/53 470/56/54
f 572/57/55 517/58/56 31/59/57 289/60/58
f 571/61/59 317/62/60 35/63/61 372/64/62
f 570/65/63 212/66/64 30/67/65 387/68/66
f 569/69/67 292/70/68 34/71/69 459/72/70
f 568/73/71 451/74/72 38/75/73 280/76/74
f 567/77/75 189/78/76 40/79/77 450/80/78
f 566/81/79 315/82/80 41/83/81 456/84/82
f 565/85/83 397/86/84 39/87/85 157/88/86
f 564/89/87 440/90/88 44/91/89 414/92/90
f 563/93/91 445/94/92 43/95/93 267/96/94
f 562/97/95 187/98/96 48/99/97 178/100/98
f 561/101/99 461/102/100 50/103/101 507/104/102
f 560/105/103 285/106/104 51/107/105 377/108/106
f 559/109/107 234/110/108 49/111/109 229/112/110
f 558/113/111 235/114/112 47/115/113 460/116/114
f 557/117/115 188/118/116 36/119/117 490/120/118
f 556/121/119 467/122/120 32/123/121 177/124/122
f 555/125/123 247/126/124 33/127/125 498/128/126
f 554/129/127 250/130/128 29/131/129 427/132/130
f 553/133/131 418/134/132 37/135/133 260/136/134
f 552/137/135 519/138/136 54/139/137 241/140/138
f 551/141/139 414/142/90 44/143/89 351/144/140
f 550/145/141 345/146/142 42/147/143 465/148/144
f 549/149/145 384/150/146 55/151/147 505/152/148
f 548/153/149 191/154/150 56/155/151 236/156/152
f 547/157/153 416/158/154 57/159/155 464/160/156
f 546/161/157 300/162/158 59/163/159 487/164/160
f 545/165/161 436/166/162 58/167/163 325/168/164
f 544/169/165 379/170/166 60/171/167 424/172/168
f 543/173/169 186/174/170 62/175/171 366/176/172
f 542/177/173 405/178/174 61/179/175 423/180/176
f 541/181/177 415/182/178 63/183/179 508/184/180
f 540/185/181 249/186/182 64/187/183 167/188/184
f 539/189/185 331/190/186 52/191/187 222/192/188
f 43/95/93 469/193/189 225/194/190
f 538/195/191 494/196/192 65/197/193 240/198/194
f 537/199/195 348/200/196 66/201/197 304/202/198
f 536/203/199 493/204/200 68/205/201 343/206/202
f 535/207/203 513/208/204 67/209/205 483/210/206
f 534/211/207 355/212/208 69/213/209 218/214/210
f 70/215/211 482/216/212 162/217/213
f 73/218/214 344/219/215 396/220/216
f 72/221/217 422/222/218 399/223/219
f 73/218/214 396/220/216 259/224/220
f 76/225/221 215/226/222 328/227/223
f 75/228/224 303/229/225 335/230/226
f 78/231/227 432/232/228 480/233/229
f 78/234/227 480/235/229 160/236/230
f 81/237/231 340/238/232 393/239/233
f 81/240/231 393/241/233 297/242/234
f 84/243/235 479/244/236 205/245/237
f 85/246/238 156/247/239 202/248/240
f 85/246/238 202/248/240 431/249/241
f 88/250/242 516/251/243 330/252/244
f 84/243/235 334/253/245 479/244/236
f 87/254/246 474/255/247 296/256/248
f 90/257/249 341/258/250 486/259/251
f 71/260/252 482/216/212 164/261/253
f 91/262/254 435/263/255 185/264/256
f 92/265/257 435/263/255 211/266/258
f 93/267/259 193/268/260 463/269/261
f 82/270/262 516/251/243 322/271/263
f 94/272/264 522/273/265 425/274/266
f 86/275/267 466/276/268 309/277/269
f 96/278/270 500/279/271 311/280/272
f 96/278/270 311/280/272 155/281/273
f 94/282/264 228/283/274 522/284/265
f 73/218/214 214/285/275 399/223/219
f 73/218/214 259/224/220 214/285/275
f 81/240/231 297/242/234 210/286/276
f 81/237/231 210/287/276 394/288/277
f 80/289/278 261/290/279 274/291/280
f 81/237/231 394/288/277 340/238/232
f 75/228/224 171/292/281 437/293/282
f 85/246/238 165/294/283 194/295/284
f 85/246/238 194/295/284 156/247/239
f 85/246/238 431/249/241 205/245/237
f 90/296/249 503/297/285 341/298/250
f 71/260/252 281/299/286 262/300/287
f 90/257/249 486/259/251 301/301/288
f 91/302/254 265/303/289 370/304/290
f 90/296/249 301/305/288 503/297/285
f 87/254/246 420/306/291 256/307/292
f 93/267/259 476/308/293 277/309/294
f 93/267/259 277/309/294 193/268/260
f 93/310/259 463/311/261 378/312/295
f 93/310/259 378/312/295 211/266/258
f 94/272/264 425/274/266 321/313/296
f 94/282/264 321/314/296 155/281/273
f 96/278/270 239/315/297 500/279/271
f 97/316/298 449/317/299 408/318/300
f 100/319/301 227/320/302 161/321/303
f 99/322/304 492/323/305 179/324/306
f 100/319/301 161/321/303 302/325/307
f 103/326/308 354/327/309 217/328/310
f 102/329/311 269/330/312 221/331/313
f 105/332/314 485/333/315 443/334/316
f 105/335/314 443/336/316 403/337/317
f 108/338/318 224/339/319 159/340/320
f 108/341/318 159/342/320 246/343/321
f 111/344/322 392/345/323 350/346/324
f 112/347/325 412/348/326 316/349/327
f 112/347/325 316/349/327 454/350/328
f 115/351/329 362/352/330 173/353/331
f 111/344/322 220/354/332 392/345/323
f 114/355/333 453/356/334 270/357/335
f 117/358/336 230/359/337 380/360/338
f 98/361/339 449/317/299 318/362/340
f 118/363/341 497/364/342 347/365/343
f 119/366/344 497/364/342 360/367/345
f 120/368/346 327/369/347 413/370/348
f 109/371/349 362/352/330 184/372/350
f 121/373/351 402/374/352 481/375/353
f 113/376/354 439/377/355 209/378/356
f 123/379/357 356/380/358 182/381/359
f 123/379/357 182/381/359 411/382/360
f 121/383/351 283/384/361 402/385/352
f 100/319/301 353/386/362 179/324/306
f 100/319/301 302/325/307 353/386/362
f 108/341/318 246/343/321 346/387/363
f 108/338/318 346/388/363 170/389/364
f 107/390/365 306/391/366 244/392/367
f 108/338/318 170/389/364 224/339/319
f 102/329/311 339/393/368 491/394/369
f 112/347/325 342/395/370 324/396/371
f 112/347/325 324/396/371 412/348/326
f 112/347/325 454/350/328 350/346/324
f 117/397/336 407/398/372 230/399/337
f 98/361/339 238/400/373 308/401/374
f 117/358/336 380/360/338 272/402/375
f 118/403/341 237/404/376 511/405/377
f 117/397/336 272/406/375 407/398/372
f 114/355/333 489/407/378 314/408/379
f 120/368/346 442/409/380 245/410/381
f 120/368/346 245/410/381 327/369/347
f 120/411/346 413/412/348 502/413/382
f 120/411/346 502/413/382 360/367/345
f 121/373/351 481/375/353 181/414/383
f 121/383/351 181/415/383 411/382/360
f 123/379/357 288/416/384 356/380/358
f 124/417/385 233/418/386 166/419/387
f 127/420/388 365/421/389 313/422/390
f 126/423/391 448/424/392 499/425/393
f 127/420/388 313/422/390 278/426/394
f 130/427/395 276/428/396 374/429/397
f 129/430/398 368/431/399 232/432/400
f 132/433/401 417/434/402 369/435/403
f 132/436/401 369/437/403 219/438/404
f 135/439/405 231/440/406 271/441/407
f 135/442/405 271/443/407 352/444/408
f 138/445/409 208/446/410 273/447/411
f 139/448/412 409/449/413 446/450/414
f 139/448/412 446/450/414 488/451/415
f 142/452/416 207/453/417 401/454/418
f 138/445/409 390/455/419 208/446/410
f 141/456/420 359/457/421 358/458/422
f 144/459/423 226/460/424 201/461/425
f 125/462/426 233/418/386 521/463/427
f 145/464/428 495/465/429 444/466/430
f 146/467/431 495/465/429 268/468/432
f 147/469/433 252/470/434 504/471/435
f 136/472/436 207/453/417 376/473/437
f 148/474/438 364/475/439 282/476/440
f 140/477/441 319/478/442 204/479/443
f 150/480/444 158/481/445 404/482/446
f 150/480/444 404/482/446 206/483/447
f 148/484/438 298/485/448 364/486/439
f 127/420/388 305/487/449 499/425/393
f 127/420/388 278/426/394 305/487/449
f 135/442/405 352/444/408 264/488/450
f 135/439/405 264/489/450 452/490/451
f 134/491/452 312/492/453 512/493/454
f 135/439/405 452/490/451 231/440/406
f 129/430/398 441/494/455 501/495/456
f 139/448/412 258/496/457 419/497/458
f 139/448/412 419/497/458 409/449/413
f 139/448/412 488/451/415 273/447/411
f 144/498/423 406/499/459 226/500/424
f 125/462/426 255/501/460 275/502/461
f 144/459/423 201/461/425 172/503/462
f 145/504/428 248/505/463 257/506/464
f 144/498/423 172/507/462 406/499/459
f 141/456/420 457/508/465 310/509/466
f 147/469/433 169/510/467 333/511/468
f 147/469/433 333/511/468 252/470/434
f 147/512/433 504/513/435 421/514/469
f 147/512/433 421/514/469 268/468/432
f 148/474/438 282/476/440 195/515/470
f 148/484/438 195/516/470 206/483/447
f 150/480/444 291/517/471 158/481/445
f 533/518/472 254/519/473 22/520/474 509/521/475
f 23/522/476 357/523/477 398/524/478
f 22/520/474 254/519/473 190/525/479
f 532/526/480 438/527/30 18/528/481 337/36/34
f 17/529/482 213/530/483 251/531/484
f 531/532/485 429/533/486 13/534/487 176/535/488
f 530/536/489 518/537/490 152/538/491 175/539/492
f 154/540/493 496/541/494 388/542/495
f 529/543/496 477/544/497 153/545/498 496/546/494
f 528/547/499 168/548/500 154/549/493 388/550/495
f 527/551/501 213/552/483 17/553/482 323/554/502
f 526/555/503 326/556/504 11/557/505 332/558/506
f 525/559/507 458/560/508 151/561/509 290/562/510
f 524/563/511 385/564/512 16/565/513 279/566/514
f 523/567/515 192/568/516 14/569/517 455/570/518
f 284/10/10 523/567/515 455/570/518 2/11/11
f 10/19/19 332/558/506 523/567/515 284/10/10
f 332/558/506 11/557/505 192/568/516 523/567/515
f 336/2/2 524/563/511 279/566/514 3/3/3
f 2/571/11 455/572/518 524/563/511 336/2/2
f 455/572/518 14/573/517 385/564/512 524/563/511
f 197/14/14 525/559/507 290/562/510 6/15/15
f 3/3/3 279/566/514 525/559/507 197/14/14
f 279/566/514 16/565/513 458/560/508 525/559/507
f 371/18/18 526/555/503 332/558/506 10/19/19
f 7/7/7 323/554/502 526/555/503 371/18/18
f 323/554/502 17/553/482 326/556/504 526/555/503
f 520/6/6 527/551/501 323/554/502 7/7/7
f 6/15/15 290/562/510 527/551/501 520/6/6
f 290/562/510 151/561/509 213/552/483 527/551/501
f 518/574/490 528/547/499 388/550/495 152/575/491
f 26/576/519 329/577/520 528/547/499 518/574/490
f 329/577/520 27/578/521 168/548/500 528/547/499
f 168/548/500 529/543/496 496/546/494 154/549/493
f 27/578/521 410/579/522 529/543/496 168/548/500
f 410/579/522 19/580/523 477/544/497 529/543/496
f 388/542/495 175/539/492 152/538/491
f 388/542/495 496/541/494 175/539/492
f 496/541/494 153/581/498 175/539/492
f 477/582/497 530/536/489 175/539/492 153/581/498
f 19/583/523 363/584/524 530/536/489 477/582/497
f 363/584/524 26/585/519 518/537/490 530/536/489
f 363/584/524 531/532/485 176/535/488 26/585/519
f 19/583/523 478/586/525 531/532/485 363/584/524
f 478/586/525 12/587/526 429/533/486 531/532/485
f 251/531/484 458/588/508 16/589/513
f 251/531/484 213/530/483 458/588/508
f 213/530/483 151/590/509 458/588/508
f 428/591/26 532/526/480 337/36/34 15/35/27
f 13/592/23 429/593/527 532/526/480 428/591/26
f 429/593/527 12/594/31 438/527/30 532/526/480
f 190/525/479 478/595/525 19/596/523
f 190/525/479 254/519/473 478/595/525
f 254/519/473 12/31/526 478/595/525
f 398/524/478 176/597/488 13/23/487
f 398/524/478 357/523/477 176/597/488
f 357/523/477 26/598/519 176/597/488
f 398/524/478 533/518/472 509/521/475 23/522/476
f 13/23/487 429/22/528 533/518/472 398/524/478
f 429/22/528 12/31/526 254/519/473 533/518/472
f 158/481/445 373/599/529 128/600/530
f 158/481/445 291/517/471 373/599/529
f 291/517/471 133/601/531 373/599/529
f 206/483/447 291/517/471 150/480/444
f 206/483/447 195/516/470 291/517/471
f 195/516/470 133/601/531 291/517/471
f 195/515/470 204/479/443 133/602/531
f 195/515/470 282/476/440 204/479/443
f 282/476/440 140/477/441 204/479/443
f 268/468/432 376/473/437 146/467/431
f 268/468/432 421/514/469 376/473/437
f 421/514/469 136/472/436 376/473/437
f 421/514/469 180/603/532 136/472/436
f 421/514/469 504/513/435 180/603/532
f 504/513/435 137/604/533 180/603/532
f 252/470/434 276/428/396 130/427/395
f 252/470/434 333/511/468 276/428/396
f 333/511/468 131/605/534 276/428/396
f 333/511/468 257/506/464 131/605/534
f 333/511/468 169/510/467 257/506/464
f 169/510/467 145/504/428 257/506/464
f 310/509/466 183/606/535 142/452/416
f 310/509/466 457/508/465 183/606/535
f 457/508/465 146/467/431 183/606/535
f 406/499/459 444/466/430 141/456/420
f 406/499/459 172/507/462 444/466/430
f 172/507/462 145/464/428 444/466/430
f 257/506/464 320/607/536 131/605/534
f 257/506/464 248/505/463 320/607/536
f 248/505/463 124/417/385 320/607/536
f 172/503/462 521/463/427 145/504/428
f 172/503/462 201/461/425 521/463/427
f 201/461/425 125/462/426 521/463/427
f 275/502/461 338/608/537 126/423/391
f 275/502/461 255/501/460 338/608/537
f 255/501/460 143/609/538 338/608/537
f 226/500/424 358/458/422 143/610/538
f 226/500/424 406/499/459 358/458/422
f 406/499/459 141/456/420 358/458/422
f 273/447/411 401/454/418 138/445/409
f 273/447/411 488/451/415 401/454/418
f 488/451/415 142/452/416 401/454/418
f 409/449/413 319/478/442 140/477/441
f 409/449/413 419/497/458 319/478/442
f 419/497/458 149/611/539 319/478/442
f 419/497/458 512/493/454 149/611/539
f 419/497/458 258/496/457 512/493/454
f 258/496/457 134/491/452 512/493/454
f 501/495/456 349/612/540 130/427/395
f 501/495/456 441/494/455 349/612/540
f 441/494/455 137/613/533 349/612/540
f 231/440/406 307/614/541 136/472/436
f 231/440/406 452/490/451 307/614/541
f 452/490/451 134/491/452 307/614/541
f 512/493/454 242/615/542 149/611/539
f 512/493/454 312/492/453 242/615/542
f 312/492/453 133/602/531 242/615/542
f 452/490/451 219/438/404 134/491/452
f 452/490/451 264/489/450 219/438/404
f 264/489/450 132/436/401 219/438/404
f 264/488/450 232/432/400 132/433/401
f 264/488/450 352/444/408 232/432/400
f 352/444/408 129/430/398 232/432/400
f 305/487/449 374/429/397 124/417/385
f 305/487/449 278/426/394 374/429/397
f 278/426/394 130/427/395 374/429/397
f 499/425/393 166/419/387 126/423/391
f 499/425/393 305/487/449 166/419/387
f 305/487/449 124/417/385 166/419/387
f 364/486/439 338/608/537 143/609/538
f 364/486/439 298/485/448 338/608/537
f 298/485/448 126/423/391 338/608/537
f 206/483/447 298/485/448 148/484/438
f 206/483/447 404/482/446 298/485/448
f 404/482/446 126/423/391 298/485/448
f 404/482/446 448/424/392 126/423/391
f 404/482/446 158/481/445 448/424/392
f 158/481/445 128/600/530 448/424/392
f 204/479/443 242/615/542 133/602/531
f 204/479/443 319/478/442 242/615/542
f 319/478/442 149/611/539 242/615/542
f 282/476/440 263/616/543 140/477/441
f 282/476/440 364/475/439 263/616/543
f 364/475/439 143/610/538 263/616/543
f 376/473/437 183/606/535 146/467/431
f 376/473/437 207/453/417 183/606/535
f 207/453/417 142/452/416 183/606/535
f 504/471/435 349/612/540 137/613/533
f 504/471/435 252/470/434 349/612/540
f 252/470/434 130/427/395 349/612/540
f 268/468/432 169/617/467 147/512/433
f 268/468/432 495/465/429 169/617/467
f 495/465/429 145/464/428 169/617/467
f 444/466/430 457/508/465 141/456/420
f 444/466/430 495/465/429 457/508/465
f 495/465/429 146/467/431 457/508/465
f 521/463/427 248/505/463 145/504/428
f 521/463/427 233/418/386 248/505/463
f 233/418/386 124/417/385 248/505/463
f 201/461/425 255/501/460 125/462/426
f 201/461/425 226/460/424 255/501/460
f 226/460/424 143/609/538 255/501/460
f 358/458/422 263/616/543 143/610/538
f 358/458/422 359/457/421 263/616/543
f 359/457/421 140/477/441 263/616/543
f 208/446/410 307/614/541 134/491/452
f 208/446/410 390/455/419 307/614/541
f 390/455/419 136/472/436 307/614/541
f 401/454/418 390/455/419 138/445/409
f 401/454/418 207/453/417 390/455/419
f 207/453/417 136/472/436 390/455/419
f 488/451/415 310/509/466 142/452/416
f 488/451/415 446/450/414 310/509/466
f 446/450/414 141/456/420 310/509/466
f 446/450/414 359/457/421 141/456/420
f 446/450/414 409/449/413 359/457/421
f 409/449/413 140/477/441 359/457/421
f 273/447/411 258/496/457 139/448/412
f 273/447/411 208/446/410 258/496/457
f 208/446/410 134/491/452 258/496/457
f 352/444/408 441/494/455 129/430/398
f 352/444/408 271/443/407 441/494/455
f 271/443/407 137/613/533 441/494/455
f 271/441/407 180/603/532 137/604/533
f 271/441/407 231/440/406 180/603/532
f 231/440/406 136/472/436 180/603/532
f 219/438/404 312/492/453 134/491/452
f 219/438/404 369/437/403 312/492/453
f 369/437/403 133/602/531 312/492/453
f 369/435/403 373/599/529 133/601/531
f 369/435/403 417/434/402 373/599/529
f 417/434/402 128/600/530 373/599/529
f 232/432/400 417/434/402 132/433/401
f 232/432/400 368/431/399 417/434/402
f 368/431/399 128/600/530 417/434/402
f 374/429/397 320/607/536 124/417/385
f 374/429/397 276/428/396 320/607/536
f 276/428/396 131/605/534 320/607/536
f 278/426/394 501/495/456 130/427/395
f 278/426/394 313/422/390 501/495/456
f 313/422/390 129/430/398 501/495/456
f 499/425/393 365/421/389 127/420/388
f 499/425/393 448/424/392 365/421/389
f 448/424/392 128/600/530 365/421/389
f 313/422/390 368/431/399 129/430/398
f 313/422/390 365/421/389 368/431/399
f 365/421/389 128/600/530 368/431/399
f 166/419/387 275/502/461 126/423/391
f 166/419/387 233/418/386 275/502/461
f 233/418/386 125/462/426 275/502/461
f 356/380/358 430/618/544 101/619/545
f 356/380/358 288/416/384 430/618/544
f 288/416/384 106/620/546 430/618/544
f 411/382/360 288/416/384 123/379/357
f 411/382/360 181/415/383 288/416/384
f 181/415/383 106/620/546 288/416/384
f 181/414/383 209/378/356 106/621/546
f 181/414/383 481/375/353 209/378/356
f 481/375/353 113/376/354 209/378/356
f 360/367/345 184/372/350 119/366/344
f 360/367/345 502/413/382 184/372/350
f 502/413/382 109/371/349 184/372/350
f 502/413/382 266/622/547 109/371/349
f 502/413/382 413/412/348 266/622/547
f 413/412/348 110/623/548 266/622/547
f 327/369/347 354/327/309 103/326/308
f 327/369/347 245/410/381 354/327/309
f 245/410/381 104/624/549 354/327/309
f 245/410/381 511/405/377 104/624/549
f 245/410/381 442/409/380 511/405/377
f 442/409/380 118/403/341 511/405/377
f 314/408/379 400/625/550 115/351/329
f 314/408/379 489/407/378 400/625/550
f 489/407/378 119/366/344 400/625/550
f 407/398/372 347/365/343 114/355/333
f 407/398/372 272/406/375 347/365/343
f 272/406/375 118/363/341 347/365/343
f 511/405/377 163/626/551 104/624/549
f 511/405/377 237/404/376 163/626/551
f 237/404/376 97/316/298 163/626/551
f 272/402/375 318/362/340 118/403/341
f 272/402/375 380/360/338 318/362/340
f 380/360/338 98/361/339 318/362/340
f 308/401/374 514/627/552 99/322/304
f 308/401/374 238/400/373 514/627/552
f 238/400/373 116/628/553 514/627/552
f 230/399/337 270/357/335 116/629/553
f 230/399/337 407/398/372 270/357/335
f 407/398/372 114/355/333 270/357/335
f 350/346/324 173/353/331 111/344/322
f 350/346/324 454/350/328 173/353/331
f 454/350/328 115/351/329 173/353/331
f 412/348/326 439/377/355 113/376/354
f 412/348/326 324/396/371 439/377/355
f 324/396/371 122/630/554 439/377/355
f 324/396/371 244/392/367 122/630/554
f 324/396/371 342/395/370 244/392/367
f 342/395/370 107/390/365 244/392/367
f 491/394/369 434/631/555 103/326/308
f 491/394/369 339/393/368 434/631/555
f 339/393/368 110/632/548 434/631/555
f 224/339/319 484/633/556 109/371/349
f 224/339/319 170/389/364 484/633/556
f 170/389/364 107/390/365 484/633/556
f 244/392/367 515/634/557 122/630/554
f 244/392/367 306/391/366 515/634/557
f 306/391/366 106/621/546 515/634/557
f 170/389/364 403/337/317 107/390/365
f 170/389/364 346/388/363 403/337/317
f 346/388/363 105/335/314 403/337/317
f 346/387/363 221/331/313 105/332/314
f 346/387/363 246/343/321 221/331/313
f 246/343/321 102/329/311 221/331/313
f 353/386/362 217/328/310 97/316/298
f 353/386/362 302/325/307 217/328/310
f 302/325/307 103/326/308 217/328/310
f 179/324/306 408/318/300 99/322/304
f 179/324/306 353/386/362 408/318/300
f 353/386/362 97/316/298 408/318/300
f 402/385/352 514/627/552 116/628/553
f 402/385/352 283/384/361 514/627/552
f 283/384/361 99/322/304 514/627/552
f 411/382/360 283/384/361 121/383/351
f 411/382/360 182/381/359 283/384/361
f 182/381/359 99/322/304 283/384/361
f 182/381/359 492/323/305 99/322/304
f 182/381/359 356/380/358 492/323/305
f 356/380/358 101/619/545 492/323/305
f 209/378/356 515/634/557 106/621/546
f 209/378/356 439/377/355 515/634/557
f 439/377/355 122/630/554 515/634/557
f 481/375/353 361/635/558 113/376/354
f 481/375/353 402/374/352 361/635/558
f 402/374/352 116/629/553 361/635/558
f 184/372/350 400/625/550 119/366/344
f 184/372/350 362/352/330 400/625/550
f 362/352/330 115/351/329 400/625/550
f 413/370/348 434/631/555 110/632/548
f 413/370/348 327/369/347 434/631/555
f 327/369/347 103/326/308 434/631/555
f 360/367/345 442/636/380 120/411/346
f 360/367/345 497/364/342 442/636/380
f 497/364/342 118/363/341 442/636/380
f 347/365/343 489/407/378 114/355/333
f 347/365/343 497/364/342 489/407/378
f 497/364/342 119/366/344 489/407/378
f 318/362/340 237/404/376 118/403/341
f 318/362/340 449/317/299 237/404/376
f 449/317/299 97/316/298 237/404/376
f 380/360/338 238/400/373 98/361/339
f 380/360/338 230/359/337 238/400/373
f 230/359/337 116/628/553 238/400/373
f 270/357/335 361/635/558 116/629/553
f 270/357/335 453/356/334 361/635/558
f 453/356/334 113/376/354 361/635/558
f 392/345/323 484/633/556 107/390/365
f 392/345/323 220/354/332 484/633/556
f 220/354/332 109/371/349 484/633/556
f 173/353/331 220/354/332 111/344/322
f 173/353/331 362/352/330 220/354/332
f 362/352/330 109/371/349 220/354/332
f 454/350/328 314/408/379 115/351/329
f 454/350/328 316/349/327 314/408/379
f 316/349/327 114/355/333 314/408/379
f 316/349/327 453/356/334 114/355/333
f 316/349/327 412/348/326 453/356/334
f 412/348/326 113/376/354 453/356/334
f 350/346/324 342/395/370 112/347/325
f 350/346/324 392/345/323 342/395/370
f 392/345/323 107/390/365 342/395/370
f 246/343/321 339/393/368 102/329/311
f 246/343/321 159/342/320 339/393/368
f 159/342/320 110/632/548 339/393/368
f 159/340/320 266/622/547 110/623/548
f 159/340/320 224/339/319 266/622/547
f 224/339/319 109/371/349 266/622/547
f 403/337/317 306/391/366 107/390/365
f 403/337/317 443/336/316 306/391/366
f 443/336/316 106/621/546 306/391/366
f 443/334/316 430/618/544 106/620/546
f 443/334/316 485/333/315 430/618/544
f 485/333/315 101/619/545 430/618/544
f 221/331/313 485/333/315 105/332/314
f 221/331/313 269/330/312 485/333/315
f 269/330/312 101/619/545 485/333/315
f 217/328/310 163/626/551 97/316/298
f 217/328/310 354/327/309 163/626/551
f 354/327/309 104/624/549 163/626/551
f 302/325/307 491/394/369 103/326/308
f 302/325/307 161/321/303 491/394/369
f 161/321/303 102/329/311 491/394/369
f 179/324/306 227/320/302 100/319/301
f 179/324/306 492/323/305 227/320/302
f 492/323/305 101/619/545 227/320/302
f 161/321/303 269/330/312 102/329/311
f 161/321/303 227/320/302 269/330/312
f 227/320/302 101/619/545 269/330/312
f 408/318/300 308/401/374 99/322/304
f 408/318/300 449/317/299 308/401/374
f 449/317/299 98/361/339 308/401/374
f 500/279/271 475/637/559 74/638/560
f 500/279/271 239/315/297 475/637/559
f 239/315/297 79/639/561 475/637/559
f 155/281/273 239/315/297 96/278/270
f 155/281/273 321/314/296 239/315/297
f 321/314/296 79/639/561 239/315/297
f 321/313/296 309/277/269 79/640/561
f 321/313/296 425/274/266 309/277/269
f 425/274/266 86/275/267 309/277/269
f 211/266/258 322/271/263 92/265/257
f 211/266/258 378/312/295 322/271/263
f 378/312/295 82/270/262 322/271/263
f 378/312/295 299/641/562 82/270/262
f 378/312/295 463/311/261 299/641/562
f 463/311/261 83/642/563 299/641/562
f 193/268/260 215/226/222 76/225/221
f 193/268/260 277/309/294 215/226/222
f 277/309/294 77/643/564 215/226/222
f 277/309/294 370/304/290 77/643/564
f 277/309/294 476/308/293 370/304/290
f 476/308/293 91/302/254 370/304/290
f 256/307/292 506/644/565 88/250/242
f 256/307/292 420/306/291 506/644/565
f 420/306/291 92/265/257 506/644/565
f 503/297/285 185/264/256 87/254/246
f 503/297/285 301/305/288 185/264/256
f 301/305/288 91/262/254 185/264/256
f 370/304/290 383/645/566 77/643/564
f 370/304/290 265/303/289 383/645/566
f 265/303/289 70/215/211 383/645/566
f 301/301/288 164/261/253 91/302/254
f 301/301/288 486/259/251 164/261/253
f 486/259/251 71/260/252 164/261/253
f 262/300/287 381/646/567 72/221/217
f 262/300/287 281/299/286 381/646/567
f 281/299/286 89/647/568 381/646/567
f 341/298/250 296/256/248 89/648/568
f 341/298/250 503/297/285 296/256/248
f 503/297/285 87/254/246 296/256/248
f 205/245/237 330/252/244 84/243/235
f 205/245/237 431/249/241 330/252/244
f 431/249/241 88/250/242 330/252/244
f 156/247/239 466/276/268 86/275/267
f 156/247/239 194/295/284 466/276/268
f 194/295/284 95/649/569 466/276/268
f 194/295/284 274/291/280 95/649/569
f 194/295/284 165/294/283 274/291/280
f 165/294/283 80/289/278 274/291/280
f 437/293/282 447/650/570 76/225/221
f 437/293/282 171/292/281 447/650/570
f 171/292/281 83/651/563 447/650/570
f 340/238/232 395/652/571 82/270/262
f 340/238/232 394/288/277 395/652/571
f 394/288/277 80/289/278 395/652/571
f 274/291/280 375/653/572 95/649/569
f 274/291/280 261/290/279 375/653/572
f 261/290/279 79/640/561 375/653/572
f 394/288/277 160/236/230 80/289/278
f 394/288/277 210/287/276 160/236/230
f 210/287/276 78/234/227 160/236/230
f 210/286/276 335/230/226 78/231/227
f 210/286/276 297/242/234 335/230/226
f 297/242/234 75/228/224 335/230/226
f 214/285/275 328/227/223 70/215/211
f 214/285/275 259/224/220 328/227/223
f 259/224/220 76/225/221 328/227/223
f 399/223/219 162/217/213 72/221/217
f 399/223/219 214/285/275 162/217/213
f 214/285/275 70/215/211 162/217/213
f 522/284/265 381/646/567 89/647/568
f 522/284/265 228/283/274 381/646/567
f 228/283/274 72/221/217 381/646/567
f 155/281/273 228/283/274 94/282/264
f 155/281/273 311/280/272 228/283/274
f 311/280/272 72/221/217 228/283/274
f 311/280/272 422/222/218 72/221/217
f 311/280/272 500/279/271 422/222/218
f 500/279/271 74/638/560 422/222/218
f 309/277/269 375/653/572 79/640/561
f 309/277/269 466/276/268 375/653/572
f 466/276/268 95/649/569 375/653/572
f 425/274/266 200/654/573 86/275/267
f 425/274/266 522/273/265 200/654/573
f 522/273/265 89/648/568 200/654/573
f 322/271/263 506/644/565 92/265/257
f 322/271/263 516/251/243 506/644/565
f 516/251/243 88/250/242 506/644/565
f 463/269/261 447/650/570 83/651/563
f 463/269/261 193/268/260 447/650/570
f 193/268/260 76/225/221 447/650/570
f 211/266/258 476/655/293 93/310/259
f 211/266/258 435/263/255 476/655/293
f 435/263/255 91/262/254 476/655/293
f 185/264/256 420/306/291 87/254/246
f 185/264/256 435/263/255 420/306/291
f 435/263/255 92/265/257 420/306/291
f 164/261/253 265/303/289 91/302/254
f 164/261/253 482/216/212 265/303/289
f 482/216/212 70/215/211 265/303/289
f 486/259/251 281/299/286 71/260/252
f 486/259/251 341/258/250 281/299/286
f 341/258/250 89/647/568 281/299/286
f 296/256/248 200/654/573 89/648/568
f 296/256/248 474/255/247 200/654/573
f 474/255/247 86/275/267 200/654/573
f 479/244/236 395/652/571 80/289/278
f 479/244/236 334/253/245 395/652/571
f 334/253/245 82/270/262 395/652/571
f 330/252/244 334/253/245 84/243/235
f 330/252/244 516/251/243 334/253/245
f 516/251/243 82/270/262 334/253/245
f 431/249/241 256/307/292 88/250/242
f 431/249/241 202/248/240 256/307/292
f 202/248/240 87/254/246 256/307/292
f 202/248/240 474/255/247 87/254/246
f 202/248/240 156/247/239 474/255/247
f 156/247/239 86/275/267 474/255/247
f 205/245/237 165/294/283 85/246/238
f 205/245/237 479/244/236 165/294/283
f 479/244/236 80/289/278 165/294/283
f 297/242/234 171/292/281 75/228/224
f 297/242/234 393/241/233 171/292/281
f 393/241/233 83/651/563 171/292/281
f 393/239/233 299/641/562 83/642/563
f 393/239/233 340/238/232 299/641/562
f 340/238/232 82/270/262 299/641/562
f 160/236/230 261/290/279 80/289/278
f 160/236/230 480/235/229 261/290/279
f 480/235/229 79/640/561 261/290/279
f 480/233/229 475/637/559 79/639/561
f 480/233/229 432/232/228 475/637/559
f 432/232/228 74/638/560 475/637/559
f 335/230/226 432/232/228 78/231/227
f 335/230/226 303/229/225 432/232/228
f 303/229/225 74/638/560 432/232/228
f 328/227/223 383/645/566 70/215/211
f 328/227/223 215/226/222 383/645/566
f 215/226/222 77/643/564 383/645/566
f 259/224/220 437/293/282 76/225/221
f 259/224/220 396/220/216 437/293/282
f 396/220/216 75/228/224 437/293/282
f 399/223/219 344/219/215 73/218/214
f 399/223/219 422/222/218 344/219/215
f 422/222/218 74/638/560 344/219/215
f 396/220/216 303/229/225 75/228/224
f 396/220/216 344/219/215 303/229/225
f 344/219/215 74/638/560 303/229/225
f 162/217/213 262/300/287 72/221/217
f 162/217/213 482/216/212 262/300/287
f 482/216/212 71/260/252 262/300/287
f 493/204/200 534/211/207 218/214/210 68/205/201
f 52/191/187 377/108/106 534/211/207 493/204/200
f 377/108/106 51/107/105 355/212/208 534/211/207
f 355/656/208 535/207/203 483/210/206 69/657/209
f 51/658/105 167/188/184 535/207/203 355/656/208
f 167/188/184 64/187/183 513/208/204 535/207/203
f 348/200/196 536/203/199 343/206/202 66/201/197
f 65/197/193 222/192/188 536/203/199 348/200/196
f 222/192/188 52/191/187 493/204/200 536/203/199
f 513/208/204 537/199/195 304/202/198 67/209/205
f 64/187/183 240/198/194 537/199/195 513/208/204
f 240/198/194 65/197/193 348/200/196 537/199/195
f 249/186/182 538/195/191 240/198/194 64/187/183
f 44/659/89 386/660/574 538/195/191 249/186/182
f 386/660/574 53/661/575 494/196/192 538/195/191
f 225/194/190 460/116/114 47/115/113
f 225/194/190 469/193/189 460/116/114
f 469/193/189 53/662/575 460/116/114
f 494/196/192 539/189/185 222/192/188 65/197/193
f 53/661/575 469/663/189 539/189/185 494/196/192
f 469/663/189 43/664/93 331/190/186 539/189/185
f 285/665/104 540/185/181 167/188/184 51/658/105
f 46/666/576 351/667/140 540/185/181 285/665/104
f 351/667/140 44/659/89 249/186/182 540/185/181
f 186/668/170 541/181/177 508/184/180 62/669/171
f 58/670/163 464/160/156 541/181/177 186/668/170
f 464/160/156 57/159/155 415/182/178 541/181/177
f 415/182/178 542/177/173 423/180/176 63/183/179
f 57/159/155 236/156/152 542/177/173 415/182/178
f 236/156/152 56/155/151 405/178/174 542/177/173
f 379/170/166 543/173/169 366/176/172 60/171/167
f 59/163/159 325/168/164 543/173/169 379/170/166
f 325/168/164 58/167/163 186/174/170 543/173/169
f 405/178/174 544/169/165 424/172/168 61/179/175
f 56/155/151 487/164/160 544/169/165 405/178/174
f 487/164/160 59/163/159 379/170/166 544/169/165
f 300/162/158 545/165/161 325/168/164 59/163/159
f 42/147/143 456/84/82 545/165/161 300/162/158
f 456/84/82 41/83/81 436/166/162 545/165/161
f 191/154/150 546/161/157 487/164/160 56/155/151
f 55/151/147 465/148/144 546/161/157 191/154/150
f 465/148/144 42/147/143 300/162/158 546/161/157
f 436/671/162 547/157/153 464/160/156 58/670/163
f 41/672/81 241/140/138 547/157/153 436/671/162
f 241/140/138 54/139/137 416/158/154 547/157/153
f 416/158/154 548/153/149 236/156/152 57/159/155
f 54/139/137 505/152/148 548/153/149 416/158/154
f 505/152/148 55/151/147 191/154/150 548/153/149
f 519/138/136 549/149/145 505/152/148 54/139/137
f 34/673/69 223/674/577 549/149/145 519/138/136
f 223/674/577 45/675/578 384/150/146 549/149/145
f 384/150/146 550/145/141 465/148/144 55/151/147
f 45/675/578 216/676/579 550/145/141 384/150/146
f 216/676/579 38/677/73 345/146/142 550/145/141
f 174/678/580 551/141/139 351/144/140 46/679/576
f 38/75/73 216/680/579 551/141/139 174/678/580
f 216/680/579 45/681/578 414/142/90 551/141/139
f 315/682/80 552/137/135 241/140/138 41/672/81
f 35/683/61 317/684/60 552/137/135 315/682/80
f 317/684/60 34/673/69 519/138/136 552/137/135
f 243/42/40 553/133/131 260/136/134 25/43/41
f 24/685/49 490/686/118 553/133/131 243/42/40
f 490/686/118 36/687/117 418/134/132 553/133/131
f 286/54/52 554/129/127 427/132/130 28/55/53
f 25/43/41 260/136/134 554/129/127 286/54/52
f 260/136/134 37/135/133 250/130/128 554/129/127
f 426/38/36 555/125/123 498/128/126 21/39/37
f 20/47/45 177/124/122 555/125/123 426/38/36
f 177/124/122 32/123/121 247/126/124 555/125/123
f 367/46/44 556/121/119 177/124/122 20/47/45
f 28/55/53 427/132/130 556/121/119 367/46/44
f 427/132/130 29/131/129 467/122/120 556/121/119
f 462/50/48 557/117/115 490/120/118 24/51/49
f 21/39/37 498/128/126 557/117/115 462/50/48
f 498/128/126 33/127/125 188/118/116 557/117/115
f 386/688/574 558/113/111 460/116/114 53/662/575
f 44/689/89 507/690/102 558/113/111 386/688/574
f 507/690/102 50/691/101 235/114/112 558/113/111
f 189/78/76 559/109/107 229/112/110 40/79/77
f 39/87/85 178/100/98 559/109/107 189/78/76
f 178/100/98 48/99/97 234/110/108 559/109/107
f 331/190/186 560/105/103 377/108/106 52/191/187
f 43/664/93 445/692/92 560/105/103 331/190/186
f 445/692/92 46/693/576 285/106/104 560/105/103
f 440/90/88 561/101/99 507/104/102 44/91/89
f 40/79/77 229/112/110 561/101/99 440/90/88
f 229/112/110 49/111/109 461/102/100 561/101/99
f 397/86/84 562/97/95 178/100/98 39/87/85
f 43/95/93 225/194/190 562/97/95 397/86/84
f 225/194/190 47/115/113 187/98/96 562/97/95
f 212/66/64 563/93/91 267/96/94 30/67/65
f 38/75/73 174/678/580 563/93/91 212/66/64
f 174/678/580 46/679/576 445/94/92 563/93/91
f 223/694/577 564/89/87 414/92/90 45/695/578
f 34/71/69 450/80/78 564/89/87 223/694/577
f 450/80/78 40/79/77 440/90/88 564/89/87
f 517/58/56 565/85/83 157/88/86 31/59/57
f 30/67/65 267/96/94 565/85/83 517/58/56
f 267/96/94 43/95/93 397/86/84 565/85/83
f 345/146/142 566/81/79 456/84/82 42/147/143
f 38/677/73 451/696/72 566/81/79 345/146/142
f 451/696/72 35/697/61 315/82/80 566/81/79
f 292/70/68 567/77/75 450/80/78 34/71/69
f 31/59/57 157/88/86 567/77/75 292/70/68
f 157/88/86 39/87/85 189/78/76 567/77/75
f 418/698/132 568/73/71 280/76/74 37/699/133
f 36/700/117 372/701/62 568/73/71 418/698/132
f 372/701/62 35/702/61 451/74/72 568/73/71
f 247/703/124 569/69/67 459/72/70 33/704/125
f 32/705/121 289/60/58 569/69/67 247/703/124
f 289/60/58 31/59/57 292/70/68 569/69/67
f 250/706/128 570/65/63 387/68/66 29/707/129
f 37/699/133 280/76/74 570/65/63 250/706/128
f 280/76/74 38/75/73 212/66/64 570/65/63
f 188/708/116 571/61/59 372/64/62 36/709/117
f 33/704/125 459/72/70 571/61/59 188/708/116
f 459/72/70 34/71/69 317/62/60 571/61/59
f 467/710/120 572/57/55 289/60/58 32/705/121
f 29/707/129 387/68/66 572/57/55 467/710/120
f 387/68/66 30/67/65 517/58/56 572/57/55
f 329/711/520 573/53/51 470/56/54 27/712/521
f 26/598/519 198/44/42 573/53/51 329/711/520
f 198/44/42 25/43/41 286/54/52 573/53/51
f 509/521/475 574/49/47 287/52/50 23/522/476
f 22/520/474 382/40/38 574/49/47 509/521/475
f 382/40/38 21/39/37 462/50/48 574/49/47
f 410/713/522 575/45/43 468/48/46 19/596/523
f 27/712/521 470/56/54 575/45/43 410/713/522
f 470/56/54 28/55/53 367/46/44 575/45/43
f 357/714/477 576/41/39 198/44/42 26/598/519
f 23/715/476 287/716/50 576/41/39 357/714/477
f 287/716/50 24/685/49 243/42/40 576/41/39
f 190/525/479 577/37/35 382/40/38 22/520/474
f 19/596/523 468/48/46 577/37/35 190/525/479
f 468/48/46 20/47/45 426/38/36 577/37/35
f 196/717/581 578/33/33 337/36/34 18/528/481
f 17/529/482 251/531/484 578/33/33 196/717/581
f 251/531/484 16/589/513 293/34/28 578/33/33
f 326/556/504 579/29/29 471/32/32 11/557/505
f 17/553/482 196/718/581 579/29/29 326/556/504
f 196/718/581 18/719/481 438/30/30 579/29/29
f 385/564/512 580/25/25 293/28/28 16/565/513
f 14/573/517 389/720/24 580/25/25 385/564/512
f 389/720/24 13/721/23 428/26/26 580/25/25
f 192/568/516 581/21/21 389/24/24 14/569/517
f 11/557/505 471/32/32 581/21/21 192/568/516
f 471/32/32 12/31/31 429/22/22 581/21/21
f 253/722/582 582/17/17 199/20/20 9/723/583
f 8/724/584 295/8/8 582/17/17 253/722/582
f 295/8/8 7/7/7 371/18/18 582/17/17
f 433/725/585 583/13/13 391/16/16 5/726/586
f 4/727/587 473/4/4 583/13/13 433/725/585
f 473/4/4 3/3/3 197/14/14 583/13/13
f 510/728/588 584/9/9 203/12/12 1/729/589
f 9/723/583 199/20/20 584/9/9 510/728/588
f 199/20/20 10/19/19 284/10/10 584/9/9
f 472/730/590 585/5/5 295/8/8 8/724/584
f 5/726/586 391/16/16 585/5/5 472/730/590
f 391/16/16 6/15/15 520/6/6 585/5/5
f 294/731/591 586/1/1 473/4/4 4/727/587
f 1/732/589 203/733/12 586/1/1 294/731/591
f 203/733/12 2/571/11 336/2/2 586/1/1
