# Blender v2.78 (sub 0) OBJ File: ''
# www.blender.org
mtllib Birch_Tree_NoLeaves_m_03.mtl
o Birch_Tree_NoLeaves_m_03
v -0.143359 0.017994 -0.059027
v -0.101187 0.262112 -0.052276
v 0.008857 0.261663 -0.132260
v 0.000737 0.017994 -0.163719
v 0.144833 0.017994 -0.059027
v 0.118900 0.261213 -0.052276
v 0.076867 0.261384 0.077143
v 0.089793 0.017994 0.110367
v -0.088319 0.017994 0.110367
v -0.059154 0.261941 0.077143
v 0.092263 1.139484 -0.044799
v 0.063759 1.141836 0.043685
v 0.017638 1.145644 -0.099485
v -0.028481 1.149452 0.043685
v -0.056985 1.151805 -0.044799
v 0.075618 2.166325 0.034177
v 0.100339 2.164153 -0.042626
v 0.026343 3.457982 -0.036207
v 0.012901 3.457983 0.005417
v -0.004380 2.173354 0.034177
v -0.029101 2.175526 -0.042626
v 0.035618 2.169839 -0.090092
v -0.030598 3.457986 0.005417
v -0.043771 3.458004 -0.036403
v -0.009117 3.457969 -0.061736
v 0.023871 4.690711 -0.034842
v 0.037661 4.749577 -0.018811
v 0.025501 4.749045 -0.019073
v 0.041171 4.749727 -0.030509
v -0.039823 3.457962 -0.014631
v 0.043855 2.799690 0.020471
v -0.008849 3.457985 0.008206
v -0.040883 1.652457 -0.043679
v 0.004466 0.109056 -0.152127
v 0.098085 1.639718 -0.043679
v 0.103864 0.675767 -0.048257
v -0.011263 4.088032 -0.036938
v -0.026111 3.526535 -0.050425
v 0.017639 1.145644 0.049509
v 0.082306 0.017994 -0.124479
v -0.003029 4.158144 -0.008010
v 0.135658 0.109056 -0.056811
v 0.035539 4.778617 -0.032572
v -0.088464 0.262026 0.015129
v 0.023303 4.158694 -0.007912
v 0.026725 4.778244 -0.026140
v 0.063206 2.798609 -0.039575
v -0.038116 2.804263 -0.039575
v 0.003074 4.088228 -0.047414
v 0.035619 2.169839 0.039513
v -0.051291 0.261887 -0.099323
v 0.040224 4.778857 -0.024849
v 0.071545 1.642151 0.038789
v -0.078297 0.682416 -0.048257
v 0.085547 0.109056 0.097414
v 0.010243 3.457995 -0.051228
v -0.080833 0.017994 -0.124479
v 0.012545 2.801436 -0.076686
v 0.093005 2.164778 -0.002575
v 0.028601 1.646087 -0.094647
v 0.012783 0.679091 -0.114683
v -0.076615 0.109056 0.097414
v 0.032590 4.778499 -0.019279
v 0.058341 1.142253 -0.076854
v 0.000737 0.017994 0.126566
v -0.043508 0.681146 0.059224
v -0.021767 2.174901 -0.002575
v 0.069004 0.261438 -0.099323
v 0.071085 2.166711 -0.070675
v 0.069075 0.677037 0.059224
v -0.131245 0.017994 0.030676
v 0.000152 2.172967 -0.070675
v -0.048219 1.151131 0.001242
v -0.018765 2.803183 0.020471
v 0.083497 1.140157 0.001242
v 0.106177 0.261299 0.015129
v -0.126725 0.109056 -0.056811
v 0.031347 4.158858 -0.033119
v 0.132719 0.017994 0.030676
v -0.014343 1.650024 0.038789
v 0.008856 0.261662 0.085864
v 0.022260 3.458016 -0.014533
v -0.023064 1.149036 -0.076854
v 0.036703 4.866126 -0.026209
v -0.007787 4.158080 -0.020828
v 0.020691 4.158598 -0.041630
v 0.029012 4.158814 -0.020035
v 0.010070 4.158415 -0.006200
v 0.028601 1.646087 0.044369
v -0.032273 2.803937 -0.008297
v 0.040244 2.799891 -0.061418
v -0.015154 2.802982 -0.061418
v 0.012545 2.801436 0.024534
v 0.066592 1.642605 -0.073677
v 0.090071 1.640453 -0.000721
v -0.009390 1.649570 -0.073677
v -0.032869 1.651722 -0.000721
v 0.057363 2.798936 -0.008297
v -0.037015 0.680909 -0.087353
v -0.067793 0.682032 0.007731
v 0.012784 0.679091 0.066497
v 0.062582 0.677274 -0.087353
v 0.093360 0.676151 0.007731
v 0.004466 0.109056 0.107849
v 0.076196 0.109056 -0.112911
v -0.111594 0.109056 0.023526
v 0.120527 0.109056 0.023526
v -0.067263 0.109056 -0.112911
vt 0.2017 0.1642
vt 0.1942 0.1862
vt 0.1787 0.1827
vt 0.1838 0.1596
vt 0.1293 0.1551
vt 0.1293 0.1786
vt 0.1126 0.1786
vt 0.1110 0.1548
vt 0.0569 0.1634
vt 0.0641 0.1856
vt 0.0484 0.1891
vt 0.0393 0.1683
vt 0.1657 0.1575
vt 0.1623 0.1807
vt 0.1460 0.1787
vt 0.1475 0.1555
vt 0.0927 0.1567
vt 0.0962 0.1803
vt 0.0798 0.1820
vt 0.0744 0.1585
vt 0.1291 0.2808
vt 0.1289 0.3829
vt 0.1183 0.3831
vt 0.1154 0.2808
vt 0.1562 0.2822
vt 0.1502 0.3837
vt 0.1396 0.3827
vt 0.1428 0.2807
vt 0.1020 0.2823
vt 0.1079 0.3842
vt 0.0974 0.3854
vt 0.0886 0.2837
vt 0.0755 0.2860
vt 0.0868 0.3864
vt 0.0762 0.3873
vt 0.0623 0.2882
vt 0.1827 0.2861
vt 0.1712 0.3860
vt 0.1607 0.3847
vt 0.1697 0.2837
vt 0.0757 0.7702
vt 0.0825 0.7699
vt 0.0825 0.8989
vt 0.0778 0.8989
vt 0.0888 0.4941
vt 0.0908 0.6018
vt 0.0812 0.6022
vt 0.0787 0.4947
vt 0.1692 0.4938
vt 0.1671 0.6015
vt 0.1576 0.6008
vt 0.1592 0.4927
vt 0.1289 0.4913
vt 0.1289 0.5997
vt 0.1194 0.5999
vt 0.1189 0.4915
vt 0.1491 0.4919
vt 0.1481 0.6001
vt 0.1385 0.5995
vt 0.1391 0.4911
vt 0.0624 0.7713
vt 0.0690 0.7704
vt 0.0731 0.8990
vt 0.0685 0.8992
vt 0.1024 0.7718
vt 0.1091 0.7725
vt 0.1011 0.8991
vt 0.0965 0.8990
vt 0.0891 0.7705
vt 0.0957 0.7710
vt 0.0918 0.8989
vt 0.0872 0.8989
vt 0.0490 0.7729
vt 0.0557 0.7722
vt 0.0638 0.8993
vt 0.0591 0.8996
vt 0.1483 0.6780
vt 0.1533 0.6781
vt 0.1476 0.8296
vt 0.1089 0.4924
vt 0.1099 0.6007
vt 0.1004 0.6014
vt 0.0989 0.4934
vt 0.1284 0.8298
vt 0.1323 0.8298
vt 0.1365 0.9816
vt 0.1339 0.9814
vt 0.1361 0.8298
vt 0.1400 0.8298
vt 0.1417 0.9817
vt 0.1391 0.9816
vt 0.1438 0.8297
vt 0.1469 0.9812
vt 0.1443 0.9814
vt 0.1207 0.8301
vt 0.1246 0.8298
vt 0.1313 0.9813
vt 0.1286 0.9815
vt 0.0353 0.3914
vt 0.0334 0.3915
vt 0.0334 0.3894
vt 0.0351 0.3895
vt 0.0372 0.3913
vt 0.0368 0.3896
vt 0.0376 0.3929
vt 0.0355 0.3932
vt 0.0334 0.3936
vt 0.1169 0.8304
vt 0.1259 0.9817
vt 0.1078 0.6791
vt 0.1128 0.6787
vt 0.1179 0.6784
vt 0.1382 0.6780
vt 0.1433 0.6780
vt 0.1280 0.6781
vt 0.1331 0.6780
vt 0.1230 0.6782
vt 0.1526 0.8298
vt 0.1584 0.6783
vt 0.0422 0.7736
vt 0.0545 0.8999
vt 0.0300 0.6473
vt 0.0388 0.6462
vt 0.0477 0.6451
vt 0.0824 0.6410
vt 0.0910 0.6421
vt 0.0997 0.6432
vt 0.1084 0.6445
vt 0.1172 0.6459
vt 0.0563 0.6435
vt 0.0649 0.6419
vt 0.1817 0.3874
vt 0.1792 0.4948
vt 0.1767 0.6022
vt 0.0737 0.6414
vt 0.2096 0.1897
vt 0.1957 0.2886
vt 0.0892 0.1330
vt 0.0690 0.1350
vt 0.1095 0.1310
vt 0.1690 0.1344
vt 0.1490 0.1322
vt 0.1890 0.1365
vt 0.0496 0.1413
vt 0.0303 0.1476
vt 0.1293 0.1316
vt 0.2093 0.1423
vt 0.2297 0.1480
vt 0.2197 0.1689
vn -0.5805 0.1478 -0.8008
vn -0.5848 0.0880 -0.8064
vn 0.0037 0.0868 -0.9962
vn 0.0026 0.1415 -0.9899
vn 0.9449 0.1159 0.3062
vn 0.9490 0.0706 0.3072
vn 0.5887 0.0942 0.8028
vn 0.5832 0.1542 0.7975
vn -0.9356 0.1799 0.3038
vn -0.9458 0.1060 0.3070
vn -0.9442 0.1121 -0.3097
vn -0.9337 0.1861 -0.3058
vn 0.5848 0.1080 -0.8039
vn 0.5875 0.0660 -0.8065
vn 0.9482 0.0763 -0.3085
vn 0.9438 0.1218 -0.3071
vn 0.0010 0.1604 0.9871
vn 0.0014 0.0949 0.9955
vn -0.5823 0.1164 0.8046
vn -0.5754 0.1939 0.7945
vn 0.9511 0.0296 0.3075
vn 0.9517 0.0067 0.3070
vn 0.5889 0.0166 0.8080
vn 0.5889 0.0400 0.8072
vn 0.5896 0.0279 -0.8072
vn 0.5905 0.0095 -0.8070
vn 0.9511 0.0083 -0.3087
vn 0.9508 0.0318 -0.3082
vn 0.0014 0.0413 0.9991
vn 0.0010 0.0233 0.9997
vn -0.5891 0.0350 0.8073
vn -0.5870 0.0512 0.8079
vn -0.9502 0.0480 0.3080
vn -0.9509 0.0371 0.3073
vn -0.9506 0.0382 -0.3081
vn -0.9499 0.0501 -0.3086
vn -0.5879 0.0393 -0.8080
vn -0.5893 0.0284 -0.8074
vn -0.0006 0.0212 -0.9998
vn 0.0010 0.0376 -0.9993
vn 0.9506 0.0548 0.3056
vn 0.9498 0.0561 -0.3077
vn 0.9468 0.0254 -0.3208
vn 0.9515 0.0234 0.3068
vn -0.9513 0.0260 0.3072
vn -0.9516 0.0040 0.3073
vn -0.9508 0.0046 -0.3098
vn -0.9509 0.0264 -0.3083
vn -0.5898 0.0185 -0.8073
vn -0.5895 0.0066 -0.8078
vn 0.0085 0.0158 -0.9998
vn 0.0019 0.0091 -1.0000
vn 0.9518 -0.0076 0.3066
vn 0.9519 0.0257 0.3054
vn 0.5951 0.0248 0.8033
vn 0.5907 0.0005 0.8069
vn 0.5914 -0.0024 -0.8064
vn 0.5934 0.0201 -0.8047
vn 0.9521 0.0259 -0.3048
vn 0.9516 -0.0072 -0.3073
vn 0.0010 0.0242 0.9997
vn 0.5894 0.0466 0.8065
vn 0.5833 0.0266 0.8118
vn -0.0029 0.0228 0.9997
vn -0.5897 -0.0003 -0.8076
vn -0.9483 -0.0088 -0.3171
vn -0.9407 0.0129 -0.3391
vn -0.5931 0.0297 -0.8046
vn 0.5904 0.0399 -0.8062
vn -0.0069 0.0221 -0.9997
vn -0.0466 0.0165 -0.9988
vn 0.5584 0.0221 -0.8293
vn -0.9522 -0.0106 0.3052
vn -0.5901 0.0061 0.8073
vn -0.6035 0.0235 0.7970
vn -0.9607 0.0195 0.2770
vn -0.1248 0.0265 -0.9918
vn 0.0013 0.0099 0.9999
vn 0.0034 0.0168 0.9999
vn -0.5840 0.0117 0.8117
vn -0.5879 0.0213 0.8086
vn -0.0061 0.0208 0.9998
vn 0.5875 0.0042 0.8092
vn 0.5888 0.0047 0.8083
vn -0.1106 0.1062 0.9882
vn 0.9533 -0.0111 0.3019
vn 0.9333 -0.0083 -0.3591
vn 0.9187 -0.0081 -0.3948
vn 0.9771 0.0657 0.2025
vn 0.4219 0.0049 -0.9066
vn -0.5863 0.0513 -0.8085
vn 0.1936 0.0925 -0.9767
vn -0.9914 0.0537 0.1191
vn -0.6309 0.0434 0.7746
vn -0.6596 0.0512 0.7499
vn -0.9839 0.1352 -0.1173
vn 0.0222 0.9997 -0.0062
vn -0.9102 0.0490 -0.4113
vn -0.0038 0.1780 0.9840
vn -0.5785 0.2132 0.7873
vn 0.5696 0.1681 0.8046
vn 0.5822 0.1167 -0.8046
vn 0.9437 0.1298 -0.3043
vn -0.0109 0.1534 -0.9881
vn -0.9315 0.2006 0.3034
vn -0.9335 0.2046 -0.2943
vn 0.9425 0.1259 0.3096
vn -0.5833 0.1635 -0.7956
usemtl None
s 1
f 108/1/1 51/2/2 3/3/3 34/4/4
f 107/5/5 76/6/6 7/7/7 55/8/8
f 106/9/9 44/10/10 2/11/11 77/12/12
f 105/13/13 68/14/14 6/15/15 42/16/16
f 104/17/17 81/18/18 10/19/19 62/20/20
f 103/21/21 75/22/22 12/23/23 70/24/24
f 102/25/25 64/26/26 11/27/27 36/28/28
f 101/29/29 39/30/30 14/31/31 66/32/32
f 100/33/33 73/34/34 15/35/35 54/36/36
f 99/37/37 83/38/38 13/39/39 61/40/40
f 98/41/41 47/42/42 18/43/43 82/44/44
f 97/45/45 67/46/46 21/47/47 33/48/48
f 96/49/49 72/50/50 22/51/51 60/52/52
f 95/53/53 59/54/54 16/55/55 53/56/56
f 94/57/57 69/58/58 17/59/59 35/60/60
f 93/61/61 31/62/62 19/63/63 32/64/64
f 92/65/65 48/66/66 24/67/67 38/68/68
f 91/69/69 58/70/70 25/71/71 56/72/72
f 90/73/73 74/74/74 23/75/75 30/76/76
f 25/77/71 38/78/68 49/79/77
f 89/80/78 50/81/79 20/82/80 80/83/81
f 88/84/82 45/85/83 27/86/84 63/87/85
f 87/88/86 78/89/87 29/90/88 52/91/89
f 86/92/90 49/79/77 26/93/91 43/94/92
f 85/95/93 41/96/94 28/97/95 46/98/96
f 84/99/97 46/100/96 28/101/95 63/102/85
f 52/103/89 84/99/97 63/102/85 27/104/84
f 29/105/88 43/106/92 84/99/97 52/103/89
f 43/106/92 26/107/91 46/100/96 84/99/97
f 37/108/98 85/95/93 46/98/96 26/109/91
f 24/110/67 30/111/76 85/95/93 37/108/98
f 30/111/76 23/112/75 41/96/94 85/95/93
f 78/89/87 86/92/90 43/94/92 29/90/88
f 18/113/43 56/114/72 86/92/90 78/89/87
f 56/114/72 25/77/71 49/79/77 86/92/90
f 45/85/83 87/88/86 52/91/89 27/86/84
f 19/115/63 82/116/44 87/88/86 45/85/83
f 82/116/44 18/113/43 78/89/87 87/88/86
f 41/96/94 88/84/82 63/87/85 28/97/95
f 23/112/75 32/117/64 88/84/82 41/96/94
f 32/117/64 19/115/63 45/85/83 88/84/82
f 39/30/30 89/80/78 80/83/81 14/31/31
f 12/23/23 53/56/56 89/80/78 39/30/30
f 53/56/56 16/55/55 50/81/79 89/80/78
f 49/79/77 37/118/98 26/93/91
f 49/79/77 38/78/68 37/118/98
f 38/78/68 24/119/67 37/118/98
f 48/120/66 90/73/73 30/76/76 24/121/67
f 21/122/47 67/123/46 90/73/73 48/120/66
f 67/123/46 20/124/80 74/74/74 90/73/73
f 47/42/42 91/69/69 56/72/72 18/43/43
f 17/125/59 69/126/58 91/69/69 47/42/42
f 69/126/58 22/127/51 58/70/70 91/69/69
f 58/70/70 92/65/65 38/68/68 25/71/71
f 22/127/51 72/128/50 92/65/65 58/70/70
f 72/128/50 21/129/47 48/66/66 92/65/65
f 74/74/74 93/61/61 32/64/64 23/75/75
f 20/124/80 50/130/79 93/61/61 74/74/74
f 50/130/79 16/131/55 31/62/62 93/61/61
f 64/26/26 94/57/57 35/60/60 11/27/27
f 13/39/39 60/52/52 94/57/57 64/26/26
f 60/52/52 22/51/51 69/58/58 94/57/57
f 75/22/22 95/53/53 53/56/56 12/23/23
f 11/27/27 35/60/60 95/53/53 75/22/22
f 35/60/60 17/59/59 59/54/54 95/53/53
f 83/38/38 96/49/49 60/52/52 13/39/39
f 15/132/35 33/133/48 96/49/49 83/38/38
f 33/133/48 21/134/47 72/50/50 96/49/49
f 73/34/34 97/45/45 33/48/48 15/35/35
f 14/31/31 80/83/81 97/45/45 73/34/34
f 80/83/81 20/82/80 67/46/46 97/45/45
f 31/62/62 98/41/41 82/44/44 19/63/63
f 16/131/55 59/135/54 98/41/41 31/62/62
f 59/135/54 17/125/59 47/42/42 98/41/41
f 51/2/2 99/37/37 61/40/40 3/3/3
f 2/136/11 54/137/36 99/37/37 51/2/2
f 54/137/36 15/132/35 83/38/38 99/37/37
f 44/10/10 100/33/33 54/36/36 2/11/11
f 10/19/19 66/32/32 100/33/33 44/10/10
f 66/32/32 14/31/31 73/34/34 100/33/33
f 81/18/18 101/29/29 66/32/32 10/19/19
f 7/7/7 70/24/24 101/29/29 81/18/18
f 70/24/24 12/23/23 39/30/30 101/29/29
f 68/14/14 102/25/25 36/28/28 6/15/15
f 3/3/3 61/40/40 102/25/25 68/14/14
f 61/40/40 13/39/39 64/26/26 102/25/25
f 76/6/6 103/21/21 70/24/24 7/7/7
f 6/15/15 36/28/28 103/21/21 76/6/6
f 36/28/28 11/27/27 75/22/22 103/21/21
f 65/138/99 104/17/17 62/20/20 9/139/100
f 8/140/101 55/8/8 104/17/17 65/138/99
f 55/8/8 7/7/7 81/18/18 104/17/17
f 40/141/102 105/13/13 42/16/16 5/142/103
f 4/143/104 34/4/4 105/13/13 40/141/102
f 34/4/4 3/3/3 68/14/14 105/13/13
f 71/144/105 106/9/9 77/12/12 1/145/106
f 9/139/100 62/20/20 106/9/9 71/144/105
f 62/20/20 10/19/19 44/10/10 106/9/9
f 79/146/107 107/5/5 55/8/8 8/140/101
f 5/142/103 42/16/16 107/5/5 79/146/107
f 42/16/16 6/15/15 76/6/6 107/5/5
f 57/147/108 108/1/1 34/4/4 4/143/104
f 1/148/106 77/149/12 108/1/1 57/147/108
f 77/149/12 2/136/11 51/2/2 108/1/1
