# Blender v2.77 (sub 0) OBJ File: 'Fir_Tree_crk_m_01.obj'
# www.blender.org
mtllib Fir_Tree_s_05.mtl
o Fir_Tree_s_05
v -0.004688 0.336204 0.002710
v -0.175297 0.212629 -0.133889
v 0.162240 0.166836 -0.166873
v 0.157564 0.156757 0.154943
v -0.166071 0.199116 0.172754
v -0.129398 0.454138 -0.097270
v 0.125957 0.471157 -0.122489
v 0.117951 0.488466 0.123146
v -0.114161 0.462184 0.116487
v -0.145041 0.540821 -0.103436
v 0.128138 0.570753 -0.130868
v 0.129100 0.581755 0.138024
v -0.120287 0.551318 0.108852
v -0.031111 1.008173 -0.040984
v 0.064004 0.994334 -0.045352
v 0.065240 0.996233 0.046533
v -0.019366 1.008126 0.032874
v 0.022732 1.244798 0.000718
v -0.049323 0.037326 0.014448
v 0.013993 0.037317 0.054946
v -0.006776 0.369761 0.024883
v -0.038151 0.369833 0.005085
v -0.004979 0.037298 -0.046005
v -0.012943 0.369609 -0.036697
v 0.020315 0.369558 -0.010246
v 0.051163 0.037292 -0.005570
v -0.009218 0.203451 -0.043751
v -0.091478 0.765089 -0.074470
v -0.001936 0.461414 -0.127034
v 0.037873 0.203421 -0.008285
v 0.006384 0.369557 -0.027430
v 0.016587 1.021167 -0.045729
v 0.181764 0.164354 -0.008005
v 0.005404 1.147715 0.014451
v -0.139954 0.455957 0.010276
v 0.009952 0.369652 0.009632
v -0.027677 1.029441 -0.004290
v -0.004140 0.183114 0.184440
v 0.151066 0.579048 0.003683
v 0.150887 0.307164 -0.151135
v -0.091541 0.260245 0.094176
v 0.041821 1.139285 0.019287
v 0.127693 0.518193 -0.127917
v 0.005557 0.567439 0.144066
v -0.022477 0.037322 0.041843
v 0.098270 0.772917 -0.090938
v -0.118548 0.500238 0.112609
v 0.082189 0.234634 0.082608
v -0.006684 0.197134 -0.171433
v 0.143867 0.310686 0.144478
v -0.028729 0.369729 -0.018120
v 0.004057 0.203541 0.042075
v 0.123909 0.534147 0.132735
v -0.192588 0.215893 0.021012
v -0.034301 0.037312 -0.020603
v 0.040365 1.138881 -0.018049
v 0.140129 0.482015 -0.000340
v -0.009603 0.554885 -0.137780
v 0.083255 0.241518 -0.087071
v 0.067922 1.013641 0.001023
v 0.099822 0.778973 0.095308
v -0.025161 0.369824 0.018943
v -0.155111 0.543276 0.002603
v 0.002111 0.476559 0.136970
v -0.046063 0.203585 0.010381
v 0.023658 1.021915 0.042461
v -0.139471 0.489395 -0.100732
v -0.158544 0.324399 -0.120935
v -0.094927 0.268038 -0.070782
v 0.039727 0.037304 0.029512
v 0.027904 0.037295 -0.032935
v -0.146374 0.320855 0.152073
v 0.000844 1.148092 -0.018327
v -0.072238 0.770378 0.072122
v 0.024839 0.203478 0.019572
v -0.031515 0.203521 -0.019361
v 0.017144 0.203426 -0.030182
v -0.023819 0.203573 0.030393
v -0.096278 0.767079 -0.001441
v -0.149320 0.492317 0.006220
v 0.014621 0.775128 0.096981
v 0.113466 0.776600 0.002453
v 0.002568 0.768551 -0.095969
v -0.176359 0.323719 0.017076
v 0.003363 0.518260 0.141564
v 0.146112 0.528669 0.002128
v 0.171277 0.307833 -0.004835
v -0.006572 0.502726 -0.133216
v -0.001048 0.315769 0.170938
v -0.004034 0.315783 -0.158698
vt 0.3094 0.3134
vt 0.3234 0.2984
vt 0.3250 0.3310
vt 0.2932 0.3303
vt 0.2933 0.2984
vt 0.3123 0.3395
vt 0.2829 0.3397
vt 0.3010 0.3220
vt 0.3105 0.3217
vt 0.3116 0.2852
vt 0.3395 0.2858
vt 0.3161 0.3054
vt 0.3081 0.3054
vt 0.3106 0.3201
vt 0.3027 0.3198
vt 0.3044 0.3177
vt 0.3108 0.3185
vt 0.3405 0.3126
vt 0.3415 0.3394
vt 0.3199 0.3214
vt 0.3180 0.3134
vt 0.3166 0.3138
vt 0.3185 0.3203
vt 0.3172 0.3193
vt 0.3152 0.3141
vt 0.3078 0.3068
vt 0.3146 0.3072
vt 0.3131 0.3090
vt 0.3074 0.3083
vt 0.2833 0.3122
vt 0.2837 0.2846
vt 0.3002 0.3054
vt 0.3006 0.3137
vt 0.2879 0.3126
vt 0.2890 0.2878
vt 0.3061 0.3110
vt 0.3068 0.3142
vt 0.3104 0.3310
vt 0.2869 0.3373
vt 0.3075 0.3174
vt 0.3096 0.3161
vt 0.3276 0.3053
vt 0.3338 0.3248
vt 0.3117 0.3148
vt 0.3113 0.3129
vt 0.3078 0.3123
vt 0.3018 0.3132
vt 0.3009 0.3065
vt 0.3017 0.3075
vt 0.3030 0.3126
vt 0.3085 0.3110
vt 0.3052 0.2868
vt 0.3214 0.2858
vt 0.3109 0.3110
vt 0.3106 0.3142
vt 0.3085 0.3155
vt 0.8050 0.9375
vt 0.8203 0.9374
vt 0.8201 0.9875
vt 0.8048 0.9873
vt 0.8429 0.9375
vt 0.8426 0.9879
vt 0.8351 0.9879
vt 0.8354 0.9374
vt 0.7820 0.9374
vt 0.7820 0.9873
vt 0.7744 0.9875
vt 0.7744 0.9373
vt 0.8278 0.9374
vt 0.8276 0.9877
vt 0.8281 0.8871
vt 0.8205 0.8874
vt 0.8357 0.8868
vt 0.7821 0.8874
vt 0.7744 0.8870
vt 0.7897 0.8878
vt 0.7896 0.9375
vt 0.7896 0.9872
vt 0.8432 0.8871
vt 0.8508 0.8873
vt 0.8504 0.9376
vt 0.8501 0.9878
vt 0.8051 0.8876
vt 0.3095 0.3137
vt 0.3102 0.3123
vt 0.2718 0.2646
vt 0.3018 0.2626
vt 0.3318 0.2606
vt 0.3439 0.2976
vt 0.3560 0.3347
vt 0.3111 0.3460
vt 0.2662 0.3572
vt 0.2690 0.3109
vt 0.2649 0.3574
vt 0.2661 0.3106
vt 0.2673 0.2638
vt 0.3628 0.2661
vt 0.3630 0.3117
vt 0.3632 0.3574
vt 0.3074 0.2834
vt 0.3375 0.2834
vt 0.2772 0.2834
vt 0.3151 0.2649
vt 0.3141 0.3574
vt 0.2771 0.3153
vt 0.2770 0.3472
vt 0.3088 0.3479
vt 0.3406 0.3487
vt 0.3390 0.3160
vn -0.0882 -0.9960 -0.0120
vn 0.2898 -0.8928 0.3448
vn -0.4227 -0.8430 0.3327
vn -0.4601 -0.8085 -0.3670
vn 0.2271 -0.8848 -0.4068
vn -0.0878 0.1628 -0.9827
vn -0.7245 0.2217 -0.6527
vn -0.7324 0.0176 -0.6807
vn -0.0867 0.0320 -0.9957
vn 0.0239 0.1605 0.9868
vn 0.6999 0.1519 0.6978
vn 0.6944 -0.0054 0.7195
vn -0.0255 0.0590 0.9979
vn -0.0899 -0.1133 -0.9895
vn -0.7469 -0.1939 -0.6360
vn -0.7670 0.0603 -0.6388
vn -0.1036 0.0567 -0.9930
vn 0.9916 0.1281 0.0181
vn 0.6679 0.1775 -0.7228
vn 0.6851 0.0555 -0.7263
vn 0.9994 0.0269 0.0234
vn 0.9947 -0.1014 0.0189
vn 0.6705 -0.1079 -0.7340
vn 0.6547 0.0780 -0.7518
vn 0.9987 0.0501 0.0001
vn -0.0694 -0.0664 0.9954
vn 0.6613 -0.1565 0.7336
vn 0.6599 0.0702 0.7481
vn -0.1124 0.0902 0.9896
vn -0.9760 0.2126 0.0470
vn -0.6509 0.2437 0.7190
vn -0.6591 0.1182 0.7427
vn -0.9965 0.0309 0.0779
vn -0.0871 0.1961 -0.9767
vn -0.7283 0.2687 -0.6303
vn -0.7153 0.2724 -0.6435
vn -0.0291 0.2000 -0.9794
vn 0.9826 0.1853 -0.0128
vn 0.6447 0.2399 -0.7258
vn 0.6616 0.2422 -0.7096
vn 0.9818 0.1890 -0.0168
vn -0.1332 0.2209 0.9662
vn 0.6408 0.2594 0.7225
vn 0.6483 0.2570 0.7167
vn -0.1236 0.1984 0.9723
vn -0.6959 0.3133 -0.6462
vn -0.9841 -0.1493 0.0960
vn -0.6928 -0.0602 0.7186
vn -0.7039 0.1168 0.7007
vn -0.9917 0.0811 0.1000
vn -0.9627 0.2342 0.1353
vn -0.9608 0.2535 0.1123
vn -0.6750 0.2626 0.6895
vn -0.6677 0.2445 0.7031
vn 0.6646 0.2742 0.6951
vn 0.6883 0.2589 -0.6776
vn -0.5358 0.0537 0.8426
vn 0.2105 0.1000 0.9725
vn 0.1930 0.1060 0.9755
vn -0.5391 0.0596 0.8401
vn 0.5988 0.0503 -0.7993
vn 0.6037 0.0563 -0.7952
vn 0.9848 0.1008 -0.1417
vn 0.9831 0.0931 -0.1575
vn -0.8278 0.0143 -0.5609
vn -0.8390 0.0196 -0.5437
vn -0.2033 0.0376 -0.9784
vn -0.1798 0.0299 -0.9833
vn 0.8241 0.1037 0.5569
vn 0.8092 0.1088 0.5774
vn 0.8374 0.0986 0.5377
vn 0.2276 0.0945 0.9692
vn 0.9821 0.0862 -0.1676
vn -0.8165 0.0089 -0.5772
vn -0.1616 0.0225 -0.9866
vn -0.9806 0.0311 0.1934
vn -0.9815 0.0381 0.1875
vn -0.9825 0.0453 0.1809
vn 0.5949 0.0444 -0.8026
vn -0.5325 0.0480 0.8451
vn 0.0123 0.9998 0.0160
vn -0.6651 0.2455 0.7052
vn -0.5709 -0.6654 -0.4810
vn -0.6449 -0.7643 -0.0028
vn -0.5384 -0.6616 0.5219
vn 0.4505 -0.7528 0.4800
vn 0.5282 -0.8490 -0.0150
vn 0.4329 -0.7114 -0.5537
vn -0.1002 -0.8189 0.5651
vn -0.1699 -0.8058 -0.5673
usemtl None
s 1
f 1/1/1 69/2/2 59/3/3
f 1/1/1 59/3/3 48/4/4
f 1/1/1 48/4/4 41/5/5
f 90/6/6 68/7/7 6/8/8 29/9/9
f 89/10/10 50/11/11 8/12/12 64/13/13
f 1/1/1 41/5/5 69/2/2
f 88/14/14 67/15/15 10/16/16 58/17/17
f 87/18/18 40/19/19 7/20/20 57/21/21
f 86/22/22 43/23/23 11/24/24 39/25/25
f 85/26/26 53/27/27 12/28/28 44/29/29
f 84/30/30 72/31/31 9/32/32 35/33/33
f 83/34/34 28/35/35 14/36/36 32/37/37
f 82/38/38 46/39/39 15/40/40 60/41/41
f 81/42/42 61/43/43 16/44/44 66/45/45
f 14/36/36 73/46/46 32/37/37
f 80/47/47 47/48/48 13/49/49 63/50/50
f 14/36/36 37/51/51 73/46/46
f 79/52/52 74/53/53 17/54/54 37/51/51
f 16/44/44 42/55/55 66/45/45
f 15/40/40 56/56/56 60/41/41
f 78/57/57 52/58/58 21/59/59 62/60/60
f 77/61/61 31/62/62 25/63/63 30/64/64
f 76/65/65 51/66/66 24/67/67 27/68/68
f 75/69/69 36/70/70 21/59/59 52/58/58
f 70/71/71 75/69/69 52/58/58 20/72/72
f 26/73/73 30/64/64 75/69/69 70/71/71
f 30/64/64 25/63/63 36/70/70 75/69/69
f 55/74/74 76/65/65 27/68/68 23/75/75
f 19/76/76 65/77/77 76/65/65 55/74/74
f 65/77/77 22/78/78 51/66/66 76/65/65
f 71/79/79 77/61/61 30/64/64 26/73/73
f 23/80/75 27/81/68 77/61/61 71/79/79
f 27/81/68 24/82/67 31/62/62 77/61/61
f 65/77/77 78/57/57 62/60/60 22/78/78
f 19/76/76 45/83/80 78/57/57 65/77/77
f 45/83/80 20/72/72 52/58/58 78/57/57
f 60/41/41 42/55/55 16/44/44
f 60/41/41 56/56/56 42/55/55
f 56/56/56 18/84/81 42/55/55
f 66/45/45 34/85/82 17/54/54
f 66/45/45 42/55/55 34/85/82
f 42/55/55 18/84/81 34/85/82
f 28/35/35 79/52/52 37/51/51 14/36/36
f 10/86/16 63/87/50 79/52/52 28/35/35
f 63/87/50 13/88/49 74/53/53 79/52/52
f 73/46/46 34/85/82 18/84/81
f 73/46/46 37/51/51 34/85/82
f 37/51/51 17/54/54 34/85/82
f 67/15/15 80/47/47 63/50/50 10/16/16
f 6/8/8 35/33/33 80/47/47 67/15/15
f 35/33/33 9/32/32 47/48/48 80/47/47
f 32/37/37 56/56/56 15/40/40
f 32/37/37 73/46/46 56/56/56
f 73/46/46 18/84/81 56/56/56
f 74/53/53 81/42/42 66/45/45 17/54/54
f 13/88/49 44/89/29 81/42/42 74/53/53
f 44/89/29 12/90/28 61/43/43 81/42/42
f 61/43/43 82/38/38 60/41/41 16/44/44
f 12/90/28 39/91/25 82/38/38 61/43/43
f 39/91/25 11/92/24 46/39/39 82/38/38
f 46/39/39 83/34/34 32/37/37 15/40/40
f 11/92/24 58/93/17 83/34/34 46/39/39
f 58/93/17 10/86/16 28/35/35 83/34/34
f 68/7/7 84/30/30 35/33/33 6/8/8
f 2/94/83 54/95/84 84/30/30 68/7/7
f 54/95/84 5/96/85 72/31/31 84/30/30
f 47/48/48 85/26/26 44/29/29 13/49/49
f 9/32/32 64/13/13 85/26/26 47/48/48
f 64/13/13 8/12/12 53/27/27 85/26/26
f 53/27/27 86/22/22 39/25/25 12/28/28
f 8/12/12 57/21/21 86/22/22 53/27/27
f 57/21/21 7/20/20 43/23/23 86/22/22
f 50/11/11 87/18/18 57/21/21 8/12/12
f 4/97/86 33/98/87 87/18/18 50/11/11
f 33/98/87 3/99/88 40/19/19 87/18/18
f 43/23/23 88/14/14 58/17/17 11/24/24
f 7/20/20 29/9/9 88/14/14 43/23/23
f 29/9/9 6/8/8 67/15/15 88/14/14
f 69/2/2 54/100/84 2/101/83
f 69/2/2 41/5/5 54/100/84
f 41/5/5 5/102/85 54/100/84
f 72/31/31 89/10/10 64/13/13 9/32/32
f 5/96/85 38/103/89 89/10/10 72/31/31
f 38/103/89 4/97/86 50/11/11 89/10/10
f 40/19/19 90/6/6 29/9/9 7/20/20
f 3/99/88 49/104/90 90/6/6 40/19/19
f 49/104/90 2/94/83 68/7/7 90/6/6
f 41/5/5 38/105/89 5/102/85
f 41/5/5 48/4/4 38/105/89
f 48/4/4 4/106/86 38/105/89
f 48/4/4 33/107/87 4/106/86
f 48/4/4 59/3/3 33/107/87
f 59/3/3 3/108/88 33/107/87
f 59/3/3 49/109/90 3/108/88
f 59/3/3 69/2/2 49/109/90
f 69/2/2 2/101/83 49/109/90
