# Blender v2.77 (sub 0) OBJ File: 'Fir_Tree_crk_m_01.obj'
# www.blender.org
mtllib Fir_Tree_crk_s_03.mtl
o Fir_Tree_crk_s_03
v 0.053934 0.017036 -0.007183
v 0.043589 0.168830 -0.009291
v 0.010165 0.168921 0.041906
v 0.016091 0.017048 0.055460
v -0.049923 0.017052 0.013207
v -0.041549 0.168954 0.008986
v -0.004052 0.168853 -0.044424
v -0.003900 0.017039 -0.048621
v -0.333269 0.111242 -0.144883
v -0.153266 0.026208 -0.204728
v -0.210623 0.271456 -0.270998
v -0.307632 0.278180 0.023695
v -0.245277 0.027631 0.074758
v -0.454567 0.017381 -0.291669
v -0.466167 0.177580 -0.325719
v -0.556935 0.181069 -0.125282
v -0.519598 0.026930 -0.122657
v -0.520650 -0.009951 -0.331103
v -0.540265 0.165839 -0.366615
v -0.642789 0.168049 -0.157690
v -0.603049 0.011029 -0.167177
v -0.976752 -0.013970 -0.472671
v -0.977846 0.063440 -0.477587
v -1.011422 0.064549 -0.406929
v -1.004120 -0.003785 -0.415995
v -1.243804 0.020001 -0.552801
v -0.200577 0.071770 -0.073398
v -0.221481 0.117663 -0.050254
v -0.378188 0.073183 -0.139742
v -0.365232 0.044341 -0.154014
v -0.185716 0.105574 -0.122565
v -0.352612 0.067996 -0.192935
v -0.369115 0.099564 -0.172290
v -0.207707 0.149295 -0.095981
v -1.014553 0.065953 -0.450709
v -0.747744 0.116598 -0.419741
v 0.013830 0.092985 0.051329
v -0.187838 0.088208 -0.096621
v -0.280562 0.066301 -0.023525
v -0.288649 0.126302 -0.134531
v -1.144756 0.038688 -0.491524
v -1.028740 0.029554 -0.418252
v -0.559195 -0.013629 -0.247982
v -0.021728 0.017050 0.041481
v -0.179265 0.146710 -0.259048
v -0.817881 0.118161 -0.275746
v -0.048609 0.093005 0.011665
v -0.268219 0.086532 -0.159688
v -0.793802 0.001911 -0.285883
v -0.497164 0.171283 -0.343898
v -0.282834 0.056203 -0.112955
v -0.330240 0.231847 -0.301757
v -0.313834 0.200603 -0.053593
v -0.191675 0.129640 -0.108641
v -0.996464 0.023406 -0.485963
v -0.359702 0.086463 -0.186433
v -0.736692 -0.014729 -0.398926
v -0.513095 0.190759 -0.226612
v -0.198467 0.008225 -0.062518
v -1.143076 0.006973 -0.495104
v -1.131297 0.037425 -0.520150
v -0.596454 0.173881 -0.138386
v -0.263458 0.197464 -0.210007
v 0.027943 0.173135 0.016979
v -0.427501 0.237404 -0.042537
v -0.375196 0.089527 -0.154177
v -0.004234 0.092945 -0.049219
v 0.042162 0.017042 0.028962
v -1.010651 -0.012992 -0.453506
v -0.594181 0.181112 -0.263311
v -0.544096 0.104490 -0.110426
v -0.210787 0.136177 -0.070033
v -0.231046 0.065404 -0.175243
v -0.206950 0.094745 -0.058013
v -0.375185 0.024674 -0.012884
v -0.293810 0.019820 -0.248995
v -0.630932 0.090550 -0.146469
v -0.016600 0.173203 0.026584
v -0.483287 0.003870 -0.309250
v -1.131237 0.003014 -0.520211
v -0.454537 0.096990 -0.322237
v -0.300611 0.095655 -0.093415
v -0.266861 0.289713 -0.129695
v 0.020564 0.173098 -0.028215
v -0.023980 0.173166 -0.018611
v 0.051192 0.092931 -0.008754
v -0.557662 0.020108 -0.144566
v 0.029829 0.017038 -0.035049
v -0.357378 0.053015 -0.175314
v -0.034061 0.017046 -0.022531
v -0.286063 0.151229 0.066835
v -0.485538 0.010721 -0.206051
v -0.522445 0.076933 -0.364824
v -0.372871 0.056079 -0.143057
v 0.001813 0.185933 -0.001146
v -0.185640 0.115543 -0.076660
v -0.296153 0.114136 -0.112191
v -0.274004 0.068210 -0.138103
v -0.277375 0.108848 -0.150611
v -0.292782 0.073499 -0.099683
v -0.763846 -0.016276 -0.341979
v -0.518375 -0.000812 -0.225773
v -0.810913 0.060761 -0.270570
v -0.784213 0.127247 -0.348169
v -0.737147 0.050209 -0.419578
v -0.330961 0.005318 -0.127654
v -0.583979 0.097745 -0.126722
v -0.548908 0.185383 -0.242277
v -0.382407 0.251554 -0.175432
v -0.483304 0.086826 -0.341328
v -0.408462 0.131454 -0.007969
v -0.304905 0.125419 -0.295117
v -0.020647 0.093000 0.036318
v 0.026737 0.092934 -0.033808
v -0.031119 0.092976 -0.021971
v 0.037208 0.092957 0.024481
vt 0.8302 0.9058
vt 0.8288 0.9238
vt 0.8218 0.9232
vt 0.8223 0.9051
vt 0.7973 0.9079
vt 0.8004 0.9257
vt 0.7930 0.9271
vt 0.7889 0.9096
vt 0.8455 0.9081
vt 0.8424 0.9258
vt 0.8357 0.9244
vt 0.8380 0.9065
vt 0.8140 0.9057
vt 0.8148 0.9237
vt 0.3116 0.3083
vt 0.3252 0.2943
vt 0.3272 0.3224
vt 0.2953 0.3224
vt 0.2944 0.2936
vt 0.3106 0.2820
vt 0.3363 0.2835
vt 0.3143 0.3021
vt 0.3087 0.3016
vt 0.3125 0.3364
vt 0.2889 0.3361
vt 0.3045 0.3131
vt 0.3100 0.3137
vt 0.3088 0.3027
vt 0.3131 0.3034
vt 0.3120 0.3046
vt 0.3090 0.3038
vt 0.2868 0.3083
vt 0.2848 0.2806
vt 0.3031 0.3010
vt 0.3038 0.3070
vt 0.3049 0.3071
vt 0.3045 0.3020
vt 0.3059 0.3031
vt 0.3061 0.3071
vt 0.3100 0.3127
vt 0.3054 0.3121
vt 0.3063 0.3111
vt 0.3100 0.3117
vt 0.3362 0.3101
vt 0.3361 0.3367
vt 0.3155 0.3143
vt 0.3149 0.3082
vt 0.3140 0.2867
vt 0.3330 0.2916
vt 0.3086 0.3087
vt 0.3077 0.3083
vt 0.2951 0.3079
vt 0.2949 0.2819
vt 0.3069 0.3079
vt 0.3073 0.3088
vt 0.3116 0.3321
vt 0.2953 0.3339
vt 0.3077 0.3096
vt 0.3081 0.3095
vt 0.3083 0.3088
vt 0.3139 0.3083
vt 0.3146 0.3133
vt 0.3137 0.3123
vt 0.3128 0.3084
vt 0.3085 0.3090
vt 0.3304 0.3109
vt 0.3279 0.3302
vt 0.3084 0.3093
vt 0.3079 0.3093
vt 0.3075 0.3084
vt 0.8091 0.9500
vt 0.8095 0.9553
vt 0.7875 0.9547
vt 0.7872 0.9512
vt 0.8074 0.9726
vt 0.7859 0.9689
vt 0.7868 0.9642
vt 0.8086 0.9669
vt 0.8075 0.9384
vt 0.7859 0.9423
vt 0.7849 0.9369
vt 0.8062 0.9320
vt 0.8090 0.9611
vt 0.7872 0.9595
vt 0.8085 0.8011
vt 0.7998 0.8012
vt 0.7994 0.7929
vt 0.8084 0.7929
vt 0.8078 0.8184
vt 0.8160 0.8184
vt 0.8160 0.8275
vt 0.8077 0.8270
vt 0.7996 0.8184
vt 0.7994 0.8266
vt 0.7998 0.8101
vt 0.8079 0.8098
vt 0.8160 0.8094
vt 0.8171 0.8010
vt 0.8175 0.7929
vt 0.8168 0.8090
vt 0.8086 0.8092
vt 0.8003 0.8094
vt 0.8309 0.9628
vt 0.8315 0.9559
vt 0.8303 0.9697
vt 0.8291 0.9345
vt 0.8276 0.9271
vt 0.8305 0.9420
vt 0.8087 0.9448
vt 0.7869 0.9476
vt 0.8290 0.9764
vt 0.8277 0.9831
vt 0.8063 0.9783
vt 0.7849 0.9736
vt 0.8310 0.9489
vt 0.3081 0.3090
vt 0.3083 0.3091
vt 0.3574 0.2745
vt 0.3524 0.3128
vt 0.3474 0.3511
vt 0.3152 0.3547
vt 0.2829 0.3583
vt 0.2829 0.3070
vt 0.2829 0.2558
vt 0.3202 0.2652
vt 0.3584 0.2648
vt 0.3575 0.3120
vt 0.3567 0.3591
vt 0.2732 0.3591
vt 0.2699 0.3096
vt 0.2665 0.2601
vt 0.3080 0.2796
vt 0.3387 0.2804
vt 0.2772 0.2788
vt 0.3149 0.3591
vt 0.3124 0.2625
vt 0.2781 0.3076
vt 0.2790 0.3365
vt 0.3109 0.3365
vt 0.3428 0.3365
vt 0.3407 0.3084
vt 0.8056 0.9063
vt 0.8079 0.9242
vt 0.8034 0.8884
vt 0.8131 0.8877
vt 0.8228 0.8870
vt 0.8486 0.8903
vt 0.8403 0.8887
vt 0.8569 0.8920
vt 0.8529 0.9096
vt 0.8490 0.9271
vt 0.7941 0.8902
vt 0.7849 0.8920
vt 0.8316 0.8879
vn 0.8439 0.0971 0.5277
vn 0.6252 0.6682 0.4033
vn 0.1817 0.5033 0.8448
vn 0.2170 0.1133 0.9696
vn -0.8085 0.0465 -0.5867
vn -0.6191 0.6503 -0.4401
vn -0.1524 0.4711 -0.8688
vn -0.1636 0.0526 -0.9851
vn 0.5866 0.0505 -0.8083
vn 0.4405 0.6549 -0.6141
vn 0.8585 0.4866 -0.1619
vn 0.9786 0.0868 -0.1868
vn -0.5365 0.0790 0.8402
vn -0.4050 0.6683 0.6240
vn 0.8917 0.3018 0.3374
vn 0.5480 0.6494 0.5273
vn 0.7874 -0.0221 0.6160
vn 0.9954 -0.0937 0.0185
vn 0.8254 0.5623 -0.0503
vn 0.2517 -0.1842 -0.9501
vn 0.1918 -0.7884 -0.5845
vn 0.3688 -0.7803 -0.5050
vn 0.3967 -0.1578 -0.9043
vn -0.5629 -0.0265 0.8261
vn -0.5608 0.6710 0.4850
vn -0.4877 0.6868 0.5390
vn -0.4902 -0.0869 0.8673
vn 0.5473 -0.1230 -0.8279
vn 0.5262 -0.7452 -0.4096
vn 0.3536 -0.7896 -0.5015
vn 0.4013 -0.1361 -0.9058
vn -0.3157 0.9382 -0.1420
vn -0.0314 0.5988 -0.8003
vn 0.0836 0.6480 -0.7570
vn -0.2445 0.9623 -0.1196
vn -0.1060 0.9924 -0.0628
vn 0.2961 0.6694 -0.6814
vn 0.1770 0.6550 -0.7346
vn -0.1524 0.9846 -0.0857
vn -0.3766 -0.1167 0.9190
vn -0.3484 0.6860 0.6387
vn -0.4505 0.6655 0.5951
vn -0.4577 -0.1525 0.8759
vn -0.0160 -0.9997 0.0188
vn -0.3809 -0.7208 0.5791
vn -0.2981 -0.7386 0.6047
vn 0.0849 -0.9917 0.0961
vn 0.2624 -0.1245 -0.9569
vn 0.1791 -0.7976 -0.5760
vn 0.1534 -0.7859 -0.5990
vn 0.2617 -0.0720 -0.9625
vn -0.2176 0.9690 -0.1165
vn 0.0497 0.6377 -0.7687
vn 0.0669 0.6424 -0.7634
vn -0.1801 0.9785 -0.1007
vn -0.5352 -0.1721 0.8270
vn -0.5459 0.6380 0.5432
vn -0.5315 0.6308 0.5654
vn -0.5232 -0.1645 0.8362
vn 0.0719 -0.7424 -0.6661
vn 0.2043 -0.9622 0.1803
vn -0.1546 -0.7317 0.6638
vn -0.2361 -0.7400 0.6298
vn 0.0764 -0.9856 0.1510
vn -0.1279 -0.9871 0.0966
vn -0.0521 -0.9919 0.1158
vn -0.3366 -0.7374 0.5856
vn -0.3573 -0.7263 0.5872
vn -0.5071 0.6547 0.5606
vn 0.0811 0.6713 -0.7367
vn -0.2980 -0.5304 0.7936
vn -0.5116 0.1824 0.8397
vn -0.5315 0.1719 0.8294
vn -0.3179 -0.5369 0.7814
vn 0.1968 0.5922 -0.7814
vn 0.1742 0.5897 -0.7886
vn -0.2061 0.9528 -0.2230
vn -0.1778 0.9583 -0.2236
vn 0.3606 -0.8293 -0.4269
vn 0.3378 -0.8399 -0.4247
vn 0.4014 -0.2099 -0.8915
vn 0.4250 -0.1890 -0.8852
vn -0.4555 0.7727 0.4420
vn -0.4782 0.7559 0.4472
vn 0.8865 0.2077 0.4136
vn 0.3263 -0.3086 0.8935
vn 0.4344 -0.8088 0.3964
vn 0.8393 -0.5335 -0.1042
vn 0.0039 1.0000 -0.0035
vn -0.8587 0.4883 0.1555
vn 0.7181 0.5845 -0.3777
vn 0.7630 -0.0827 -0.6411
vn 0.2238 0.9737 -0.0433
vn 0.1914 0.7725 0.6055
vn -0.0913 0.2652 0.9599
vn 0.0602 -0.9684 0.2422
vn 0.0422 -0.9742 0.2218
vn -0.9178 -0.0159 -0.3967
vn -0.4285 -0.6973 0.5745
vn 0.9237 -0.3679 -0.1070
vn 0.8696 -0.3860 0.3080
vn 0.5195 -0.3730 0.7688
vn 0.3340 0.6973 0.6343
vn 0.6246 0.7589 0.1842
vn 0.6823 0.6410 -0.3514
vn 0.4630 0.2356 0.8545
vn 0.9491 0.1236 -0.2897
vn -0.9798 0.0794 0.1836
vn -0.9813 0.0406 0.1884
vn -0.5353 0.0493 0.8432
vn 0.2244 0.0771 0.9714
vn 0.5872 0.0205 -0.8092
vn 0.9817 0.0520 -0.1833
vn -0.1634 0.0148 -0.9864
vn -0.8070 0.0173 -0.5903
vn 0.8487 0.0686 0.5244
usemtl None
s 1
f 116/1/1 64/2/2 3/3/3 37/4/4
f 115/5/5 85/6/6 7/7/7 67/8/8
f 114/9/9 84/10/10 2/11/11 86/12/12
f 113/13/13 37/4/4 3/3/3 78/14/14
f 9/15/15 73/16/16 63/17/17
f 9/15/15 63/17/17 53/18/18
f 9/15/15 53/18/18 39/19/19
f 112/20/20 76/21/21 14/22/22 81/23/23
f 111/24/24 65/25/25 16/26/26 71/27/27
f 9/15/15 39/19/19 73/16/16
f 110/28/28 79/29/29 18/30/30 93/31/31
f 109/32/32 52/33/33 15/34/34 58/35/35
f 108/36/36 50/37/37 19/38/38 70/39/39
f 107/40/40 62/41/41 20/42/42 77/43/43
f 106/44/44 75/45/45 17/46/46 92/47/47
f 105/48/48 57/49/49 22/50/50 55/51/51
f 104/52/52 36/53/53 23/54/54 35/55/55
f 103/56/56 46/57/57 24/58/58 42/59/59
f 22/50/50 80/60/60 55/51/51
f 102/61/61 87/62/62 21/63/63 43/64/64
f 22/50/50 69/65/65 80/60/60
f 101/66/66 49/67/67 25/68/68 69/65/65
f 24/58/58 41/69/69 42/59/59
f 23/54/54 61/70/70 35/55/55
f 100/71/71 82/72/72 29/73/73 94/74/74
f 99/75/75 56/76/76 33/77/77 40/78/78
f 98/79/79 89/80/80 32/81/81 48/82/82
f 97/83/83 66/84/84 29/73/73 82/72/72
f 96/85/85 74/86/86 27/87/87 38/88/88
f 95/89/89 85/90/6 6/91/90 78/92/14
f 64/93/2 95/89/89 78/92/14 3/94/3
f 2/95/11 84/96/10 95/89/89 64/93/2
f 84/96/10 7/97/7 85/90/6 95/89/89
f 54/98/91 96/85/85 38/88/88 31/99/92
f 34/100/93 72/101/94 96/85/85 54/98/91
f 72/101/94 28/102/95 74/86/86 96/85/85
f 72/103/94 97/83/83 82/72/72 28/104/95
f 34/105/93 40/78/78 97/83/83 72/103/94
f 40/78/78 33/77/77 66/84/84 97/83/83
f 38/106/88 98/79/79 48/82/82 31/107/92
f 27/108/87 51/109/96 98/79/79 38/106/88
f 51/109/96 30/110/97 89/80/80 98/79/79
f 54/111/91 99/75/75 40/78/78 34/105/93
f 31/112/92 48/113/82 99/75/75 54/111/91
f 48/113/82 32/114/81 56/76/76 99/75/75
f 51/109/96 100/71/71 94/74/74 30/110/97
f 27/108/87 74/115/86 100/71/71 51/109/96
f 74/115/86 28/104/95 82/72/72 100/71/71
f 35/55/55 41/69/69 24/58/58
f 35/55/55 61/70/70 41/69/69
f 61/70/70 26/116/98 41/69/69
f 42/59/59 60/117/99 25/68/68
f 42/59/59 41/69/69 60/117/99
f 41/69/69 26/116/98 60/117/99
f 57/49/49 101/66/66 69/65/65 22/50/50
f 18/118/30 43/119/64 101/66/66 57/49/49
f 43/119/64 21/120/63 49/67/67 101/66/66
f 80/60/60 60/117/99 26/116/98
f 80/60/60 69/65/65 60/117/99
f 69/65/65 25/68/68 60/117/99
f 79/29/29 102/61/61 43/64/64 18/30/30
f 14/22/22 92/47/47 102/61/61 79/29/29
f 92/47/47 17/46/46 87/62/62 102/61/61
f 55/51/51 61/70/70 23/54/54
f 55/51/51 80/60/60 61/70/70
f 80/60/60 26/116/98 61/70/70
f 49/67/67 103/56/56 42/59/59 25/68/68
f 21/120/63 77/121/43 103/56/56 49/67/67
f 77/121/43 20/122/42 46/57/57 103/56/56
f 46/57/57 104/52/52 35/55/55 24/58/58
f 20/122/42 70/123/39 104/52/52 46/57/57
f 70/123/39 19/124/38 36/53/53 104/52/52
f 36/53/53 105/48/48 55/51/51 23/54/54
f 19/124/38 93/125/31 105/48/48 36/53/53
f 93/125/31 18/118/30 57/49/49 105/48/48
f 76/21/21 106/44/44 92/47/47 14/22/22
f 10/126/100 59/127/101 106/44/44 76/21/21
f 59/127/101 13/128/102 75/45/45 106/44/44
f 87/62/62 107/40/40 77/43/43 21/63/63
f 17/46/46 71/27/27 107/40/40 87/62/62
f 71/27/27 16/26/26 62/41/41 107/40/40
f 62/41/41 108/36/36 70/39/39 20/42/42
f 16/26/26 58/35/35 108/36/36 62/41/41
f 58/35/35 15/34/34 50/37/37 108/36/36
f 65/25/25 109/32/32 58/35/35 16/26/26
f 12/129/103 83/130/104 109/32/32 65/25/25
f 83/130/104 11/131/105 52/33/33 109/32/32
f 50/37/37 110/28/28 93/31/31 19/38/38
f 15/34/34 81/23/23 110/28/28 50/37/37
f 81/23/23 14/22/22 79/29/29 110/28/28
f 73/16/16 59/132/101 10/133/100
f 73/16/16 39/19/19 59/132/101
f 39/19/19 13/134/102 59/132/101
f 75/45/45 111/24/24 71/27/27 17/46/46
f 13/128/102 91/135/106 111/24/24 75/45/45
f 91/135/106 12/129/103 65/25/25 111/24/24
f 52/33/33 112/20/20 81/23/23 15/34/34
f 11/131/105 45/136/107 112/20/20 52/33/33
f 45/136/107 10/126/100 76/21/21 112/20/20
f 39/19/19 91/137/106 13/134/102
f 39/19/19 53/18/18 91/137/106
f 53/18/18 12/138/103 91/137/106
f 53/18/18 83/139/104 12/138/103
f 53/18/18 63/17/17 83/139/104
f 63/17/17 11/140/105 83/139/104
f 63/17/17 45/141/107 11/140/105
f 63/17/17 73/16/16 45/141/107
f 73/16/16 10/133/100 45/141/107
f 47/142/108 113/13/13 78/14/14 6/143/90
f 5/144/109 44/145/110 113/13/13 47/142/108
f 44/145/110 4/146/111 37/4/4 113/13/13
f 88/147/112 114/9/9 86/12/12 1/148/113
f 8/149/114 67/150/8 114/9/9 88/147/112
f 67/150/8 7/151/7 84/10/10 114/9/9
f 90/152/115 115/5/5 67/8/8 8/153/114
f 5/144/109 47/142/108 115/5/5 90/152/115
f 47/142/108 6/143/90 85/6/6 115/5/5
f 68/154/116 116/1/1 37/4/4 4/146/111
f 1/148/113 86/12/12 116/1/1 68/154/116
f 86/12/12 2/11/11 64/2/2 116/1/1
