# Blender v2.77 (sub 0) OBJ File: 'Fir_Tree_crk_m_01.obj'
# www.blender.org
mtllib Fir_Tree_m_09.mtl
o Fir_Tree_m_09
v -0.042468 1.100280 -0.798782
v -0.526799 1.105460 -0.265312
v -0.625452 1.252050 -0.235115
v -0.000372 1.242934 -0.962179
v -0.030229 0.618665 -0.935736
v 0.534030 1.090851 -0.573899
v 0.624515 0.633363 -0.651088
v 0.537561 1.073795 0.302289
v 0.600502 1.212066 -0.710939
v 0.585982 1.182212 0.364349
v -0.254192 1.071967 0.550565
v -0.343456 1.215861 0.596539
v -0.307068 0.644659 0.677683
v -0.629972 0.622821 -0.299102
v 0.464207 1.813667 0.270319
v -0.224939 1.809244 0.465463
v -0.416457 1.856755 -0.114145
v 0.009469 1.880143 -0.553850
v 0.443149 1.880500 -0.427263
v 0.517572 2.025728 -0.412807
v 0.503514 1.960417 0.333788
v -0.240348 1.937666 0.513735
v -0.456980 1.991082 -0.104284
v 0.046693 2.039122 -0.608802
v 0.299834 2.593202 0.227163
v -0.140038 2.581669 0.320284
v -0.306486 2.597709 -0.044149
v 0.022149 2.593951 -0.361879
v 0.314903 2.593318 -0.254873
v 0.327074 2.703399 -0.278164
v 0.320208 2.720594 0.326514
v -0.147520 2.718907 0.337465
v -0.332119 2.708207 -0.057664
v 0.015375 2.699090 -0.412726
v 0.115400 3.595536 -0.074850
v 0.113676 3.599408 0.160550
v -0.056854 3.597423 0.162756
v -0.135103 3.593849 -0.003325
v -0.013661 3.593498 -0.127620
v -0.014506 1.258654 -0.004413
v -0.012780 4.195724 0.063069
v 0.615576 0.653082 0.412253
v 0.002142 0.381132 -0.126776
v 0.000346 1.304117 -0.074594
v 0.084711 1.303978 -0.014235
v 0.134775 0.381118 -0.031078
v -0.104237 0.381135 0.025259
v -0.060849 1.304757 0.040524
v 0.155344 0.016475 -0.049581
v 0.043048 0.381113 0.114952
v 0.055847 0.016473 0.120277
v -0.125214 0.016474 0.005377
v 0.001294 0.016475 -0.160620
v 0.013259 1.304548 0.077640
v -0.217545 2.016358 -0.371530
v -0.522044 1.554709 -0.174129
v -0.343635 0.935545 -0.150292
v -0.236835 2.589580 0.145228
v 0.485431 1.886983 0.302188
v 0.521587 1.545899 -0.572006
v 0.568182 1.148085 -0.645835
v -0.328792 1.248716 -0.618362
v -0.073382 3.914545 0.030613
v 0.177748 2.700737 -0.363472
v 0.301789 0.638083 -0.808272
v 0.001099 0.854471 -0.100781
v -0.341806 0.632578 -0.627836
v -0.167449 2.703355 -0.244817
v -0.413223 1.088756 0.156371
v -0.488091 0.646123 0.202558
v 0.560227 1.082234 -0.136513
v 0.219922 3.149618 0.247396
v 0.028440 3.618927 0.165470
v 0.254069 1.095778 -0.711060
v -0.034093 1.304446 -0.019380
v 0.156428 0.662072 0.572717
v 0.291538 2.034567 -0.533801
v 0.001596 0.179728 -0.146639
v 0.089755 2.720302 0.350681
v 0.401953 2.277332 0.279657
v 0.473615 1.847241 -0.079977
v -0.382070 2.295017 -0.073814
v -0.056256 0.381134 -0.054211
v 0.325571 0.941645 -0.338144
v -0.103217 3.147940 0.252313
v -0.168590 0.948126 0.359419
v 0.050530 3.915594 -0.002622
v 0.115486 3.618004 0.044376
v -0.371849 1.963025 0.217233
v -0.070495 0.016475 -0.083380
v -0.014890 3.914499 -0.031237
v -0.214307 1.869243 -0.346336
v 0.004691 1.561246 -0.760024
v -0.037319 0.843967 -0.881402
v 0.094120 0.381115 0.045389
v 0.311915 0.952570 0.221937
v -0.255094 2.713700 0.146463
v 0.417402 2.310304 -0.333111
v 0.123516 1.809325 0.390556
v 0.109971 0.854392 -0.022372
v 0.082658 2.587176 0.288552
v -0.577764 1.177120 -0.251515
v 0.035238 2.317730 -0.485572
v -0.285603 1.513015 0.530896
v -0.040428 0.016474 0.071359
v -0.117715 0.179716 0.015209
v -0.236496 3.140225 -0.032105
v -0.027059 1.304685 0.064190
v -0.098265 3.616072 0.081151
v 0.126271 1.197860 0.515622
v 0.146679 1.071889 0.456679
v -0.021798 1.169336 -0.885057
v 0.084063 0.016475 -0.113632
v 0.050726 3.615035 -0.102125
v -0.340569 1.832518 0.186702
v -0.435531 1.923823 -0.108212
v 0.481141 1.955049 -0.417574
v 0.525262 1.497309 0.317437
v 0.224039 3.138726 -0.179829
v 0.018854 2.640554 -0.387838
v 0.338058 2.712103 0.026571
v 0.311721 1.227840 -0.869928
v -0.587650 0.848624 -0.288767
v 0.621305 1.195884 -0.172899
v -0.034273 0.381123 0.075638
v 0.050666 0.179709 0.120232
v 0.048447 3.917273 0.110675
v 0.309936 2.652770 0.277953
v -0.150162 2.596135 -0.211156
v 0.028649 1.961165 -0.578158
v -0.284207 0.843223 0.625695
v 0.562206 1.124630 0.332904
v 0.072137 0.381126 -0.084459
v 0.636146 0.656035 -0.116203
v 0.532919 1.993247 -0.039222
v -0.082587 0.854806 0.033865
v -0.026814 0.933207 -0.497503
v -0.143503 2.646377 0.328336
v -0.190372 2.259642 0.417620
v 0.135388 1.946817 0.448951
v -0.513300 1.234823 0.198224
v -0.034375 3.916261 0.113892
v 0.174550 2.593476 -0.322360
v -0.232328 1.872435 0.490776
v -0.299885 1.141387 0.573243
v 0.000780 3.135437 -0.274974
v 0.589905 0.847311 -0.622120
v -0.076115 3.614154 -0.065183
v -0.299621 1.103696 -0.550616
v 0.052827 1.304253 0.034048
v 0.114130 0.016474 0.041106
v 0.027689 0.854685 0.096631
v 0.587526 0.849254 0.363361
v -0.320116 2.648197 -0.050700
v 0.045792 1.304015 -0.049522
v 0.320152 2.593483 -0.013719
v 0.233174 1.881983 -0.510422
v 0.147723 0.179724 -0.041136
v 0.321010 2.642690 -0.267343
v 0.157170 0.846169 0.529040
v -0.037518 0.179712 0.073686
v 0.072875 0.854535 0.039735
v 0.078653 0.179727 -0.099853
v -0.030512 0.854757 0.069929
v -0.063864 0.179722 -0.069600
v 0.104999 0.179716 0.043434
v -0.044788 0.854642 -0.036063
v 0.058598 0.854420 -0.066258
v 0.615815 0.848463 -0.129664
v -0.329069 0.846339 -0.606266
v 0.116737 3.136796 -0.239581
v -0.180054 3.144135 0.114448
v 0.176205 2.641289 -0.343596
v -0.246233 2.647305 0.145679
v -0.124222 3.137637 -0.160255
v 0.060750 3.149117 0.262768
v 0.231817 3.144262 0.035422
v 0.234035 2.315009 -0.427832
v -0.159167 2.644382 -0.228151
v -0.304600 2.276601 0.181737
v 0.086302 2.649719 0.319905
v 0.329073 2.647895 0.006572
v 0.427257 2.294016 -0.026515
v 0.263031 1.960009 -0.519297
v -0.183614 2.307154 -0.291258
v -0.355457 1.897214 0.203058
v 0.109073 2.267245 0.368647
v -0.428182 1.534055 0.192661
v -0.215048 1.943519 -0.356847
v 0.130395 1.877532 0.420409
v 0.504443 1.921182 -0.058302
v 0.272400 1.554573 -0.692632
v 0.283164 1.158987 -0.794491
v -0.464612 1.159709 0.176492
v 0.547424 1.521055 -0.127839
v -0.272023 1.558986 -0.483103
v 0.124274 1.503509 0.453088
v -0.461765 0.845899 0.183751
v 0.136162 1.131924 0.485788
v 0.591441 1.135685 -0.156622
v 0.286106 0.845509 -0.780095
v -0.315215 1.174253 -0.587428
v -0.084618 2.028914 -0.502960
v -0.463948 1.715098 -0.142047
v -0.176957 1.132803 -0.063343
v -0.280444 2.594063 0.049694
v 0.499520 1.913969 0.321618
v 0.477504 1.723634 -0.494052
v 0.588968 1.169257 -0.686874
v -0.163798 1.246212 -0.808178
v -0.042574 4.086604 0.049360
v 0.097419 2.699663 -0.397058
v 0.478254 0.642066 -0.733387
v 0.000514 1.101978 -0.087514
v -0.505980 0.633637 -0.457453
v -0.075180 2.700973 -0.337730
v -0.343152 1.079624 0.372744
v -0.574828 0.639991 -0.066571
v 0.563333 1.077760 0.093864
v 0.165096 3.378511 0.202274
v -0.017410 3.618371 0.165382
v 0.404042 1.093481 -0.654163
v -0.050694 1.304625 0.012636
v 0.410815 0.664406 0.499517
v 0.169924 2.038019 -0.584096
v 0.001260 0.089864 -0.156301
v -0.034223 2.719792 0.351299
v 0.346125 2.445520 0.248962
v 0.465313 1.865207 -0.263947
v -0.340500 2.456446 -0.057492
v -0.084992 0.381134 -0.013324
v 0.149687 1.135784 -0.155197
v -0.078970 3.376631 0.205839
v -0.089142 1.138803 0.175685
v 0.017524 4.087132 0.034428
v 0.115414 3.619042 0.108367
v -0.427624 1.977136 0.054282
v -0.035217 0.016475 -0.129021
v -0.014998 4.086545 0.018530
v -0.102485 1.875018 -0.459631
v 0.006437 1.730139 -0.647288
v -0.033581 0.708345 -0.929794
v 0.069652 0.381113 0.084551
v 0.488202 0.764264 0.332274
v -0.303541 2.710910 0.043735
v 0.361673 2.461091 -0.290142
v -0.059835 1.808334 0.441852
v 0.122869 0.606920 -0.026679
v -0.033479 2.583895 0.312423
v -0.608000 1.205526 -0.244904
v 0.028300 2.464946 -0.417476
v -0.252403 1.670397 0.494310
v -0.090740 0.016474 0.039631
v -0.124082 0.089858 0.010134
v -0.184094 3.371079 -0.018042
v -0.006940 1.304626 0.073959
v -0.119273 3.615121 0.036727
v -0.120775 1.206892 0.575400
v -0.063201 1.071190 0.522899
v -0.010300 1.196398 -0.935276
v 0.042063 0.016475 -0.144148
v 0.016469 3.614510 -0.115445
v -0.389260 1.845106 0.033478
v -0.450370 1.947991 -0.107335
v 0.505001 1.981889 -0.418312
v 0.491258 1.665160 0.290383
v 0.168020 3.371337 -0.125988
v 0.017599 2.654751 -0.407067
v 0.337884 2.716713 0.188008
v 0.466984 1.219906 -0.805896
v -0.622829 0.712782 -0.300783
v 0.620834 1.187840 0.111583
v 0.005455 0.381117 0.099675
v 0.054145 0.089854 0.122312
v 0.015513 4.087881 0.086634
v 0.319756 2.672300 0.307797
v -0.063216 2.594929 -0.293815
v 0.038882 1.992232 -0.599961
v -0.302426 0.722573 0.667334
v 0.577738 1.143119 0.352224
v 0.107596 0.381122 -0.058696
v 0.636630 0.661578 0.175225
v 0.531996 1.976038 0.157772
v -0.071391 1.102493 0.038119
v -0.025449 1.131508 -0.239134
v -0.147608 2.668469 0.336798
v -0.162833 2.430918 0.364516
v -0.062455 1.940811 0.496043
v -0.440561 1.225374 0.416701
v -0.023765 4.087430 0.089936
v 0.249960 2.593352 -0.295303
v -0.238890 1.894762 0.507302
v -0.325944 1.169819 0.588655
v -0.007002 3.368683 -0.199312
v 0.621552 0.718097 -0.651301
v -0.043442 3.614099 -0.097981
v -0.426494 1.105358 -0.413496
v 0.033003 1.304410 0.058888
v 0.087163 0.016474 0.087960
v 0.019680 1.102319 0.086909
v 0.615718 0.730056 0.397910
v -0.330708 2.663358 -0.055466
v 0.069133 1.303978 -0.032578
v 0.322761 2.593356 -0.140983
v 0.345092 1.882578 -0.479169
v 0.153701 0.089862 -0.046211
v 0.328543 2.658097 -0.277427
v -0.350473 2.003802 -0.240099
v -0.580140 1.394320 -0.206211
v -0.510313 0.738288 -0.237241
v -0.193226 2.585097 0.240762
v 0.471343 1.859997 0.282759
v 0.565670 1.368164 -0.649959
v 0.547397 1.126913 -0.604797
v -0.493785 1.251219 -0.428547
v -0.104190 3.742487 0.011866
v 0.258078 2.701809 -0.329887
v 0.125324 0.634100 -0.883157
v 0.001684 0.606964 -0.114048
v -0.177633 0.631519 -0.798219
v -0.259718 2.705738 -0.151904
v -0.483295 1.097888 -0.060003
v -0.401355 0.652256 0.471687
v 0.557121 1.086709 -0.366890
v 0.274749 2.920725 0.292518
v 0.074289 3.619484 0.165558
v 0.104097 1.098075 -0.767957
v -0.017491 1.304268 -0.051395
v -0.097958 0.659738 0.645916
v 0.413152 2.031115 -0.483506
v 0.001932 0.269593 -0.136977
v 0.213732 2.720812 0.350063
v 0.457781 2.109143 0.310352
v 0.481917 1.829275 0.103993
v -0.423640 2.133588 -0.090136
v -0.027519 0.381134 -0.095097
v 0.501455 0.747506 -0.521090
v -0.127465 2.919250 0.298787
v -0.248038 0.757449 0.543153
v 0.083536 3.744057 -0.039672
v 0.115558 3.616966 -0.019614
v -0.316073 1.948915 0.380184
v -0.105773 0.016474 -0.037738
v -0.014782 3.742454 -0.081003
v -0.326129 1.863468 -0.233041
v 0.002945 1.392354 -0.872759
v -0.041057 0.979589 -0.833010
v 0.118588 0.381117 0.006228
v 0.135627 1.140876 0.111601
v -0.206647 2.716491 0.249190
v 0.473132 2.159517 -0.376080
v 0.306867 1.810317 0.339259
v 0.097073 1.101865 -0.018065
v 0.198796 2.590456 0.264680
v -0.547528 1.148714 -0.258125
v 0.042177 2.170515 -0.553668
v -0.318802 1.355633 0.567482
v 0.009884 0.016473 0.103087
v -0.111347 0.269574 0.020284
v -0.288899 2.909372 -0.046168
v -0.047177 1.304744 0.054421
v -0.077257 3.617023 0.125576
v 0.373317 1.188829 0.455844
v 0.356559 1.072587 0.390460
v -0.033297 1.142274 -0.834837
v 0.126064 0.016475 -0.083117
v 0.084984 3.615560 -0.088806
v -0.291878 1.819930 0.339925
v -0.420692 1.899655 -0.109088
v 0.457281 1.928209 -0.416836
v 0.559266 1.329458 0.344491
v 0.280058 2.906114 -0.233671
v 0.020108 2.626358 -0.368609
v 0.338233 2.707493 -0.134865
v 0.156459 1.235775 -0.933961
v -0.552471 0.984466 -0.276752
v 0.621776 1.203928 -0.457381
v -0.074001 0.381129 0.051600
v 0.047187 0.269563 0.118153
v 0.081381 3.746666 0.134715
v 0.300116 2.633240 0.248110
v -0.237108 2.597340 -0.128498
v 0.018417 1.930098 -0.556355
v -0.265988 0.963874 0.584056
v 0.546674 1.106141 0.313583
v 0.036677 0.381129 -0.110221
v 0.635661 0.650493 -0.407632
v 0.533843 2.010455 -0.236217
v -0.093783 0.607119 0.029612
v -0.028180 0.734907 -0.755871
v -0.139398 2.624286 0.319874
v -0.217912 2.088366 0.470724
v 0.333230 1.952824 0.401859
v -0.586040 1.244273 -0.020254
v -0.044986 3.745093 0.137847
v 0.099140 2.593599 -0.349416
v -0.225765 1.850107 0.474250
v -0.273827 1.112956 0.557830
v 0.008563 2.902192 -0.350635
v 0.558258 0.976526 -0.592939
v -0.108788 3.614210 -0.032386
v -0.172749 1.102034 -0.687735
v 0.072651 1.304097 0.009207
v 0.141098 0.016474 -0.005748
v 0.035699 0.607051 0.106352
v 0.559334 0.968453 0.328811
v -0.309523 2.633037 -0.045935
v 0.022451 1.304052 -0.066467
v 0.317543 2.593611 0.113544
v 0.121256 1.881387 -0.541674
v 0.141745 0.269585 -0.036061
v 0.313477 2.627284 -0.257258
v -0.074033 0.844472 0.598833
v 0.388372 0.847866 0.459247
v 0.162414 0.726706 0.569265
v 0.151926 0.965632 0.488816
v -0.039120 0.089856 0.072405
v -0.035916 0.269568 0.074967
v 0.007923 0.179710 0.101875
v -0.082959 0.179714 0.045497
v 0.050801 0.854613 0.071515
v 0.094949 0.854457 0.007955
v 0.083910 0.606983 0.042865
v 0.061839 1.102087 0.036604
v 0.117643 0.179725 -0.071525
v 0.039663 0.179728 -0.128181
v 0.081631 0.089863 -0.107438
v 0.075675 0.269590 -0.092268
v -0.060131 0.854790 0.053247
v -0.000893 0.854724 0.086612
v -0.032413 0.607091 0.073089
v -0.028611 1.102424 0.066770
v -0.031596 0.179726 -0.113055
v -0.096132 0.179719 -0.026146
v -0.067514 0.089861 -0.077185
v -0.060214 0.269584 -0.062015
v 0.079182 0.179712 0.086749
v 0.130817 0.179720 0.000119
v 0.110026 0.089858 0.042153
v 0.099973 0.269574 0.044715
v -0.022308 0.854552 -0.072377
v -0.067270 0.854733 0.000251
v -0.050676 0.607044 -0.045247
v -0.038901 1.102241 -0.026880
v 0.087811 0.854399 -0.045041
v 0.029386 0.854441 -0.087475
v 0.065647 0.606937 -0.075470
v 0.051549 1.101903 -0.057046
v -0.272147 0.977274 0.118133
v -0.351595 0.786597 0.301867
v -0.438825 0.780017 0.031185
v 0.617695 0.849013 0.129895
v 0.613936 0.847913 -0.389223
v 0.647069 0.724391 -0.126768
v 0.584562 0.972536 -0.132560
v -0.184456 0.844997 -0.758837
v -0.473682 0.847681 -0.453695
v -0.345589 0.710216 -0.637776
v -0.312550 0.982462 -0.574756
v 0.148497 0.972769 -0.419967
v 0.147132 0.774469 -0.678336
v 0.324382 0.778630 -0.602914
v 0.083738 3.369836 -0.171906
v 0.149736 2.903756 -0.307257
v 0.174354 3.137617 -0.215903
v 0.059119 3.135975 -0.263260
v -0.046081 3.773892 -0.048878
v -0.076997 3.773879 -0.017858
v -0.046189 3.945937 0.000888
v 0.083385 3.777287 0.080433
v 0.083457 3.776358 0.019343
v 0.050451 3.947895 0.056392
v -0.003777 3.777096 0.141354
v 0.039768 3.777656 0.141438
v 0.006834 3.948264 0.117398
v -0.139190 3.373861 0.097134
v -0.220918 2.914409 0.131763
v -0.214999 3.142128 0.040438
v -0.145108 3.146142 0.188458
v -0.056908 3.946814 0.074611
v -0.087715 3.774755 0.055864
v -0.067518 3.775645 0.098566
v 0.070818 0.986226 0.315419
v 0.247106 0.797920 0.425755
v -0.008630 0.795549 0.499153
v 0.326151 0.982764 -0.051262
v 0.502035 0.788625 -0.234208
v 0.502438 0.794458 0.059075
v 0.017625 3.946458 -0.017415
v 0.050631 3.774920 -0.054464
v 0.017733 3.774413 -0.067181
v -0.360742 0.772394 -0.410918
v -0.195430 0.771351 -0.582338
v -0.194064 0.969651 -0.323969
v 0.179470 2.656003 -0.359264
v 0.172941 2.626575 -0.327928
v 0.254057 2.641838 -0.313347
v 0.098353 2.640740 -0.373845
v -0.254007 2.665994 0.147378
v -0.238459 2.628615 0.143981
v -0.292534 2.647938 0.046735
v -0.199933 2.646671 0.244624
v -0.100555 3.369735 -0.113940
v -0.147888 2.905538 -0.206571
v -0.061360 3.136395 -0.223597
v -0.187083 3.138878 -0.096914
v 0.044954 3.377802 0.214081
v 0.076546 2.920432 0.311455
v -0.024706 3.148633 0.262618
v 0.146206 3.149601 0.262917
v 0.174104 3.375006 0.039402
v 0.289530 2.913517 0.031441
v 0.231739 3.147173 0.149244
v 0.231895 3.141350 -0.078401
v 0.201856 2.463435 -0.370046
v 0.266214 2.166582 -0.485618
v 0.332634 2.313118 -0.388916
v 0.135436 2.316900 -0.466748
v -0.165361 2.658911 -0.240519
v -0.152972 2.629853 -0.215784
v -0.069333 2.642286 -0.316122
v -0.249000 2.646477 -0.140180
v -0.267642 2.443264 0.162010
v -0.341558 2.109939 0.201465
v -0.354332 2.286060 0.052443
v -0.254868 2.267143 0.311031
v 0.089322 2.670733 0.340023
v 0.083282 2.628706 0.299786
v -0.033665 2.647878 0.331736
v 0.206269 2.651561 0.308073
v 0.338158 2.665334 0.017016
v 0.319988 2.630456 -0.003872
v 0.327655 2.650648 0.151407
v 0.330491 2.645141 -0.138263
v 0.369080 2.453516 -0.020416
v 0.485434 2.134516 -0.032615
v 0.425269 2.285411 0.135227
v 0.429245 2.302622 -0.188258
v 0.280712 1.989082 -0.531350
v 0.245349 1.930935 -0.507244
v 0.379850 1.958681 -0.478700
v 0.146211 1.961336 -0.559894
v -0.165196 2.461239 -0.247337
v -0.202031 2.153069 -0.335178
v -0.073388 2.312972 -0.398461
v -0.293839 2.301336 -0.184055
v -0.366986 1.920245 0.212125
v -0.343928 1.874183 0.193990
v -0.407473 1.910794 0.044927
v -0.303441 1.883633 0.361188
v 0.094668 2.437469 0.324158
v 0.123478 2.097022 0.413137
v -0.048032 2.262465 0.404487
v 0.266177 2.272026 0.332808
v -0.380290 1.692603 0.188792
v -0.476074 1.375507 0.196530
v -0.488819 1.545035 0.006962
v -0.367546 1.523075 0.378360
v -0.217749 1.971252 -0.367973
v -0.212348 1.915786 -0.345722
v -0.092828 1.953092 -0.478669
v -0.337268 1.933946 -0.235026
v 0.134139 1.902165 0.439018
v 0.126651 1.852899 0.401801
v -0.060515 1.873793 0.469864
v 0.321306 1.881271 0.370954
v 0.524027 1.948099 -0.048508
v 0.484858 1.894264 -0.068096
v 0.508329 1.903096 0.131599
v 0.500556 1.939267 -0.248203
v 0.250034 1.728217 -0.593911
v 0.294766 1.380929 -0.791353
v 0.405895 1.550880 -0.645214
v 0.138904 1.558266 -0.740050
v 0.300148 1.183136 -0.842282
v 0.266180 1.134838 -0.746699
v 0.436106 1.153595 -0.733736
v 0.130223 1.164378 -0.855245
v -0.494289 1.188334 0.188445
v -0.434935 1.131084 0.164538
v -0.536162 1.169222 -0.041182
v -0.393062 1.150195 0.394165
v 0.506349 1.694201 -0.102864
v 0.588499 1.347909 -0.152814
v 0.551441 1.507989 0.107139
v 0.543407 1.534121 -0.362817
v -0.240835 1.723520 -0.408850
v -0.303211 1.394453 -0.557356
v -0.133307 1.560472 -0.635286
v -0.410739 1.557500 -0.330920
v 0.123591 1.665887 0.418140
v 0.124958 1.341131 0.488036
v -0.091317 1.507802 0.508574
v 0.339866 1.499216 0.397603
v -0.540030 0.847461 -0.058686
v -0.383501 0.844337 0.426189
v -0.490019 0.717619 0.199335
v -0.433512 0.974179 0.168168
v 0.130901 1.155338 0.504386
v 0.141421 1.108510 0.467190
v -0.092675 1.136303 0.548813
v 0.364998 1.127545 0.422763
v 0.610508 1.155224 -0.167205
v 0.572375 1.116147 -0.146039
v 0.592638 1.129426 0.101558
v 0.590244 1.141945 -0.414802
v 0.449081 0.846436 -0.714438
v 0.123131 0.844582 -0.845752
v 0.304561 0.712919 -0.820689
v 0.267651 0.978099 -0.739501
v -0.324807 1.202086 -0.609519
v -0.305623 1.146419 -0.565336
v -0.168967 1.172011 -0.751714
v -0.461463 1.176494 -0.423141
v -0.440704 1.148361 -0.416332
v -0.170542 1.144478 -0.714341
v -0.167392 1.199544 -0.789087
v 0.111814 0.978789 -0.800275
v 0.134449 0.710375 -0.891228
v 0.474674 0.715464 -0.750149
v 0.570098 1.121643 -0.388046
v 0.574651 1.110651 0.095968
v 0.610626 1.148202 0.107147
v 0.359175 1.106832 0.402582
v -0.076332 1.110187 0.531797
v -0.109019 1.162418 0.565830
v -0.359729 0.968545 0.396483
v -0.407272 0.720129 0.455895
v -0.572767 0.715110 -0.057225
v 0.358256 1.334094 0.430363
v -0.108340 1.348168 0.545710
v -0.074294 1.667437 0.471437
v -0.456860 1.395131 -0.383840
v -0.149562 1.393775 -0.730873
v -0.117052 1.727170 -0.539699
v 0.586972 1.358335 -0.415565
v 0.590027 1.337483 0.109938
v 0.512855 1.678495 0.104340
v -0.364510 1.121474 0.380471
v -0.505360 1.140693 -0.051395
v -0.566963 1.197752 -0.030969
v 0.115360 1.138687 -0.805022
v 0.417001 1.130988 -0.688376
v 0.455210 1.176202 -0.779096
v 0.149427 1.387013 -0.847871
v 0.440105 1.374845 -0.734835
v 0.371685 1.726916 -0.555592
v 0.478417 1.912481 -0.252762
v 0.491299 1.876048 0.116570
v 0.525359 1.930144 0.146627
v 0.312196 1.855365 0.351518
v -0.058893 1.850432 0.452083
v -0.062137 1.897153 0.487646
v -0.327883 1.908093 -0.230053
v -0.096813 1.923479 -0.461390
v -0.088843 1.982704 -0.495948
v -0.408856 1.365356 0.399957
v -0.543292 1.385658 -0.006897
v -0.434346 1.704412 0.020820
v 0.302851 2.102554 0.371317
v -0.055895 2.091489 0.454957
v -0.040168 2.433440 0.354016
v -0.294183 1.861074 0.348177
v -0.393673 1.887291 0.039803
v -0.421273 1.934297 0.050051
v -0.324939 2.143495 -0.214513
v -0.079123 2.162644 -0.455843
v -0.067653 2.463301 -0.341078
v 0.132036 1.931054 -0.542151
v 0.358663 1.930816 -0.472336
v 0.401038 1.986546 -0.485064
v 0.487039 2.147731 -0.213671
v 0.483829 2.121302 0.148441
v 0.366709 2.449521 0.122012
v 0.322074 2.628772 -0.137847
v 0.317902 2.632139 0.130102
v 0.337407 2.669158 0.172711
v 0.199549 2.631264 0.281932
v -0.032985 2.626147 0.317641
v -0.034345 2.669610 0.345832
v -0.288413 2.097948 0.349121
v -0.394702 2.121930 0.053809
v -0.313962 2.450190 0.051077
v -0.240319 2.631748 -0.131659
v -0.065625 2.627957 -0.299909
v -0.073040 2.656615 -0.332336
v 0.154999 2.169401 -0.531063
v 0.377429 2.163764 -0.440172
v 0.287839 2.462471 -0.337659
v 0.289610 2.909615 -0.108748
v 0.289450 2.917420 0.171630
v 0.174029 3.376926 0.126859
v 0.182958 2.920877 0.311637
v -0.029866 2.919987 0.311273
v -0.019547 3.377280 0.213964
v -0.226723 2.907407 -0.127068
v -0.069054 2.903669 -0.286074
v -0.053666 3.369121 -0.161121
v -0.193855 2.626102 0.239738
v -0.283062 2.631129 0.048223
v -0.302005 2.664748 0.045247
v 0.097331 2.626319 -0.355981
v 0.248550 2.626832 -0.299875
v 0.259565 2.656845 -0.326819
v -0.178598 2.916975 0.221427
v -0.263238 2.911842 0.042099
v -0.166761 3.372413 0.038778
v 0.079758 2.902778 -0.336417
v 0.219713 2.904734 -0.278097
v 0.128996 3.370500 -0.153708
v -0.446814 0.983954 -0.431609
v -0.500551 0.711409 -0.475781
v -0.190626 0.709024 -0.799772
v 0.581944 0.974627 -0.375257
v 0.645927 0.721199 -0.403189
v 0.648210 0.727583 0.149653
v 0.025569 1.101933 -0.075911
v 0.033203 0.606948 -0.099039
v 0.098092 0.606925 -0.051902
v -0.058146 1.102380 0.007068
v -0.076393 0.607086 -0.006567
v -0.024959 0.607002 -0.083927
v 0.125157 0.269580 0.003348
v 0.136476 0.089860 -0.003111
v 0.083575 0.089856 0.087416
v -0.090824 0.269579 -0.019765
v -0.101439 0.089860 -0.032527
v -0.033589 0.089863 -0.121844
v -0.004221 1.102377 0.079647
v 0.002436 0.607072 0.093576
v -0.067262 0.607109 0.052601
v 0.038341 0.269592 -0.119392
v 0.040984 0.089864 -0.136970
v 0.122279 0.089863 -0.077906
v 0.082675 1.101965 0.008644
v 0.107223 0.606948 0.007266
v 0.060598 0.607019 0.078465
v -0.078676 0.269571 0.048726
v 0.006844 0.269565 0.101208
v 0.009002 0.089855 0.102542
v 0.370861 0.966992 0.420825
v 0.405883 0.728740 0.497669
v -0.081056 0.724672 0.640860
v -0.067010 0.964272 0.556807
v -0.087242 0.089857 0.042268
v 0.041004 1.102208 0.064564
v 0.113008 0.269588 -0.065143
v -0.053001 1.102471 0.053893
v -0.029603 0.269589 -0.104266
v 0.074788 0.269568 0.086082
v -0.019656 1.102102 -0.060828
v 0.077530 1.101874 -0.038181
v 0.587179 0.970444 0.110137
v -0.178287 0.980971 -0.717902
v 0.038480 3.369171 -0.190104
v -0.111619 3.375309 0.155490
v 0.099375 2.655161 -0.391709
v -0.206010 2.667240 0.249509
v -0.147444 3.370350 -0.066759
v 0.109454 3.378325 0.214198
v 0.174179 3.373085 -0.048054
v 0.115872 2.464399 -0.402432
v -0.257681 2.661206 -0.148701
v -0.221323 2.436338 0.272942
v 0.212989 2.671857 0.334215
v 0.338909 2.661510 -0.138679
v 0.371451 2.457512 -0.162844
v 0.160387 1.991619 -0.577636
v -0.262738 2.459177 -0.153596
v -0.312700 1.906193 0.374199
v 0.229503 2.441497 0.294299
v -0.326235 1.680795 0.356763
v -0.346654 1.959800 -0.239999
v 0.330415 1.907177 0.390390
v 0.522695 1.966054 -0.243643
v 0.128382 1.729518 -0.632230
v 0.145086 1.190069 -0.905469
v -0.421615 1.178916 0.407859
v 0.499843 1.709908 -0.310069
v -0.364618 1.719870 -0.278000
v 0.321476 1.664338 0.364843
v -0.507294 0.979812 -0.060147
v 0.370822 1.148259 0.442943
v 0.610390 1.162247 -0.441557
v 0.423489 0.977409 -0.678727
v -0.482222 1.204628 -0.429951
vt 0.3158 0.3257
vt 0.3094 0.3289
vt 0.3091 0.3279
vt 0.3153 0.3245
vt 0.3469 0.3040
vt 0.3403 0.3050
vt 0.3409 0.2993
vt 0.3474 0.2965
vt 0.3329 0.2992
vt 0.3390 0.3035
vt 0.3384 0.3049
vt 0.3324 0.3004
vt 0.3101 0.2926
vt 0.3147 0.2862
vt 0.3145 0.2869
vt 0.3104 0.2933
vt 0.3024 0.3324
vt 0.3053 0.3265
vt 0.3103 0.3320
vt 0.3088 0.3400
vt 0.3020 0.2909
vt 0.3059 0.2838
vt 0.3091 0.2923
vt 0.3064 0.2968
vt 0.3170 0.3295
vt 0.3101 0.3325
vt 0.3109 0.3242
vt 0.3152 0.3224
vt 0.3297 0.2934
vt 0.3377 0.2966
vt 0.3282 0.3001
vt 0.3234 0.2982
vt 0.2995 0.3160
vt 0.2962 0.3117
vt 0.2982 0.3123
vt 0.3009 0.3162
vt 0.3361 0.3130
vt 0.3351 0.3162
vt 0.3340 0.3142
vt 0.3351 0.3119
vt 0.3377 0.3146
vt 0.3377 0.3206
vt 0.3282 0.3172
vt 0.3282 0.3129
vt 0.3208 0.2996
vt 0.3246 0.3009
vt 0.3234 0.3012
vt 0.3200 0.3001
vt 0.3076 0.2992
vt 0.3096 0.2956
vt 0.3097 0.2967
vt 0.3080 0.3000
vt 0.3148 0.3201
vt 0.3110 0.3221
vt 0.3111 0.3214
vt 0.3146 0.3194
vt 0.2951 0.3172
vt 0.2901 0.3122
vt 0.2983 0.3105
vt 0.3015 0.3139
vt 0.3004 0.3051
vt 0.3008 0.3001
vt 0.3072 0.3043
vt 0.3067 0.3069
vt 0.3040 0.3131
vt 0.3016 0.3101
vt 0.3027 0.3100
vt 0.3048 0.3128
vt 0.3219 0.3192
vt 0.3186 0.3246
vt 0.3152 0.3168
vt 0.3175 0.3142
vt 0.3257 0.3109
vt 0.3260 0.3142
vt 0.3253 0.3132
vt 0.3248 0.3102
vt 0.3144 0.2937
vt 0.3189 0.2916
vt 0.3171 0.2991
vt 0.3146 0.3004
vt 0.3149 0.3017
vt 0.3172 0.3002
vt 0.3172 0.3005
vt 0.3151 0.3022
vt 0.3078 0.3082
vt 0.3083 0.3064
vt 0.3086 0.3071
vt 0.3082 0.3086
vt 0.3042 0.3211
vt 0.2994 0.3199
vt 0.3053 0.3145
vt 0.3078 0.3151
vt 0.3165 0.3130
vt 0.3149 0.3153
vt 0.3148 0.3148
vt 0.3162 0.3126
vt 0.3286 0.3003
vt 0.3318 0.3032
vt 0.3243 0.3062
vt 0.3225 0.3044
vt 0.3010 0.4255
vt 0.3030 0.4188
vt 0.3076 0.4319
vt 0.3076 0.4335
vt 0.2998 0.4470
vt 0.2950 0.4455
vt 0.3074 0.4382
vt 0.3082 0.4383
vt 0.3240 0.4333
vt 0.3265 0.4380
vt 0.3133 0.4365
vt 0.3130 0.4354
vt 0.3087 0.3140
vt 0.3066 0.3135
vt 0.3070 0.3132
vt 0.3090 0.3136
vt 0.3203 0.3046
vt 0.3214 0.3061
vt 0.3204 0.3061
vt 0.3196 0.3047
vt 0.3569 0.3139
vt 0.3454 0.3120
vt 0.3508 0.3040
vt 0.3087 0.4320
vt 0.3082 0.4330
vt 0.3340 0.3456
vt 0.3205 0.3422
vt 0.3282 0.3358
vt 0.2800 0.3321
vt 0.2800 0.3194
vt 0.2877 0.3256
vt 0.3126 0.4371
vt 0.3125 0.4365
vt 0.3174 0.4481
vt 0.3144 0.4514
vt 0.3106 0.4387
vt 0.3113 0.4381
vt 0.3081 0.4377
vt 0.3132 0.4190
vt 0.3165 0.4190
vt 0.3121 0.4322
vt 0.3110 0.4321
vt 0.3512 0.3218
vt 0.3364 0.3298
vt 0.3314 0.3247
vt 0.3385 0.3223
vt 0.3456 0.3264
vt 0.3218 0.2822
vt 0.3216 0.2879
vt 0.3152 0.2841
vt 0.3133 0.2774
vt 0.2800 0.2814
vt 0.2931 0.2796
vt 0.2877 0.2876
vt 0.8403 0.9704
vt 0.8402 0.9874
vt 0.8367 0.9874
vt 0.8368 0.9704
vt 0.7841 0.9701
vt 0.7839 0.9869
vt 0.7804 0.9870
vt 0.7806 0.9701
vt 0.8264 0.9130
vt 0.8263 0.9193
vt 0.8227 0.9194
vt 0.8228 0.9131
vt 0.7844 0.9130
vt 0.7845 0.9194
vt 0.7810 0.9193
vt 0.7808 0.9129
vt 0.8017 0.9700
vt 0.8016 0.9869
vt 0.7945 0.9868
vt 0.7946 0.9700
vt 0.8406 0.9128
vt 0.8405 0.9193
vt 0.8369 0.9192
vt 0.8370 0.9128
vt 0.8263 0.9702
vt 0.8263 0.9872
vt 0.8228 0.9871
vt 0.8228 0.9702
vt 0.8018 0.9007
vt 0.7947 0.9008
vt 0.7946 0.8945
vt 0.8018 0.8944
vt 0.2905 0.3014
vt 0.2965 0.3034
vt 0.2903 0.3099
vt 0.2830 0.3094
vt 0.2785 0.2974
vt 0.2845 0.2994
vt 0.2756 0.3090
vt 0.2682 0.3086
vt 0.2991 0.2752
vt 0.3024 0.2803
vt 0.2935 0.2899
vt 0.2888 0.2863
vt 0.3057 0.2854
vt 0.3090 0.2905
vt 0.3027 0.2970
vt 0.2981 0.2934
vt 0.8160 0.9005
vt 0.8089 0.9006
vt 0.8089 0.8943
vt 0.8160 0.8942
vt 0.8158 0.9131
vt 0.8089 0.9132
vt 0.8089 0.9069
vt 0.8159 0.9068
vt 0.8019 0.9133
vt 0.7949 0.9133
vt 0.7948 0.9071
vt 0.8018 0.9070
vt 0.8263 0.9363
vt 0.8263 0.9533
vt 0.8227 0.9532
vt 0.8227 0.9363
vt 0.8333 0.9363
vt 0.8333 0.9533
vt 0.8298 0.9533
vt 0.8298 0.9363
vt 0.8333 0.9703
vt 0.8332 0.9873
vt 0.8298 0.9872
vt 0.8298 0.9703
vt 0.8407 0.9000
vt 0.8406 0.9064
vt 0.8371 0.9064
vt 0.8372 0.8999
vt 0.8478 0.9002
vt 0.8477 0.9066
vt 0.8442 0.9065
vt 0.8442 0.9001
vt 0.8477 0.9130
vt 0.8476 0.9193
vt 0.8440 0.9193
vt 0.8441 0.9129
vt 0.8018 0.9364
vt 0.8017 0.9532
vt 0.7947 0.9532
vt 0.7949 0.9364
vt 0.8158 0.9363
vt 0.8158 0.9532
vt 0.8087 0.9532
vt 0.8088 0.9364
vt 0.8157 0.9701
vt 0.8157 0.9870
vt 0.8087 0.9870
vt 0.8087 0.9701
vt 0.7841 0.9003
vt 0.7842 0.9066
vt 0.7807 0.9065
vt 0.7806 0.9001
vt 0.7912 0.9006
vt 0.7913 0.9069
vt 0.7878 0.9068
vt 0.7876 0.9004
vt 0.7914 0.9132
vt 0.7915 0.9195
vt 0.7880 0.9195
vt 0.7879 0.9131
vt 0.8266 0.9003
vt 0.8265 0.9066
vt 0.8230 0.9067
vt 0.8231 0.9004
vt 0.8337 0.9000
vt 0.8336 0.9065
vt 0.8300 0.9065
vt 0.8301 0.9002
vt 0.8335 0.9129
vt 0.8334 0.9193
vt 0.8298 0.9193
vt 0.8299 0.9129
vt 0.7844 0.9363
vt 0.7842 0.9532
vt 0.7807 0.9532
vt 0.7808 0.9362
vt 0.7914 0.9364
vt 0.7912 0.9532
vt 0.7877 0.9532
vt 0.7879 0.9363
vt 0.7911 0.9700
vt 0.7910 0.9869
vt 0.7874 0.9869
vt 0.7876 0.9700
vt 0.8404 0.9363
vt 0.8403 0.9533
vt 0.8368 0.9533
vt 0.8368 0.9362
vt 0.8475 0.9364
vt 0.8474 0.9534
vt 0.8439 0.9534
vt 0.8440 0.9363
vt 0.8472 0.9704
vt 0.8471 0.9874
vt 0.8436 0.9874
vt 0.8438 0.9704
vt 0.2954 0.2938
vt 0.3085 0.2920
vt 0.3030 0.3000
vt 0.3008 0.2858
vt 0.3062 0.2778
vt 0.3193 0.2759
vt 0.3139 0.2840
vt 0.3221 0.2708
vt 0.3220 0.2765
vt 0.3113 0.2707
vt 0.3094 0.2641
vt 0.3475 0.2841
vt 0.3432 0.2879
vt 0.3326 0.2822
vt 0.3348 0.2774
vt 0.3388 0.2917
vt 0.3345 0.2955
vt 0.3281 0.2917
vt 0.3303 0.2869
vt 0.3462 0.3400
vt 0.3413 0.3349
vt 0.3526 0.3305
vt 0.3596 0.3346
vt 0.3193 0.3507
vt 0.3187 0.3436
vt 0.3300 0.3392
vt 0.3328 0.3453
vt 0.3180 0.3366
vt 0.3174 0.3296
vt 0.3244 0.3271
vt 0.3272 0.3332
vt 0.3338 0.3101
vt 0.3281 0.3180
vt 0.3223 0.3081
vt 0.3396 0.3199
vt 0.3454 0.3298
vt 0.3397 0.3377
vt 0.3339 0.3278
vt 0.3064 0.4189
vt 0.3098 0.4189
vt 0.3098 0.4320
vt 0.3018 0.3926
vt 0.3097 0.3926
vt 0.3097 0.4058
vt 0.3041 0.4057
vt 0.3176 0.3927
vt 0.3255 0.3927
vt 0.3210 0.4058
vt 0.3154 0.4058
vt 0.3127 0.4344
vt 0.3119 0.4343
vt 0.3124 0.4333
vt 0.3122 0.4354
vt 0.3117 0.4365
vt 0.3109 0.4364
vt 0.3114 0.4354
vt 0.3075 0.4351
vt 0.3081 0.4362
vt 0.3074 0.4366
vt 0.3082 0.4346
vt 0.3088 0.4341
vt 0.3095 0.4353
vt 0.3088 0.4357
vt 0.3090 0.4384
vt 0.3097 0.4380
vt 0.3098 0.4386
vt 0.3089 0.4379
vt 0.3087 0.4373
vt 0.3094 0.4369
vt 0.3095 0.4374
vt 0.3235 0.4414
vt 0.3205 0.4447
vt 0.3120 0.4376
vt 0.3452 0.4500
vt 0.3375 0.4590
vt 0.3290 0.4518
vt 0.3343 0.4457
vt 0.3297 0.4679
vt 0.3220 0.4769
vt 0.3182 0.4642
vt 0.3236 0.4580
vt 0.3110 0.4370
vt 0.3118 0.4370
vt 0.3112 0.4376
vt 0.2954 0.3192
vt 0.2954 0.3065
vt 0.3030 0.3127
vt 0.2877 0.3130
vt 0.2800 0.3067
vt 0.2800 0.2941
vt 0.2877 0.3003
vt 0.3223 0.3259
vt 0.3088 0.3225
vt 0.3165 0.3160
vt 0.3147 0.3324
vt 0.3070 0.3389
vt 0.2935 0.3355
vt 0.3012 0.3290
vt 0.3100 0.4342
vt 0.3093 0.4331
vt 0.3105 0.4332
vt 0.3447 0.2940
vt 0.3331 0.2921
vt 0.3385 0.2840
vt 0.3392 0.3020
vt 0.3277 0.3001
vt 0.3182 0.3016
vt 0.3193 0.3031
vt 0.3188 0.3033
vt 0.3180 0.3019
vt 0.3187 0.3011
vt 0.3202 0.3028
vt 0.3198 0.3030
vt 0.3185 0.3014
vt 0.3218 0.3045
vt 0.3233 0.3062
vt 0.3223 0.3062
vt 0.3210 0.3046
vt 0.3128 0.3149
vt 0.3107 0.3144
vt 0.3109 0.3140
vt 0.3128 0.3144
vt 0.3128 0.3158
vt 0.3104 0.3152
vt 0.3106 0.3148
vt 0.3128 0.3153
vt 0.3081 0.3147
vt 0.3057 0.3142
vt 0.3062 0.3138
vt 0.3084 0.3143
vt 0.3190 0.4238
vt 0.3215 0.4285
vt 0.3323 0.4048
vt 0.3392 0.4169
vt 0.3303 0.4227
vt 0.3257 0.4143
vt 0.3460 0.4290
vt 0.3529 0.4411
vt 0.3397 0.4396
vt 0.3350 0.4311
vt 0.3095 0.4499
vt 0.3047 0.4485
vt 0.3090 0.4727
vt 0.2960 0.4685
vt 0.3004 0.4585
vt 0.3093 0.4613
vt 0.2830 0.4643
vt 0.2700 0.4601
vt 0.2825 0.4528
vt 0.2914 0.4556
vt 0.2970 0.4388
vt 0.2990 0.4322
vt 0.2760 0.4432
vt 0.2820 0.4263
vt 0.2905 0.4293
vt 0.2865 0.4410
vt 0.2880 0.4095
vt 0.2940 0.3926
vt 0.2985 0.4057
vt 0.2945 0.4175
vt 0.3222 0.2945
vt 0.3254 0.2974
vt 0.3207 0.3027
vt 0.3189 0.3009
vt 0.3287 0.2818
vt 0.3348 0.2869
vt 0.3301 0.2922
vt 0.3254 0.2881
vt 0.3409 0.2921
vt 0.3469 0.2973
vt 0.3394 0.3002
vt 0.3347 0.2962
vt 0.3198 0.3084
vt 0.3181 0.3107
vt 0.3176 0.3105
vt 0.3190 0.3083
vt 0.3213 0.3087
vt 0.3192 0.3112
vt 0.3187 0.3110
vt 0.3205 0.3086
vt 0.3172 0.3138
vt 0.3151 0.3163
vt 0.3150 0.3158
vt 0.3168 0.3134
vt 0.3138 0.3234
vt 0.3090 0.3223
vt 0.3102 0.3156
vt 0.3127 0.3162
vt 0.3159 0.3378
vt 0.3065 0.3355
vt 0.3077 0.3289
vt 0.3149 0.3306
vt 0.2970 0.3332
vt 0.2875 0.3309
vt 0.2934 0.3254
vt 0.3006 0.3271
vt 0.3070 0.3117
vt 0.3074 0.3100
vt 0.3078 0.3101
vt 0.3074 0.3117
vt 0.3062 0.3119
vt 0.3066 0.3096
vt 0.3070 0.3098
vt 0.3066 0.3118
vt 0.3071 0.3073
vt 0.3076 0.3050
vt 0.3079 0.3057
vt 0.3075 0.3077
vt 0.3105 0.3048
vt 0.3127 0.3033
vt 0.3129 0.3038
vt 0.3108 0.3054
vt 0.3099 0.3036
vt 0.3123 0.3022
vt 0.3125 0.3027
vt 0.3102 0.3042
vt 0.3147 0.3008
vt 0.3171 0.2995
vt 0.3171 0.2998
vt 0.3148 0.3013
vt 0.3053 0.2980
vt 0.3099 0.2958
vt 0.3122 0.3017
vt 0.3097 0.3030
vt 0.2966 0.2879
vt 0.3053 0.2842
vt 0.3076 0.2900
vt 0.3010 0.2929
vt 0.3139 0.2804
vt 0.3226 0.2766
vt 0.3207 0.2841
vt 0.3142 0.2871
vt 0.3250 0.3042
vt 0.3253 0.3076
vt 0.3243 0.3072
vt 0.3239 0.3042
vt 0.3271 0.3043
vt 0.3272 0.3083
vt 0.3263 0.3079
vt 0.3260 0.3043
vt 0.3274 0.3122
vt 0.3275 0.3162
vt 0.3268 0.3152
vt 0.3265 0.3116
vt 0.3285 0.3086
vt 0.3252 0.3139
vt 0.3198 0.3115
vt 0.3220 0.3088
vt 0.3416 0.3080
vt 0.3362 0.3187
vt 0.3307 0.3163
vt 0.3350 0.3083
vt 0.3308 0.3294
vt 0.3254 0.3401
vt 0.3220 0.3324
vt 0.3264 0.3243
vt 0.3087 0.3191
vt 0.3063 0.3161
vt 0.3069 0.3157
vt 0.3090 0.3185
vt 0.3081 0.3202
vt 0.3052 0.3169
vt 0.3058 0.3165
vt 0.3084 0.3197
vt 0.3023 0.3137
vt 0.2994 0.3104
vt 0.3005 0.3102
vt 0.3031 0.3134
vt 0.2997 0.3150
vt 0.3001 0.3100
vt 0.3063 0.3094
vt 0.3058 0.3120
vt 0.2876 0.3211
vt 0.2878 0.3113
vt 0.2939 0.3106
vt 0.2937 0.3180
vt 0.2879 0.3015
vt 0.2880 0.2917
vt 0.2944 0.2959
vt 0.2942 0.3033
vt 0.3051 0.3274
vt 0.3001 0.3223
vt 0.3046 0.3174
vt 0.3077 0.3208
vt 0.2999 0.3406
vt 0.2912 0.3322
vt 0.2957 0.3273
vt 0.3025 0.3340
vt 0.2825 0.3239
vt 0.2739 0.3155
vt 0.2820 0.3138
vt 0.2888 0.3206
vt 0.3223 0.3162
vt 0.3185 0.3181
vt 0.3182 0.3173
vt 0.3217 0.3152
vt 0.3233 0.3180
vt 0.3192 0.3198
vt 0.3189 0.3190
vt 0.3228 0.3171
vt 0.3151 0.3217
vt 0.3109 0.3235
vt 0.3110 0.3228
vt 0.3149 0.3209
vt 0.3036 0.3065
vt 0.3056 0.3029
vt 0.3062 0.3034
vt 0.3045 0.3067
vt 0.3019 0.3061
vt 0.3043 0.3019
vt 0.3049 0.3024
vt 0.3027 0.3063
vt 0.3068 0.2976
vt 0.3092 0.2934
vt 0.3094 0.2945
vt 0.3072 0.2984
vt 0.3133 0.2969
vt 0.3171 0.2983
vt 0.3166 0.2990
vt 0.3131 0.2978
vt 0.3137 0.2951
vt 0.3181 0.2969
vt 0.3176 0.2976
vt 0.3135 0.2960
vt 0.3226 0.2986
vt 0.3270 0.3004
vt 0.3258 0.3007
vt 0.3217 0.2991
vt 0.3377 0.3026
vt 0.3377 0.3086
vt 0.3282 0.3087
vt 0.3282 0.3044
vt 0.3566 0.2991
vt 0.3566 0.3085
vt 0.3471 0.3086
vt 0.3471 0.3008
vt 0.3566 0.3180
vt 0.3566 0.3274
vt 0.3471 0.3240
vt 0.3471 0.3163
vt 0.3381 0.3067
vt 0.3371 0.3099
vt 0.3362 0.3095
vt 0.3373 0.3072
vt 0.3396 0.3056
vt 0.3388 0.3105
vt 0.3379 0.3102
vt 0.3388 0.3061
vt 0.3381 0.3154
vt 0.3374 0.3203
vt 0.3363 0.3183
vt 0.3371 0.3142
vt 0.3061 0.3246
vt 0.3028 0.3203
vt 0.3037 0.3201
vt 0.3064 0.3240
vt 0.3056 0.3259
vt 0.3011 0.3207
vt 0.3020 0.3205
vt 0.3058 0.3252
vt 0.2967 0.3156
vt 0.2923 0.3105
vt 0.2943 0.3111
vt 0.2981 0.3158
vt 0.3139 0.2870
vt 0.3218 0.2902
vt 0.3187 0.2962
vt 0.3139 0.2942
vt 0.3138 0.2726
vt 0.3281 0.2783
vt 0.3249 0.2842
vt 0.3138 0.2798
vt 0.3423 0.2839
vt 0.3566 0.2896
vt 0.3471 0.2931
vt 0.3360 0.2887
vt 0.3308 0.3236
vt 0.3239 0.3265
vt 0.3196 0.3207
vt 0.3239 0.3189
vt 0.3446 0.3328
vt 0.3326 0.3382
vt 0.3282 0.3323
vt 0.3377 0.3282
vt 0.3206 0.3436
vt 0.3086 0.3489
vt 0.3094 0.3407
vt 0.3188 0.3365
vt 0.2941 0.3051
vt 0.2980 0.2980
vt 0.3037 0.3014
vt 0.3010 0.3059
vt 0.2803 0.3034
vt 0.2867 0.2912
vt 0.2924 0.2946
vt 0.2872 0.3042
vt 0.2931 0.2791
vt 0.2996 0.2670
vt 0.3027 0.2754
vt 0.2976 0.2850
vt 0.2965 0.3441
vt 0.2994 0.3382
vt 0.3073 0.3480
vt 0.3059 0.3560
vt 0.2777 0.3204
vt 0.2835 0.3187
vt 0.2915 0.3285
vt 0.2871 0.3323
vt 0.2894 0.3171
vt 0.2953 0.3154
vt 0.3003 0.3209
vt 0.2959 0.3247
vt 0.3008 0.3053
vt 0.3054 0.2990
vt 0.3063 0.2996
vt 0.3023 0.3059
vt 0.2980 0.3041
vt 0.3036 0.2976
vt 0.3045 0.2983
vt 0.2994 0.3047
vt 0.3093 0.2912
vt 0.3150 0.2848
vt 0.3149 0.2855
vt 0.3097 0.2919
vt 0.3208 0.2905
vt 0.3268 0.2948
vt 0.3264 0.2959
vt 0.3205 0.2914
vt 0.3213 0.2888
vt 0.3277 0.2928
vt 0.3273 0.2938
vt 0.3210 0.2896
vt 0.3340 0.2967
vt 0.3403 0.3007
vt 0.3397 0.3021
vt 0.3335 0.2979
vt 0.3601 0.3018
vt 0.3535 0.3029
vt 0.3538 0.2936
vt 0.3602 0.2908
vt 0.3598 0.3237
vt 0.3529 0.3213
vt 0.3532 0.3121
vt 0.3600 0.3127
vt 0.3460 0.3189
vt 0.3391 0.3165
vt 0.3397 0.3108
vt 0.3464 0.3114
vt 0.3287 0.3194
vt 0.3223 0.3226
vt 0.3216 0.3210
vt 0.3278 0.3176
vt 0.3305 0.3229
vt 0.3237 0.3256
vt 0.3230 0.3241
vt 0.3296 0.3212
vt 0.3168 0.3283
vt 0.3100 0.3310
vt 0.3097 0.3299
vt 0.3163 0.3270
vt 0.3667 0.3260
vt 0.3667 0.3133
vt 0.3667 0.3387
vt 0.3667 0.3007
vt 0.3667 0.2880
vt 0.2718 0.3221
vt 0.2826 0.3360
vt 0.2609 0.3081
vt 0.2935 0.3500
vt 0.3044 0.3640
vt 0.2811 0.2879
vt 0.2887 0.2732
vt 0.2964 0.2585
vt 0.2657 0.3172
vt 0.2734 0.3025
vt 0.3369 0.3440
vt 0.3223 0.3506
vt 0.3078 0.3572
vt 0.3660 0.3308
vt 0.3514 0.3374
vt 0.3312 0.2723
vt 0.3486 0.2792
vt 0.3660 0.2861
vt 0.3138 0.2654
vt 0.3660 0.3084
vt 0.3660 0.3196
vt 0.3660 0.2973
vt 0.2868 0.3372
vt 0.2762 0.3272
vt 0.2973 0.3472
vt 0.2816 0.3119
vt 0.2816 0.2997
vt 0.2816 0.2875
vt 0.2816 0.3363
vt 0.2816 0.3241
vt 0.3417 0.3211
vt 0.3352 0.3345
vt 0.3288 0.3479
vt 0.3545 0.2943
vt 0.3481 0.3077
vt 0.3030 0.2783
vt 0.3137 0.2737
vt 0.3244 0.2691
vt 0.2923 0.2829
vt 0.3052 0.3421
vt 0.2934 0.3392
vt 0.3170 0.3450
vt 0.3395 0.2817
vt 0.3470 0.2880
vt 0.3319 0.2754
vt 0.2735 0.4234
vt 0.2815 0.4015
vt 0.2894 0.3795
vt 0.2576 0.4674
vt 0.2656 0.4454
vt 0.2917 0.4785
vt 0.2747 0.4730
vt 0.3258 0.4896
vt 0.3088 0.4841
vt 0.3480 0.4111
vt 0.3571 0.4268
vt 0.3661 0.4426
vt 0.3299 0.3795
vt 0.3389 0.3953
vt 0.3161 0.2982
vt 0.3216 0.2901
vt 0.3107 0.3062
vt 0.3270 0.2821
vt 0.3324 0.2741
vt 0.3116 0.4333
vt 0.3111 0.4343
vt 0.3106 0.4354
vt 0.3101 0.4364
vt 0.3105 0.4381
vt 0.3104 0.4376
vt 0.3102 0.4370
vt 0.3460 0.4661
vt 0.3359 0.4779
vt 0.3560 0.4543
vt 0.3097 0.3795
vt 0.3198 0.3795
vt 0.2995 0.3795
vt 0.3200 0.3577
vt 0.3356 0.3514
vt 0.3511 0.3450
vt 0.3519 0.2803
vt 0.3371 0.2727
vt 0.3223 0.2650
vt 0.3075 0.2574
vt 0.8509 0.9534
vt 0.8507 0.9704
vt 0.8506 0.9874
vt 0.8512 0.9194
vt 0.8511 0.9364
vt 0.7950 0.9196
vt 0.8338 0.8936
vt 0.8303 0.8938
vt 0.8373 0.8935
vt 0.8267 0.8939
vt 0.8232 0.8941
vt 0.7911 0.8943
vt 0.7875 0.8941
vt 0.7839 0.8939
vt 0.7804 0.8937
vt 0.8158 0.9194
vt 0.8089 0.9195
vt 0.8019 0.9196
vt 0.8512 0.9067
vt 0.8512 0.9130
vt 0.8478 0.8939
vt 0.8443 0.8937
vt 0.8513 0.8940
vt 0.8513 0.9003
vt 0.8408 0.8936
vt 0.2959 0.2701
vt 0.2842 0.2828
vt 0.2725 0.2954
vn -0.7274 -0.3975 -0.5594
vn -0.8446 -0.4940 -0.2062
vn -0.9811 0.0089 -0.1931
vn -0.7880 0.0955 -0.6082
vn 0.4351 0.2852 -0.8541
vn 0.4259 -0.2591 -0.8669
vn 0.8662 -0.1920 -0.4613
vn 0.8179 0.2891 -0.4975
vn 0.8452 -0.5318 -0.0534
vn 0.6546 -0.6641 -0.3613
vn 0.8333 -0.0600 -0.5496
vn 0.9983 -0.0288 -0.0513
vn 0.2680 -0.5090 0.8179
vn 0.6754 -0.5370 0.5055
vn 0.7853 -0.0545 0.6167
vn 0.3168 -0.0523 0.9471
vn -0.9432 0.2133 0.2548
vn -0.9571 -0.1515 0.2471
vn -0.9696 -0.1034 -0.2218
vn -0.9515 0.2430 -0.1887
vn 0.3240 0.2042 0.9238
vn 0.7766 0.2387 0.5830
vn 0.8180 -0.0238 0.5747
vn 0.3336 -0.0453 0.9416
vn -0.7151 0.3851 -0.5834
vn -0.9134 0.3609 -0.1885
vn -0.9629 0.1524 -0.2225
vn -0.7466 0.2007 -0.6343
vn 0.9682 0.2440 -0.0547
vn 0.7853 0.3955 -0.4764
vn 0.8123 0.1466 -0.5645
vn 0.9963 -0.0039 -0.0855
vn -0.7590 -0.5786 0.2985
vn -0.3989 -0.5008 0.7682
vn -0.5091 -0.0472 0.8594
vn -0.9162 -0.0813 0.3924
vn 0.1608 -0.7394 -0.6538
vn -0.2751 -0.6254 -0.7302
vn -0.2331 0.0246 -0.9721
vn 0.2745 -0.0342 -0.9610
vn 0.1887 0.5190 -0.8337
vn -0.2638 0.5215 -0.8115
vn -0.3220 0.2840 -0.9032
vn 0.1907 0.2432 -0.9510
vn 0.8975 -0.4322 -0.0877
vn 0.7735 -0.3773 -0.5093
vn 0.8694 0.1012 -0.4837
vn 0.9979 0.0498 -0.0414
vn 0.2904 -0.4490 0.8450
vn 0.7283 -0.4295 0.5340
vn 0.7712 0.0381 0.6354
vn 0.3049 -0.0005 0.9524
vn -0.7205 -0.2196 -0.6578
vn -0.9206 -0.3011 -0.2485
vn -0.9725 0.0589 -0.2253
vn -0.7472 0.0930 -0.6580
vn -0.8778 0.2745 0.3925
vn -0.4243 0.2815 0.8607
vn -0.4502 0.0379 0.8921
vn -0.9183 0.0724 0.3892
vn 0.2708 0.2557 0.9280
vn 0.7227 0.3385 0.6025
vn 0.8037 0.0383 0.5938
vn 0.2684 -0.0689 0.9608
vn -0.8740 -0.3215 0.3643
vn -0.4323 -0.3907 0.8127
vn -0.4518 0.0570 0.8903
vn -0.9056 0.0621 0.4196
vn -0.7149 0.2586 -0.6497
vn -0.9439 0.2628 -0.1998
vn -0.9776 0.0818 -0.1937
vn -0.7344 0.0626 -0.6758
vn 0.2485 -0.3742 -0.8934
vn -0.2264 -0.3144 -0.9219
vn -0.2013 0.1151 -0.9727
vn 0.2900 0.1067 -0.9511
vn 0.9382 0.3456 -0.0181
vn 0.7889 0.4137 -0.4544
vn 0.8499 0.2127 -0.4822
vn 0.9829 0.1829 -0.0231
vn 0.9730 -0.2286 -0.0304
vn 0.8260 -0.3025 -0.4756
vn 0.8575 0.1479 -0.4927
vn 0.9909 0.1282 -0.0410
vn 0.1215 -0.5628 0.8176
vn 0.6693 -0.4925 0.5563
vn 0.7138 0.0088 0.7003
vn 0.1204 -0.0464 0.9916
vn -0.8489 0.2636 0.4581
vn -0.4169 0.3176 0.8516
vn -0.4375 0.1544 0.8859
vn -0.8663 0.1301 0.4823
vn -0.6991 -0.3710 -0.6112
vn -0.9317 -0.3145 -0.1816
vn -0.9768 0.0816 -0.1978
vn -0.7493 0.0602 -0.6595
vn 0.2444 0.4043 -0.8814
vn -0.2393 0.3841 -0.8917
vn -0.2712 0.0907 -0.9582
vn 0.2564 0.1185 -0.9593
vn 0.9689 0.2433 -0.0447
vn 0.8283 0.3047 -0.4701
vn 0.8283 0.2975 -0.4747
vn 0.9726 0.2268 -0.0505
vn 0.1032 0.2180 0.9705
vn 0.7088 0.2904 0.6429
vn 0.7139 0.2794 0.6421
vn 0.1185 0.1997 0.9727
vn -0.7382 0.2095 -0.6412
vn -0.9588 0.2246 -0.1736
vn -0.9607 0.2196 -0.1696
vn -0.7472 0.2115 -0.6300
vn -0.8542 -0.1844 0.4862
vn -0.4928 -0.2354 0.8377
vn -0.5169 0.0856 0.8518
vn -0.8677 0.0886 0.4891
vn 0.2522 -0.4601 -0.8513
vn -0.2114 -0.4610 -0.8619
vn -0.2381 0.0706 -0.9687
vn 0.2824 0.0991 -0.9542
vn -0.1285 -0.7944 -0.5936
vn 0.1609 -0.8085 0.5661
vn -0.3066 -0.9180 -0.2516
vn 0.4573 0.2958 -0.8387
vn 0.8431 0.2737 -0.4629
vn 0.5271 -0.8026 -0.2793
vn 0.3862 -0.9215 0.0418
vn -0.5131 -0.8084 0.2884
vn 0.4649 -0.7773 0.4238
vn 0.1061 -0.8837 0.4559
vn -0.5112 -0.7751 -0.3715
vn -0.9232 0.1650 0.3471
vn -0.9671 0.2004 -0.1567
vn -0.8590 0.1878 0.4763
vn -0.5265 0.2167 0.8221
vn -0.5326 0.2010 0.8222
vn -0.8607 0.1604 0.4832
vn 0.7343 0.2470 0.6323
vn 0.2678 0.3061 -0.9136
vn -0.2382 0.2899 -0.9269
vn -0.2384 0.2875 -0.9276
vn 0.2576 0.2925 -0.9209
vn 0.1965 -0.8924 -0.4062
vn -0.6692 0.2256 -0.7080
vn -0.6990 -0.0869 -0.7098
vn -0.3170 -0.1980 -0.9275
vn -0.2371 0.2947 -0.9257
vn 0.9693 0.2388 0.0579
vn 0.9972 -0.0540 0.0509
vn 0.8299 -0.0485 0.5558
vn 0.7728 0.3203 0.5478
vn -0.3100 -0.7522 0.5814
vn -0.3965 -0.9111 0.1127
vn 0.3361 -0.7599 -0.5563
vn 0.6596 0.0493 -0.7500
vn 0.6650 0.0504 -0.7452
vn 0.9908 0.0595 -0.1214
vn 0.9889 0.0574 -0.1372
vn -0.8311 0.0359 -0.5550
vn -0.8399 0.0363 -0.5416
vn -0.2672 0.0577 -0.9619
vn -0.2439 0.0555 -0.9682
vn 0.8075 0.0440 0.5882
vn 0.8011 0.0461 0.5967
vn 0.2297 0.0385 0.9725
vn 0.2282 0.0317 0.9731
vn -0.7651 0.0734 -0.6397
vn -0.7769 0.0532 -0.6274
vn -0.1861 0.0744 -0.9797
vn -0.1758 0.0998 -0.9793
vn -0.5707 0.0163 0.8210
vn -0.5700 0.0176 0.8214
vn -0.9722 0.0426 0.2301
vn -0.9742 0.0410 0.2217
vn 0.6498 0.0814 -0.7557
vn 0.6513 0.0629 -0.7562
vn 0.9821 0.0635 -0.1772
vn 0.9798 0.0738 -0.1860
vn 0.7614 0.0481 0.6465
vn 0.7503 0.0486 0.6593
vn 0.2608 0.0468 0.9643
vn 0.2567 0.0454 0.9654
vn -0.6020 -0.0046 0.7985
vn -0.9822 0.0436 0.1826
vn -0.9871 0.0315 0.1567
vn -0.6122 -0.0099 0.7906
vn 0.2058 0.3006 0.9313
vn 0.2278 0.0660 0.9715
vn -0.4137 -0.0134 0.9103
vn -0.4395 0.3354 0.8333
vn 0.2040 0.1800 0.9623
vn 0.1962 0.3140 0.9289
vn -0.4457 0.3528 0.8227
vn -0.4637 0.2162 0.8592
vn 0.3436 0.2048 0.9165
vn 0.3397 0.3321 0.8799
vn 0.2720 0.3178 0.9083
vn 0.2767 0.1739 0.9451
vn 0.3468 0.3162 0.8830
vn 0.3662 -0.0141 0.9304
vn 0.2946 0.0290 0.9552
vn 0.2801 0.3041 0.9105
vn -0.4603 -0.0037 0.8877
vn -0.5306 -0.0026 0.8476
vn -0.5321 -0.0026 0.8467
vn -0.4551 -0.0088 0.8904
vn -0.4559 0.0042 0.8900
vn -0.5228 -0.0001 0.8524
vn -0.5271 -0.0027 0.8498
vn -0.4621 0.0013 0.8868
vn -0.5916 0.0023 0.8062
vn -0.9797 0.0548 0.1931
vn -0.9807 0.0579 0.1866
vn -0.5940 0.0000 0.8045
vn 0.7920 0.0477 0.6087
vn 0.7792 0.0478 0.6249
vn 0.2424 0.0439 0.9692
vn 0.2350 0.0435 0.9710
vn 0.8736 0.0420 0.4849
vn 0.8600 0.0413 0.5087
vn 0.8201 0.0438 0.5705
vn 0.8353 0.0440 0.5481
vn 0.8466 0.0416 0.5307
vn 0.8398 0.0422 0.5413
vn 0.7917 0.0430 0.6094
vn 0.8017 0.0433 0.5962
vn 0.6550 0.0823 -0.7511
vn 0.6489 0.0872 -0.7558
vn 0.9782 0.0772 -0.1930
vn 0.9781 0.0656 -0.1977
vn 0.5054 0.0864 -0.8586
vn 0.5119 0.0912 -0.8542
vn 0.5855 0.0874 -0.8059
vn 0.5116 0.0848 -0.8550
vn 0.5115 0.0644 -0.8568
vn 0.5866 0.0621 -0.8075
vn 0.5858 0.0813 -0.8063
vn -0.5830 0.0148 0.8123
vn -0.5744 0.0151 0.8184
vn -0.9760 0.0395 0.2144
vn -0.9782 0.0402 0.2039
vn -0.4329 0.0193 0.9012
vn -0.4111 0.0204 0.9114
vn -0.4898 0.0149 0.8717
vn -0.5060 0.0144 0.8624
vn -0.3736 0.0223 0.9273
vn -0.3509 0.0237 0.9361
vn -0.4534 0.0148 0.8912
vn -0.4668 0.0149 0.8843
vn -0.7452 0.0768 -0.6624
vn -0.7565 0.0804 -0.6490
vn -0.1684 0.1077 -0.9798
vn -0.1634 0.0950 -0.9820
vn -0.8448 0.0809 -0.5290
vn -0.8442 0.0867 -0.5290
vn -0.8002 0.0826 -0.5941
vn -0.7939 0.0831 -0.6024
vn -0.8501 0.0802 -0.5205
vn -0.8584 0.0606 -0.5094
vn -0.8183 0.0561 -0.5720
vn -0.8078 0.0759 -0.5846
vn 0.8108 0.0376 0.5841
vn 0.8122 0.0434 0.5817
vn 0.2274 0.0294 0.9734
vn 0.2259 0.0158 0.9740
vn 0.9008 0.0368 0.4327
vn 0.8938 0.0404 0.4465
vn 0.8582 0.0407 0.5116
vn 0.8624 0.0410 0.5045
vn 0.8894 0.0403 0.4554
vn 0.8831 0.0413 0.4674
vn 0.8462 0.0428 0.5312
vn 0.8532 0.0410 0.5200
vn -0.7928 0.0381 -0.6083
vn -0.8127 0.0359 -0.5815
vn -0.2191 0.0533 -0.9742
vn -0.2001 0.0549 -0.9782
vn -0.8687 0.0460 -0.4932
vn -0.8813 0.0447 -0.4705
vn -0.8499 0.0397 -0.5254
vn -0.8326 0.0414 -0.5523
vn -0.8964 0.0450 -0.4409
vn -0.9049 0.0454 -0.4232
vn -0.8779 0.0386 -0.4773
vn -0.8687 0.0390 -0.4939
vn 0.6522 0.0492 -0.7565
vn 0.6530 0.0482 -0.7558
vn 0.9862 0.0553 -0.1559
vn 0.9838 0.0559 -0.1703
vn 0.5102 0.0493 -0.8586
vn 0.5083 0.0482 -0.8598
vn 0.5870 0.0468 -0.8082
vn 0.5871 0.0479 -0.8081
vn 0.4983 0.0495 -0.8656
vn 0.4899 0.0508 -0.8703
vn 0.5869 0.0468 -0.8083
vn 0.5870 0.0468 -0.8083
vn 0.3559 -0.7211 -0.5945
vn 0.7381 -0.6295 -0.2429
vn 0.3022 -0.8005 -0.5176
vn 0.7289 -0.6156 -0.2996
vn -0.2816 -0.9528 0.1132
vn -0.3471 -0.9215 0.1739
vn 0.7786 -0.6022 -0.1767
vn 0.9963 0.0669 0.0536
vn 0.9657 0.2529 0.0581
vn 0.7666 0.3369 0.5466
vn 0.8053 0.1790 0.5652
vn 0.9961 0.0761 -0.0456
vn 0.9666 0.2507 -0.0538
vn 0.9697 0.2441 -0.0076
vn 0.9990 0.0443 -0.0039
vn 0.9704 0.2353 -0.0550
vn 0.9953 -0.0805 -0.0541
vn 0.9978 -0.0644 -0.0139
vn 0.9731 0.2302 -0.0084
vn -0.6837 0.0784 -0.7255
vn -0.6624 0.2441 -0.7083
vn -0.2289 0.3212 -0.9189
vn -0.2215 0.1371 -0.9655
vn -0.7633 0.0886 -0.6400
vn -0.7515 0.2477 -0.6115
vn -0.7035 0.2402 -0.6688
vn -0.7212 0.0596 -0.6902
vn -0.7576 0.2328 -0.6098
vn -0.7810 -0.0422 -0.6231
vn -0.7339 -0.0554 -0.6770
vn -0.7098 0.2246 -0.6677
vn 0.1684 -0.7824 0.5996
vn -0.2301 -0.8003 0.5537
vn 0.1483 -0.8420 0.5187
vn -0.1572 -0.7942 0.5869
vn 0.1568 -0.9304 -0.3313
vn 0.1867 -0.8972 -0.4001
vn -0.2929 -0.7964 0.5291
vn 0.4535 0.3078 -0.8364
vn 0.3514 0.3032 -0.8858
vn 0.3466 0.2841 -0.8940
vn 0.4645 0.3056 -0.8311
vn 0.3626 0.3009 -0.8821
vn 0.3577 0.3068 -0.8820
vn 0.4584 0.3115 -0.8324
vn 0.2736 0.3027 -0.9130
vn -0.2405 0.2842 -0.9281
vn -0.2387 0.2922 -0.9261
vn 0.2722 0.3095 -0.9111
vn -0.6933 0.2041 -0.6912
vn -0.6375 0.2147 -0.7399
vn -0.6472 0.2184 -0.7304
vn -0.7608 0.2047 -0.6158
vn -0.9697 0.1903 -0.1534
vn -0.9572 0.2529 -0.1404
vn -0.7098 0.2194 -0.6694
vn 0.9763 0.2163 -0.0029
vn 0.9760 0.2038 0.0762
vn 0.9718 0.2274 0.0621
vn 0.9770 0.2049 -0.0587
vn 0.8446 0.2632 -0.4663
vn 0.8120 0.3297 -0.4815
vn 0.9771 0.2118 0.0195
vn -0.0037 0.1737 0.9848
vn -0.1020 0.1492 0.9835
vn -0.0841 0.1797 0.9801
vn 0.1464 0.1711 0.9743
vn 0.7350 0.2317 0.6373
vn 0.6888 0.2990 0.6604
vn 0.0488 0.1738 0.9836
vn -0.9182 0.1888 0.3481
vn -0.8905 0.1838 0.4162
vn -0.8948 0.1526 0.4196
vn -0.9200 0.1905 0.3426
vn -0.8906 0.1859 0.4151
vn -0.8898 0.1896 0.4150
vn -0.9180 0.1943 0.3456
vn -0.8578 0.1895 0.4778
vn -0.5183 0.2170 0.8272
vn -0.5215 0.2226 0.8237
vn -0.8582 0.1934 0.4755
vn -0.8985 0.1392 0.4164
vn -0.9314 0.1354 0.3379
vn -0.8580 0.1284 0.4973
vn -0.5440 -0.7405 -0.3945
vn -0.1864 -0.6987 -0.6907
vn -0.4625 -0.8076 -0.3659
vn -0.2707 -0.6774 -0.6840
vn 0.1118 -0.9329 0.3423
vn 0.1591 -0.8868 0.4339
vn -0.1167 -0.6762 -0.7274
vn -0.5433 -0.7814 0.3069
vn -0.6927 -0.7212 -0.0050
vn -0.4748 -0.8381 0.2687
vn -0.6978 -0.7139 0.0586
vn 0.3063 -0.9518 0.0158
vn 0.3925 -0.9197 0.0050
vn -0.7002 -0.7124 -0.0476
vn 0.3783 0.2861 -0.8803
vn 0.4767 0.2759 -0.8347
vn 0.2396 0.2731 -0.9317
vn -0.2360 -0.9469 -0.2185
vn 0.5593 -0.6992 0.4453
vn -0.2911 -0.9155 -0.2777
vn 0.4642 -0.7139 0.5242
vn 0.5172 -0.7118 0.4751
vn 0.4519 -0.3809 -0.8067
vn 0.3425 -0.4315 -0.8346
vn 0.3790 0.1131 -0.9184
vn 0.4850 0.1305 -0.8647
vn 0.4097 -0.4255 -0.8069
vn 0.3104 -0.4618 -0.8309
vn 0.2516 -0.7309 -0.6345
vn 0.3460 -0.6904 -0.6353
vn 0.2235 -0.5098 -0.8307
vn -0.2340 -0.5720 -0.7862
vn -0.1731 -0.7890 -0.5895
vn 0.1777 -0.7689 -0.6142
vn -0.9110 -0.2369 0.3376
vn -0.8860 -0.2025 0.4171
vn -0.9022 0.0853 0.4228
vn -0.9346 0.0848 0.3454
vn -0.9071 -0.2531 0.3364
vn -0.8887 -0.2078 0.4087
vn -0.8371 -0.3846 0.3891
vn -0.8390 -0.4455 0.3125
vn -0.8579 -0.1844 0.4796
vn -0.4496 -0.2562 0.8557
vn -0.4417 -0.4462 0.7783
vn -0.8132 -0.3575 0.4592
vn -0.6546 0.2156 -0.7246
vn -0.6925 0.2078 -0.6909
vn -0.6575 0.2102 -0.7235
vn -0.6927 0.2033 -0.6920
vn -0.6922 0.2085 -0.6910
vn -0.6563 0.2160 -0.7229
vn -0.7348 0.2050 -0.6466
vn -0.9573 0.2226 -0.1847
vn -0.9570 0.2282 -0.1792
vn -0.7352 0.2103 -0.6444
vn -0.0717 0.2044 0.9763
vn -0.0034 0.2027 0.9792
vn -0.0630 0.2030 0.9771
vn -0.0008 0.2003 0.9797
vn -0.0029 0.2080 0.9781
vn -0.0663 0.2094 0.9756
vn 0.1016 0.2126 0.9719
vn 0.7064 0.2840 0.6483
vn 0.7055 0.2958 0.6441
vn 0.0993 0.2227 0.9698
vn 0.9683 0.2438 0.0536
vn 0.9711 0.2386 -0.0044
vn 0.9686 0.2428 0.0533
vn 0.9711 0.2385 -0.0059
vn 0.9701 0.2427 -0.0055
vn 0.9674 0.2479 0.0520
vn 0.9691 0.2428 -0.0436
vn 0.8324 0.3019 -0.4647
vn 0.8293 0.3081 -0.4662
vn 0.9681 0.2469 -0.0434
vn 0.4171 0.3961 -0.8180
vn 0.3282 0.3944 -0.8583
vn 0.3426 0.1275 -0.9308
vn 0.4394 0.1530 -0.8852
vn 0.4412 0.3951 -0.8058
vn 0.3548 0.3924 -0.8486
vn 0.3420 0.4044 -0.8482
vn 0.4290 0.4061 -0.8069
vn 0.2691 0.3997 -0.8763
vn -0.2329 0.3813 -0.8946
vn -0.2361 0.3949 -0.8879
vn 0.2572 0.4143 -0.8730
vn -0.6070 -0.4360 -0.6644
vn -0.6494 -0.4062 -0.6428
vn -0.7071 0.0491 -0.7054
vn -0.6707 0.0435 -0.7405
vn -0.5924 -0.4659 -0.6573
vn -0.6313 -0.4293 -0.6459
vn -0.5275 -0.6696 -0.5228
vn -0.4798 -0.7075 -0.5189
vn -0.6794 -0.4017 -0.6140
vn -0.9071 -0.3887 -0.1614
vn -0.7932 -0.5945 -0.1321
vn -0.5807 -0.6357 -0.5086
vn -0.9215 0.2247 0.3167
vn -0.8910 0.2376 0.3868
vn -0.9051 0.1049 0.4120
vn -0.9358 0.0858 0.3420
vn -0.9340 0.2233 0.2787
vn -0.9084 0.2335 0.3468
vn -0.8991 0.2425 0.3643
vn -0.9269 0.2317 0.2954
vn -0.8679 0.2572 0.4250
vn -0.4275 0.3131 0.8481
vn -0.4211 0.3252 0.8467
vn -0.8575 0.2678 0.4392
vn -0.0145 -0.3340 0.9425
vn 0.0453 -0.4697 0.8817
vn 0.0142 -0.0091 0.9999
vn -0.0494 0.0435 0.9978
vn 0.0882 -0.3482 0.9332
vn 0.1445 -0.4899 0.8597
vn 0.0816 -0.6912 0.7180
vn 0.0325 -0.5459 0.8372
vn 0.1954 -0.6078 0.7697
vn 0.6532 -0.5942 0.4693
vn 0.5310 -0.7669 0.3605
vn 0.1208 -0.7915 0.5991
vn 0.9514 -0.2981 0.0770
vn 0.9703 -0.2419 0.0101
vn 0.9930 0.1183 -0.0015
vn 0.9925 0.1015 0.0684
vn 0.9536 -0.2912 0.0764
vn 0.9700 -0.2422 0.0188
vn 0.8824 -0.4701 0.0176
vn 0.8451 -0.5299 0.0706
vn 0.9727 -0.2310 -0.0221
vn 0.8266 -0.3512 -0.4397
vn 0.7090 -0.6055 -0.3615
vn 0.8859 -0.4635 -0.0194
vn 0.9384 0.3329 0.0921
vn 0.9418 0.3353 0.0249
vn 0.9857 0.1674 0.0203
vn 0.9858 0.1480 0.0790
vn 0.9385 0.3294 0.1033
vn 0.9437 0.3293 0.0317
vn 0.9394 0.3415 0.0296
vn 0.9348 0.3410 0.0991
vn 0.9413 0.3375 -0.0123
vn 0.8000 0.4045 -0.4431
vn 0.7906 0.4204 -0.4453
vn 0.9361 0.3514 -0.0138
vn 0.4313 -0.2855 -0.8559
vn 0.3335 -0.3266 -0.8844
vn 0.3753 0.1283 -0.9180
vn 0.4757 0.1488 -0.8669
vn 0.3780 -0.2328 -0.8961
vn 0.2835 -0.2660 -0.9213
vn 0.2778 -0.5050 -0.8172
vn 0.3672 -0.4675 -0.8041
vn 0.2009 -0.3195 -0.9260
vn -0.2989 -0.2560 -0.9193
vn -0.2459 -0.4917 -0.8353
vn 0.1989 -0.5596 -0.8046
vn -0.6349 0.2872 -0.7172
vn -0.6707 0.2687 -0.6914
vn -0.6913 0.0544 -0.7206
vn -0.6614 0.0508 -0.7483
vn -0.6481 0.2841 -0.7066
vn -0.6853 0.2666 -0.6777
vn -0.6774 0.2754 -0.6821
vn -0.6407 0.2944 -0.7091
vn -0.7283 0.2576 -0.6350
vn -0.9435 0.2581 -0.2078
vn -0.9413 0.2691 -0.2037
vn -0.7209 0.2659 -0.6400
vn -0.9157 -0.3440 0.2076
vn -0.9029 -0.3309 0.2743
vn -0.9436 0.0416 0.3284
vn -0.9657 0.0279 0.2583
vn -0.9198 -0.3349 0.2043
vn -0.9081 -0.3237 0.2656
vn -0.8311 -0.5064 0.2299
vn -0.8367 -0.5210 0.1690
vn -0.8805 -0.3257 0.3446
vn -0.4203 -0.4656 0.7788
vn -0.3806 -0.6315 0.6755
vn -0.8052 -0.5081 0.3058
vn 0.1382 0.2661 0.9540
vn 0.2003 0.2527 0.9466
vn 0.1929 -0.0088 0.9812
vn 0.1279 0.0688 0.9894
vn 0.1501 0.2633 0.9530
vn 0.2124 0.2532 0.9438
vn 0.2067 0.2637 0.9422
vn 0.1448 0.2740 0.9508
vn 0.2793 0.2583 0.9248
vn 0.7197 0.3342 0.6086
vn 0.7163 0.3498 0.6037
vn 0.2746 0.2701 0.9228
vn -0.9255 0.2829 0.2519
vn -0.9100 0.2727 0.3122
vn -0.9487 0.0693 0.3084
vn -0.9660 0.0740 0.2476
vn -0.9282 0.2748 0.2507
vn -0.9118 0.2640 0.3144
vn -0.9071 0.2816 0.3128
vn -0.9227 0.2927 0.2508
vn -0.8803 0.2655 0.3931
vn -0.4391 0.2748 0.8554
vn -0.4278 0.2922 0.8553
vn -0.8751 0.2837 0.3920
vn -0.6449 -0.1936 -0.7393
vn -0.6824 -0.1961 -0.7042
vn -0.7035 0.1041 -0.7030
vn -0.6628 0.1139 -0.7400
vn -0.6651 -0.1398 -0.7335
vn -0.6943 -0.1522 -0.7034
vn -0.6515 -0.3365 -0.6800
vn -0.6195 -0.3316 -0.7115
vn -0.7324 -0.1836 -0.6556
vn -0.9184 -0.3033 -0.2543
vn -0.8342 -0.4898 -0.2532
vn -0.6809 -0.3716 -0.6311
vn 0.1655 -0.3949 0.9037
vn 0.2273 -0.4231 0.8771
vn 0.2320 0.0131 0.9726
vn 0.1638 0.0350 0.9859
vn 0.1843 -0.4242 0.8866
vn 0.2402 -0.4424 0.8640
vn 0.2101 -0.6090 0.7648
vn 0.1576 -0.5919 0.7905
vn 0.2986 -0.4707 0.8302
vn 0.7252 -0.4972 0.4763
vn 0.6377 -0.6471 0.4178
vn 0.2611 -0.6358 0.7263
vn 0.9357 -0.3508 0.0374
vn 0.9209 -0.3875 -0.0421
vn 0.9977 0.0668 0.0072
vn 0.9924 0.0825 0.0916
vn 0.9269 -0.3752 0.0004
vn 0.9131 -0.4015 -0.0704
vn 0.8191 -0.5693 -0.0711
vn 0.8452 -0.5345 -0.0022
vn 0.8901 -0.4416 -0.1128
vn 0.7353 -0.4008 -0.5465
vn 0.6437 -0.5913 -0.4858
vn 0.7773 -0.6194 -0.1099
vn 0.3665 0.4693 -0.8034
vn 0.2679 0.4922 -0.8282
vn 0.2757 0.2431 -0.9300
vn 0.3673 0.2497 -0.8959
vn 0.4293 0.4555 -0.7799
vn 0.3337 0.4789 -0.8120
vn 0.3012 0.5003 -0.8118
vn 0.3981 0.4769 -0.7836
vn 0.2470 0.5055 -0.8267
vn -0.2454 0.5143 -0.8217
vn -0.2528 0.5330 -0.8074
vn 0.2185 0.5282 -0.8206
vn 0.2901 -0.7483 -0.5965
vn 0.2184 -0.7567 -0.6161
vn 0.3724 -0.0570 -0.9263
vn 0.4705 -0.0634 -0.8801
vn 0.2387 -0.8200 -0.5202
vn 0.1921 -0.8115 -0.5519
vn 0.1309 -0.9028 -0.4096
vn 0.1672 -0.9075 -0.3853
vn 0.1456 -0.8078 -0.5712
vn -0.2302 -0.7521 -0.6175
vn -0.2206 -0.8349 -0.5042
vn 0.0962 -0.8959 -0.4336
vn -0.7922 -0.5828 0.1810
vn -0.7734 -0.5905 0.2306
vn -0.9464 -0.0881 0.3108
vn -0.9666 -0.0759 0.2450
vn -0.7634 -0.6214 0.1764
vn -0.7533 -0.6203 0.2185
vn -0.6446 -0.7432 0.1794
vn -0.6524 -0.7447 0.1407
vn -0.7360 -0.6181 0.2763
vn -0.3437 -0.5599 0.7539
vn -0.3011 -0.6803 0.6683
vn -0.6334 -0.7378 0.2332
vn 0.9754 0.2128 0.0567
vn 0.9750 0.2218 -0.0134
vn 0.9992 -0.0040 -0.0406
vn 0.9996 0.0018 0.0295
vn 0.9747 0.2126 0.0688
vn 0.9754 0.2205 0.0026
vn 0.9729 0.2313 -0.0040
vn 0.9727 0.2231 0.0638
vn 0.9699 0.2404 -0.0379
vn 0.8104 0.3788 -0.4469
vn 0.7959 0.4005 -0.4541
vn 0.9664 0.2532 -0.0445
vn -0.6344 0.4220 -0.6476
vn -0.6715 0.3994 -0.6241
vn -0.7015 0.2189 -0.6782
vn -0.6699 0.2390 -0.7030
vn -0.6501 0.4123 -0.6382
vn -0.6878 0.3914 -0.6114
vn -0.6774 0.4054 -0.6139
vn -0.6396 0.4280 -0.6386
vn -0.7279 0.3791 -0.5713
vn -0.9184 0.3509 -0.1830
vn -0.9108 0.3694 -0.1845
vn -0.7188 0.3926 -0.5738
vn 0.1928 0.1921 0.9622
vn 0.2561 0.1935 0.9471
vn 0.2661 -0.0389 0.9632
vn 0.2050 -0.0272 0.9784
vn 0.1749 0.1957 0.9649
vn 0.2417 0.1953 0.9505
vn 0.2479 0.2048 0.9469
vn 0.1831 0.2039 0.9617
vn 0.3165 0.2045 0.9263
vn 0.7730 0.2363 0.5887
vn 0.7719 0.2510 0.5841
vn 0.3192 0.2165 0.9226
vn -0.9584 0.1248 0.2567
vn -0.9395 0.2349 0.2495
vn -0.9460 0.2619 -0.1912
vn -0.9677 0.1367 -0.2117
vn -0.9192 0.1416 0.3674
vn -0.8940 0.2590 0.3657
vn -0.9234 0.2399 0.2997
vn -0.9455 0.1149 0.3048
vn -0.8975 0.2373 0.3718
vn -0.9196 -0.1402 0.3670
vn -0.9426 -0.1508 0.2980
vn -0.9271 0.2183 0.3048
vn 0.1521 -0.3277 0.9325
vn 0.2169 -0.4052 0.8881
vn 0.2390 -0.0178 0.9709
vn 0.1608 0.0083 0.9869
vn 0.1956 -0.3268 0.9246
vn 0.2549 -0.4149 0.8734
vn 0.2065 -0.5787 0.7890
vn 0.1567 -0.4803 0.8630
vn 0.2962 -0.5329 0.7927
vn 0.6417 -0.6307 0.4365
vn 0.5210 -0.7718 0.3646
vn 0.2281 -0.7037 0.6729
vn 0.8722 -0.4868 0.0479
vn 0.8670 -0.4980 -0.0133
vn 0.9997 -0.0244 -0.0006
vn 0.9973 -0.0260 0.0689
vn 0.8483 -0.5282 0.0367
vn 0.8447 -0.5348 -0.0202
vn 0.7101 -0.7038 -0.0204
vn 0.7167 -0.6968 0.0297
vn 0.8161 -0.5749 -0.0589
vn 0.5450 -0.7787 -0.3108
vn 0.4392 -0.8680 -0.2315
vn 0.6719 -0.7389 -0.0512
vn 0.4578 0.0947 -0.8840
vn 0.4382 0.3148 -0.8420
vn 0.8131 0.3121 -0.4914
vn 0.8440 0.1201 -0.5227
vn 0.3137 0.1198 -0.9419
vn 0.2786 0.3283 -0.9026
vn 0.3526 0.3184 -0.8799
vn 0.3815 0.0792 -0.9210
vn 0.2763 0.2979 -0.9137
vn 0.2678 -0.2459 -0.9316
vn 0.3413 -0.2503 -0.9060
vn 0.3494 0.2883 -0.8915
vn -0.6376 -0.4653 -0.6140
vn -0.6873 -0.4134 -0.5973
vn -0.7486 0.1004 -0.6553
vn -0.7093 0.0897 -0.6991
vn -0.5979 -0.5364 -0.5957
vn -0.6553 -0.4735 -0.5885
vn -0.5924 -0.6160 -0.5192
vn -0.5315 -0.6736 -0.5135
vn -0.7004 -0.4585 -0.5470
vn -0.7896 -0.5828 -0.1919
vn -0.6917 -0.6995 -0.1795
vn -0.6337 -0.6002 -0.4880
vn -0.5653 -0.8217 -0.0721
vn 0.6483 -0.7532 0.1118
vn 0.7237 -0.6750 0.1440
vn 0.0475 -0.9980 -0.0417
vn 0.6887 -0.7124 0.1353
vn -0.2415 0.2763 -0.9302
vn -0.2384 0.2697 -0.9330
vn -0.1913 0.3494 -0.9173
vn -0.0315 0.9981 0.0539
vn -0.5422 0.1632 0.8242
vn -0.5433 0.1493 0.8262
vn -0.4938 0.2330 0.8378
vn -0.9785 0.0463 0.2011
vn 0.9072 0.0324 0.4195
vn 0.8643 0.0411 0.5012
vn 0.9756 0.0550 -0.2123
vn 0.8084 0.0321 0.5878
vn 0.2337 0.0027 0.9723
vn -0.8465 0.0755 -0.5270
vn -0.7910 0.0832 -0.6062
vn -0.7352 0.0724 -0.6740
vn -0.1594 0.0833 -0.9837
vn -0.4470 0.0128 0.8944
vn -0.5165 0.0082 0.8562
vn -0.5882 0.0095 0.8087
vn 0.4962 0.0812 -0.8644
vn 0.6606 0.0775 -0.7467
usemtl None
s 1
f 786/1/1 250/2/2 3/3/3 315/4/4
f 785/5/5 222/6/6 6/7/7 400/8/8
f 784/9/9 209/10/10 9/11/11 377/12/12
f 783/13/13 280/14/14 10/15/15 363/16/16
f 782/17/17 322/18/18 2/19/19 376/20/20
f 781/21/21 266/22/22 15/23/23 352/24/24
f 780/25/25 204/26/26 17/27/27 345/28/28
f 779/29/29 208/30/30 19/31/31 229/32/32
f 778/33/33 293/34/34 12/35/35 289/36/36
f 777/37/37 260/38/38 4/39/39 375/40/40
f 776/41/41 241/42/42 18/43/43 410/44/44
f 775/45/45 265/46/46 20/47/47 388/48/48
f 774/49/49 207/50/50 21/51/51 393/52/52
f 773/53/53 264/54/54 23/55/55 308/56/56
f 772/57/57 252/58/58 16/59/59 368/60/60
f 771/61/61 228/62/62 25/63/63 354/64/64
f 770/65/65 292/66/66 22/67/67 342/68/68
f 769/69/69 230/70/70 27/71/71 382/72/72
f 768/73/73 278/74/74 24/75/75 225/76/76
f 767/77/77 246/78/78 29/79/79 304/80/80
f 766/81/81 307/82/82 30/83/83 374/84/84
f 765/85/85 276/86/86 31/87/87 332/88/88
f 764/89/89 287/90/90 26/91/91 311/92/92
f 763/93/93 302/94/94 33/95/95 321/96/96
f 762/97/97 251/98/98 28/99/99 396/100/100
f 761/101/101 267/102/102 35/103/103 341/104/104
f 760/105/105 220/106/106 36/107/107 326/108/108
f 759/109/109 255/110/110 38/111/111 401/112/112
f 758/113/113 286/114/114 32/115/115 350/116/116
f 757/117/117 268/118/118 34/119/119 212/120/120
f 5/121/121 390/122/122 320/123/123
f 35/103/103 367/124/124 340/125/125
f 7/126/126 387/127/127 337/128/128
f 42/129/129 224/130/130 244/131/131
f 38/111/111 257/132/132 316/133/133
f 756/134/134 233/135/135 37/136/136 362/137/137
f 36/107/107 380/138/138 326/108/108
f 35/103/103 340/125/125 341/104/104
f 38/111/111 316/133/133 401/112/112
f 755/139/139 294/140/140 39/141/141 262/142/142
f 5/121/121 318/143/143 390/122/122
f 754/144/144 402/145/145 1/146/146 347/147/147
f 753/148/148 219/149/149 8/150/150 406/151/151
f 13/152/152 323/153/153 339/154/154
f 752/155/155 303/156/156 45/157/157 353/158/158
f 751/159/159 328/160/160 44/161/161 214/162/162
f 750/163/163 243/164/164 50/165/165 379/166/166
f 749/167/167 336/168/168 43/169/169 331/170/170
f 748/171/171 361/172/172 48/173/173 284/174/174
f 747/175/175 281/176/176 46/177/177 411/178/178
f 746/179/179 298/180/180 54/181/181 300/182/182
f 745/183/183 254/184/184 52/185/185 253/186/186
f 744/187/187 259/188/188 11/189/189 384/190/190
f 743/191/191 413/192/192 131/193/193 279/194/194
f 742/195/195 414/196/196 160/197/197 415/198/198
f 741/199/199 364/200/200 111/201/201 416/202/202
f 740/203/203 417/204/204 105/205/205 358/206/206
f 739/207/207 418/208/208 161/209/209 419/210/210
f 738/211/211 359/212/212 106/213/213 420/214/214
f 737/215/215 421/216/216 152/217/217 405/218/218
f 736/219/219 422/220/220 162/221/221 423/222/222
f 735/223/223 403/224/224 150/225/225 424/226/226
f 734/227/227 425/228/228 158/229/229 306/230/230
f 733/231/231 426/232/232 163/233/233 427/234/233
f 732/235/234 386/236/235 133/237/236 428/238/237
f 731/239/238 429/240/239 136/241/240 389/242/241
f 730/243/242 430/244/243 164/245/244 431/246/245
f 729/247/246 256/248/247 108/249/248 432/250/249
f 728/251/250 433/252/251 78/253/252 226/254/253
f 727/255/254 434/256/255 165/257/256 435/258/257
f 726/259/258 231/260/259 83/261/260 436/262/261
f 725/263/262 437/264/263 126/265/264 274/266/265
f 724/267/266 438/268/267 166/269/268 439/270/269
f 723/271/270 348/272/271 95/273/272 440/274/273
f 722/275/274 441/276/275 66/277/276 319/278/277
f 721/279/278 442/280/279 167/281/280 443/282/281
f 720/283/282 223/284/283 75/285/284 444/286/285
f 719/287/286 445/288/287 100/289/288 248/290/289
f 718/291/290 446/292/291 168/293/292 447/294/293
f 717/295/294 408/296/295 155/297/296 448/298/297
f 86/299/298 449/300/299 234/301/300
f 86/299/298 450/302/301 449/300/299
f 70/303/302 218/304/303 451/305/304
f 716/306/305 452/307/306 153/308/307 301/309/308
f 715/310/309 453/311/310 169/312/311 454/313/312
f 714/314/313 324/315/314 71/316/315 455/317/316
f 713/318/317 456/319/318 94/320/319 242/321/320
f 712/322/321 457/323/322 170/324/323 458/325/324
f 711/326/325 297/327/326 149/328/327 459/329/328
f 137/330/329 460/331/330 285/332/331
f 137/330/329 461/333/332 460/331/330
f 65/334/333 213/335/334 462/336/335
f 710/337/336 463/338/337 114/339/338 367/124/124
f 709/340/339 464/341/340 171/342/341 465/343/342
f 708/344/343 399/345/344 146/346/345 466/347/346
f 148/348/347 467/349/348 296/350/349
f 148/348/347 468/351/350 467/349/348
f 63/352/351 211/353/352 469/354/353
f 88/355/354 470/356/355 236/357/356
f 88/355/354 471/358/357 470/356/355
f 87/359/358 235/360/359 472/361/360
f 73/362/361 473/363/362 221/364/363
f 73/362/361 474/365/364 473/363/362
f 127/366/365 275/367/366 475/368/367
f 707/369/368 476/370/369 109/371/370 257/132/132
f 706/372/371 477/373/372 172/374/373 478/375/374
f 705/376/375 338/377/376 85/378/377 479/379/378
f 63/352/351 480/380/379 211/353/352
f 63/352/351 481/381/380 480/380/379
f 109/371/370 362/137/137 482/382/381
f 96/383/382 483/384/383 349/385/384
f 96/383/382 484/386/385 483/384/383
f 76/387/386 329/388/387 485/389/388
f 84/390/389 486/391/390 232/392/391
f 84/390/389 487/393/392 486/391/390
f 134/394/393 282/395/394 488/396/395
f 87/359/358 489/397/396 235/360/359
f 87/359/358 490/398/397 489/397/396
f 114/339/338 262/142/142 491/399/398
f 67/400/399 492/401/400 215/402/401
f 67/400/399 493/403/402 492/401/400
f 137/330/329 285/332/331 494/404/403
f 704/405/404 495/406/405 64/407/406 317/408/407
f 703/409/408 496/410/409 173/411/410 497/412/411
f 702/413/412 373/414/413 120/415/414 498/416/415
f 701/417/416 499/418/417 97/419/418 245/420/419
f 700/421/420 500/422/421 174/423/422 501/424/423
f 699/425/424 391/426/425 138/427/426 502/428/427
f 698/429/428 503/430/429 148/348/347 296/350/349
f 697/431/430 504/432/431 175/433/432 505/434/433
f 696/435/434 360/436/435 107/437/436 506/438/437
f 695/439/438 507/440/439 73/362/361 221/364/363
f 694/441/440 508/442/441 176/443/442 509/444/443
f 693/445/444 325/446/445 72/447/446 510/448/447
f 692/449/448 511/450/449 88/355/354 236/357/356
f 691/451/450 512/452/451 177/453/452 513/454/453
f 690/455/454 372/456/455 119/457/456 514/458/457
f 689/459/458 515/460/459 143/461/460 291/462/461
f 688/463/462 516/464/463 178/465/464 517/466/465
f 687/467/466 356/468/467 103/469/468 518/470/469
f 686/471/470 519/472/471 68/473/472 216/474/473
f 685/475/474 520/476/475 179/477/476 521/478/477
f 684/479/478 407/480/479 154/481/480 522/482/481
f 683/483/482 523/484/483 58/485/484 206/486/485
f 682/487/486 524/488/487 180/489/488 525/490/489
f 681/491/490 392/492/491 139/493/492 526/494/493
f 680/495/494 527/496/495 79/497/496 227/498/497
f 679/499/498 528/500/499 181/501/500 529/502/501
f 678/503/502 381/504/503 128/505/504 530/506/505
f 677/507/506 531/508/507 121/509/508 269/510/509
f 676/511/510 532/512/511 182/513/512 533/514/513
f 675/515/514 412/516/515 159/517/516 534/518/517
f 674/519/518 535/520/519 156/521/520 409/522/521
f 673/523/522 536/524/523 183/525/524 537/526/525
f 672/527/526 351/528/527 98/529/528 538/530/529
f 671/531/530 539/532/531 77/533/532 330/534/533
f 670/535/534 540/536/535 184/537/536 541/538/537
f 669/539/538 383/540/539 130/541/540 542/542/541
f 668/543/542 543/544/543 129/545/544 277/546/545
f 667/547/546 544/548/547 185/549/548 545/550/549
f 666/551/550 335/552/551 82/553/552 546/554/553
f 665/555/554 547/556/555 89/557/556 237/558/557
f 664/559/558 548/560/559 186/561/560 549/562/561
f 663/563/562 397/564/563 144/565/564 550/566/565
f 662/567/566 551/568/567 101/569/568 249/570/569
f 661/571/570 552/572/571 187/573/572 553/574/573
f 660/575/574 333/576/575 80/577/576 554/578/577
f 659/579/578 555/580/579 115/581/580 263/582/581
f 658/583/582 556/584/583 188/585/584 557/586/585
f 657/587/586 357/588/587 104/589/588 558/590/589
f 656/591/590 559/592/591 55/593/592 203/594/593
f 655/595/594 560/596/595 189/597/596 561/598/597
f 654/599/598 369/600/599 116/601/600 562/602/601
f 653/603/602 563/604/603 140/605/604 288/606/605
f 652/607/606 564/608/607 190/609/608 565/610/609
f 651/611/610 312/612/611 59/613/612 566/614/613
f 650/615/614 567/616/615 135/617/616 283/618/617
f 649/619/618 568/620/619 191/621/620 569/622/621
f 648/623/622 370/624/623 117/625/624 570/626/625
f 647/627/626 571/628/627 157/629/628 305/630/629
f 646/631/630 572/632/631 192/633/632 573/634/633
f 645/635/634 346/636/635 93/637/636 574/638/637
f 644/639/638 575/640/639 122/641/640 270/642/641
f 643/643/642 576/644/643 193/645/644 577/646/645
f 642/647/646 365/648/647 112/649/648 578/650/649
f 641/651/650 579/652/651 141/653/652 394/654/653
f 640/655/654 580/656/655 194/657/656 581/658/657
f 639/659/658 398/660/659 145/661/660 582/662/661
f 638/663/662 583/664/663 81/665/664 334/666/665
f 637/667/666 584/668/667 195/669/668 585/670/669
f 636/671/670 313/672/671 60/673/672 586/674/673
f 635/675/674 587/676/675 92/677/676 240/678/677
f 634/679/678 588/680/679 196/681/680 589/682/681
f 633/683/682 309/684/683 56/685/684 590/686/685
f 632/687/686 591/688/687 99/689/688 247/690/689
f 631/691/690 592/692/691 197/693/692 593/694/693
f 630/695/694 371/696/695 118/697/696 594/698/697
f 629/699/698 595/700/699 123/701/700 271/702/701
f 628/703/702 596/704/703 198/705/704 597/706/705
f 627/707/706 217/708/707 69/709/708 598/710/709
f 626/711/710 599/712/711 110/713/712 258/714/713
f 625/715/714 600/716/715 199/717/716 601/718/717
f 624/719/718 385/720/719 132/721/720 602/722/721
f 623/723/722 603/724/723 124/725/724 272/726/725
f 622/727/726 604/728/727 200/729/728 605/730/729
f 621/731/730 314/732/731 61/733/732 606/734/733
f 620/735/734 607/736/735 147/737/736 295/738/737
f 619/739/738 608/740/739 201/741/740 609/742/741
f 618/743/742 327/744/743 74/745/744 610/746/745
f 617/747/746 611/748/747 62/749/748 210/750/749
f 616/751/750 612/752/751 202/753/752 613/754/753
f 615/755/754 355/756/755 102/757/756 614/758/757
f 612/752/751 615/755/754 614/758/757 202/753/752
f 149/328/327 297/327/326 615/755/754 612/752/751
f 297/327/326 2/19/19 355/756/755 615/755/754
f 365/648/647 616/751/750 613/754/753 112/649/648
f 1/146/146 402/145/145 616/751/750 365/648/647
f 402/145/145 149/328/327 612/752/751 616/751/750
f 260/38/38 617/747/746 210/750/749 4/39/39
f 112/649/648 613/754/753 617/747/746 260/38/38
f 613/754/753 202/753/752 611/748/747 617/747/746
f 608/740/739 618/743/742 610/746/745 201/741/740
f 94/320/319 347/147/147 618/743/742 608/740/739
f 347/147/147 1/146/146 327/744/743 618/743/742
f 318/759/143 619/739/738 609/742/741 65/760/333
f 5/761/121 242/321/320 619/739/738 318/759/143
f 242/321/320 94/320/319 608/740/739 619/739/738
f 213/762/334 620/735/734 295/738/737 7/763/126
f 65/760/333 609/742/741 620/735/734 213/762/334
f 609/742/741 201/741/740 607/736/735 620/735/734
f 604/728/727 621/731/730 606/734/733 200/729/728
f 71/316/315 324/315/314 621/731/730 604/728/727
f 324/315/314 6/7/7 314/732/731 621/731/730
f 385/720/719 622/727/726 605/730/729 132/721/720
f 8/150/150 219/149/149 622/727/726 385/720/719
f 219/149/149 71/316/315 604/728/727 622/727/726
f 280/14/14 623/723/722 272/726/725 10/15/15
f 132/721/720 605/730/729 623/723/722 280/14/14
f 605/730/729 200/729/728 603/724/723 623/723/722
f 600/716/715 624/719/718 602/722/721 199/717/716
f 111/201/201 364/200/200 624/719/718 600/716/715
f 364/200/200 8/150/150 385/720/719 624/719/718
f 398/660/659 625/715/714 601/718/717 145/661/660
f 11/189/189 259/188/188 625/715/714 398/660/659
f 259/188/188 111/201/201 600/716/715 625/715/714
f 293/34/34 626/711/710 258/714/713 12/35/35
f 145/661/660 601/718/717 626/711/710 293/34/34
f 601/718/717 199/717/716 599/712/711 626/711/710
f 596/704/703 627/707/706 598/710/709 198/705/704
f 131/193/193 384/190/190 627/707/706 596/704/703
f 384/190/190 11/189/189 217/708/707 627/707/706
f 323/764/153 628/703/702 597/706/705 70/765/302
f 13/766/152 279/194/194 628/703/702 323/764/153
f 279/194/194 131/193/193 596/704/703 628/703/702
f 218/767/303 629/699/698 271/702/701 14/768/758
f 70/765/302 597/706/705 629/699/698 218/767/303
f 597/706/705 198/705/704 595/700/699 629/699/698
f 592/692/691 630/695/694 594/698/697 197/693/692
f 110/769/712 363/770/16 630/695/694 592/692/691
f 363/770/16 10/771/15 371/696/695 630/695/694
f 357/588/587 631/691/690 593/694/693 104/589/588
f 12/772/35 258/773/713 631/691/690 357/588/587
f 258/773/713 110/769/712 592/692/691 631/691/690
f 252/58/58 632/687/686 247/690/689 16/59/59
f 104/589/588 593/694/693 632/687/686 252/58/58
f 593/694/693 197/693/692 591/688/687 632/687/686
f 588/680/679 633/683/682 590/686/685 196/681/680
f 62/774/748 315/775/4 633/683/682 588/680/679
f 315/775/4 3/776/3 309/684/683 633/683/682
f 346/636/635 634/679/678 589/682/681 93/637/636
f 4/777/39 210/778/749 634/679/678 346/636/635
f 210/778/749 62/774/748 588/680/679 634/679/678
f 241/42/42 635/675/674 240/678/677 18/43/43
f 93/637/636 589/682/681 635/675/674 241/42/42
f 589/682/681 196/681/680 587/676/675 635/675/674
f 584/668/667 636/671/670 586/674/673 195/669/668
f 124/779/724 377/780/12 636/671/670 584/668/667
f 377/780/12 9/781/11 313/672/671 636/671/670
f 371/696/695 637/667/666 585/670/669 118/697/696
f 10/771/15 272/782/725 637/667/666 371/696/695
f 272/782/725 124/779/724 584/668/667 637/667/666
f 266/22/22 638/663/662 334/666/665 15/23/23
f 118/697/696 585/670/669 638/663/662 266/22/22
f 585/670/669 195/669/668 583/664/663 638/663/662
f 580/656/655 639/659/658 582/662/661 194/657/656
f 69/709/708 217/708/707 639/659/658 580/656/655
f 217/708/707 11/189/189 398/660/659 639/659/658
f 355/756/755 640/655/654 581/658/657 102/757/756
f 2/19/19 322/18/18 640/655/654 355/756/755
f 322/18/18 69/709/708 580/656/655 640/655/654
f 250/2/2 641/651/650 394/654/653 3/3/3
f 102/757/756 581/658/657 641/651/650 250/2/2
f 581/658/657 194/657/656 579/652/651 641/651/650
f 576/644/643 642/647/646 578/650/649 193/645/644
f 74/745/744 327/744/743 642/647/646 576/644/643
f 327/744/743 1/146/146 365/648/647 642/647/646
f 314/732/731 643/643/642 577/646/645 61/733/732
f 6/7/7 222/6/6 643/643/642 314/732/731
f 222/6/6 74/745/744 576/644/643 643/643/642
f 209/10/10 644/639/638 270/642/641 9/11/11
f 61/733/732 577/646/645 644/639/638 209/10/10
f 577/646/645 193/645/644 575/640/639 644/639/638
f 572/632/631 645/635/634 574/638/637 192/633/632
f 122/783/640 375/784/40 645/635/634 572/632/631
f 375/784/40 4/777/39 346/636/635 645/635/634
f 313/672/671 646/631/630 573/634/633 60/673/672
f 9/781/11 270/785/641 646/631/630 313/672/671
f 270/785/641 122/783/640 572/632/631 646/631/630
f 208/30/30 647/627/626 305/630/629 19/31/31
f 60/673/672 573/634/633 647/627/626 208/30/30
f 573/634/633 192/633/632 571/628/627 647/627/626
f 568/620/619 648/623/622 570/626/625 191/621/620
f 81/665/664 229/32/32 648/623/622 568/620/619
f 229/32/32 19/31/31 370/624/623 648/623/622
f 312/612/611 649/619/618 569/622/621 59/613/612
f 15/23/23 334/666/665 649/619/618 312/612/611
f 334/666/665 81/665/664 568/620/619 649/619/618
f 207/50/50 650/615/614 283/618/617 21/51/51
f 59/613/612 569/622/621 650/615/614 207/50/50
f 569/622/621 191/621/620 567/616/615 650/615/614
f 564/608/607 651/611/610 566/614/613 190/609/608
f 99/689/688 352/24/24 651/611/610 564/608/607
f 352/24/24 15/23/23 312/612/611 651/611/610
f 397/564/563 652/607/606 565/610/609 144/565/564
f 16/59/59 247/690/689 652/607/606 397/564/563
f 247/690/689 99/689/688 564/608/607 652/607/606
f 292/66/66 653/603/602 288/606/605 22/67/67
f 144/565/564 565/610/609 653/603/602 292/66/66
f 565/610/609 190/609/608 563/604/603 653/603/602
f 560/596/595 654/599/598 562/602/601 189/597/596
f 92/677/676 345/28/28 654/599/598 560/596/595
f 345/28/28 17/27/27 369/600/599 654/599/598
f 383/540/539 655/595/594 561/598/597 130/541/540
f 18/43/43 240/678/677 655/595/594 383/540/539
f 240/678/677 92/677/676 560/596/595 655/595/594
f 278/74/74 656/591/590 203/594/593 24/75/75
f 130/541/540 561/598/597 656/591/590 278/74/74
f 561/598/597 189/597/596 559/592/591 656/591/590
f 556/584/583 657/587/586 558/590/589 188/585/584
f 141/786/652 289/787/36 657/587/586 556/584/583
f 289/787/36 12/772/35 357/588/587 657/587/586
f 309/684/683 658/583/582 557/586/585 56/685/684
f 3/776/3 394/788/653 658/583/582 309/684/683
f 394/788/653 141/786/652 556/584/583 658/583/582
f 204/26/26 659/579/578 263/582/581 17/27/27
f 56/685/684 557/586/585 659/579/578 204/26/26
f 557/586/585 188/585/584 555/580/579 659/579/578
f 552/572/571 660/575/574 554/578/577 187/573/572
f 140/789/604 393/790/52 660/575/574 552/572/571
f 393/790/52 21/791/51 333/576/575 660/575/574
f 392/492/491 661/571/570 553/574/573 139/493/492
f 22/792/67 288/793/605 661/571/570 392/492/491
f 288/793/605 140/789/604 552/572/571 661/571/570
f 287/90/90 662/567/566 249/570/569 26/91/91
f 139/493/492 553/574/573 662/567/566 287/90/90
f 553/574/573 187/573/572 551/568/567 662/567/566
f 548/560/559 663/563/562 550/566/565 186/561/560
f 115/581/580 368/60/60 663/563/562 548/560/559
f 368/60/60 16/59/59 397/564/563 663/563/562
f 369/600/599 664/559/558 549/562/561 116/601/600
f 17/27/27 263/582/581 664/559/558 369/600/599
f 263/582/581 115/581/580 548/560/559 664/559/558
f 264/54/54 665/555/554 237/558/557 23/55/55
f 116/601/600 549/562/561 665/555/554 264/54/54
f 549/562/561 186/561/560 547/556/555 665/555/554
f 544/548/547 666/551/550 546/554/553 185/549/548
f 55/794/592 308/795/56 666/551/550 544/548/547
f 308/795/56 23/796/55 335/552/551 666/551/550
f 356/468/467 667/547/546 545/550/549 103/469/468
f 24/797/75 203/798/593 667/547/546 356/468/467
f 203/798/593 55/794/592 544/548/547 667/547/546
f 251/98/98 668/543/542 277/546/545 28/99/99
f 103/469/468 545/550/549 668/543/542 251/98/98
f 545/550/549 185/549/548 543/544/543 668/543/542
f 540/536/535 669/539/538 542/542/541 184/537/536
f 157/629/628 410/44/44 669/539/538 540/536/535
f 410/44/44 18/43/43 383/540/539 669/539/538
f 370/624/623 670/535/534 541/538/537 117/625/624
f 19/31/31 305/630/629 670/535/534 370/624/623
f 305/630/629 157/629/628 540/536/535 670/535/534
f 265/46/46 671/531/530 330/534/533 20/47/47
f 117/625/624 541/538/537 671/531/530 265/46/46
f 541/538/537 184/537/536 539/532/531 671/531/530
f 536/524/523 672/527/526 538/530/529 183/525/524
f 135/799/616 388/800/48 672/527/526 536/524/523
f 388/800/48 20/801/47 351/528/527 672/527/526
f 333/576/575 673/523/522 537/526/525 80/577/576
f 21/791/51 283/802/617 673/523/522 333/576/575
f 283/802/617 135/799/616 536/524/523 673/523/522
f 228/62/62 674/519/518 409/522/521 25/63/63
f 80/577/576 537/526/525 674/519/518 228/62/62
f 537/526/525 183/525/524 535/520/519 674/519/518
f 532/512/511 675/515/514 534/518/517 182/513/512
f 156/521/520 304/80/80 675/515/514 532/512/511
f 304/80/80 29/79/79 412/516/515 675/515/514
f 381/504/503 676/511/510 533/514/513 128/505/504
f 25/63/63 409/522/521 676/511/510 381/504/503
f 409/522/521 156/521/520 532/512/511 676/511/510
f 276/86/86 677/507/506 269/510/509 31/87/87
f 128/505/504 533/514/513 677/507/506 276/86/86
f 533/514/513 182/513/512 531/508/507 677/507/506
f 528/500/499 678/503/502 530/506/505 181/501/500
f 101/569/568 354/64/64 678/503/502 528/500/499
f 354/64/64 25/63/63 381/504/503 678/503/502
f 391/426/425 679/499/498 529/502/501 138/427/426
f 26/91/91 249/570/569 679/499/498 391/426/425
f 249/570/569 101/569/568 528/500/499 679/499/498
f 286/114/114 680/495/494 227/498/497 32/115/115
f 138/427/426 529/502/501 680/495/494 286/114/114
f 529/502/501 181/501/500 527/496/495 680/495/494
f 524/488/487 681/491/490 526/494/493 180/489/488
f 89/803/556 342/804/68 681/491/490 524/488/487
f 342/804/68 22/792/67 392/492/491 681/491/490
f 335/552/551 682/487/486 525/490/489 82/553/552
f 23/796/55 237/805/557 682/487/486 335/552/551
f 237/805/557 89/803/556 524/488/487 682/487/486
f 230/70/70 683/483/482 206/486/485 27/71/71
f 82/553/552 525/490/489 683/483/482 230/70/70
f 525/490/489 180/489/488 523/484/483 683/483/482
f 520/476/475 684/479/478 522/482/481 179/477/476
f 129/545/544 382/72/72 684/479/478 520/476/475
f 382/72/72 27/71/71 407/480/479 684/479/478
f 373/414/413 685/475/474 521/478/477 120/415/414
f 28/99/99 277/546/545 685/475/474 373/414/413
f 277/546/545 129/545/544 520/476/475 685/475/474
f 268/118/118 686/471/470 216/474/473 34/119/119
f 120/415/414 521/478/477 686/471/470 268/118/118
f 521/478/477 179/477/476 519/472/471 686/471/470
f 516/464/463 687/467/466 518/470/469 178/465/464
f 77/806/532 225/807/76 687/467/466 516/464/463
f 225/807/76 24/797/75 356/468/467 687/467/466
f 351/528/527 688/463/462 517/466/465 98/529/528
f 20/801/47 330/808/533 688/463/462 351/528/527
f 330/808/533 77/806/532 516/464/463 688/463/462
f 246/78/78 689/459/458 291/462/461 29/79/79
f 98/529/528 517/466/465 689/459/458 246/78/78
f 517/466/465 178/465/464 515/460/459 689/459/458
f 512/452/451 690/455/454 514/458/457 177/453/452
f 121/809/508 374/810/84 690/455/454 512/452/451
f 374/810/84 30/811/83 372/456/455 690/455/454
f 325/446/445 691/451/450 513/454/453 72/447/446
f 31/812/87 269/813/509 691/451/450 325/446/445
f 269/813/509 121/809/508 512/452/451 691/451/450
f 220/106/106 692/449/448 236/357/356 36/107/107
f 72/447/446 513/454/453 692/449/448 220/106/106
f 513/454/453 177/453/452 511/450/449 692/449/448
f 508/442/441 693/445/444 510/448/447 176/443/442
f 79/814/496 332/815/88 693/445/444 508/442/441
f 332/815/88 31/812/87 325/446/445 693/445/444
f 338/377/376 694/441/440 509/444/443 85/378/377
f 32/816/115 227/817/497 694/441/440 338/377/376
f 227/817/497 79/814/496 508/442/441 694/441/440
f 233/135/135 695/439/438 221/364/363 37/136/136
f 85/378/377 509/444/443 695/439/438 233/135/135
f 509/444/443 176/443/442 507/440/439 695/439/438
f 504/432/431 696/435/434 506/438/437 175/433/432
f 68/818/472 321/819/96 696/435/434 504/432/431
f 321/819/96 33/820/95 360/436/435 696/435/434
f 399/345/344 697/431/430 505/434/433 146/346/345
f 34/821/119 216/822/473 697/431/430 399/345/344
f 216/822/473 68/818/472 504/432/431 697/431/430
f 294/140/140 698/429/428 296/350/349 39/141/141
f 146/346/345 505/434/433 698/429/428 294/140/140
f 505/434/433 175/433/432 503/430/429 698/429/428
f 500/422/421 699/425/424 502/428/427 174/423/422
f 58/485/484 311/92/92 699/425/424 500/422/421
f 311/92/92 26/91/91 391/426/425 699/425/424
f 407/480/479 700/421/420 501/424/423 154/481/480
f 27/71/71 206/486/485 700/421/420 407/480/479
f 206/486/485 58/485/484 500/422/421 700/421/420
f 302/94/94 701/417/416 245/420/419 33/95/95
f 154/481/480 501/424/423 701/417/416 302/94/94
f 501/424/423 174/423/422 499/418/417 701/417/416
f 496/410/409 702/413/412 498/416/415 173/411/410
f 143/461/460 396/100/100 702/413/412 496/410/409
f 396/100/100 28/99/99 373/414/413 702/413/412
f 412/516/515 703/409/408 497/412/411 159/517/516
f 29/79/79 291/462/461 703/409/408 412/516/515
f 291/462/461 143/461/460 496/410/409 703/409/408
f 307/82/82 704/405/404 317/408/407 30/83/83
f 159/517/516 497/412/411 704/405/404 307/82/82
f 497/412/411 173/411/410 495/406/405 704/405/404
f 494/404/403 205/823/759 57/824/760
f 494/404/403 285/332/331 205/823/759
f 285/332/331 40/825/761 205/823/759
f 492/401/400 494/404/403 57/824/760
f 492/401/400 493/403/402 494/404/403
f 493/403/402 137/330/329 494/404/403
f 215/402/401 310/826/762 14/827/758
f 215/402/401 492/401/400 310/826/762
f 492/401/400 57/824/760 310/826/762
f 491/399/398 344/828/763 91/829/764
f 491/399/398 262/142/142 344/828/763
f 262/142/142 39/141/141 344/828/763
f 489/397/396 491/399/398 91/829/764
f 489/397/396 490/398/397 491/399/398
f 490/398/397 114/339/338 491/399/398
f 235/360/359 239/830/765 41/831/766
f 235/360/359 489/397/396 239/830/765
f 489/397/396 91/829/764 239/830/765
f 488/396/395 244/131/131 96/383/382
f 488/396/395 282/395/394 244/131/131
f 282/395/394 42/129/129 244/131/131
f 486/391/390 488/396/395 96/383/382
f 486/391/390 487/393/392 488/396/395
f 487/393/392 134/394/393 488/396/395
f 232/392/391 349/385/384 40/825/761
f 232/392/391 486/391/390 349/385/384
f 486/391/390 96/383/382 349/385/384
f 485/389/388 339/154/154 86/299/298
f 485/389/388 329/388/387 339/154/154
f 329/388/387 13/152/152 339/154/154
f 483/384/383 485/389/388 86/299/298
f 483/384/383 484/386/385 485/389/388
f 484/386/385 76/387/386 485/389/388
f 349/385/384 234/301/300 40/825/761
f 349/385/384 483/384/383 234/301/300
f 483/384/383 86/299/298 234/301/300
f 482/382/381 395/832/767 142/833/768
f 482/382/381 362/137/137 395/832/767
f 362/137/137 37/136/136 395/832/767
f 480/380/379 482/382/381 142/833/768
f 480/380/379 481/381/380 482/382/381
f 481/381/380 109/371/370 482/382/381
f 211/353/352 290/834/769 41/831/766
f 211/353/352 480/380/379 290/834/769
f 480/380/379 142/833/768 290/834/769
f 477/373/372 705/376/375 479/379/378 172/374/373
f 97/835/418 350/836/116 705/376/375 477/373/372
f 350/836/116 32/816/115 338/377/376 705/376/375
f 360/436/435 706/372/371 478/375/374 107/437/436
f 33/820/95 245/837/419 706/372/371 360/436/435
f 245/837/419 97/835/418 477/373/372 706/372/371
f 255/110/110 707/369/368 257/132/132 38/111/111
f 107/437/436 478/375/374 707/369/368 255/110/110
f 478/375/374 172/374/373 476/370/369 707/369/368
f 475/368/367 290/834/769 142/833/768
f 475/368/367 275/367/366 290/834/769
f 275/367/366 41/831/766 290/834/769
f 473/363/362 475/368/367 142/833/768
f 473/363/362 474/365/364 475/368/367
f 474/365/364 127/366/365 475/368/367
f 221/364/363 395/832/767 37/136/136
f 221/364/363 473/363/362 395/832/767
f 473/363/362 142/833/768 395/832/767
f 472/361/360 275/367/366 127/366/365
f 472/361/360 235/360/359 275/367/366
f 235/360/359 41/831/766 275/367/366
f 470/356/355 472/361/360 127/366/365
f 470/356/355 471/358/357 472/361/360
f 471/358/357 87/359/358 472/361/360
f 236/357/356 380/138/138 36/107/107
f 236/357/356 470/356/355 380/138/138
f 470/356/355 127/366/365 380/138/138
f 469/354/353 239/830/765 91/829/764
f 469/354/353 211/353/352 239/830/765
f 211/353/352 41/831/766 239/830/765
f 467/349/348 469/354/353 91/829/764
f 467/349/348 468/351/350 469/354/353
f 468/351/350 63/352/351 469/354/353
f 296/350/349 344/828/763 39/141/141
f 296/350/349 467/349/348 344/828/763
f 467/349/348 91/829/764 344/828/763
f 464/341/340 708/344/343 466/347/346 171/342/341
f 64/838/406 212/839/120 708/344/343 464/341/340
f 212/839/120 34/821/119 399/345/344 708/344/343
f 372/456/455 709/340/339 465/343/342 119/457/456
f 30/811/83 317/840/407 709/340/339 372/456/455
f 317/840/407 64/838/406 464/341/340 709/340/339
f 267/102/102 710/337/336 367/124/124 35/103/103
f 119/457/456 465/343/342 710/337/336 267/102/102
f 465/343/342 171/342/341 463/338/337 710/337/336
f 462/336/335 337/128/128 84/390/389
f 462/336/335 213/335/334 337/128/128
f 213/335/334 7/126/126 337/128/128
f 460/331/330 462/336/335 84/390/389
f 460/331/330 461/333/332 462/336/335
f 461/333/332 65/334/333 462/336/335
f 285/332/331 232/392/391 40/825/761
f 285/332/331 460/331/330 232/392/391
f 460/331/330 84/390/389 232/392/391
f 457/323/322 711/326/325 459/329/328 170/324/323
f 123/701/700 376/20/20 711/326/325 457/323/322
f 376/20/20 2/19/19 297/327/326 711/326/325
f 215/841/401 712/322/321 458/325/324 67/842/399
f 14/768/758 271/702/701 712/322/321 215/841/401
f 271/702/701 123/701/700 457/323/322 712/322/321
f 320/843/123 713/318/317 242/321/320 5/761/121
f 67/842/399 458/325/324 713/318/317 320/843/123
f 458/325/324 170/324/323 456/319/318 713/318/317
f 453/311/310 714/314/313 455/317/316 169/312/311
f 147/737/736 400/8/8 714/314/313 453/311/310
f 400/8/8 6/7/7 324/315/314 714/314/313
f 387/844/127 715/310/309 454/313/312 134/845/393
f 7/763/126 295/738/737 715/310/309 387/844/127
f 295/738/737 147/737/736 453/311/310 715/310/309
f 282/846/394 716/306/305 301/309/308 42/847/129
f 134/845/393 454/313/312 716/306/305 282/846/394
f 454/313/312 169/312/311 452/307/306 716/306/305
f 451/305/304 310/826/762 57/824/760
f 451/305/304 218/304/303 310/826/762
f 218/304/303 14/827/758 310/826/762
f 449/300/299 451/305/304 57/824/760
f 449/300/299 450/302/301 451/305/304
f 450/302/301 70/303/302 451/305/304
f 234/301/300 205/823/759 40/825/761
f 234/301/300 449/300/299 205/823/759
f 449/300/299 57/824/760 205/823/759
f 446/292/291 717/295/294 448/298/297 168/293/292
f 66/848/276 214/849/162 717/295/294 446/292/291
f 214/849/162 44/850/161 408/296/295 717/295/294
f 386/236/235 718/291/290 447/294/293 133/237/236
f 43/851/169 319/852/277 718/291/290 386/236/235
f 319/852/277 66/848/276 446/292/291 718/291/290
f 281/176/176 719/287/286 248/290/289 46/177/177
f 133/237/236 447/294/293 719/287/286 281/176/176
f 447/294/293 168/293/292 445/288/287 719/287/286
f 442/280/279 720/283/282 444/286/285 167/281/280
f 136/241/240 284/174/174 720/283/282 442/280/279
f 284/174/174 48/173/173 223/284/283 720/283/282
f 231/260/259 721/279/278 443/282/281 83/261/260
f 47/853/770 389/242/241 721/279/278 231/260/259
f 389/242/241 136/241/240 442/280/279 721/279/278
f 336/168/168 722/275/274 319/278/277 43/169/169
f 83/261/260 443/282/281 722/275/274 336/168/168
f 443/282/281 167/281/280 441/276/275 722/275/274
f 438/268/267 723/271/270 440/274/273 166/269/268
f 158/229/229 411/178/178 723/271/270 438/268/267
f 411/178/178 46/177/177 348/272/271 723/271/270
f 404/854/771 724/267/266 439/270/269 151/855/772
f 49/856/773 306/230/230 724/267/266 404/854/771
f 306/230/230 158/229/229 438/268/267 724/267/266
f 299/857/774 725/263/262 274/266/265 51/858/775
f 151/855/772 439/270/269 725/263/262 299/857/774
f 439/270/269 166/269/268 437/264/263 725/263/262
f 434/256/255 726/259/258 436/262/261 165/257/256
f 106/213/213 359/212/212 726/259/258 434/256/255
f 359/212/212 47/853/770 231/260/259 726/259/258
f 343/859/776 727/255/254 435/258/257 90/860/777
f 52/185/185 254/184/184 727/255/254 343/859/776
f 254/184/184 106/213/213 434/256/255 727/255/254
f 238/861/778 728/251/250 226/254/253 53/862/779
f 90/860/777 435/258/257 728/251/250 238/861/778
f 435/258/257 165/257/256 433/252/251 728/251/250
f 430/244/243 729/247/246 432/250/249 164/245/244
f 152/217/217 300/182/182 729/247/246 430/244/243
f 300/182/182 54/181/181 256/248/247 729/247/246
f 273/863/780 730/243/242 431/246/245 125/864/781
f 50/165/165 405/218/218 730/243/242 273/863/780
f 405/218/218 152/217/217 430/244/243 730/243/242
f 378/865/782 731/239/238 389/242/241 47/853/770
f 125/864/781 431/246/245 731/239/238 378/865/782
f 431/246/245 164/245/244 429/240/239 731/239/238
f 426/232/232 732/235/234 428/238/237 163/233/233
f 78/866/252 331/867/170 732/235/234 426/232/232
f 331/867/170 43/851/169 386/236/235 732/235/234
f 261/868/783 733/231/231 427/234/233 113/869/233
f 53/870/779 226/871/253 733/231/231 261/868/783
f 226/871/253 78/866/252 426/232/232 733/231/231
f 366/872/784 734/227/227 306/230/230 49/856/773
f 113/869/233 427/234/233 734/227/227 366/872/784
f 427/234/233 163/233/233 425/228/228 734/227/227
f 422/220/220 735/223/223 424/226/226 162/221/221
f 100/289/288 353/158/158 735/223/223 422/220/220
f 353/158/158 45/157/157 403/224/224 735/223/223
f 348/272/271 736/219/219 423/222/222 95/273/272
f 46/177/177 248/290/289 736/219/219 348/272/271
f 248/290/289 100/289/288 422/220/220 736/219/219
f 243/164/164 737/215/215 405/218/218 50/165/165
f 95/273/272 423/222/222 737/215/215 243/164/164
f 423/222/222 162/221/221 421/216/216 737/215/215
f 418/208/208 738/211/211 420/214/214 161/209/209
f 125/864/781 378/865/782 738/211/211 418/208/208
f 378/865/782 47/853/770 359/212/212 738/211/211
f 379/166/166 739/207/207 419/210/210 126/265/264
f 50/165/165 273/863/780 739/207/207 379/166/166
f 273/863/780 125/864/781 418/208/208 739/207/207
f 274/266/265 740/203/203 358/206/206 51/858/775
f 126/265/264 419/210/210 740/203/203 274/266/265
f 419/210/210 161/209/209 417/204/204 740/203/203
f 414/196/196 741/199/199 416/202/202 160/197/197
f 153/308/307 406/151/151 741/199/199 414/196/196
f 406/151/151 8/150/150 364/200/200 741/199/199
f 224/873/130 742/195/195 415/198/198 76/874/386
f 42/847/129 301/309/308 742/195/195 224/873/130
f 301/309/308 153/308/307 414/196/196 742/195/195
f 329/875/387 743/191/191 279/194/194 13/766/152
f 76/874/386 415/198/198 743/191/191 329/875/387
f 415/198/198 160/197/197 413/192/192 743/191/191
f 413/192/192 744/187/187 384/190/190 131/193/193
f 160/197/197 416/202/202 744/187/187 413/192/192
f 416/202/202 111/201/201 259/188/188 744/187/187
f 417/204/204 745/183/183 253/186/186 105/205/205
f 161/209/209 420/214/214 745/183/183 417/204/204
f 420/214/214 106/213/213 254/184/184 745/183/183
f 421/216/216 746/179/179 300/182/182 152/217/217
f 162/221/221 424/226/226 746/179/179 421/216/216
f 424/226/226 150/225/225 298/180/180 746/179/179
f 425/228/228 747/175/175 411/178/178 158/229/229
f 163/233/233 428/238/237 747/175/175 425/228/228
f 428/238/237 133/237/236 281/176/176 747/175/175
f 429/240/239 748/171/171 284/174/174 136/241/240
f 164/245/244 432/250/249 748/171/171 429/240/239
f 432/250/249 108/249/248 361/172/172 748/171/171
f 433/252/251 749/167/167 331/170/170 78/253/252
f 165/257/256 436/262/261 749/167/167 433/252/251
f 436/262/261 83/261/260 336/168/168 749/167/167
f 437/264/263 750/163/163 379/166/166 126/265/264
f 166/269/268 440/274/273 750/163/163 437/264/263
f 440/274/273 95/273/272 243/164/164 750/163/163
f 441/276/275 751/159/159 214/162/162 66/277/276
f 167/281/280 444/286/285 751/159/159 441/276/275
f 444/286/285 75/285/284 328/160/160 751/159/159
f 445/288/287 752/155/155 353/158/158 100/289/288
f 168/293/292 448/298/297 752/155/155 445/288/287
f 448/298/297 155/297/296 303/156/156 752/155/155
f 339/154/154 450/302/301 86/299/298
f 339/154/154 323/153/153 450/302/301
f 323/153/153 70/303/302 450/302/301
f 452/307/306 753/148/148 406/151/151 153/308/307
f 169/312/311 455/317/316 753/148/148 452/307/306
f 455/317/316 71/316/315 219/149/149 753/148/148
f 456/319/318 754/144/144 347/147/147 94/320/319
f 170/324/323 459/329/328 754/144/144 456/319/318
f 459/329/328 149/328/327 402/145/145 754/144/144
f 390/122/122 461/333/332 137/330/329
f 390/122/122 318/143/143 461/333/332
f 318/143/143 65/334/333 461/333/332
f 463/338/337 755/139/139 262/142/142 114/339/338
f 171/342/341 466/347/346 755/139/139 463/338/337
f 466/347/346 146/346/345 294/140/140 755/139/139
f 401/112/112 468/351/350 148/348/347
f 401/112/112 316/133/133 468/351/350
f 316/133/133 63/352/351 468/351/350
f 341/104/104 471/358/357 88/355/354
f 341/104/104 340/125/125 471/358/357
f 340/125/125 87/359/358 471/358/357
f 326/108/108 474/365/364 73/362/361
f 326/108/108 380/138/138 474/365/364
f 380/138/138 127/366/365 474/365/364
f 476/370/369 756/134/134 362/137/137 109/371/370
f 172/374/373 479/379/378 756/134/134 476/370/369
f 479/379/378 85/378/377 233/135/135 756/134/134
f 316/133/133 481/381/380 63/352/351
f 316/133/133 257/132/132 481/381/380
f 257/132/132 109/371/370 481/381/380
f 244/131/131 484/386/385 96/383/382
f 244/131/131 224/130/130 484/386/385
f 224/130/130 76/387/386 484/386/385
f 337/128/128 487/393/392 84/390/389
f 337/128/128 387/127/127 487/393/392
f 387/127/127 134/394/393 487/393/392
f 340/125/125 490/398/397 87/359/358
f 340/125/125 367/124/124 490/398/397
f 367/124/124 114/339/338 490/398/397
f 320/123/123 493/403/402 67/400/399
f 320/123/123 390/122/122 493/403/402
f 390/122/122 137/330/329 493/403/402
f 495/406/405 757/117/117 212/120/120 64/407/406
f 173/411/410 498/416/415 757/117/117 495/406/405
f 498/416/415 120/415/414 268/118/118 757/117/117
f 499/418/417 758/113/113 350/116/116 97/419/418
f 174/423/422 502/428/427 758/113/113 499/418/417
f 502/428/427 138/427/426 286/114/114 758/113/113
f 503/430/429 759/109/109 401/112/112 148/348/347
f 175/433/432 506/438/437 759/109/109 503/430/429
f 506/438/437 107/437/436 255/110/110 759/109/109
f 507/440/439 760/105/105 326/108/108 73/362/361
f 176/443/442 510/448/447 760/105/105 507/440/439
f 510/448/447 72/447/446 220/106/106 760/105/105
f 511/450/449 761/101/101 341/104/104 88/355/354
f 177/453/452 514/458/457 761/101/101 511/450/449
f 514/458/457 119/457/456 267/102/102 761/101/101
f 515/460/459 762/97/97 396/100/100 143/461/460
f 178/465/464 518/470/469 762/97/97 515/460/459
f 518/470/469 103/469/468 251/98/98 762/97/97
f 519/472/471 763/93/93 321/96/96 68/473/472
f 179/477/476 522/482/481 763/93/93 519/472/471
f 522/482/481 154/481/480 302/94/94 763/93/93
f 523/484/483 764/89/89 311/92/92 58/485/484
f 180/489/488 526/494/493 764/89/89 523/484/483
f 526/494/493 139/493/492 287/90/90 764/89/89
f 527/496/495 765/85/85 332/88/88 79/497/496
f 181/501/500 530/506/505 765/85/85 527/496/495
f 530/506/505 128/505/504 276/86/86 765/85/85
f 531/508/507 766/81/81 374/84/84 121/509/508
f 182/513/512 534/518/517 766/81/81 531/508/507
f 534/518/517 159/517/516 307/82/82 766/81/81
f 535/520/519 767/77/77 304/80/80 156/521/520
f 183/525/524 538/530/529 767/77/77 535/520/519
f 538/530/529 98/529/528 246/78/78 767/77/77
f 539/532/531 768/73/73 225/76/76 77/533/532
f 184/537/536 542/542/541 768/73/73 539/532/531
f 542/542/541 130/541/540 278/74/74 768/73/73
f 543/544/543 769/69/69 382/72/72 129/545/544
f 185/549/548 546/554/553 769/69/69 543/544/543
f 546/554/553 82/553/552 230/70/70 769/69/69
f 547/556/555 770/65/65 342/68/68 89/557/556
f 186/561/560 550/566/565 770/65/65 547/556/555
f 550/566/565 144/565/564 292/66/66 770/65/65
f 551/568/567 771/61/61 354/64/64 101/569/568
f 187/573/572 554/578/577 771/61/61 551/568/567
f 554/578/577 80/577/576 228/62/62 771/61/61
f 555/580/579 772/57/57 368/60/60 115/581/580
f 188/585/584 558/590/589 772/57/57 555/580/579
f 558/590/589 104/589/588 252/58/58 772/57/57
f 559/592/591 773/53/53 308/56/56 55/593/592
f 189/597/596 562/602/601 773/53/53 559/592/591
f 562/602/601 116/601/600 264/54/54 773/53/53
f 563/604/603 774/49/49 393/52/52 140/605/604
f 190/609/608 566/614/613 774/49/49 563/604/603
f 566/614/613 59/613/612 207/50/50 774/49/49
f 567/616/615 775/45/45 388/48/48 135/617/616
f 191/621/620 570/626/625 775/45/45 567/616/615
f 570/626/625 117/625/624 265/46/46 775/45/45
f 571/628/627 776/41/41 410/44/44 157/629/628
f 192/633/632 574/638/637 776/41/41 571/628/627
f 574/638/637 93/637/636 241/42/42 776/41/41
f 575/640/639 777/37/37 375/40/40 122/641/640
f 193/645/644 578/650/649 777/37/37 575/640/639
f 578/650/649 112/649/648 260/38/38 777/37/37
f 579/652/651 778/33/33 289/36/36 141/653/652
f 194/657/656 582/662/661 778/33/33 579/652/651
f 582/662/661 145/661/660 293/34/34 778/33/33
f 583/664/663 779/29/29 229/32/32 81/665/664
f 195/669/668 586/674/673 779/29/29 583/664/663
f 586/674/673 60/673/672 208/30/30 779/29/29
f 587/676/675 780/25/25 345/28/28 92/677/676
f 196/681/680 590/686/685 780/25/25 587/676/675
f 590/686/685 56/685/684 204/26/26 780/25/25
f 591/688/687 781/21/21 352/24/24 99/689/688
f 197/693/692 594/698/697 781/21/21 591/688/687
f 594/698/697 118/697/696 266/22/22 781/21/21
f 595/700/699 782/17/17 376/20/20 123/701/700
f 198/705/704 598/710/709 782/17/17 595/700/699
f 598/710/709 69/709/708 322/18/18 782/17/17
f 599/712/711 783/13/13 363/16/16 110/713/712
f 199/717/716 602/722/721 783/13/13 599/712/711
f 602/722/721 132/721/720 280/14/14 783/13/13
f 603/724/723 784/9/9 377/12/12 124/725/724
f 200/729/728 606/734/733 784/9/9 603/724/723
f 606/734/733 61/733/732 209/10/10 784/9/9
f 607/736/735 785/5/5 400/8/8 147/737/736
f 201/741/740 610/746/745 785/5/5 607/736/735
f 610/746/745 74/745/744 222/6/6 785/5/5
f 611/748/747 786/1/1 315/4/4 62/749/748
f 202/753/752 614/758/757 786/1/1 611/748/747
f 614/758/757 102/757/756 250/2/2 786/1/1
