# Blender v2.77 (sub 0) OBJ File: 'Fir_Tree_crk_m_01.obj'
# www.blender.org
mtllib Fir_Tree_s_06.mtl
o Fir_Tree_s_06
v -0.006442 0.352418 0.001286
v -0.189395 0.248929 -0.127884
v 0.140504 0.254956 -0.162521
v 0.140698 0.222971 0.144135
v -0.176618 0.217011 0.165925
v -0.114845 0.535407 -0.089672
v 0.106152 0.521121 -0.104521
v 0.114858 0.526545 0.096766
v -0.089314 0.537636 0.098337
v -0.115445 0.629168 -0.088650
v 0.118118 0.609807 -0.110979
v 0.121661 0.618101 0.115030
v -0.092105 0.634093 0.091178
v 0.045518 1.081555 -0.035906
v 0.126303 1.065567 -0.039599
v 0.127470 1.067200 0.038181
v 0.055587 1.081101 0.026618
v 0.147195 1.341751 -0.000516
v -0.049522 0.037822 0.013082
v 0.013823 0.037812 0.053580
v 0.000679 0.374671 0.023517
v -0.030948 0.374743 0.003719
v -0.005149 0.037793 -0.047370
v -0.005487 0.374519 -0.038062
v 0.028090 0.374468 -0.011611
v 0.051035 0.037787 -0.006936
v -0.005577 0.206153 -0.045116
v -0.040323 0.844902 -0.063920
v -0.005821 0.527663 -0.111331
v 0.041708 0.206124 -0.009650
v 0.014035 0.374466 -0.028795
v 0.090177 1.095088 -0.039928
v 0.163040 0.243589 -0.011409
v 0.107730 1.232419 0.011060
v -0.117646 0.537652 0.004871
v 0.017603 0.374562 0.008267
v 0.052643 1.103679 -0.004843
v -0.017100 0.221434 0.175132
v 0.139109 0.612506 0.002114
v 0.128893 0.380305 -0.139821
v -0.098906 0.273313 0.090418
v 0.138583 1.225154 0.015157
v 0.110037 0.559157 -0.107622
v 0.015872 0.626666 0.120522
v -0.022662 0.037817 0.040478
v 0.121701 0.826379 -0.077828
v -0.092054 0.582672 0.093746
v 0.072481 0.277247 0.077141
v -0.024051 0.258444 -0.165646
v 0.133564 0.365488 0.125373
v -0.021436 0.374638 -0.019485
v 0.007698 0.206244 0.040710
v 0.116612 0.568272 0.106633
v -0.204191 0.236289 0.020896
v -0.034485 0.037808 -0.021968
v 0.137350 1.224807 -0.016474
v 0.126071 0.522703 -0.004415
v 0.000243 0.618918 -0.117232
v 0.071766 0.295659 -0.086248
v 0.133798 1.086976 -0.000342
v 0.123765 0.831377 0.079551
v -0.017868 0.374734 0.017577
v -0.122995 0.633078 0.001175
v 0.014247 0.532692 0.111786
v -0.042569 0.206287 0.009016
v 0.096263 1.095567 0.034742
v -0.117703 0.577095 -0.089096
v -0.159540 0.383929 -0.114198
v -0.103836 0.291569 -0.068351
v 0.039579 0.037800 0.028146
v 0.027755 0.037790 -0.034300
v -0.139751 0.367566 0.139424
v 0.103868 1.232745 -0.016710
v -0.023279 0.847073 0.059955
v 0.028591 0.206181 0.018207
v -0.027960 0.206223 -0.020727
v 0.020895 0.206128 -0.031547
v -0.020265 0.206275 0.029027
v -0.044118 0.847351 -0.002209
v -0.122272 0.581172 0.002550
v 0.051005 0.839511 0.080962
v 0.135051 0.827514 0.001088
v 0.039928 0.835355 -0.082084
v -0.172035 0.375974 0.014194
v 0.013563 0.576058 0.116016
v 0.130718 0.562426 -0.000719
v 0.153617 0.372669 -0.008805
v -0.005117 0.567540 -0.114185
v -0.002119 0.365284 0.153076
v -0.016299 0.383359 -0.147687
vt 0.4441 0.4372
vt 0.4275 0.4245
vt 0.4584 0.4230
vt 0.4581 0.4526
vt 0.4275 0.4535
vt 0.4405 0.4617
vt 0.4115 0.4622
vt 0.4350 0.4466
vt 0.4428 0.4456
vt 0.4398 0.4099
vt 0.4665 0.4108
vt 0.4499 0.4325
vt 0.4426 0.4312
vt 0.4432 0.4442
vt 0.4367 0.4445
vt 0.4383 0.4424
vt 0.4436 0.4428
vt 0.4680 0.4360
vt 0.4695 0.4613
vt 0.4507 0.4446
vt 0.4503 0.4385
vt 0.4490 0.4385
vt 0.4498 0.4439
vt 0.4489 0.4432
vt 0.4478 0.4384
vt 0.4421 0.4325
vt 0.4482 0.4331
vt 0.4466 0.4336
vt 0.4417 0.4338
vt 0.4124 0.4356
vt 0.4132 0.4090
vt 0.4352 0.4299
vt 0.4351 0.4383
vt 0.4467 0.4200
vt 0.4693 0.4266
vt 0.4437 0.4372
vt 0.4417 0.4373
vt 0.4243 0.4363
vt 0.4241 0.4132
vt 0.4398 0.4374
vt 0.4402 0.4387
vt 0.4442 0.4579
vt 0.4245 0.4593
vt 0.4406 0.4399
vt 0.4417 0.4401
vt 0.4425 0.4381
vt 0.4363 0.4382
vt 0.4360 0.4319
vt 0.4368 0.4340
vt 0.4376 0.4382
vt 0.4433 0.4387
vt 0.4666 0.4416
vt 0.4639 0.4566
vt 0.4429 0.4402
vt 0.4410 0.4394
vt 0.4405 0.4381
vt 0.9295 0.9383
vt 0.9448 0.9383
vt 0.9446 0.9884
vt 0.9294 0.9882
vt 0.9673 0.9383
vt 0.9670 0.9887
vt 0.9595 0.9887
vt 0.9598 0.9382
vt 0.9065 0.9382
vt 0.9065 0.9882
vt 0.8989 0.9883
vt 0.8989 0.9381
vt 0.9523 0.9383
vt 0.9520 0.9885
vt 0.9525 0.8880
vt 0.9450 0.8883
vt 0.9601 0.8877
vt 0.9065 0.8883
vt 0.8989 0.8879
vt 0.9142 0.8887
vt 0.9141 0.9383
vt 0.9141 0.9880
vt 0.9676 0.8880
vt 0.9752 0.8882
vt 0.9748 0.9384
vt 0.9745 0.9887
vt 0.9296 0.8885
vt 0.4413 0.4389
vt 0.4421 0.4395
vt 0.4950 0.4161
vt 0.4899 0.4445
vt 0.4848 0.4729
vt 0.4466 0.4757
vt 0.4083 0.4786
vt 0.4083 0.4338
vt 0.4083 0.3891
vt 0.4517 0.4026
vt 0.3881 0.4779
vt 0.3896 0.4330
vt 0.3912 0.3881
vt 0.4830 0.3892
vt 0.4857 0.4336
vt 0.4883 0.4779
vt 0.4108 0.4408
vt 0.4108 0.4118
vt 0.4108 0.4697
vt 0.4371 0.3887
vt 0.4382 0.4779
vt 0.4414 0.4689
vt 0.4720 0.4680
vt 0.4724 0.4384
vt 0.4727 0.4088
vt 0.4417 0.4103
vn -0.0270 -0.9975 -0.0651
vn 0.3142 -0.9283 0.1987
vn -0.2709 -0.9353 0.2277
vn -0.3080 -0.8715 -0.3816
vn 0.2510 -0.8885 -0.3841
vn -0.0820 0.1989 -0.9766
vn -0.7247 0.2754 -0.6316
vn -0.7363 0.1412 -0.6617
vn -0.0729 0.0949 -0.9928
vn 0.0496 0.1936 0.9798
vn 0.7166 0.1684 0.6768
vn 0.7383 0.0353 0.6736
vn 0.0094 0.0736 0.9972
vn -0.0883 -0.0469 -0.9950
vn -0.7732 -0.0368 -0.6331
vn -0.7571 0.1595 -0.6335
vn -0.0849 0.0657 -0.9942
vn 0.9915 0.1294 -0.0144
vn 0.6516 0.2159 -0.7272
vn 0.6619 0.0906 -0.7441
vn 0.9988 0.0377 -0.0328
vn 0.9913 -0.1299 -0.0228
vn 0.6423 -0.1308 -0.7552
vn 0.6566 -0.0227 -0.7539
vn 0.9975 -0.0702 -0.0120
vn -0.0632 -0.0770 0.9950
vn 0.6651 -0.1752 0.7259
vn 0.6509 -0.0284 0.7586
vn -0.0974 0.0622 0.9933
vn -0.9562 0.2782 0.0912
vn -0.6093 0.2970 0.7353
vn -0.6145 0.1672 0.7710
vn -0.9840 0.1270 0.1250
vn -0.0598 0.1697 -0.9837
vn -0.6979 0.3275 -0.6369
vn -0.6904 0.3363 -0.6405
vn -0.0226 0.1621 -0.9865
vn 0.9998 0.0116 -0.0136
vn 0.6697 0.1012 -0.7357
vn 0.6769 0.0863 -0.7310
vn 0.9995 -0.0280 -0.0143
vn -0.1018 0.1956 0.9754
vn 0.6688 0.1184 0.7340
vn 0.6643 0.1009 0.7406
vn -0.1149 0.1767 0.9775
vn -0.6638 0.3802 -0.6441
vn -0.9911 -0.0312 0.1297
vn -0.6763 -0.0203 0.7364
vn -0.6856 0.1531 0.7117
vn -0.9771 0.1770 0.1182
vn -0.9245 0.3565 0.1352
vn -0.9303 0.3470 0.1186
vn -0.6410 0.3115 0.7015
vn -0.6420 0.3075 0.7023
vn 0.6883 0.0778 0.7212
vn 0.7081 0.0629 -0.7033
vn -0.5343 0.0649 0.8428
vn 0.2106 0.0938 0.9731
vn 0.2003 0.1002 0.9746
vn -0.5350 0.0708 0.8419
vn 0.5978 0.0357 -0.8009
vn 0.6037 0.0416 -0.7961
vn 0.9871 0.0769 -0.1405
vn 0.9852 0.0692 -0.1571
vn -0.8262 0.0324 -0.5624
vn -0.8364 0.0379 -0.5468
vn -0.1942 0.0415 -0.9801
vn -0.1797 0.0333 -0.9832
vn 0.8242 0.0834 0.5601
vn 0.8094 0.0888 0.5805
vn 0.8373 0.0781 0.5411
vn 0.2199 0.0879 0.9716
vn 0.9836 0.0622 -0.1692
vn -0.8166 0.0270 -0.5766
vn -0.1696 0.0256 -0.9852
vn -0.9801 0.0523 0.1915
vn -0.9806 0.0592 0.1871
vn -0.9810 0.0664 0.1821
vn 0.5924 0.0299 -0.8051
vn -0.5337 0.0591 0.8436
vn 0.2159 0.9763 0.0117
vn -0.6386 0.3236 0.6982
vn -0.5840 -0.6163 -0.5283
vn -0.6834 -0.7296 -0.0237
vn -0.5250 -0.6518 0.5473
vn 0.5192 -0.7077 0.4791
vn 0.6090 -0.7884 -0.0871
vn 0.4875 -0.6207 -0.6141
vn 0.0375 -0.8020 0.5962
vn -0.0483 -0.7526 -0.6567
usemtl None
s 1
f 1/1/1 69/2/2 59/3/3
f 1/1/1 59/3/3 48/4/4
f 1/1/1 48/4/4 41/5/5
f 90/6/6 68/7/7 6/8/8 29/9/9
f 89/10/10 50/11/11 8/12/12 64/13/13
f 1/1/1 41/5/5 69/2/2
f 88/14/14 67/15/15 10/16/16 58/17/17
f 87/18/18 40/19/19 7/20/20 57/21/21
f 86/22/22 43/23/23 11/24/24 39/25/25
f 85/26/26 53/27/27 12/28/28 44/29/29
f 84/30/30 72/31/31 9/32/32 35/33/33
f 83/34/34 28/35/35 14/36/36 32/37/37
f 82/38/38 46/39/39 15/40/40 60/41/41
f 81/42/42 61/43/43 16/44/44 66/45/45
f 14/36/36 73/46/46 32/37/37
f 80/47/47 47/48/48 13/49/49 63/50/50
f 14/36/36 37/51/51 73/46/46
f 79/52/52 74/53/53 17/54/54 37/51/51
f 16/44/44 42/55/55 66/45/45
f 15/40/40 56/56/56 60/41/41
f 78/57/57 52/58/58 21/59/59 62/60/60
f 77/61/61 31/62/62 25/63/63 30/64/64
f 76/65/65 51/66/66 24/67/67 27/68/68
f 75/69/69 36/70/70 21/59/59 52/58/58
f 70/71/71 75/69/69 52/58/58 20/72/72
f 26/73/73 30/64/64 75/69/69 70/71/71
f 30/64/64 25/63/63 36/70/70 75/69/69
f 55/74/74 76/65/65 27/68/68 23/75/75
f 19/76/76 65/77/77 76/65/65 55/74/74
f 65/77/77 22/78/78 51/66/66 76/65/65
f 71/79/79 77/61/61 30/64/64 26/73/73
f 23/80/75 27/81/68 77/61/61 71/79/79
f 27/81/68 24/82/67 31/62/62 77/61/61
f 65/77/77 78/57/57 62/60/60 22/78/78
f 19/76/76 45/83/80 78/57/57 65/77/77
f 45/83/80 20/72/72 52/58/58 78/57/57
f 60/41/41 42/55/55 16/44/44
f 60/41/41 56/56/56 42/55/55
f 56/56/56 18/84/81 42/55/55
f 66/45/45 34/85/82 17/54/54
f 66/45/45 42/55/55 34/85/82
f 42/55/55 18/84/81 34/85/82
f 28/35/35 79/52/52 37/51/51 14/36/36
f 10/86/16 63/87/50 79/52/52 28/35/35
f 63/87/50 13/88/49 74/53/53 79/52/52
f 73/46/46 34/85/82 18/84/81
f 73/46/46 37/51/51 34/85/82
f 37/51/51 17/54/54 34/85/82
f 67/15/15 80/47/47 63/50/50 10/16/16
f 6/8/8 35/33/33 80/47/47 67/15/15
f 35/33/33 9/32/32 47/48/48 80/47/47
f 32/37/37 56/56/56 15/40/40
f 32/37/37 73/46/46 56/56/56
f 73/46/46 18/84/81 56/56/56
f 74/53/53 81/42/42 66/45/45 17/54/54
f 13/88/49 44/89/29 81/42/42 74/53/53
f 44/89/29 12/90/28 61/43/43 81/42/42
f 61/43/43 82/38/38 60/41/41 16/44/44
f 12/90/28 39/91/25 82/38/38 61/43/43
f 39/91/25 11/92/24 46/39/39 82/38/38
f 46/39/39 83/34/34 32/37/37 15/40/40
f 11/92/24 58/93/17 83/34/34 46/39/39
f 58/93/17 10/86/16 28/35/35 83/34/34
f 68/7/7 84/30/30 35/33/33 6/8/8
f 2/94/83 54/95/84 84/30/30 68/7/7
f 54/95/84 5/96/85 72/31/31 84/30/30
f 47/48/48 85/26/26 44/29/29 13/49/49
f 9/32/32 64/13/13 85/26/26 47/48/48
f 64/13/13 8/12/12 53/27/27 85/26/26
f 53/27/27 86/22/22 39/25/25 12/28/28
f 8/12/12 57/21/21 86/22/22 53/27/27
f 57/21/21 7/20/20 43/23/23 86/22/22
f 50/11/11 87/18/18 57/21/21 8/12/12
f 4/97/86 33/98/87 87/18/18 50/11/11
f 33/98/87 3/99/88 40/19/19 87/18/18
f 43/23/23 88/14/14 58/17/17 11/24/24
f 7/20/20 29/9/9 88/14/14 43/23/23
f 29/9/9 6/8/8 67/15/15 88/14/14
f 69/2/2 54/100/84 2/101/83
f 69/2/2 41/5/5 54/100/84
f 41/5/5 5/102/85 54/100/84
f 72/31/31 89/10/10 64/13/13 9/32/32
f 5/96/85 38/103/89 89/10/10 72/31/31
f 38/103/89 4/97/86 50/11/11 89/10/10
f 40/19/19 90/6/6 29/9/9 7/20/20
f 3/99/88 49/104/90 90/6/6 40/19/19
f 49/104/90 2/94/83 68/7/7 90/6/6
f 41/5/5 38/105/89 5/102/85
f 41/5/5 48/4/4 38/105/89
f 48/4/4 4/106/86 38/105/89
f 48/4/4 33/107/87 4/106/86
f 48/4/4 59/3/3 33/107/87
f 59/3/3 3/108/88 33/107/87
f 59/3/3 49/109/90 3/108/88
f 59/3/3 69/2/2 49/109/90
f 69/2/2 2/101/83 49/109/90
