# Blender v2.78 (sub 0) OBJ File: ''
# www.blender.org
mtllib Dead_Pine_Tree_l_05.mtl
o Dead_Pine_Tree_l_05
v 0.351852 9.347939 -0.203161
v 0.451868 9.244940 -0.376209
v 0.257964 9.357800 -0.391078
v -0.030191 9.609188 -0.116244
v 0.709633 9.045495 -0.515461
v 0.586844 9.019897 -0.732585
v 0.807453 8.997057 -0.289749
v 1.356044 8.612573 -0.442188
v 1.195485 8.678379 -0.777472
v 1.689483 8.272102 -0.566684
v 1.644229 8.334465 -0.833901
v 1.019942 8.643766 -1.110541
v 1.448469 8.273127 -1.110960
v 1.301786 8.303217 -1.329195
v 1.442407 8.481426 -0.911178
v 1.832578 8.066282 -1.127903
v 1.156782 8.700553 -0.178120
v 0.703580 8.742524 -1.107188
v -0.417888 8.533777 -0.433492
v -0.612088 8.445062 -0.449394
v -0.538546 8.543324 -0.273972
v -0.172057 8.761427 -0.135499
v -0.847793 8.271461 -0.617287
v -0.982832 8.246630 -0.421960
v -0.698209 8.224480 -0.797314
v -1.075210 7.889401 -1.213893
v -1.291286 7.952604 -0.933652
v -1.336234 7.585033 -1.457155
v -1.542678 7.648838 -1.304084
v -1.503602 7.919563 -0.644808
v -1.699871 7.588006 -1.022412
v -1.823396 7.614986 -0.804420
v -1.517601 7.780702 -1.094544
v -1.884433 7.410418 -1.349848
v -0.762355 7.956744 -1.152057
v -1.363791 7.998027 -0.372983
v 0.572239 6.279431 1.327167
v 0.223945 6.212736 1.468103
v 0.602649 5.945888 1.793713
v 0.692585 6.089602 1.591128
v 0.103069 6.582955 0.893132
v -0.029758 6.291960 1.246562
v 0.920591 6.244207 1.173998
v 0.896246 5.882256 1.617142
v 1.126006 5.911562 1.483277
v 0.336782 6.632334 0.808480
v 0.330868 5.880304 1.822961
v 0.042632 6.922898 0.417405
v 0.211556 6.824281 0.533138
v 0.238448 6.932865 0.335296
v -0.022062 7.174427 0.018500
v 0.564481 6.606061 0.700300
v 0.889553 5.684729 2.011717
v 0.937697 6.334707 0.851893
v -0.030363 9.608911 -0.116172
v 0.257796 9.357522 -0.390996
v 0.451691 9.244664 -0.376135
v 0.351674 9.347662 -0.203100
v 0.586703 9.019619 -0.732465
v 0.709459 9.045219 -0.515389
v 1.195305 8.678111 -0.777385
v 1.355841 8.612309 -0.442182
v 0.807262 8.996784 -0.289732
v 1.644034 8.334215 -0.833803
v 1.689243 8.271872 -0.566687
v 1.301578 8.302979 -1.329088
v 1.448294 8.272889 -1.110803
v 1.019791 8.643505 -1.110399
v 1.442225 8.481173 -0.911056
v 1.832426 8.066046 -1.127725
v 1.156585 8.700291 -0.178184
v 0.703502 8.742251 -1.107014
v -0.171930 8.761139 -0.135385
v -0.538411 8.543036 -0.273868
v -0.611956 8.444776 -0.449277
v -0.417767 8.533491 -0.433369
v -0.982675 8.246342 -0.421897
v -0.847665 8.271173 -0.617173
v -1.291141 7.952325 -0.933539
v -1.075127 7.889127 -1.213722
v -0.698122 8.224196 -0.797158
v -1.542516 7.648575 -1.303961
v -1.336142 7.584790 -1.456947
v -1.823219 7.614737 -0.804288
v -1.699665 7.587755 -1.022334
v -1.503421 7.919290 -0.644744
v -1.517424 7.780437 -1.094443
v -1.884218 7.410169 -1.349797
v -0.762338 7.956475 -1.151861
v -1.363614 7.997746 -0.373000
v 0.692479 6.089342 1.590944
v 0.602566 5.945629 1.793520
v 0.223956 6.212467 1.467908
v 0.572167 6.279157 1.326991
v -0.029677 6.291693 1.246379
v 0.103069 6.582676 0.892948
v 0.896104 5.882010 1.616965
v 0.920464 6.243938 1.173845
v 1.125916 5.911318 1.483069
v 0.336725 6.632051 0.808311
v 0.330890 5.880065 1.822729
v -0.022118 7.174143 0.018332
v 0.238381 6.932582 0.335131
v 0.211499 6.823999 0.532965
v 0.042585 6.922615 0.417231
v 0.564374 6.605778 0.700160
v 0.889388 5.684486 2.011559
v 0.937531 6.334429 0.851811
v -0.055620 5.495441 -0.170161
v -0.404295 5.800780 -0.782652
v -0.426559 5.790043 -0.777396
v -0.103936 5.466993 -0.152034
v -0.066619 5.440965 -0.189471
v -0.411964 5.781119 -0.795967
v -0.045832 7.460100 0.047846
v -0.277154 7.645145 0.447354
v -0.306443 7.633210 0.441673
v -0.095121 7.438221 0.035775
v -0.297611 7.660741 0.428072
v -0.081742 7.488310 0.016722
v -0.209901 6.786986 -0.126324
v -0.182183 10.223989 -0.143454
v -0.075474 10.219212 -0.189088
v 0.007277 6.741575 -0.198398
v 0.117878 6.742472 -0.074515
v 0.000200 10.219301 -0.104682
v -0.057198 10.216389 -0.004049
v 0.002076 6.693008 0.111724
v -0.216530 6.775228 0.059163
v -0.171687 10.223108 -0.030097
v -0.128615 15.377397 0.133099
v -0.166082 15.391459 0.153712
v -0.052876 17.717794 0.384959
v -0.037702 17.679041 0.373478
v -0.112897 15.376053 0.207693
v -0.094747 15.379958 0.156644
v -0.023842 17.723364 0.392026
v -0.030825 17.704128 0.409281
v -0.160448 15.396442 0.192224
v -0.044359 17.765909 0.410952
v 0.101146 -0.013073 0.258839
v -0.018915 3.205516 0.174619
v -0.308838 3.145427 0.114782
v -0.246640 -0.018652 0.184931
v 0.030207 -0.014343 -0.328605
v -0.049156 3.197348 -0.281167
v 0.154689 3.198671 -0.053988
v 0.279572 -0.014182 -0.053802
v -0.319522 3.228061 -0.160858
v -0.277869 -0.011728 -0.164242
v -0.042064 12.849783 0.107357
v -0.132467 12.877026 0.069961
v -0.078085 12.849472 -0.033180
v -0.016974 12.842745 0.034308
v -0.145110 12.887096 -0.006815
v 0.789360 8.837074 -0.930550
v -0.115579 10.219748 -0.011775
v -0.418514 5.800297 -0.806784
v 0.218760 6.616134 0.844225
v -1.695730 7.739641 -0.744592
v -0.870559 8.058863 -1.010966
v -0.049271 11.558259 0.046217
v -0.329947 8.669685 -0.191602
v 0.821655 8.720222 -1.099865
v -0.189885 3.215240 -0.233922
v -0.285237 -0.015190 0.013606
v -0.908600 8.266598 -0.517241
v 0.952608 8.861495 -0.646509
v -0.137019 15.386215 0.202236
v -0.294182 7.657799 0.449535
v -1.604239 7.685493 -1.063996
v 0.787494 5.987419 1.607028
v -1.759778 7.609717 -0.888169
v 0.031149 6.411499 1.106279
v 1.668435 8.150686 -1.116916
v -1.069745 8.111884 -0.775616
v 1.558700 8.413179 -0.521443
v -0.192639 8.524094 0.010649
v -0.113469 12.868759 -0.023681
v -0.010135 4.945827 0.143937
v 1.192914 8.441995 -1.240061
v 1.041857 6.047296 1.363272
v 0.771538 5.801691 1.921142
v -1.415291 7.860132 -1.021944
v -0.265430 4.957422 0.087410
v -0.224521 6.785022 -0.033248
v 0.078588 6.763165 0.642123
v 1.660870 8.310990 -0.674119
v 0.133936 9.498817 -0.149891
v 0.454620 6.455719 1.068064
v 0.002036 7.068484 0.189735
v 0.789501 8.837345 -0.930684
v 1.351141 8.298033 -1.230412
v -0.870480 8.058584 -1.010801
v 0.395971 6.253713 1.396495
v -0.079142 14.115366 0.155288
v -1.317883 7.758299 -1.275418
v 0.445823 6.627413 0.748824
v 1.541328 8.412110 -0.879513
v 0.643462 9.041317 -0.619118
v 1.017496 8.821866 -0.230592
v -0.575253 8.494907 -0.360831
v -0.060956 16.610769 0.276490
v 0.069187 6.275705 1.322752
v 0.418820 9.198750 -0.547551
v -0.029773 17.719599 0.384102
v 0.412646 6.067397 1.650502
v 0.211463 -0.013627 0.114885
v -0.266444 5.628476 -0.463939
v -1.408003 7.982352 -0.477571
v -0.746414 8.403568 -0.350507
v -0.023812 10.217846 -0.051648
v -0.080877 5.484552 -0.158789
v -1.414377 7.623555 -1.386435
v -0.131023 10.221601 -0.171226
v -0.556317 8.388527 -0.601832
v -1.318005 7.758568 -1.275568
v 0.401700 9.297156 -0.288775
v 0.387186 6.779153 0.512912
v 0.752497 6.430155 0.923461
v 0.225343 6.879064 0.433249
v 0.292455 6.018360 1.683798
v -1.695549 7.739381 -0.744490
v 1.041965 6.047550 1.363457
v -0.058050 14.114407 0.092996
v -0.148532 14.139813 0.128007
v -1.802530 7.482409 -1.211626
v -0.768673 8.255527 -0.702237
v 0.171851 -0.014263 -0.208186
v 1.331189 8.572533 -0.850829
v 0.225405 6.879346 0.433418
v 1.541516 8.412363 -0.879626
v -0.328358 3.185632 -0.021414
v -0.282516 1.449725 0.154277
v -0.110324 6.732364 0.095011
v 1.519169 8.461167 -0.638541
v 0.222930 1.480683 -0.053659
v 1.244385 8.445513 -1.126214
v 0.771407 5.801440 1.920970
v 0.401522 9.296881 -0.288707
v 0.292441 6.018612 1.684013
v -0.087537 12.863261 0.092466
v -0.190011 7.575713 0.221585
v -0.109339 16.633854 0.274992
v 0.412679 6.067660 1.650699
v -0.061248 7.477137 0.032014
v 1.274808 8.652813 -0.607721
v 1.448801 8.378750 -1.004453
v -0.103816 16.642176 0.304862
v -1.244939 8.087893 -0.517510
v -0.746558 8.403856 -0.350594
v -0.048127 17.762451 0.399843
v 0.654734 6.021999 1.690768
v 0.418663 9.198471 -0.547453
v -1.236584 7.711655 -1.359978
v -0.077908 -0.015862 0.245216
v 0.145852 6.399880 1.176812
v -0.908743 8.266886 -0.517331
v 0.752371 9.029879 -0.401137
v -0.157654 14.142779 0.070915
v -0.028809 17.862030 0.413657
v 0.566772 9.183210 -0.251428
v 1.225034 8.681281 -0.280600
v -0.514112 8.490069 -0.441665
v 0.663052 8.856236 -0.952655
v -0.101767 15.377573 0.183105
v 1.274999 8.653080 -0.607769
v -0.266381 5.007330 -0.142805
v 0.031194 6.411227 1.106094
v -0.110276 15.378595 0.142995
v 0.126126 6.874013 0.474853
v 0.454556 6.455440 1.067892
v -0.879310 7.944306 -1.167824
v -0.142838 12.883895 0.031204
v -0.160174 7.552525 0.248266
v 0.080534 3.204247 0.067700
v -0.103743 6.764199 -0.170013
v -0.513985 8.489783 -0.441546
v 0.569224 9.153928 -0.439619
v -0.105753 14.116664 0.047667
v 0.888687 5.765059 1.842968
v -0.274426 8.665293 -0.265006
v -0.027360 8.475645 0.049473
v 0.078614 6.763446 0.642301
v 0.752618 6.430432 0.923602
v 0.068296 6.715312 0.023015
v -0.428698 5.795470 -0.804490
v 0.821764 8.720492 -1.100025
v -0.032402 8.503296 -0.195357
v 0.001984 7.068201 0.189565
v 0.566587 9.182934 -0.251385
v -0.182325 10.223549 -0.086219
v 0.752188 9.029605 -0.401090
v 0.092150 7.073071 0.151949
v -0.743439 8.066620 -1.007154
v 0.069136 6.275974 1.322940
v 0.923475 6.050687 1.407276
v -1.180719 7.927864 -1.073599
v 1.193098 8.442243 -1.240185
v 0.064123 3.196613 -0.176347
v -1.535069 7.718795 -1.194541
v -1.759970 7.609968 -0.888275
v -1.743247 7.517451 -1.330158
v -1.802743 7.482660 -1.211687
v 1.754486 8.186054 -1.007045
v -0.077706 11.557941 -0.115043
v 1.105446 8.668487 -0.943764
v 1.022956 5.906078 1.526246
v 1.079237 8.807153 -0.348318
v 1.558924 8.413424 -0.521447
v -0.148327 15.384159 0.141959
v -1.408182 7.982631 -0.477589
v 1.668597 8.150923 -1.117087
v -0.307812 7.652275 0.446932
v 0.787369 5.987166 1.606849
v 1.244217 8.445265 -1.126067
v 0.638222 6.177523 1.472155
v -0.298316 7.645048 0.455927
v -0.165400 15.394769 0.173076
v -1.414255 7.623301 -1.386264
v 0.654831 6.022258 1.690955
v -0.768782 8.255813 -0.702371
v -0.719419 8.365826 -0.525835
v -0.168155 3.173291 0.157370
v 0.387101 6.778869 0.512758
v -0.556424 8.388812 -0.601969
v -0.087703 5.450547 -0.170774
v 1.331008 8.572273 -0.850724
v 1.079433 8.807422 -0.348324
v -0.162280 11.578670 -0.079516
v -0.304289 1.496121 -0.165175
v 0.783080 6.445870 0.796960
v 0.783221 6.446151 0.797068
v -1.415452 7.860404 -1.022051
v 0.090904 9.503633 -0.236438
v -0.133751 -0.013036 -0.268399
v 0.134111 9.499096 -0.149959
v -0.229085 5.649218 -0.476316
v -0.025589 12.845378 0.073619
v 0.922484 6.315515 0.971089
v 0.268526 6.736397 0.658333
v 0.888844 5.765302 1.843133
v -0.020783 4.966995 -0.238279
v 1.224835 8.681017 -0.280634
v 0.090733 9.503355 -0.236362
v -1.209865 8.100275 -0.399722
v -1.535240 7.719060 -1.194651
v -1.180834 7.928143 -1.073740
v -0.150008 11.572816 0.014714
v 0.071093 6.742371 -0.143114
v -1.069610 8.111601 -0.775503
v -1.619775 7.742372 -0.836212
v 1.023070 5.906323 1.526440
v -0.575120 8.494620 -0.360720
v -1.604432 7.685752 -1.064084
v 0.643303 9.041040 -0.619022
v 0.268583 6.736680 0.658504
v -0.010060 1.480095 -0.311610
v -0.091891 7.463522 0.024494
v -1.743052 7.517194 -1.330077
v 0.569049 9.153651 -0.439547
v -0.073094 16.619711 0.312543
v 0.440680 5.920327 1.800287
v -1.619581 7.742111 -0.836136
v -0.069556 7.445971 0.043835
v 0.923343 6.050432 1.407107
v 0.746233 6.269238 1.248058
v 1.661090 8.311232 -0.674159
v 0.638133 6.177256 1.471975
v 1.448623 8.378504 -1.004312
v 0.126178 6.874295 0.475026
v 1.519372 8.461423 -0.638591
v -0.009360 11.554174 -0.038720
v 0.440702 5.920576 1.800502
v 0.145840 6.400155 1.177000
v -0.045268 12.844828 -0.001976
v -0.201767 7.534626 0.238869
v 0.218730 6.615852 0.844048
v -1.395796 7.942739 -0.787069
v -0.033604 10.219256 -0.150503
v 0.952784 8.861767 -0.646588
v 0.445904 6.627697 0.748980
v -0.330077 8.669973 -0.191712
v -0.879265 7.944035 -1.167639
v 1.017691 8.822132 -0.230563
v -1.244770 8.087612 -0.517453
v -0.057595 5.468299 -0.182103
v -1.209695 8.099992 -0.399703
v 1.350949 8.297795 -1.230281
v -0.274551 8.665581 -0.265123
v 0.042943 1.486578 0.222390
v -0.035132 17.777466 0.414153
v -0.238967 5.609976 -0.493585
v 0.922633 6.315789 0.971201
v -0.719290 8.365539 -0.525720
v 1.105281 8.668222 -0.943647
v 1.754315 8.185810 -1.006899
v -0.425097 5.804270 -0.798242
v -0.025875 17.758106 0.405463
v -0.083770 16.607300 0.259060
v 0.395939 6.253440 1.396309
v -0.743487 8.066896 -1.007332
v 0.135859 4.968360 -0.063274
v -1.395961 7.943015 -0.787157
v -0.043579 17.737362 0.382980
v -0.194082 8.527605 -0.137350
v 0.354123 9.302153 -0.383999
v 0.746131 6.268968 1.247893
v 0.353950 9.301876 -0.383921
v 0.092090 7.072787 0.151782
v -1.236674 7.711913 -1.360168
v 0.058434 8.504073 -0.093775
v 0.662945 8.855961 -0.952504
v -0.033622 17.858311 0.403907
v -0.133128 14.129826 0.056726
v -0.122026 11.568544 -0.101599
v -0.065603 14.114225 0.126004
v -0.025006 11.555773 0.006501
v -0.156185 14.142624 0.099330
v -0.160863 11.576659 -0.032307
v -0.080068 14.114855 0.068124
v -0.040386 11.555418 -0.079961
v -0.114146 14.127501 0.144690
v -0.100343 11.565466 0.035018
v -0.147570 4.988390 -0.200823
v -0.163668 1.489376 -0.253088
v 0.073345 4.956956 0.046229
v 0.147174 1.484707 0.092695
v -0.278647 4.983778 -0.026719
v -0.309110 1.472367 -0.003414
v 0.067474 4.967153 -0.158490
v 0.118474 1.479691 -0.193387
v -0.141470 4.949657 0.126792
v -0.123861 1.467061 0.203417
v -0.088625 16.631353 0.310389
v -0.071407 16.608145 0.266439
v -0.108009 16.639299 0.290117
v -0.065662 16.614767 0.295157
v -0.097273 16.620247 0.265845
v -0.112116 8.498992 0.037494
v 0.019291 8.503859 -0.149704
v -0.201708 8.527807 -0.062906
v 0.022040 8.488645 -0.018587
v -0.115555 8.515410 -0.172657
v -0.173615 7.565752 0.234707
v -0.197867 7.555316 0.229228
v -0.180470 7.541796 0.244786
v -0.254014 5.617565 -0.478898
v -0.232230 5.629659 -0.486115
v -0.248252 5.640447 -0.468828
v 0.169013 6.748864 0.653936
v 0.333700 6.757247 0.584880
v 0.779942 5.886075 1.774916
v 0.600358 6.448988 0.997316
v 0.106676 6.981108 0.302051
v 0.303242 6.433862 1.121905
v 0.774791 6.123924 1.431702
v 0.523630 6.135384 1.553524
v -0.635868 8.376205 -0.568956
v -1.155261 8.105441 -0.649226
v -1.508695 7.810387 -0.925322
v -1.679451 7.593837 -1.205858
v -1.361261 7.821328 -1.143046
v -0.972190 8.090954 -0.891268
v -0.737343 8.384233 -0.434797
v -0.414519 8.586726 -0.308436
v 0.571756 9.167334 -0.341216
v 0.872991 8.855397 -0.785600
v 1.280566 8.519040 -0.982146
v 1.612056 8.273689 -1.006771
v 1.417968 8.529880 -0.742567
v 1.015454 8.840432 -0.500471
v 0.492793 9.175627 -0.499259
v 0.235396 9.408100 -0.259491
v 0.169054 6.749146 0.654112
v 0.333772 6.757531 0.585043
v 0.780071 5.886325 1.775092
v 0.600449 6.449266 0.997476
v 0.106733 6.981390 0.302222
v 0.303271 6.434139 1.122087
v 0.774905 6.124186 1.431874
v 0.523693 6.135650 1.553711
v -0.635985 8.376491 -0.569083
v -1.155414 8.105722 -0.649314
v -1.508874 7.810654 -0.925410
v -1.679645 7.594093 -1.205942
v -1.361403 7.821600 -1.143173
v -0.972301 8.091235 -0.891407
v -0.737481 8.384521 -0.434898
v -0.414648 8.587013 -0.308550
v 0.571937 9.167609 -0.341273
v 0.873153 8.855668 -0.785706
v 1.280738 8.519296 -0.982275
v 1.612231 8.273934 -1.006914
v 1.418159 8.530139 -0.742646
v 1.015641 8.840703 -0.500516
v 0.492959 9.175903 -0.499346
v 0.235570 9.408378 -0.259564
vt 0.8144 0.3490
vt 0.8165 0.3418
vt 0.8186 0.3459
vt 0.8165 0.3562
vt 0.8177 0.3336
vt 0.8210 0.3356
vt 0.8084 0.3121
vt 0.8023 0.3121
vt 0.7995 0.2989
vt 0.8069 0.2989
vt 0.7982 0.2888
vt 0.8040 0.2888
vt 0.8293 0.2989
vt 0.8248 0.2888
vt 0.8305 0.2888
vt 0.8092 0.2909
vt 0.8086 0.2787
vt 0.8115 0.2828
vt 0.8144 0.2763
vt 0.8115 0.2696
vt 0.7964 0.3043
vt 0.8235 0.3253
vt 0.8264 0.3121
vt 0.8296 0.3172
vt 0.8196 0.2909
vt 0.8144 0.2930
vt 0.8144 0.2870
vt 0.8173 0.2828
vt 0.8204 0.3121
vt 0.8144 0.3121
vt 0.8144 0.2989
vt 0.8219 0.2989
vt 0.8110 0.3336
vt 0.8144 0.3315
vt 0.8144 0.3377
vt 0.8123 0.3418
vt 0.6872 0.3490
vt 0.6893 0.3418
vt 0.6914 0.3459
vt 0.6893 0.3562
vt 0.6905 0.3336
vt 0.6939 0.3356
vt 0.6812 0.3121
vt 0.6751 0.3121
vt 0.6723 0.2989
vt 0.6797 0.2989
vt 0.6710 0.2888
vt 0.6768 0.2888
vt 0.7021 0.2989
vt 0.6975 0.2888
vt 0.7033 0.2888
vt 0.6820 0.2909
vt 0.6814 0.2787
vt 0.6843 0.2828
vt 0.6872 0.2763
vt 0.6843 0.2696
vt 0.6691 0.3043
vt 0.6963 0.3253
vt 0.6992 0.3121
vt 0.7024 0.3172
vt 0.6924 0.2909
vt 0.6872 0.2930
vt 0.6872 0.2870
vt 0.6901 0.2828
vt 0.6932 0.3121
vt 0.6872 0.3121
vt 0.6872 0.2989
vt 0.6946 0.2989
vt 0.6839 0.3336
vt 0.6872 0.3315
vt 0.6872 0.3377
vt 0.6851 0.3418
vt 0.8092 0.2909
vt 0.8040 0.2888
vt 0.8086 0.2787
vt 0.8115 0.2828
vt 0.7995 0.2989
vt 0.8023 0.3121
vt 0.7964 0.3043
vt 0.8196 0.2909
vt 0.8144 0.2930
vt 0.8144 0.2870
vt 0.8173 0.2828
vt 0.8293 0.2989
vt 0.8248 0.2888
vt 0.8305 0.2888
vt 0.8084 0.3121
vt 0.8069 0.2989
vt 0.7982 0.2888
vt 0.8144 0.3490
vt 0.8165 0.3418
vt 0.8186 0.3459
vt 0.8165 0.3562
vt 0.8204 0.3121
vt 0.8144 0.3121
vt 0.8144 0.2989
vt 0.8219 0.2989
vt 0.8144 0.2763
vt 0.8115 0.2696
vt 0.8177 0.3336
vt 0.8210 0.3356
vt 0.8235 0.3253
vt 0.8264 0.3121
vt 0.8296 0.3172
vt 0.8110 0.3336
vt 0.8144 0.3315
vt 0.8144 0.3377
vt 0.8123 0.3418
vt 0.8144 0.3490
vt 0.8165 0.3418
vt 0.8144 0.3377
vt 0.8123 0.3418
vt 0.8177 0.3336
vt 0.8210 0.3356
vt 0.8235 0.3253
vt 0.8189 0.3253
vt 0.8084 0.3121
vt 0.8023 0.3121
vt 0.8052 0.3253
vt 0.8098 0.3253
vt 0.8086 0.2787
vt 0.8027 0.2787
vt 0.8040 0.2888
vt 0.8318 0.2787
vt 0.8260 0.2787
vt 0.8305 0.2888
vt 0.8092 0.2909
vt 0.7995 0.2989
vt 0.8069 0.2989
vt 0.8144 0.2763
vt 0.8115 0.2828
vt 0.8144 0.2870
vt 0.8173 0.2828
vt 0.7932 0.3096
vt 0.7992 0.3174
vt 0.7964 0.3043
vt 0.8356 0.3091
vt 0.8325 0.3040
vt 0.8296 0.3172
vt 0.8196 0.2909
vt 0.8144 0.2930
vt 0.8144 0.2989
vt 0.8219 0.2989
vt 0.8204 0.3121
vt 0.8144 0.3121
vt 0.8144 0.3253
vt 0.8110 0.3336
vt 0.8144 0.3315
vt 0.6872 0.3490
vt 0.6893 0.3418
vt 0.6872 0.3377
vt 0.6851 0.3418
vt 0.6905 0.3336
vt 0.6939 0.3356
vt 0.6963 0.3253
vt 0.6918 0.3253
vt 0.6812 0.3121
vt 0.6751 0.3121
vt 0.6780 0.3253
vt 0.6826 0.3253
vt 0.6814 0.2787
vt 0.6755 0.2787
vt 0.6768 0.2888
vt 0.7046 0.2787
vt 0.6988 0.2787
vt 0.7033 0.2888
vt 0.6820 0.2909
vt 0.6723 0.2989
vt 0.6797 0.2989
vt 0.6872 0.2763
vt 0.6843 0.2828
vt 0.6872 0.2870
vt 0.6901 0.2828
vt 0.6660 0.3096
vt 0.6720 0.3174
vt 0.6691 0.3043
vt 0.7084 0.3091
vt 0.7053 0.3040
vt 0.7024 0.3172
vt 0.6924 0.2909
vt 0.6872 0.2930
vt 0.6872 0.2989
vt 0.6946 0.2989
vt 0.6932 0.3121
vt 0.6872 0.3121
vt 0.6872 0.3253
vt 0.6839 0.3336
vt 0.6872 0.3315
vt 0.8092 0.2909
vt 0.8040 0.2888
vt 0.7995 0.2989
vt 0.8069 0.2989
vt 0.7932 0.3096
vt 0.7992 0.3174
vt 0.7964 0.3043
vt 0.8196 0.2909
vt 0.8144 0.2930
vt 0.8144 0.2989
vt 0.8219 0.2989
vt 0.8318 0.2787
vt 0.8260 0.2787
vt 0.8305 0.2888
vt 0.8084 0.3121
vt 0.8023 0.3121
vt 0.8052 0.3253
vt 0.8098 0.3253
vt 0.8086 0.2787
vt 0.8027 0.2787
vt 0.8144 0.3490
vt 0.8165 0.3418
vt 0.8144 0.3377
vt 0.8123 0.3418
vt 0.8204 0.3121
vt 0.8144 0.3121
vt 0.8144 0.3253
vt 0.8189 0.3253
vt 0.8144 0.2763
vt 0.8115 0.2828
vt 0.8144 0.2870
vt 0.8173 0.2828
vt 0.8177 0.3336
vt 0.8210 0.3356
vt 0.8235 0.3253
vt 0.8356 0.3091
vt 0.8325 0.3040
vt 0.8296 0.3172
vt 0.8110 0.3336
vt 0.8144 0.3315
vt 0.8444 0.9086
vt 0.8382 0.9086
vt 0.8381 0.9084
vt 0.8444 0.9082
vt 0.8444 0.9094
vt 0.8381 0.9090
vt 0.8382 0.9088
vt 0.8444 0.9090
vt 0.8380 0.9264
vt 0.8381 0.9262
vt 0.8382 0.9264
vt 0.8444 0.9079
vt 0.8381 0.9082
vt 0.8380 0.9080
vt 0.8443 0.9075
vt 0.8425 0.9128
vt 0.8469 0.9125
vt 0.8469 0.9128
vt 0.8425 0.9132
vt 0.8425 0.9111
vt 0.8469 0.9114
vt 0.8468 0.9116
vt 0.8424 0.9115
vt 0.8424 0.9119
vt 0.8468 0.9119
vt 0.8468 0.9122
vt 0.8424 0.9123
vt 0.8380 0.9240
vt 0.8382 0.9238
vt 0.8383 0.9240
vt 0.8196 0.9141
vt 0.8192 0.9394
vt 0.8181 0.9394
vt 0.8181 0.9139
vt 0.8280 0.9140
vt 0.8262 0.9397
vt 0.8250 0.9396
vt 0.8266 0.9137
vt 0.8224 0.9143
vt 0.8216 0.9395
vt 0.8204 0.9394
vt 0.8211 0.9143
vt 0.8170 0.9139
vt 0.8169 0.9394
vt 0.8158 0.9394
vt 0.8158 0.9139
vt 0.8251 0.9140
vt 0.8239 0.9395
vt 0.8227 0.9395
vt 0.8237 0.9143
vt 0.8346 0.9416
vt 0.8350 0.9422
vt 0.8353 0.9597
vt 0.8350 0.9590
vt 0.8372 0.9414
vt 0.8377 0.9417
vt 0.8373 0.9583
vt 0.8370 0.9587
vt 0.8354 0.9424
vt 0.8357 0.9426
vt 0.8361 0.9600
vt 0.8357 0.9598
vt 0.8334 0.9414
vt 0.8341 0.9410
vt 0.8347 0.9583
vt 0.8344 0.9584
vt 0.8362 0.9419
vt 0.8368 0.9412
vt 0.8366 0.9591
vt 0.8363 0.9596
vt 0.8057 0.9125
vt 0.8041 0.9370
vt 0.8019 0.9363
vt 0.8032 0.9121
vt 0.8025 0.9622
vt 0.8009 0.9873
vt 0.7992 0.9880
vt 0.8005 0.9621
vt 0.7907 0.9124
vt 0.7908 0.9370
vt 0.7884 0.9371
vt 0.7880 0.9124
vt 0.7912 0.9621
vt 0.7917 0.9872
vt 0.7905 0.9872
vt 0.7894 0.9621
vt 0.8008 0.9124
vt 0.7997 0.9370
vt 0.7976 0.9377
vt 0.7983 0.9127
vt 0.7988 0.9625
vt 0.7978 0.9880
vt 0.7964 0.9880
vt 0.7970 0.9628
vt 0.8108 0.9132
vt 0.8086 0.9378
vt 0.8064 0.9378
vt 0.8083 0.9130
vt 0.8065 0.9625
vt 0.8044 0.9872
vt 0.8027 0.9866
vt 0.8045 0.9622
vt 0.7958 0.9125
vt 0.7954 0.9373
vt 0.7932 0.9370
vt 0.7933 0.9123
vt 0.7950 0.9624
vt 0.7947 0.9876
vt 0.7929 0.9871
vt 0.7931 0.9620
vt 0.8227 0.9577
vt 0.8237 0.9577
vt 0.8223 0.9757
vt 0.8216 0.9758
vt 0.8361 0.9061
vt 0.8368 0.9055
vt 0.8369 0.9232
vt 0.8361 0.9243
vt 0.8173 0.9574
vt 0.8183 0.9574
vt 0.8185 0.9754
vt 0.8177 0.9754
vt 0.8324 0.9061
vt 0.8333 0.9057
vt 0.8335 0.9236
vt 0.8325 0.9244
vt 0.8209 0.9578
vt 0.8218 0.9577
vt 0.8208 0.9760
vt 0.8202 0.9761
vt 0.8349 0.9067
vt 0.8354 0.9068
vt 0.8354 0.9253
vt 0.8350 0.9250
vt 0.8245 0.9577
vt 0.8254 0.9577
vt 0.8235 0.9756
vt 0.8229 0.9757
vt 0.8374 0.9060
vt 0.8380 0.9064
vt 0.8380 0.9251
vt 0.8375 0.9241
vt 0.8191 0.9576
vt 0.8200 0.9578
vt 0.8196 0.9761
vt 0.8190 0.9757
vt 0.8338 0.9061
vt 0.8344 0.9066
vt 0.8347 0.9247
vt 0.8341 0.9241
vt 0.8386 0.9224
vt 0.8388 0.9221
vt 0.8391 0.9228
vt 0.8389 0.9232
vt 0.8380 0.9228
vt 0.8380 0.9223
vt 0.8383 0.9232
vt 0.8383 0.9226
vt 0.8387 0.9235
vt 0.8380 0.9218
vt 0.8383 0.9216
vt 0.8385 0.9214
vt 0.8330 0.8878
vt 0.8335 0.8881
vt 0.8341 0.8885
vt 0.8368 0.8878
vt 0.8374 0.8878
vt 0.8380 0.8877
vt 0.8273 0.9398
vt 0.8347 0.8884
vt 0.8353 0.8883
vt 0.8316 0.9065
vt 0.8315 0.9252
vt 0.8316 0.8878
vt 0.8323 0.8878
vt 0.8164 0.9574
vt 0.8170 0.9754
vt 0.8361 0.8880
vt 0.7962 0.8877
vt 0.7935 0.8877
vt 0.7990 0.8877
vt 0.8107 0.9379
vt 0.8083 0.9628
vt 0.8060 0.9878
vt 0.8130 0.8885
vt 0.8101 0.8882
vt 0.8158 0.8888
vt 0.8133 0.9133
vt 0.8018 0.8878
vt 0.8045 0.8878
vt 0.7905 0.8878
vt 0.7875 0.8878
vt 0.8073 0.8880
vt 0.8328 0.9419
vt 0.8341 0.9585
vt 0.8263 0.8885
vt 0.8246 0.8892
vt 0.8281 0.8877
vt 0.8170 0.8884
vt 0.8158 0.8884
vt 0.8182 0.8883
vt 0.8232 0.8892
vt 0.8218 0.8892
vt 0.8298 0.8883
vt 0.8314 0.8889
vt 0.8293 0.9144
vt 0.8200 0.8887
vt 0.8384 0.9238
vt 0.8386 0.9240
vt 0.8383 0.9235
vt 0.8380 0.9119
vt 0.8380 0.9125
vt 0.8380 0.9114
vt 0.8381 0.9109
vt 0.8382 0.9103
vt 0.8425 0.9107
vt 0.8469 0.9111
vt 0.8381 0.9131
vt 0.8382 0.9136
vt 0.8507 0.9075
vt 0.8507 0.9070
vt 0.8508 0.9081
vt 0.8383 0.9262
vt 0.8384 0.9264
vt 0.8382 0.9261
vt 0.8507 0.9097
vt 0.8507 0.9092
vt 0.8507 0.9103
vt 0.8443 0.9097
vt 0.8380 0.9092
vt 0.8507 0.9087
vt 0.8077 0.3356
vt 0.8102 0.3459
vt 0.8264 0.3121
vt 0.8293 0.2989
vt 0.8186 0.3459
vt 0.8173 0.2696
vt 0.8202 0.2787
vt 0.8144 0.2606
vt 0.8115 0.2696
vt 0.8123 0.3562
vt 0.8144 0.3666
vt 0.8165 0.3562
vt 0.7982 0.2888
vt 0.7969 0.2787
vt 0.8248 0.2888
vt 0.6805 0.3356
vt 0.6830 0.3459
vt 0.6992 0.3121
vt 0.7021 0.2989
vt 0.6975 0.2888
vt 0.6930 0.2787
vt 0.6901 0.2696
vt 0.6872 0.2606
vt 0.6843 0.2696
vt 0.6710 0.2888
vt 0.6697 0.2787
vt 0.6914 0.3459
vt 0.6851 0.3562
vt 0.6872 0.3666
vt 0.6893 0.3562
vt 0.8077 0.3356
vt 0.8102 0.3459
vt 0.8264 0.3121
vt 0.8293 0.2989
vt 0.8248 0.2888
vt 0.8202 0.2787
vt 0.8173 0.2696
vt 0.8144 0.2606
vt 0.8115 0.2696
vt 0.7982 0.2888
vt 0.7969 0.2787
vt 0.8186 0.3459
vt 0.8123 0.3562
vt 0.8144 0.3666
vt 0.8165 0.3562
vt 0.8077 0.3356
vt 0.8102 0.3459
vt 0.8052 0.3253
vt 0.8098 0.3253
vt 0.8144 0.3253
vt 0.8325 0.3040
vt 0.8356 0.3091
vt 0.8189 0.3253
vt 0.8173 0.2696
vt 0.8144 0.2606
vt 0.8202 0.2787
vt 0.8123 0.3562
vt 0.8144 0.3666
vt 0.8027 0.2787
vt 0.7969 0.2787
vt 0.8260 0.2787
vt 0.8318 0.2787
vt 0.7992 0.3174
vt 0.7932 0.3096
vt 0.6805 0.3356
vt 0.6830 0.3459
vt 0.6780 0.3253
vt 0.6826 0.3253
vt 0.6872 0.3253
vt 0.6918 0.3253
vt 0.6930 0.2787
vt 0.7053 0.3040
vt 0.7084 0.3091
vt 0.6720 0.3174
vt 0.6660 0.3096
vt 0.6901 0.2696
vt 0.6872 0.2606
vt 0.6988 0.2787
vt 0.7046 0.2787
vt 0.6755 0.2787
vt 0.6697 0.2787
vt 0.6851 0.3562
vt 0.6872 0.3666
vt 0.8077 0.3356
vt 0.8102 0.3459
vt 0.8052 0.3253
vt 0.8098 0.3253
vt 0.8144 0.3253
vt 0.8189 0.3253
vt 0.8202 0.2787
vt 0.8325 0.3040
vt 0.8356 0.3091
vt 0.7992 0.3174
vt 0.7932 0.3096
vt 0.8173 0.2696
vt 0.8144 0.2606
vt 0.8260 0.2787
vt 0.8318 0.2787
vt 0.8027 0.2787
vt 0.7969 0.2787
vt 0.8123 0.3562
vt 0.8144 0.3666
vn 0.5148 0.8303 -0.2136
vn 0.4976 0.8247 -0.2689
vn 0.5000 0.8278 -0.2543
vn 0.5121 0.8313 -0.2162
vn 0.4733 0.8179 -0.3273
vn 0.4706 0.8144 -0.3396
vn 0.5595 0.8242 -0.0876
vn 0.5824 0.8094 0.0749
vn 0.6067 0.7945 -0.0266
vn 0.5727 0.8133 -0.1029
vn 0.7237 0.6888 0.0423
vn 0.6750 0.7374 -0.0270
vn 0.4797 0.7781 -0.4055
vn 0.5929 0.6958 -0.4053
vn 0.6380 0.7078 -0.3033
vn 0.5968 0.7936 -0.1183
vn 0.6312 0.7480 -0.2052
vn 0.5820 0.7511 -0.3115
vn 0.4753 0.7157 -0.5118
vn 0.4439 0.7431 -0.5008
vn 0.5962 0.7808 0.1869
vn 0.4081 0.8310 -0.3779
vn 0.3261 0.8343 -0.4445
vn 0.2104 0.8187 -0.5342
vn 0.5025 0.7129 -0.4892
vn 0.5270 0.7913 -0.3100
vn 0.5166 0.7537 -0.4063
vn 0.4802 0.6705 -0.5656
vn 0.4417 0.8347 -0.3289
vn 0.5099 0.8334 -0.2132
vn 0.5216 0.8180 -0.2426
vn 0.4873 0.7888 -0.3747
vn 0.5800 0.8066 -0.1137
vn 0.5268 0.8210 -0.2201
vn 0.5264 0.8213 -0.2199
vn 0.5483 0.8194 -0.1674
vn -0.3799 0.8607 -0.3388
vn -0.4221 0.8557 -0.2992
vn -0.4099 0.8586 -0.3077
vn -0.3809 0.8617 -0.3353
vn -0.4641 0.8492 -0.2519
vn -0.4741 0.8460 -0.2441
vn -0.2869 0.8536 -0.4349
vn -0.1519 0.8357 -0.5277
vn -0.2542 0.8248 -0.5051
vn -0.3069 0.8438 -0.4403
vn -0.2489 0.7234 -0.6440
vn -0.2873 0.7712 -0.5681
vn -0.5389 0.8119 -0.2244
vn -0.5924 0.7355 -0.3288
vn -0.5202 0.7471 -0.4138
vn -0.3322 0.8258 -0.4557
vn -0.4273 0.7843 -0.4497
vn -0.5009 0.7877 -0.3586
vn -0.6351 0.7522 -0.1756
vn -0.6102 0.7776 -0.1514
vn -0.0588 0.8049 -0.5905
vn -0.4802 0.8604 -0.1706
vn -0.5036 0.8613 -0.0675
vn -0.5339 0.8422 0.0753
vn -0.6270 0.7502 -0.2101
vn -0.4734 0.8250 -0.3086
vn -0.5570 0.7895 -0.2579
vn -0.6876 0.7087 -0.1577
vn -0.4509 0.8645 -0.2223
vn -0.3772 0.8636 -0.3346
vn -0.4094 0.8496 -0.3326
vn -0.5141 0.8222 -0.2445
vn -0.3201 0.8378 -0.4422
vn -0.3914 0.8523 -0.3470
vn -0.3910 0.8526 -0.3468
vn -0.3537 0.8503 -0.3897
vn 0.0676 0.8121 0.5796
vn -0.0281 0.7568 0.6530
vn 0.1525 0.7688 0.6211
vn 0.2619 0.7720 0.5792
vn -0.0246 0.8120 0.5832
vn -0.1243 0.8247 0.5517
vn -0.2367 0.7949 0.5587
vn 0.4450 0.7341 0.5130
vn 0.2636 0.8106 0.5230
vn 0.3609 0.7741 0.5202
vn 0.5233 0.6921 0.4971
vn 0.3622 0.7974 0.4827
vn 0.3554 0.7184 0.5980
vn 0.2504 0.7302 0.6357
vn 0.0391 0.8411 0.5394
vn 0.0536 0.8309 0.5539
vn -0.0999 0.7087 0.6984
vn 0.1678 0.8478 0.5031
vn 0.2241 0.8425 0.4899
vn 0.2094 0.8455 0.4912
vn 0.1705 0.8488 0.5006
vn 0.2877 0.8517 0.4379
vn 0.1677 0.8507 0.4981
vn 0.1964 0.8361 0.5122
vn 0.3308 0.8078 0.4878
vn 0.4694 0.7364 0.4873
vn 0.4602 0.7627 0.4544
vn 0.2841 0.8358 0.4698
vn 0.2966 0.8325 0.4680
vn 0.3389 0.8478 0.4078
vn 0.4109 0.8497 0.3304
vn 0.5085 0.8321 0.2216
vn 0.0640 0.8246 0.5621
vn 0.1736 0.8390 0.5158
vn 0.1734 0.8392 0.5154
vn 0.1196 0.8372 0.5337
vn -0.5148 -0.8303 0.2136
vn -0.4976 -0.8247 0.2689
vn -0.5264 -0.8213 0.2199
vn -0.5483 -0.8194 0.1674
vn -0.4733 -0.8179 0.3273
vn -0.4706 -0.8144 0.3396
vn -0.4081 -0.8310 0.3779
vn -0.4509 -0.8265 0.3369
vn -0.5595 -0.8242 0.0876
vn -0.5825 -0.8094 -0.0749
vn -0.5818 -0.8128 0.0301
vn -0.5746 -0.8136 0.0893
vn -0.6312 -0.7480 0.2051
vn -0.7341 -0.6783 -0.0333
vn -0.6750 -0.7374 0.0269
vn -0.6547 -0.6978 0.2905
vn -0.6368 -0.6983 0.3269
vn -0.6380 -0.7078 0.3033
vn -0.5968 -0.7936 0.1183
vn -0.6067 -0.7945 0.0266
vn -0.5727 -0.8133 0.1029
vn -0.4753 -0.7156 0.5118
vn -0.5820 -0.7511 0.3115
vn -0.5166 -0.7537 0.4063
vn -0.4802 -0.6704 0.5656
vn -0.5845 -0.7739 -0.2438
vn -0.5869 -0.7804 -0.2154
vn -0.5962 -0.7808 -0.1869
vn -0.1851 -0.8141 0.5505
vn -0.2508 -0.8158 0.5212
vn -0.2104 -0.8187 0.5342
vn -0.5025 -0.7129 0.4892
vn -0.5270 -0.7913 0.3100
vn -0.5216 -0.8180 0.2426
vn -0.4873 -0.7888 0.3747
vn -0.4417 -0.8347 0.3289
vn -0.5099 -0.8334 0.2132
vn -0.5175 -0.8282 0.2151
vn -0.5800 -0.8066 0.1137
vn -0.5267 -0.8210 0.2201
vn 0.3799 -0.8607 0.3388
vn 0.4221 -0.8557 0.2992
vn 0.3910 -0.8526 0.3468
vn 0.3537 -0.8503 0.3897
vn 0.4641 -0.8492 0.2519
vn 0.4741 -0.8460 0.2441
vn 0.4802 -0.8604 0.1706
vn 0.4625 -0.8570 0.2272
vn 0.2868 -0.8536 0.4349
vn 0.1519 -0.8357 0.5277
vn 0.2456 -0.8419 0.4806
vn 0.2955 -0.8438 0.4479
vn 0.4273 -0.7843 0.4497
vn 0.2620 -0.7136 0.6497
vn 0.2872 -0.7712 0.5681
vn 0.5165 -0.7377 0.4348
vn 0.5412 -0.7382 0.4027
vn 0.5202 -0.7471 0.4138
vn 0.3322 -0.8258 0.4557
vn 0.2542 -0.8248 0.5051
vn 0.3068 -0.8438 0.4403
vn 0.6352 -0.7522 0.1756
vn 0.5009 -0.7877 0.3586
vn 0.5570 -0.7895 0.2579
vn 0.6877 -0.7087 0.1577
vn 0.0030 -0.7959 0.6054
vn 0.0292 -0.8033 0.5948
vn 0.0588 -0.8049 0.5905
vn 0.5376 -0.8367 -0.1050
vn 0.5401 -0.8409 -0.0332
vn 0.5339 -0.8422 -0.0753
vn 0.6270 -0.7502 0.2101
vn 0.4735 -0.8250 0.3085
vn 0.4094 -0.8496 0.3326
vn 0.5141 -0.8221 0.2445
vn 0.4509 -0.8645 0.2223
vn 0.3772 -0.8636 0.3346
vn 0.3825 -0.8588 0.3407
vn 0.3201 -0.8378 0.4422
vn 0.3914 -0.8523 0.3470
vn -0.0676 -0.8121 -0.5796
vn 0.0282 -0.7568 -0.6530
vn 0.0246 -0.8120 -0.5832
vn -0.0536 -0.8309 -0.5539
vn 0.2926 -0.7868 -0.5435
vn 0.2645 -0.7939 -0.5476
vn 0.2367 -0.7949 -0.5587
vn -0.4450 -0.7340 -0.5130
vn -0.2636 -0.8106 -0.5230
vn -0.1964 -0.8361 -0.5122
vn -0.3308 -0.8078 -0.4878
vn -0.2367 -0.7205 -0.6518
vn -0.2741 -0.7210 -0.6364
vn -0.2504 -0.7302 -0.6357
vn -0.0391 -0.8411 -0.5394
vn 0.1244 -0.8247 -0.5517
vn 0.0196 -0.8296 -0.5580
vn -0.0399 -0.8310 -0.5548
vn -0.1525 -0.7688 -0.6211
vn 0.0915 -0.6986 -0.7096
vn -0.1678 -0.8478 -0.5031
vn -0.2241 -0.8425 -0.4899
vn -0.1734 -0.8392 -0.5154
vn -0.1196 -0.8372 -0.5337
vn -0.2877 -0.8517 -0.4379
vn -0.1677 -0.8507 -0.4981
vn -0.1691 -0.8458 -0.5060
vn -0.2952 -0.8440 -0.4478
vn -0.4694 -0.7364 -0.4873
vn -0.2619 -0.7720 -0.5792
vn -0.3609 -0.7741 -0.5202
vn -0.5233 -0.6921 -0.4971
vn -0.2841 -0.8358 -0.4698
vn -0.2966 -0.8325 -0.4680
vn -0.3389 -0.8478 -0.4078
vn -0.5265 -0.8269 -0.1975
vn -0.4927 -0.8301 -0.2610
vn -0.5085 -0.8321 -0.2215
vn -0.0640 -0.8246 -0.5621
vn -0.1736 -0.8390 -0.5158
vn -0.2618 0.7982 0.5425
vn -0.4645 0.8839 -0.0544
vn -0.9094 0.0386 0.4142
vn -0.8868 0.0164 0.4618
vn 0.8670 0.0001 -0.4984
vn 0.2785 0.3763 -0.8836
vn 0.5796 0.8149 0.0057
vn 0.6038 0.7956 0.0490
vn -0.6181 -0.7809 -0.0900
vn -0.7703 -0.1462 -0.6207
vn 0.2179 -0.7408 -0.6354
vn 0.2469 -0.7764 -0.5799
vn 0.2331 -0.8207 0.5217
vn -0.1319 -0.2089 0.9690
vn -0.7081 -0.6777 0.1982
vn -0.6392 -0.7678 0.0430
vn -0.8786 0.0492 -0.4751
vn -0.8848 0.3781 0.2723
vn -0.3209 0.8776 -0.3560
vn -0.2593 0.8375 -0.4810
vn 0.6147 0.7888 -0.0025
vn 0.1438 0.8319 0.5360
vn 0.7742 0.0283 0.6323
vn 0.8555 -0.0318 0.5169
vn -0.3424 -0.0028 -0.9395
vn -0.3724 0.0241 -0.9278
vn 0.2182 0.0312 -0.9754
vn 0.2261 0.0085 -0.9741
vn 0.8545 0.0336 0.5183
vn 0.8738 0.0068 0.4862
vn 0.3970 0.0015 0.9178
vn 0.3911 0.0372 0.9196
vn -0.9998 0.0122 0.0163
vn -0.9970 0.0116 0.0759
vn -0.8435 0.0209 -0.5368
vn -0.8148 0.0039 -0.5797
vn 0.7455 0.0207 -0.6662
vn 0.7436 0.0305 -0.6679
vn 0.9928 0.0230 -0.1174
vn 0.9963 0.0328 -0.0795
vn -0.2212 0.0295 0.9748
vn -0.2416 -0.0017 0.9704
vn -0.7645 0.0061 0.6446
vn -0.7701 0.0257 0.6374
vn -0.4375 0.1109 -0.8923
vn -0.8813 0.0901 -0.4639
vn -0.8979 0.1001 -0.4286
vn -0.3396 0.2001 -0.9190
vn 0.9414 -0.0613 0.3317
vn 0.9659 -0.0033 -0.2590
vn 0.9813 0.0186 -0.1917
vn 0.8943 -0.0028 0.4474
vn -0.9817 0.0307 0.1881
vn -0.7378 -0.0257 0.6745
vn -0.7162 0.0229 0.6976
vn -0.9887 0.1295 -0.0752
vn 0.6214 0.0588 -0.7813
vn 0.0916 0.0994 -0.9908
vn 0.1344 0.1037 -0.9855
vn 0.5575 0.1128 -0.8225
vn -0.2970 -0.0722 0.9521
vn 0.4530 -0.0931 0.8866
vn 0.4679 -0.0927 0.8789
vn 0.1437 -0.0154 0.9895
vn -0.2073 0.0225 0.9780
vn -0.2156 0.0196 0.9763
vn -0.7628 0.0109 0.6465
vn -0.7520 0.0016 0.6592
vn -0.2161 0.0233 0.9761
vn -0.2207 0.0266 0.9750
vn -0.7740 0.0302 0.6324
vn -0.7683 0.0296 0.6394
vn 0.7417 0.0306 -0.6700
vn 0.7436 0.0181 -0.6684
vn 0.9981 0.0257 -0.0566
vn 0.9957 0.0416 -0.0827
vn 0.7455 0.0053 -0.6664
vn 0.7469 0.0121 -0.6649
vn 0.9978 0.0217 -0.0625
vn 0.9985 0.0089 -0.0533
vn -0.9978 -0.0137 0.0649
vn -0.9991 0.0086 0.0423
vn -0.8467 0.0149 -0.5318
vn -0.8656 -0.0094 -0.5006
vn -0.9995 0.0292 0.0119
vn -0.9997 0.0214 -0.0108
vn -0.7997 0.0166 -0.6002
vn -0.8182 0.0312 -0.5740
vn 0.8367 0.0412 0.5460
vn 0.8128 0.0251 0.5820
vn 0.3517 0.0233 0.9358
vn 0.3773 0.0377 0.9253
vn 0.8198 0.0098 0.5726
vn 0.8408 0.0219 0.5408
vn 0.3795 0.0254 0.9248
vn 0.3623 0.0163 0.9319
vn -0.4428 0.0006 -0.8966
vn -0.4056 0.0147 -0.9139
vn 0.2013 0.0195 -0.9793
vn 0.1893 0.0193 -0.9817
vn -0.3600 0.0250 -0.9326
vn -0.3306 0.0104 -0.9437
vn 0.2341 0.0132 -0.9721
vn 0.2223 0.0182 -0.9748
vn -0.3034 -0.0346 0.9522
vn 0.3933 -0.0389 0.9186
vn 0.3973 -0.0321 0.9171
vn -0.3651 -0.0419 0.9300
vn -0.3712 -0.0476 0.9273
vn 0.4029 -0.0252 0.9149
vn 0.4206 -0.0570 0.9054
vn -0.3379 -0.0602 0.9393
vn 0.7441 0.0408 -0.6668
vn 0.2344 0.0572 -0.9705
vn 0.2428 0.0643 -0.9680
vn 0.7329 0.0503 -0.6785
vn 0.6836 0.0595 -0.7274
vn 0.1862 0.0675 -0.9802
vn 0.0931 0.0815 -0.9923
vn 0.6106 0.0624 -0.7895
vn -0.9920 0.0091 0.1259
vn -0.7656 -0.0145 0.6432
vn -0.7746 -0.0283 0.6318
vn -0.9887 -0.0064 0.1496
vn -0.9880 -0.0174 0.1532
vn -0.7747 -0.0392 0.6311
vn -0.7700 -0.0310 0.6373
vn -0.9885 0.0085 0.1509
vn 0.9052 -0.0192 0.4246
vn 0.9876 0.0140 -0.1562
vn 0.9785 0.0282 -0.2045
vn 0.9347 -0.0019 0.3555
vn 0.9448 0.0140 0.3274
vn 0.9680 0.0425 -0.2475
vn 0.9583 0.0225 -0.2847
vn 0.9438 -0.0225 0.3298
vn -0.3710 0.0545 -0.9270
vn -0.8620 0.0387 -0.5054
vn -0.8658 0.0301 -0.4994
vn -0.3591 0.0562 -0.9316
vn -0.3932 0.0548 -0.9178
vn -0.8754 0.0237 -0.4828
vn -0.8806 0.0568 -0.4704
vn -0.4354 0.0813 -0.8966
vn -0.3365 0.6175 -0.7109
vn -0.0553 0.9916 -0.1169
vn -0.4559 -0.0022 -0.8900
vn 0.1911 0.0181 -0.9814
vn -0.8739 -0.0132 -0.4860
vn 0.8542 0.0423 0.5183
vn 0.3991 0.0383 0.9161
vn 0.9943 0.0419 -0.0977
vn -0.9966 -0.0170 0.0808
vn -0.7438 -0.0010 0.6684
vn 0.7415 0.0309 -0.6703
vn -0.2064 0.0188 0.9783
vn 0.6188 0.7855 -0.0032
vn 0.8642 -0.0107 0.5030
vn -0.2236 0.8503 -0.4765
vn -0.8754 0.0544 -0.4803
vn -0.6305 -0.7751 0.0413
vn 0.2412 -0.8189 0.5208
vn -0.6243 -0.7768 -0.0822
vn 0.2070 -0.7992 -0.5643
vn -0.8898 -0.0071 0.4564
vn 0.8673 -0.0027 -0.4978
vn 0.5917 0.8035 0.0652
vn -0.2691 0.7933 0.5461
vn -0.0543 -0.8201 -0.5696
vn -0.1305 -0.8415 -0.5243
vn -0.4109 -0.8497 -0.3304
vn -0.3622 -0.7974 -0.4827
vn -0.2094 -0.8455 -0.4912
vn -0.5291 -0.7426 -0.4107
vn -0.5004 -0.7047 -0.5031
vn -0.5079 -0.7574 -0.4103
vn -0.4603 -0.7627 -0.4544
vn -0.1640 -0.8484 -0.5033
vn -0.1671 -0.8488 -0.5016
vn -0.1705 -0.8488 -0.5006
vn 0.1000 -0.7087 -0.6984
vn 0.1066 -0.6898 -0.7161
vn -0.3554 -0.7184 -0.5980
vn 0.3155 -0.8334 0.4537
vn 0.3584 -0.8546 0.3759
vn 0.5036 -0.8613 0.0675
vn 0.5389 -0.8119 0.2244
vn 0.5924 -0.7355 0.3288
vn 0.6705 -0.7212 0.1742
vn 0.6483 -0.7573 0.0793
vn 0.6295 -0.7719 0.0894
vn 0.6102 -0.7776 0.1513
vn 0.2488 -0.7234 0.6440
vn 0.2524 -0.7048 0.6630
vn 0.4099 -0.8586 0.3077
vn 0.3767 -0.8614 0.3409
vn 0.3785 -0.8617 0.3379
vn 0.3809 -0.8617 0.3353
vn -0.5880 -0.8021 0.1045
vn -0.5382 -0.8238 0.1778
vn -0.3260 -0.8343 0.4445
vn -0.4797 -0.7781 0.4055
vn -0.5929 -0.6958 0.4054
vn -0.4880 -0.6831 0.5433
vn -0.3950 -0.7234 0.5663
vn -0.3965 -0.7385 0.5453
vn -0.4439 -0.7430 0.5009
vn -0.7237 -0.6888 -0.0423
vn -0.7413 -0.6695 -0.0480
vn -0.5000 -0.8278 0.2543
vn -0.5152 -0.8310 0.2099
vn -0.5134 -0.8313 0.2129
vn -0.5121 -0.8313 0.2161
vn 0.0543 0.8201 0.5696
vn 0.1305 0.8415 0.5243
vn -0.0196 0.8296 0.5580
vn 0.0399 0.8310 0.5548
vn 0.1691 0.8458 0.5060
vn 0.4927 0.8301 0.2610
vn 0.5264 0.8269 0.1976
vn 0.2952 0.8440 0.4478
vn 0.5290 0.7426 0.4107
vn 0.5078 0.7574 0.4103
vn 0.5003 0.7047 0.5031
vn 0.1640 0.8484 0.5033
vn 0.1671 0.8488 0.5016
vn -0.0914 0.6986 0.7096
vn -0.1065 0.6898 0.7161
vn 0.2741 0.7210 0.6364
vn 0.2366 0.7205 0.6518
vn -0.2645 0.7939 0.5476
vn -0.2925 0.7868 0.5435
vn -0.3155 0.8334 -0.4537
vn -0.3584 0.8546 -0.3759
vn -0.2456 0.8419 -0.4806
vn -0.2955 0.8438 -0.4479
vn -0.3825 0.8588 -0.3407
vn -0.4625 0.8570 -0.2272
vn -0.6705 0.7212 -0.1742
vn -0.5401 0.8410 0.0332
vn -0.5375 0.8367 0.1049
vn -0.0292 0.8034 -0.5948
vn -0.0030 0.7959 -0.6054
vn -0.6483 0.7573 -0.0793
vn -0.6295 0.7719 -0.0894
vn -0.5412 0.7382 -0.4027
vn -0.5165 0.7377 -0.4348
vn -0.2621 0.7137 -0.6496
vn -0.2525 0.7048 -0.6629
vn -0.3767 0.8614 -0.3409
vn -0.3785 0.8617 -0.3379
vn 0.5880 0.8021 -0.1045
vn 0.5382 0.8238 -0.1778
vn 0.5818 0.8128 -0.0301
vn 0.5746 0.8136 -0.0893
vn 0.5175 0.8282 -0.2151
vn 0.4509 0.8265 -0.3369
vn 0.4880 0.6831 -0.5433
vn 0.2508 0.8158 -0.5212
vn 0.1851 0.8141 -0.5505
vn 0.5869 0.7805 0.2154
vn 0.5845 0.7739 0.2438
vn 0.3950 0.7234 -0.5662
vn 0.3966 0.7385 -0.5453
vn 0.6368 0.6983 -0.3268
vn 0.6547 0.6978 -0.2905
vn 0.7340 0.6783 0.0332
vn 0.7413 0.6695 0.0479
vn 0.5152 0.8310 -0.2099
vn 0.5134 0.8313 -0.2129
usemtl None
s 1
f 498/1/1 407/2/2 3/3/3 335/4/4
f 497/5/5 205/6/6 3/3/3 407/2/2
f 496/7/7 329/8/8 8/9/9 267/10/10
f 8/9/9 310/11/11 372/12/12
f 12/13/13 238/14/14 299/15/15
f 495/16/16 372/12/12 11/17/17 232/18/18
f 494/19/19 232/18/18 11/17/17 305/20/20
f 8/9/9 329/8/8 263/21/21
f 6/22/22 192/23/23 265/24/24
f 493/25/25 230/26/26 15/27/27 248/28/28
f 492/29/29 381/30/30 9/31/31 307/32/32
f 491/33/33 279/34/34 2/35/35 218/36/36
f 490/37/37 202/38/38 21/39/39 383/40/40
f 489/41/41 251/42/42 21/39/39 202/38/38
f 488/43/43 161/44/44 26/45/45 348/46/46
f 26/45/45 411/47/47 217/48/48
f 30/49/49 352/50/50 160/51/51
f 487/52/52 217/48/48 29/53/53 347/54/54
f 486/55/55 347/54/54 29/53/53 303/56/56
f 26/45/45 161/44/44 273/57/57
f 24/58/58 250/59/59 346/60/60
f 485/61/61 334/62/62 33/63/63 355/64/64
f 484/65/65 176/66/66 27/67/67 404/68/68
f 483/69/69 323/70/70 20/71/71 264/72/72
f 482/73/73 245/74/74 39/75/75 321/76/76
f 38/77/77 375/78/78 296/79/79
f 481/80/80 317/81/81 40/82/82 172/83/83
f 43/84/84 297/85/85 224/86/86
f 480/87/87 375/78/78 38/77/77 195/88/88
f 38/77/77 241/89/89 245/74/74
f 479/90/90 231/91/91 50/92/92 294/93/93
f 478/94/94 190/95/95 37/96/96 367/97/97
f 477/98/98 321/76/76 39/75/75 183/99/99
f 476/100/100 219/101/101 50/92/92 231/91/91
f 52/102/102 285/103/103 333/104/104
f 475/105/105 357/106/106 49/107/107 371/108/108
f 474/109/109 409/110/110 57/111/111 240/112/112
f 473/113/113 254/114/114 59/115/115 356/116/116
f 472/117/117 309/118/118 63/119/119 293/120/120
f 64/121/121 188/122/122 236/123/123
f 66/124/124 389/125/125 181/126/126
f 471/127/127 236/123/123 62/128/128 247/129/129
f 470/130/130 199/131/131 69/132/132 370/133/133
f 71/134/134 201/135/135 344/136/136
f 72/137/137 164/138/138 413/139/139
f 469/140/140 328/141/141 61/142/142 396/143/143
f 468/144/144 168/145/145 60/146/146 356/116/116
f 467/147/147 361/148/148 60/146/146 293/120/120
f 466/149/149 354/150/150 75/151/151 278/152/152
f 465/153/153 211/154/154 77/155/155 167/156/156
f 464/157/157 194/158/158 81/159/159 228/160/160
f 82/161/161 320/162/162 197/163/163
f 84/164/164 173/165/165 223/166/166
f 463/167/167 197/163/163 80/168/168 298/169/169
f 462/170/170 301/171/171 87/172/172 171/173/173
f 89/174/174 295/175/175 384/176/176
f 90/177/177 210/178/178 388/179/179
f 461/180/180 184/181/181 79/182/182 379/183/183
f 460/184/184 351/185/185 78/186/186 167/156/156
f 459/187/187 395/188/188 78/186/186 228/160/160
f 458/189/189 207/190/190 93/191/191 401/192/192
f 95/193/193 269/194/194 204/195/195
f 457/196/196 369/197/197 94/198/198 408/199/199
f 99/200/200 308/201/201 182/202/202
f 456/203/203 257/204/204 96/205/205 378/206/206
f 92/207/207 363/208/208 207/190/190
f 455/209/209 221/210/210 104/211/211 271/212/212
f 454/213/213 272/214/214 100/215/215 198/216/216
f 453/217/217 253/218/218 91/219/219 315/220/220
f 452/221/221 325/222/222 106/223/223 198/216/216
f 108/224/224 340/225/225 332/226/226
f 451/227/227 341/228/228 100/215/215 378/206/206
f 450/229/229 398/230/230 111/231/231 209/232/232
f 449/233/233 158/234/234 110/235/235 338/236/236
f 110/237/235 158/238/234 398/239/230
f 448/240/237 287/241/238 114/242/239 393/243/240
f 447/244/241 318/245/242 117/246/243 377/247/244
f 446/248/245 314/249/246 119/250/247 243/251/248
f 445/252/249 170/253/250 116/254/251 275/255/252
f 119/256/247 314/257/246 170/258/250
f 444/259/253 215/260/254 123/261/255 289/262/256
f 443/263/257 212/264/258 127/265/259 283/266/260
f 442/267/261 292/268/262 122/269/263 406/270/264
f 441/271/265 380/272/266 126/273/267 412/274/268
f 440/275/269 157/276/270 130/277/271 178/278/272
f 439/279/273 244/280/274 133/281/275 405/282/276
f 438/283/277 203/284/278 137/285/279 399/286/280
f 437/287/281 249/288/282 140/289/283 252/290/284
f 436/291/285 400/292/286 134/293/287 206/294/288
f 435/295/289 362/296/290 138/297/291 392/298/292
f 434/299/293 324/300/294 143/301/295 234/302/296
f 433/303/297 235/304/298 129/305/299 185/306/300
f 432/307/301 300/308/302 147/309/303 237/310/304
f 431/311/305 350/312/306 125/313/307 403/314/308
f 430/315/309 233/316/310 149/317/311 331/318/312
f 429/319/313 186/320/314 121/321/315 268/322/316
f 428/323/317 276/324/318 142/325/319 391/326/320
f 427/327/321 286/328/322 128/329/323 180/330/324
f 426/331/325 165/332/326 146/333/327 358/334/328
f 425/335/329 277/336/330 124/337/331 343/338/332
f 424/339/333 162/340/334 151/341/335 242/342/336
f 423/343/337 196/344/338 135/345/339 169/346/340
f 422/347/341 306/348/342 153/349/343 376/350/344
f 421/351/345 280/352/346 131/353/347 270/354/348
f 420/355/349 349/356/350 152/357/351 274/358/352
f 419/359/353 226/360/354 139/361/355 319/362/356
f 418/363/357 373/364/358 154/365/359 339/366/360
f 417/367/361 225/368/362 136/369/363 266/370/364
f 416/371/365 330/372/366 155/373/367 179/374/368
f 415/375/369 260/376/370 132/377/371 311/378/372
f 414/379/373 405/380/276 133/381/275 252/382/284
f 138/383/291 399/384/280 392/385/292
f 392/385/292 261/386/374 140/387/283
f 392/385/292 399/384/280 261/386/374
f 399/384/280 137/388/279 261/386/374
f 261/386/374 414/379/373 252/382/284 140/387/283
f 137/388/279 206/389/288 414/379/373 261/386/374
f 206/389/288 134/390/287 405/380/276 414/379/373
f 280/352/346 415/375/369 311/378/372 131/353/347
f 153/391/343 179/392/368 415/375/369 280/352/346
f 179/392/368 155/393/367 260/376/370 415/375/369
f 306/348/342 416/371/365 179/374/368 153/349/343
f 123/261/255 215/260/254 416/371/365 306/348/342
f 215/260/254 122/269/263 330/372/366 416/371/365
f 196/344/338 417/367/361 266/370/364 135/345/339
f 151/394/335 339/395/360 417/367/361 196/344/338
f 339/395/360 154/396/359 225/368/362 417/367/361
f 162/340/334 418/363/357 339/366/360 151/341/335
f 127/265/259 212/264/258 418/363/357 162/340/334
f 212/264/258 126/397/267 373/364/358 418/363/357
f 260/376/370 419/359/353 319/362/356 132/377/371
f 155/393/367 274/398/352 419/359/353 260/376/370
f 274/398/352 152/399/351 226/360/354 419/359/353
f 330/372/366 420/355/349 274/358/352 155/373/367
f 122/269/263 292/268/262 420/355/349 330/372/366
f 292/268/262 130/277/271 349/356/350 420/355/349
f 225/400/362 421/351/345 270/354/348 136/401/363
f 154/402/359 376/403/344 421/351/345 225/400/362
f 376/403/344 153/391/343 280/352/346 421/351/345
f 373/404/358 422/347/341 376/350/344 154/405/359
f 126/273/267 380/272/266 422/347/341 373/404/358
f 380/272/266 123/261/255 306/348/342 422/347/341
f 226/360/354 423/343/337 169/346/340 139/361/355
f 152/399/351 242/406/336 423/343/337 226/360/354
f 242/406/336 151/394/335 196/344/338 423/343/337
f 349/356/350 424/339/333 242/342/336 152/357/351
f 130/277/271 157/276/270 424/339/333 349/356/350
f 157/276/270 127/265/259 162/340/334 424/339/333
f 165/332/326 425/335/329 343/338/332 146/333/327
f 149/317/311 268/322/316 425/335/329 165/332/326
f 268/322/316 121/321/315 277/336/330 425/335/329
f 336/407/375 426/331/325 358/334/328 145/408/376
f 150/409/377 331/318/312 426/331/325 336/407/375
f 331/318/312 149/317/311 165/332/326 426/331/325
f 276/324/318 427/327/321 180/330/324 142/325/319
f 147/410/303 403/411/308 427/327/321 276/324/318
f 403/411/308 125/412/307 286/328/322 427/327/321
f 208/413/378 428/323/317 391/326/320 141/414/379
f 148/415/380 237/416/304 428/323/317 208/413/378
f 237/416/304 147/410/303 276/324/318 428/323/317
f 233/316/310 429/319/313 268/322/316 149/317/311
f 143/301/295 185/306/300 429/319/313 233/316/310
f 185/306/300 129/305/299 186/320/314 429/319/313
f 166/417/381 430/315/309 331/318/312 150/409/377
f 144/418/382 234/302/296 430/315/309 166/417/381
f 234/302/296 143/301/295 233/316/310 430/315/309
f 300/308/302 431/311/305 403/314/308 147/309/303
f 146/333/327 343/338/332 431/311/305 300/308/302
f 343/338/332 124/337/331 350/312/306 431/311/305
f 229/419/383 432/307/301 237/310/304 148/420/380
f 145/408/376 358/334/328 432/307/301 229/419/383
f 358/334/328 146/333/327 300/308/302 432/307/301
f 324/300/294 433/303/297 185/306/300 143/301/295
f 142/325/319 180/330/324 433/303/297 324/300/294
f 180/330/324 128/329/323 235/304/298 433/303/297
f 256/421/384 434/299/293 234/302/296 144/418/382
f 141/414/379 391/326/320 434/299/293 256/421/384
f 391/326/320 142/325/319 324/300/294 434/299/293
f 249/288/282 435/295/289 392/298/292 140/289/283
f 139/361/355 169/346/340 435/295/289 249/288/282
f 169/346/340 135/345/339 362/296/290 435/295/289
f 203/422/278 436/291/285 206/294/288 137/423/279
f 136/401/363 270/354/348 436/291/285 203/422/278
f 270/354/348 131/353/347 400/292/286 436/291/285
f 244/280/274 437/287/281 252/290/284 133/281/275
f 132/377/371 319/362/356 437/287/281 244/280/274
f 319/362/356 139/361/355 249/288/282 437/287/281
f 362/296/290 438/283/277 399/286/280 138/297/291
f 135/345/339 266/370/364 438/283/277 362/296/290
f 266/370/364 136/369/363 203/284/278 438/283/277
f 400/292/286 439/279/273 405/282/276 134/293/287
f 131/353/347 311/378/372 439/279/273 400/292/286
f 311/378/372 132/377/371 244/280/274 439/279/273
f 235/424/298 440/275/269 178/278/272 129/425/299
f 128/426/323 283/266/260 440/275/269 235/424/298
f 283/266/260 127/265/259 157/276/270 440/275/269
f 350/427/306 441/271/265 412/274/268 125/428/307
f 124/429/331 289/262/256 441/271/265 350/427/306
f 289/262/256 123/261/255 380/272/266 441/271/265
f 186/430/314 442/267/261 406/270/264 121/431/315
f 129/425/299 178/278/272 442/267/261 186/430/314
f 178/278/272 130/277/271 292/268/262 442/267/261
f 286/432/322 443/263/257 283/266/260 128/426/323
f 125/433/307 412/434/268 443/263/257 286/432/322
f 412/434/268 126/397/267 212/264/258 443/263/257
f 277/435/330 444/259/253 289/262/256 124/429/331
f 121/431/315 406/270/264 444/259/253 277/435/330
f 406/270/264 122/269/263 215/260/254 444/259/253
f 170/258/250 318/436/242 116/437/251
f 170/258/250 314/257/246 318/436/242
f 314/257/246 117/438/243 318/436/242
f 246/439/385 445/252/249 275/255/252 115/440/386
f 120/441/387 243/251/248 445/252/249 246/439/385
f 243/251/248 119/250/247 170/253/250 445/252/249
f 359/442/388 446/248/245 243/251/248 120/441/387
f 118/443/389 377/444/244 446/248/245 359/442/388
f 377/444/244 117/445/243 314/249/246 446/248/245
f 365/446/390 447/244/241 377/247/244 118/447/389
f 115/440/386 275/255/252 447/244/241 365/446/390
f 275/255/252 116/254/251 318/245/242 447/244/241
f 327/448/391 448/240/237 393/243/240 113/449/392
f 112/450/393 209/232/232 448/240/237 327/448/391
f 209/232/232 111/231/231 287/241/238 448/240/237
f 398/239/230 287/451/238 111/452/231
f 398/239/230 158/238/234 287/451/238
f 158/238/234 114/453/239 287/451/238
f 387/454/394 449/233/233 338/236/236 109/455/395
f 113/456/392 393/457/240 449/233/233 387/454/394
f 393/457/240 114/458/239 158/234/234 449/233/233
f 213/459/396 450/229/229 209/232/232 112/450/393
f 109/455/395 338/236/236 450/229/229 213/459/396
f 338/236/236 110/235/235 398/230/230 450/229/229
f 187/460/397 451/227/227 378/206/206 96/205/205
f 105/461/398 271/212/212 451/227/227 187/460/397
f 271/212/212 104/211/211 341/228/228 451/227/227
f 332/226/226 220/462/399 106/223/223
f 332/226/226 340/225/225 220/462/399
f 340/225/225 98/463/400 220/462/399
f 341/228/228 452/221/221 198/216/216 100/215/215
f 104/211/211 221/210/210 452/221/221 341/228/228
f 221/210/210 103/464/401 325/222/222 452/221/221
f 281/465/402 453/217/217 315/220/220 97/466/403
f 107/467/404 239/468/405 453/217/217 281/465/402
f 239/468/405 92/207/207 253/218/218 453/217/217
f 220/462/399 454/213/213 198/216/216 106/223/223
f 98/463/400 408/199/199 454/213/213 220/462/399
f 408/199/199 94/198/198 272/214/214 454/213/213
f 290/469/406 455/209/209 271/212/212 105/461/398
f 102/470/407 410/471/408 455/209/209 290/469/406
f 410/471/408 103/464/401 221/210/210 455/209/209
f 207/190/190 222/472/409 93/191/191
f 207/190/190 363/208/208 222/472/409
f 363/208/208 101/473/410 222/472/409
f 272/214/214 456/203/203 378/206/206 100/215/215
f 94/198/198 401/192/192 456/203/203 272/214/214
f 401/192/192 93/191/191 257/204/204 456/203/203
f 182/202/202 366/474/411 98/463/400
f 182/202/202 308/201/201 366/474/411
f 308/201/201 97/466/403 366/474/411
f 366/474/411 457/196/196 408/199/199 98/463/400
f 97/466/403 315/220/220 457/196/196 366/474/411
f 315/220/220 91/219/219 369/197/197 457/196/196
f 204/195/195 257/204/204 93/191/191
f 204/195/195 269/194/194 257/204/204
f 269/194/194 96/205/205 257/204/204
f 369/197/197 458/189/189 401/192/192 94/198/198
f 91/219/219 253/218/218 458/189/189 369/197/197
f 253/218/218 92/207/207 207/190/190 458/189/189
f 216/475/412 459/187/187 228/160/160 81/159/159
f 76/476/413 278/152/152 459/187/187 216/475/412
f 278/152/152 75/151/151 395/188/188 459/187/187
f 386/477/414 460/184/184 167/156/156 77/155/155
f 86/478/415 379/183/183 460/184/184 386/477/414
f 379/183/183 79/182/182 351/185/185 460/184/184
f 364/479/416 461/180/180 379/183/183 86/478/415
f 85/480/417 171/173/173 461/180/180 364/479/416
f 171/173/173 87/172/172 184/181/181 461/180/180
f 388/179/179 386/477/414 77/155/155
f 388/179/179 210/178/178 386/477/414
f 210/178/178 86/478/415 386/477/414
f 384/176/176 194/158/158 80/168/168
f 384/176/176 295/175/175 194/158/158
f 295/175/175 81/159/159 194/158/158
f 227/481/418 462/170/170 171/173/173 85/480/417
f 88/482/419 360/483/420 462/170/170 227/481/418
f 360/483/420 82/161/161 301/171/171 462/170/170
f 184/181/181 463/167/167 298/169/169 79/182/182
f 87/172/172 301/171/171 463/167/167 184/181/181
f 301/171/171 82/161/161 197/163/163 463/167/167
f 223/166/166 364/479/416 86/478/415
f 223/166/166 173/165/165 364/479/416
f 173/165/165 85/480/417 364/479/416
f 197/163/163 255/484/421 80/168/168
f 197/163/163 320/162/162 255/484/421
f 320/162/162 83/485/422 255/484/421
f 351/185/185 464/157/157 228/160/160 78/186/186
f 79/182/182 298/169/169 464/157/157 351/185/185
f 298/169/169 80/168/168 194/158/158 464/157/157
f 395/188/188 465/153/153 167/156/156 78/186/186
f 75/151/151 354/150/150 465/153/153 395/188/188
f 354/150/150 74/486/423 211/154/154 465/153/153
f 282/487/424 466/149/149 278/152/152 76/476/413
f 73/488/425 163/489/426 466/149/149 282/487/424
f 163/489/426 74/486/423 354/150/150 466/149/149
f 291/490/427 467/147/147 293/120/120 63/119/119
f 58/491/428 240/112/112 467/147/147 291/490/427
f 240/112/112 57/111/111 361/148/148 467/147/147
f 156/492/429 468/144/144 356/116/116 59/115/115
f 68/493/430 396/143/143 468/144/144 156/492/429
f 396/143/143 61/142/142 168/145/145 468/144/144
f 316/494/431 469/140/140 396/143/143 68/493/430
f 67/495/432 370/133/133 469/140/140 316/494/431
f 370/133/133 69/132/132 328/141/141 469/140/140
f 413/139/139 156/492/429 59/115/115
f 413/139/139 164/138/138 156/492/429
f 164/138/138 68/493/430 156/492/429
f 344/136/136 309/118/118 62/128/128
f 344/136/136 201/135/135 309/118/118
f 201/135/135 63/119/119 309/118/118
f 175/496/433 470/130/130 370/133/133 67/495/432
f 70/497/434 397/498/435 470/130/130 175/496/433
f 397/498/435 64/121/121 199/131/131 470/130/130
f 328/141/141 471/127/127 247/129/129 61/142/142
f 69/132/132 199/131/131 471/127/127 328/141/141
f 199/131/131 64/121/121 236/123/123 471/127/127
f 181/126/126 316/494/431 68/493/430
f 181/126/126 389/125/125 316/494/431
f 389/125/125 67/495/432 316/494/431
f 236/123/123 177/499/436 62/128/128
f 236/123/123 188/122/122 177/499/436
f 188/122/122 65/500/437 177/499/436
f 168/145/145 472/117/117 293/120/120 60/146/146
f 61/142/142 247/129/129 472/117/117 168/145/145
f 247/129/129 62/128/128 309/118/118 472/117/117
f 361/148/148 473/113/113 356/116/116 60/146/146
f 57/111/111 409/110/110 473/113/113 361/148/148
f 409/110/110 56/501/438 254/114/114 473/113/113
f 189/502/439 474/109/109 240/112/112 58/491/428
f 55/503/440 345/504/441 474/109/109 189/502/439
f 345/504/441 56/501/438 409/110/110 474/109/109
f 284/505/442 475/105/105 371/108/108 48/506/443
f 41/507/444 159/508/445 475/105/105 284/505/442
f 159/508/445 46/509/446 357/106/106 475/105/105
f 333/104/104 394/510/447 54/511/448
f 333/104/104 285/103/103 394/510/447
f 285/103/103 43/84/84 394/510/447
f 357/106/106 476/100/100 231/91/91 49/107/107
f 46/509/446 382/512/449 476/100/100 357/106/106
f 382/512/449 52/102/102 219/101/101 476/100/100
f 342/513/450 477/98/98 183/99/99 53/514/451
f 44/515/452 172/83/83 477/98/98 342/513/450
f 172/83/83 40/82/82 321/76/76 477/98/98
f 285/103/103 478/94/94 367/97/97 43/84/84
f 52/102/102 382/512/449 478/94/94 285/103/103
f 382/512/449 46/509/446 190/95/95 478/94/94
f 191/516/453 479/90/90 294/93/93 51/517/454
f 48/506/443 371/108/108 479/90/90 191/516/453
f 371/108/108 49/107/107 231/91/91 479/90/90
f 245/74/74 374/518/455 39/75/75
f 245/74/74 241/89/89 374/518/455
f 241/89/89 47/519/456 374/518/455
f 190/95/95 480/87/87 195/88/88 37/96/96
f 46/509/446 159/508/445 480/87/87 190/95/95
f 159/508/445 41/507/444 375/78/78 480/87/87
f 224/86/86 353/520/457 45/521/458
f 224/86/86 297/85/85 353/520/457
f 297/85/85 44/515/452 353/520/457
f 297/85/85 481/80/80 172/83/83 44/515/452
f 43/84/84 367/97/97 481/80/80 297/85/85
f 367/97/97 37/96/96 317/81/81 481/80/80
f 296/79/79 174/522/459 42/523/460
f 296/79/79 375/78/78 174/522/459
f 375/78/78 41/507/444 174/522/459
f 317/81/81 482/73/73 321/76/76 40/82/82
f 37/96/96 195/88/88 482/73/73 317/81/81
f 195/88/88 38/77/77 245/74/74 482/73/73
f 326/524/461 483/69/69 264/72/72 19/525/462
f 25/526/463 322/527/464 483/69/69 326/524/461
f 322/527/464 23/528/465 323/70/70 483/69/69
f 250/59/59 484/65/65 404/68/68 30/49/49
f 24/58/58 258/529/466 484/65/65 250/59/59
f 258/529/466 23/528/465 176/66/66 484/65/65
f 352/50/50 485/61/61 355/64/64 31/530/467
f 30/49/49 404/68/68 485/61/61 352/50/50
f 404/68/68 27/67/67 334/62/62 485/61/61
f 346/60/60 312/531/468 36/532/469
f 346/60/60 250/59/59 312/531/468
f 250/59/59 30/49/49 312/531/468
f 273/57/57 402/533/470 35/534/471
f 273/57/57 161/44/44 402/533/470
f 161/44/44 25/526/463 402/533/470
f 304/535/472 486/55/55 303/56/56 34/536/473
f 31/530/467 355/64/64 486/55/55 304/535/472
f 355/64/64 33/63/63 347/54/54 486/55/55
f 334/62/62 487/52/52 347/54/54 33/63/63
f 27/67/67 348/46/46 487/52/52 334/62/62
f 348/46/46 26/45/45 217/48/48 487/52/52
f 160/51/51 302/537/474 32/538/475
f 160/51/51 352/50/50 302/537/474
f 352/50/50 31/530/467 302/537/474
f 217/48/48 214/539/476 29/53/53
f 217/48/48 411/47/47 214/539/476
f 411/47/47 28/540/477 214/539/476
f 176/66/66 488/43/43 348/46/46 27/67/67
f 23/528/465 322/527/464 488/43/43 176/66/66
f 322/527/464 25/526/463 161/44/44 488/43/43
f 323/70/70 489/41/41 202/38/38 20/71/71
f 23/528/465 258/529/466 489/41/41 323/70/70
f 258/529/466 24/58/58 251/42/42 489/41/41
f 390/541/478 490/37/37 383/40/40 22/542/479
f 19/525/462 264/72/72 490/37/37 390/541/478
f 264/72/72 20/71/71 202/38/38 490/37/37
f 262/543/480 491/33/33 218/36/36 1/544/481
f 7/545/482 259/546/483 491/33/33 262/543/480
f 259/546/483 5/547/484 279/34/34 491/33/33
f 192/23/23 492/29/29 307/32/32 12/13/13
f 6/22/22 200/548/485 492/29/29 192/23/23
f 200/548/485 5/547/484 381/30/30 492/29/29
f 238/14/14 493/25/25 248/28/28 13/549/486
f 12/13/13 307/32/32 493/25/25 238/14/14
f 307/32/32 9/31/31 230/26/26 493/25/25
f 265/24/24 288/550/487 18/551/488
f 265/24/24 192/23/23 288/550/487
f 192/23/23 12/13/13 288/550/487
f 263/21/21 385/552/489 17/553/490
f 263/21/21 329/8/8 385/552/489
f 329/8/8 7/545/482 385/552/489
f 313/554/491 494/19/19 305/20/20 16/555/492
f 13/549/486 248/28/28 494/19/19 313/554/491
f 248/28/28 15/27/27 232/18/18 494/19/19
f 230/26/26 495/16/16 232/18/18 15/27/27
f 9/31/31 267/10/10 495/16/16 230/26/26
f 267/10/10 8/9/9 372/12/12 495/16/16
f 299/15/15 193/556/493 14/557/494
f 299/15/15 238/14/14 193/556/493
f 238/14/14 13/549/486 193/556/493
f 372/12/12 368/558/495 11/17/17
f 372/12/12 310/11/11 368/558/495
f 310/11/11 10/559/496 368/558/495
f 381/30/30 496/7/7 267/10/10 9/31/31
f 5/547/484 259/546/483 496/7/7 381/30/30
f 259/546/483 7/545/482 329/8/8 496/7/7
f 279/34/34 497/5/5 407/2/2 2/35/35
f 5/547/484 200/548/485 497/5/5 279/34/34
f 200/548/485 6/22/22 205/6/6 497/5/5
f 337/560/497 498/1/1 335/4/4 4/561/498
f 1/544/481 218/36/36 498/1/1 337/560/497
f 218/36/36 2/35/35 407/2/2 498/1/1
