# Blender v2.78 (sub 0) OBJ File: ''
# www.blender.org
mtllib Dead_Pine_Tree_crk_l_01.mtl
o Dead_Pine_Tree_crk_l_01
v 0.229901 3.054206 0.053058
v 0.658949 3.174531 0.066891
v 0.667910 3.156720 0.102359
v 0.231064 3.014249 0.122864
v 0.649988 3.192342 0.102359
v 0.228738 3.094161 0.122864
v 1.100679 3.321460 0.074770
v 1.106725 3.312200 0.093927
v 1.094633 3.330722 0.093927
v -0.096285 4.165531 -0.060322
v -0.461026 4.302998 -0.388168
v -0.442754 4.282650 -0.425757
v -0.045927 4.119882 -0.122176
v -0.427093 4.323348 -0.412567
v -0.043895 4.211178 -0.120465
v -0.841233 4.470861 -0.720146
v -0.832418 4.460280 -0.741335
v -0.821851 4.481442 -0.732436
v -0.064275 5.614729 0.116548
v -0.515909 5.637969 0.391031
v -0.535623 5.621127 0.368927
v -0.094095 5.587128 0.079408
v -0.530652 5.654424 0.365074
v -0.089773 5.641860 0.075994
v 0.108153 6.434553 -0.161576
v 0.526561 6.544254 -0.788594
v 0.548305 6.532642 -0.781884
v 0.150577 6.407697 -0.142228
v 0.544109 6.556363 -0.774475
v 0.148021 6.461063 -0.136997
v -0.275309 0.019331 -0.016729
v -0.179501 3.328015 0.027085
v 0.009308 3.277678 -0.208589
v -0.052866 0.010927 -0.293366
v -0.086414 6.720505 -0.048447
v 0.041196 6.704493 -0.214977
v 0.278048 0.017417 0.186235
v 0.248468 3.324861 0.209638
v -0.048431 3.325693 0.289301
v -0.078531 0.017660 0.283723
v 0.177031 6.679683 0.108314
v 0.021339 6.763523 0.135169
v 0.264840 3.352296 -0.091680
v 0.273123 0.021356 -0.163418
v 0.184078 6.851593 -0.108622
v -0.115022 3.547426 0.633922
v -0.026708 3.476425 0.805867
v 0.080581 3.550687 0.646557
v 0.003300 3.719964 0.278452
v -0.044460 3.325799 1.119565
v 0.194097 3.291854 1.132563
v -0.281399 3.284323 1.100985
v -0.423942 3.009797 1.666299
v -0.076341 3.067060 1.679903
v -0.488453 2.762699 2.031203
v -0.264189 2.808094 2.122166
v 0.272041 3.015684 1.709453
v 0.064893 2.741510 2.110143
v 0.297665 2.762307 2.075749
v -0.093287 2.914970 1.981504
v -0.117094 2.612111 2.428230
v -0.531473 3.066898 1.364295
v 0.414834 3.078445 1.434634
v 0.217926 5.542618 0.556324
v 0.392386 5.464488 0.647880
v 0.392342 5.553316 0.455440
v 0.114302 5.742898 0.196627
v 0.557900 5.292967 0.915846
v 0.769441 5.267185 0.788273
v 0.344951 5.241631 1.032804
v 0.548746 4.924848 1.578734
v 0.853344 4.997179 1.395267
v 0.704176 4.649699 1.910831
v 0.947775 4.700833 1.863138
v 1.168341 4.957135 1.217863
v 1.222520 4.646507 1.660308
v 1.401645 4.679147 1.499185
v 1.012618 4.824808 1.652356
v 1.250058 4.489852 2.027342
v 0.283359 4.994581 1.386292
v 1.132472 5.041520 0.905812
v 0.232623 5.113062 -0.592265
v 0.170182 5.044429 -0.786531
v 0.034962 5.131278 -0.643279
v 0.055450 5.304746 -0.249024
v 0.237884 4.883585 -1.106289
v -0.006549 4.866281 -1.166276
v 0.473814 4.822417 -1.041377
v 0.708829 4.520915 -1.596121
v 0.359779 4.607019 -1.677348
v 0.827022 4.255520 -1.960011
v 0.618456 4.319245 -2.096781
v 0.004735 4.579788 -1.775821
v 0.273933 4.275007 -2.148896
v 0.030388 4.314709 -2.158719
v 0.424190 4.444804 -1.984846
v 0.512345 4.123736 -2.441068
v 0.764595 4.574602 -1.264613
v -0.190201 4.658252 -1.520904
v -0.583874 6.346239 -0.066143
v -0.750735 6.260088 0.079183
v -0.548523 6.357360 0.156849
v -0.163825 6.566232 -0.029133
v -1.099482 6.071354 0.143886
v -1.051597 6.041367 0.416344
v -1.136588 6.014825 -0.125966
v -1.792998 5.666663 -0.133535
v -1.723027 5.746100 0.258964
v -2.205918 5.362567 -0.105459
v -2.253562 5.419731 0.168543
v -1.664874 5.699739 0.659610
v -2.152786 5.357004 0.537310
v -2.056104 5.392015 0.789537
v -2.057900 5.556277 0.321521
v -2.549365 5.185830 0.417912
v -1.484158 5.742070 -0.333316
v -1.323247 5.790579 0.747976
v 0.003315 3.719644 0.278305
v 0.080583 3.550369 0.646408
v -0.026692 3.476108 0.805714
v -0.114994 3.547108 0.633775
v 0.194052 3.291539 1.132418
v -0.044445 3.325481 1.119416
v -0.076336 3.066749 1.679739
v -0.423852 3.009491 1.666155
v -0.281324 3.284009 1.100850
v -0.264183 2.807800 2.121981
v -0.488341 2.762419 2.031029
v 0.297661 2.762022 2.075546
v 0.064835 2.741226 2.109944
v 0.271984 3.015383 1.709285
v -0.093310 2.914673 1.981317
v -0.117179 2.611831 2.428037
v -0.531328 3.066596 1.364192
v 0.414713 3.078142 1.434512
v 0.114234 5.742586 0.196476
v 0.392262 5.553005 0.455295
v 0.392316 5.464180 0.647725
v 0.217868 5.542309 0.556166
v 0.769324 5.266875 0.788159
v 0.557831 5.292658 0.915695
v 0.853259 4.996877 1.395109
v 0.548742 4.924553 1.578546
v 0.344939 5.241326 1.032630
v 0.947678 4.700548 1.862963
v 0.704174 4.649432 1.910607
v 1.401531 4.678874 1.499000
v 1.222363 4.646233 1.660157
v 1.168201 4.956840 1.217737
v 1.012497 4.824520 1.652196
v 1.249881 4.489580 2.027211
v 0.283423 4.994291 1.386108
v 1.132305 5.041219 0.905758
v 0.055385 5.304429 -0.248884
v 0.034909 5.130962 -0.643135
v 0.170116 5.044116 -0.786386
v 0.232546 5.112747 -0.592127
v -0.006554 4.865964 -1.166128
v 0.237820 4.883269 -1.106147
v 0.359721 4.606711 -1.677191
v 0.708692 4.520618 -1.595998
v 0.473693 4.822109 -1.041259
v 0.618393 4.318953 -2.096602
v 0.826860 4.255251 -1.959862
v 0.030334 4.314426 -2.158521
v 0.273932 4.274722 -2.148691
v 0.004738 4.579484 -1.775647
v 0.424157 4.444508 -1.984661
v 0.512371 4.123454 -2.440864
v 0.764412 4.574312 -1.264541
v -0.190127 4.657941 -1.520763
v -0.163663 6.565919 -0.029143
v -0.548362 6.357049 0.156826
v -0.750568 6.259779 0.079173
v -0.583710 6.345927 -0.066140
v -1.051451 6.041055 0.416275
v -1.099318 6.071043 0.143875
v -1.722853 5.745798 0.258940
v -1.792824 5.666368 -0.133471
v -1.136424 6.014519 -0.125915
v -2.253368 5.419443 0.168516
v -2.205711 5.362299 -0.105381
v -2.055893 5.391739 0.789495
v -2.152591 5.356728 0.537217
v -1.664709 5.699443 0.659524
v -2.057709 5.555988 0.321465
v -2.549182 5.185555 0.417795
v -1.484011 5.741780 -0.333190
v -1.323140 5.790277 0.747839
v 0.607888 4.672126 -1.299061
v -1.573208 5.735744 -0.263341
v -1.913161 5.642096 0.294294
v -0.371754 3.149072 1.368214
v -2.155661 5.495238 0.256412
v 0.362159 3.075200 1.513700
v 0.315460 6.489401 -0.476096
v 0.298853 4.744802 -1.392060
v 1.000174 5.123675 0.872315
v -0.086016 2.983674 1.850802
v 0.788197 4.683775 1.880078
v -0.019705 5.166687 0.222583
v 0.396567 4.518023 -1.851564
v 0.202157 5.079288 -0.688079
v 0.705823 5.144871 1.155884
v 0.346855 6.510519 -0.454935
v 0.351516 4.863694 -1.063957
v 0.121407 0.016142 -0.261490
v 0.314219 5.084949 1.262918
v -0.049309 2.657120 2.304145
v -0.443933 4.315462 -0.398198
v -0.024293 2.830254 2.044664
v 0.041924 5.240445 -0.401359
v 0.284829 2.854640 1.950658
v 0.109316 6.817737 0.116593
v 0.118338 4.306316 -2.135811
v 0.370244 4.987967 1.437769
v 0.129200 5.232402 -0.378835
v 1.218804 4.785817 1.453511
v 0.038619 3.656446 0.419517
v -0.325505 6.483115 -0.049941
v 0.129131 5.232086 -0.378695
v 0.210572 2.760571 2.069924
v -2.066498 5.476087 -0.110540
v -1.411511 5.908199 0.201487
v -1.106604 6.055490 0.009484
v -0.489415 3.063206 1.453097
v -0.031613 6.791580 0.041760
v -0.666337 6.303875 0.005204
v -0.034458 3.409808 0.943045
v 0.180406 4.603509 -1.722380
v 0.303808 5.504470 0.601864
v 0.655640 5.290892 0.844584
v 0.123507 3.433076 0.873457
v 0.271922 1.504184 0.204994
v -0.552262 5.638814 0.380493
v 0.552608 4.207233 -2.313352
v 0.552614 4.207521 -2.313547
v -0.168883 2.867543 2.053712
v 0.132372 4.412628 -1.990215
v 1.108269 4.737381 1.661253
v -0.086006 2.983978 1.850978
v -2.207008 5.400256 -0.005113
v 0.392741 5.509925 0.550425
v -0.207912 0.018496 0.153423
v -0.841495 6.195722 -0.082666
v 0.783902 4.355379 -1.838479
v 0.417398 3.138954 0.114427
v 0.464782 5.388723 0.765008
v 0.608023 4.672429 -1.299175
v -0.023828 4.729700 -1.463570
v 0.362063 3.074896 1.513560
v 0.422210 4.176801 -2.326504
v -0.545734 5.631491 0.392104
v 0.229320 3.082353 0.083244
v 0.225721 5.671877 0.292640
v 0.026255 4.410973 -2.027126
v -2.106937 5.458930 0.417802
v -0.025230 1.473951 -0.257144
v -1.933713 5.510972 0.617141
v 0.298914 4.745113 -1.392208
v -0.489539 3.063510 1.453215
v 0.980221 5.118804 0.982183
v -0.251624 3.048428 1.669199
v -1.754550 5.718017 0.059756
v -0.116605 4.734141 -1.398414
v 0.072792 3.318885 1.115169
v 0.553771 6.554346 -0.809591
v 0.422489 3.107302 0.056980
v -0.159922 3.315322 1.100285
v 0.238050 5.206017 -0.106143
v -0.903385 6.177052 0.107526
v 0.185111 6.833854 0.011324
v 0.943521 4.902382 1.541172
v -2.394991 5.245903 0.460933
v 0.101383 5.088575 -0.714088
v 0.253682 3.158558 1.409847
v 0.099512 3.050601 1.690158
v -0.171741 2.695328 2.314766
v 0.044644 7.011764 -0.085196
v 1.324011 4.674386 1.544089
v -0.024249 2.830545 2.044857
v 0.421680 5.085017 1.303471
v -0.099202 3.299562 -0.105132
v -0.071789 3.512807 0.718929
v -0.049387 2.656840 2.303948
v -0.657646 4.379859 -0.599104
v 1.323877 4.674111 1.543919
v 0.284802 2.854349 1.950467
v -0.223861 4.190029 -0.259431
v 0.101443 5.088890 -0.714232
v 0.277775 3.342398 0.060325
v -0.074577 4.133373 -0.087127
v 0.655733 5.291202 0.844720
v 0.178970 2.864133 1.935024
v -0.140291 5.144495 -0.005522
v 0.027957 3.514153 0.725220
v 0.559771 5.422636 0.616800
v 0.335626 4.981316 -0.805441
v 0.104062 3.323173 0.270701
v -1.754375 5.717716 0.059773
v -0.785972 6.212830 0.266543
v 0.329344 3.156704 1.332072
v -0.037968 4.165530 -0.129565
v -2.054207 5.527005 0.009385
v 0.745279 4.293933 -1.996063
v -1.425155 5.780725 0.708971
v 0.681261 4.406022 -1.869906
v -0.841331 6.195413 -0.082644
v -1.340888 5.877774 0.558248
v -0.132503 3.330096 0.170152
v -0.851864 4.472915 -0.743735
v -1.923658 5.503336 0.740343
v 0.656295 4.665487 -1.193082
v 0.448170 5.278166 0.964587
v 0.286561 5.405574 0.774640
v 1.132647 5.031682 1.003105
v 1.236431 4.544943 1.885503
v 0.943625 4.902677 1.541332
v -0.310695 5.650196 0.219382
v 0.512009 4.388733 -2.044436
v 0.559677 5.422326 0.616667
v -0.074794 5.633770 0.098537
v -0.847109 4.482438 -0.739731
v 0.989664 4.769301 1.754104
v -0.288691 5.626363 0.255752
v 0.738677 4.573576 -1.364131
v 1.118376 3.327427 0.093190
v 0.154883 6.434350 -0.136630
v -1.573051 5.735450 -0.263239
v -1.064542 6.068724 0.274800
v -0.643415 4.408360 -0.587119
v -1.366571 5.841925 -0.251147
v 1.218950 4.786100 1.453657
v 0.653160 3.185440 0.083244
v -0.023836 4.730011 -1.463729
v 0.253743 3.158867 1.409998
v 0.350548 6.468366 -0.461847
v -0.402673 2.793126 2.050085
v 1.108410 4.737663 1.661407
v 0.126787 6.415681 -0.153850
v -1.912978 5.641801 0.294253
v -0.462608 2.855384 1.908441
v -0.121066 4.649927 -1.591737
v -0.060411 3.195938 1.399961
v -0.786127 6.213142 0.266584
v 0.026145 5.010159 -0.885469
v 0.072807 3.319201 1.115318
v 0.783753 4.355098 -1.838339
v -0.666503 6.304186 0.005209
v 0.116431 4.885680 -1.124785
v 0.448212 5.278473 0.964751
v 0.275551 1.518909 -0.130011
v 0.751391 4.798058 1.749130
v -0.168896 2.867247 2.053526
v -0.432890 4.302999 -0.421576
v 0.199721 4.973327 -0.926373
v -0.237023 1.509374 0.007040
v 0.148716 5.667155 0.337181
v -2.106745 5.458648 0.417724
v 0.745155 4.293653 -1.995903
v 1.318321 4.779594 1.405667
v 0.655375 4.752257 1.797368
v 0.210600 2.760856 2.070125
v -0.191913 0.015129 -0.177878
v -0.669518 4.394109 -0.570567
v 0.116394 4.885364 -1.124638
v 0.370206 4.988259 1.437955
v -0.454049 4.290535 -0.406718
v -0.309897 6.488026 0.048512
v 0.314253 5.084654 1.262736
v -0.436360 3.146446 1.277145
v 0.697486 4.971423 1.485173
v 0.311867 0.019387 0.013053
v 0.041863 5.240129 -0.401218
v -0.047740 3.655007 0.413939
v -1.411679 5.908506 0.201503
v -0.436477 3.146753 1.277262
v 0.027947 3.514471 0.725371
v -0.903221 6.176742 0.107515
v -2.054395 5.527295 0.009362
v 0.111017 0.017539 0.269336
v -1.106439 6.055182 0.009502
v 0.464851 5.389032 0.765161
v -1.340739 5.877469 0.558163
v 0.202229 5.079602 -0.688221
v 0.148781 5.667465 0.337334
v -0.068518 1.504489 0.297407
v -1.234028 5.882024 0.623373
v -1.452255 5.842700 -0.155140
v 0.422228 4.176518 -2.326298
v 1.009740 4.987244 1.302507
v -0.543417 5.646313 0.390311
v 0.026225 4.410683 -2.026935
v 0.697439 4.971124 1.485001
v 0.118369 4.306600 -2.136013
v -0.015364 6.807740 -0.142959
v -2.071636 5.386788 0.690216
v 0.028190 5.156868 -0.211207
v 0.229901 3.054205 0.132297
v -2.440337 5.284741 0.325039
v 0.303744 5.504163 0.601708
v -2.071840 5.387064 0.690281
v 1.137992 4.579198 1.967377
v 1.121097 3.323258 0.084569
v -0.116647 4.734454 -1.398560
v 1.132802 5.031982 1.003187
v -0.357383 2.896625 1.919510
v 0.909519 3.241808 0.097249
v 1.318449 4.779876 1.405829
v 0.427581 3.075650 0.114427
v 0.989551 4.769014 1.753939
v -0.121111 4.650237 -1.591891
v 0.563269 6.549387 -0.806829
v 0.230482 3.026057 0.083244
v -2.207210 5.400534 -0.005151
v -0.071767 3.512490 0.718779
v 1.236603 4.545215 1.885641
v -0.402744 2.793415 2.050262
v -0.357330 2.896326 1.919344
v -0.060422 3.196253 1.400116
v 0.555756 6.544175 -0.813077
v -0.251579 3.048118 1.669045
v 0.123490 3.432758 0.873310
v -2.440526 5.285022 0.325124
v -1.688978 5.733871 0.459736
v -1.425284 5.781027 0.709088
v -0.648477 6.309856 0.118911
v 1.000322 5.123980 0.872394
v 0.681156 4.405728 -1.869753
v 0.180381 4.603202 -1.722212
v 0.535733 4.574006 -1.632232
v 0.100199 7.030119 0.014731
v -0.073561 4.197689 -0.086272
v 0.351609 4.864006 -1.064089
v 0.199787 4.973642 -0.926516
v 0.421679 5.085317 1.303652
v -0.047759 3.655325 0.414086
v 0.105982 6.845783 -0.175000
v 0.026111 5.009842 -0.885323
v 0.788159 4.683500 1.879873
v 0.335722 4.981627 -0.805571
v 0.178919 2.863842 1.934836
v 0.655381 4.752536 1.797577
v 0.144553 3.313313 -0.170288
v -0.261691 4.226192 -0.205484
v -0.648313 6.309546 0.118894
v 0.038608 3.656765 0.419665
v -1.234152 5.882330 0.623484
v 0.211491 5.167079 0.160912
v 0.396612 4.518326 -1.851736
v -0.034473 3.410126 0.943195
v -0.214964 4.262352 -0.251937
v 0.329435 3.157012 1.332205
v -1.064386 6.068413 0.274761
v -0.095604 5.614464 0.072543
v -0.159878 3.315005 1.100141
v 0.893235 3.266753 0.097249
v 0.359332 4.361259 -2.063711
v -2.066693 5.476367 -0.110608
v 0.738512 4.573282 -1.364040
v 0.512052 4.389028 -2.044620
v -0.182846 3.427968 0.853668
v -0.315777 5.602059 0.223356
v -2.155469 5.494949 0.256366
v -0.171689 2.695615 2.314957
v -1.933527 5.510687 0.617057
v -0.182799 3.427651 0.853525
v -1.689148 5.734171 0.459793
v 0.225794 5.672189 0.292789
v -0.077744 5.595485 0.100870
v 1.115656 3.331594 0.084569
v 0.901377 3.254281 0.071449
v 0.705748 5.144566 1.155729
v -1.366417 5.841628 -0.251051
v 0.359347 4.361549 -2.063907
v 0.535828 4.574310 -1.632373
v 0.286601 5.405881 0.774804
v -2.395179 5.246178 0.461044
v 0.099541 3.050908 1.690325
v 0.658949 3.174531 0.105122
v 1.137844 4.578920 1.967230
v 0.392666 5.509615 0.550274
v -0.462708 2.855675 1.908604
v -1.923852 5.503620 0.740405
v 0.656454 4.665784 -1.193174
v 0.132378 4.412920 -1.990408
v 0.125081 6.453283 -0.150322
v 1.009625 4.986945 1.302365
v -1.452421 5.843001 -0.155205
v -0.325669 6.483427 -0.049935
v -0.843142 4.477677 -0.749266
v 0.664737 3.163622 0.083244
v 0.980088 5.118502 0.982071
v -0.310059 6.488338 0.048526
v 0.751438 4.798345 1.749316
v -0.371665 3.148761 1.368079
v -0.876290 6.184838 0.004171
v -1.376649 5.902494 0.374261
v -1.907931 5.590726 0.449373
v -2.291399 5.360175 0.368254
v -1.969661 5.603752 0.151766
v -1.431580 5.885211 0.027803
v -0.845845 6.194417 0.196208
v -0.469229 6.406530 0.027250
v 0.275959 4.975955 -0.866291
v 0.142592 4.745786 -1.425890
v 0.264524 4.477860 -1.905376
v 0.464732 4.274072 -2.202638
v 0.534386 4.479097 -1.848382
v 0.449690 4.717481 -1.346637
v 0.105739 4.991643 -0.910223
v 0.115118 5.168900 -0.528729
v 0.370074 5.395989 0.775807
v 0.838465 5.140140 1.071210
v 1.071035 4.857154 1.486730
v 1.126163 4.647699 1.830012
v 0.842970 4.867618 1.633744
v 0.567486 5.123516 1.227952
v 0.520275 5.405201 0.688930
v 0.259014 5.597636 0.431414
v -0.116420 3.418003 0.900130
v 0.092128 3.185757 1.403938
v 0.044512 2.935813 1.878160
v -0.104428 2.753614 2.194604
v -0.218462 2.956188 1.872616
v -0.211768 3.180689 1.384312
v 0.052025 3.420811 0.911011
v -0.012308 3.592850 0.552895
v -0.876455 6.185147 0.004164
v -1.376811 5.902800 0.374310
v -1.908113 5.591017 0.449441
v -2.291590 5.360456 0.368336
v -1.969844 5.604048 0.151778
v -1.431748 5.885516 0.027782
v -0.846005 6.194728 0.196235
v -0.469393 6.406842 0.027261
v 0.276040 4.976268 -0.866428
v 0.142622 4.746099 -1.426046
v 0.264544 4.478159 -1.905558
v 0.464742 4.274361 -2.202834
v 0.534458 4.479397 -1.848544
v 0.449786 4.717789 -1.346771
v 0.105788 4.991959 -0.910367
v 0.115184 5.169215 -0.528871
v 0.370127 5.396297 0.775967
v 0.838569 5.140445 1.071348
v 1.071164 4.857444 1.486879
v 1.126309 4.647978 1.830163
v 0.843047 4.867912 1.633914
v 0.567527 5.123820 1.228121
v 0.520358 5.405511 0.689072
v 0.259084 5.597947 0.431567
v -0.116453 3.418320 0.900277
v 0.092150 3.186070 1.404094
v 0.044549 2.936111 1.878340
v -0.104379 2.753902 2.194797
v -0.218481 2.956492 1.872786
v -0.211816 3.181002 1.384460
v 0.052028 3.421129 0.911160
v -0.012323 3.593168 0.553044
v 0.241299 5.188398 0.029031
v 0.297902 1.513457 0.038781
v -0.095063 5.155383 0.118595
v -0.173662 1.508553 0.165675
v 0.140488 5.183554 -0.176459
v 0.133129 1.495593 -0.216066
v 0.099486 5.166093 0.210351
v 0.107946 1.503285 0.274700
v -0.068475 5.147718 -0.120894
v -0.148614 1.490020 -0.140804
v 0.329497 6.502665 -0.465829
v 0.351548 6.489446 -0.456875
v 0.331818 6.476175 -0.470173
v -0.298316 5.641380 0.238784
v -0.315338 5.626108 0.218425
v -0.301509 5.611130 0.241281
v -0.656365 4.403065 -0.577108
v -0.648905 4.394110 -0.595042
v -0.665308 4.385154 -0.584640
v -0.239566 4.248917 -0.226081
v -0.215793 4.226192 -0.259982
v -0.245158 4.203466 -0.230790
v 0.896260 3.262119 0.083244
v 0.901377 3.254281 0.099458
v 0.906494 3.246442 0.083244
v 0.419290 3.127193 0.083244
v 0.422489 3.107302 0.119346
v 0.425689 3.087411 0.083244
vt 0.9444 0.9121
vt 0.9593 0.9100
vt 0.9596 0.9113
vt 0.9445 0.9146
vt 0.9445 0.9023
vt 0.9590 0.9045
vt 0.9585 0.9058
vt 0.9444 0.9047
vt 0.9443 0.9072
vt 0.9588 0.9072
vt 0.9590 0.9086
vt 0.9442 0.9096
vt 0.9743 0.9095
vt 0.9893 0.9091
vt 0.9894 0.9099
vt 0.9745 0.9106
vt 0.9741 0.9052
vt 0.9892 0.9059
vt 0.9890 0.9067
vt 0.9737 0.9062
vt 0.9739 0.9074
vt 0.9891 0.9075
vt 0.9892 0.9083
vt 0.9741 0.9085
vt 0.8027 0.8545
vt 0.8027 0.8536
vt 0.8034 0.8541
vt 0.9413 0.9304
vt 0.9531 0.9287
vt 0.9533 0.9297
vt 0.9414 0.9323
vt 0.9413 0.9226
vt 0.9529 0.9244
vt 0.9525 0.9254
vt 0.9413 0.9245
vt 0.9412 0.9265
vt 0.9526 0.9265
vt 0.9528 0.9276
vt 0.9411 0.9284
vt 0.9649 0.9283
vt 0.9768 0.9280
vt 0.9769 0.9286
vt 0.9651 0.9291
vt 0.9648 0.9249
vt 0.9767 0.9254
vt 0.9765 0.9261
vt 0.9645 0.9258
vt 0.9646 0.9266
vt 0.9766 0.9267
vt 0.9767 0.9273
vt 0.9647 0.9275
vt 0.8039 0.8553
vt 0.8033 0.8556
vt 0.8033 0.8550
vt 0.9430 0.9572
vt 0.9296 0.9581
vt 0.9295 0.9572
vt 0.9428 0.9560
vt 0.9430 0.9622
vt 0.9296 0.9614
vt 0.9298 0.9606
vt 0.9431 0.9610
vt 0.9431 0.9597
vt 0.9298 0.9597
vt 0.9298 0.9589
vt 0.9431 0.9585
vt 0.8027 0.8527
vt 0.8027 0.8519
vt 0.8034 0.8523
vt 0.9488 0.9422
vt 0.9681 0.9411
vt 0.9682 0.9417
vt 0.9490 0.9433
vt 0.9489 0.9378
vt 0.9680 0.9389
vt 0.9678 0.9394
vt 0.9488 0.9389
vt 0.9487 0.9400
vt 0.9678 0.9400
vt 0.9679 0.9406
vt 0.9487 0.9411
vt 0.8027 0.8571
vt 0.8030 0.8565
vt 0.8033 0.8571
vt 0.9107 0.9198
vt 0.9092 0.9434
vt 0.9071 0.9427
vt 0.9083 0.9194
vt 0.9076 0.9676
vt 0.9061 0.9918
vt 0.9044 0.9924
vt 0.9058 0.9676
vt 0.8962 0.9197
vt 0.8964 0.9434
vt 0.8941 0.9435
vt 0.8936 0.9198
vt 0.8968 0.9675
vt 0.8972 0.9916
vt 0.8961 0.9917
vt 0.8951 0.9676
vt 0.9060 0.9197
vt 0.9051 0.9434
vt 0.9030 0.9440
vt 0.9036 0.9200
vt 0.9040 0.9679
vt 0.9031 0.9924
vt 0.9017 0.9924
vt 0.9024 0.9682
vt 0.9155 0.9205
vt 0.9134 0.9441
vt 0.9113 0.9441
vt 0.9131 0.9203
vt 0.9114 0.9679
vt 0.9094 0.9917
vt 0.9078 0.9911
vt 0.9096 0.9676
vt 0.9012 0.9198
vt 0.9008 0.9437
vt 0.8986 0.9434
vt 0.8987 0.9197
vt 0.9004 0.9678
vt 0.9001 0.9920
vt 0.8984 0.9915
vt 0.8985 0.9675
vt 0.8081 0.8182
vt 0.8081 0.8129
vt 0.8155 0.8097
vt 0.8227 0.8242
vt 0.8154 0.8212
vt 0.8228 0.8127
vt 0.8319 0.8099
vt 0.8273 0.8170
vt 0.8274 0.8056
vt 0.6872 0.3490
vt 0.6893 0.3418
vt 0.6914 0.3459
vt 0.6893 0.3562
vt 0.6905 0.3336
vt 0.6939 0.3356
vt 0.6812 0.3121
vt 0.6751 0.3121
vt 0.6723 0.2989
vt 0.6797 0.2989
vt 0.6710 0.2888
vt 0.6768 0.2888
vt 0.7021 0.2989
vt 0.6975 0.2888
vt 0.7033 0.2888
vt 0.6820 0.2909
vt 0.6814 0.2787
vt 0.6843 0.2828
vt 0.6872 0.2763
vt 0.6843 0.2696
vt 0.6691 0.3043
vt 0.6963 0.3253
vt 0.6992 0.3121
vt 0.7024 0.3172
vt 0.6924 0.2909
vt 0.6872 0.2930
vt 0.6872 0.2870
vt 0.6901 0.2828
vt 0.6932 0.3121
vt 0.6872 0.3121
vt 0.6872 0.2989
vt 0.6946 0.2989
vt 0.6839 0.3336
vt 0.6872 0.3315
vt 0.6872 0.3377
vt 0.6851 0.3418
vt 0.9351 0.3490
vt 0.9372 0.3418
vt 0.9393 0.3459
vt 0.9372 0.3562
vt 0.9384 0.3336
vt 0.9418 0.3356
vt 0.9291 0.3121
vt 0.9232 0.3121
vt 0.9203 0.2989
vt 0.9277 0.2989
vt 0.9190 0.2888
vt 0.9248 0.2888
vt 0.9500 0.2989
vt 0.9455 0.2888
vt 0.9513 0.2888
vt 0.9299 0.2909
vt 0.9293 0.2787
vt 0.9322 0.2828
vt 0.9351 0.2763
vt 0.9322 0.2696
vt 0.9171 0.3043
vt 0.9443 0.3253
vt 0.9471 0.3121
vt 0.9503 0.3172
vt 0.9403 0.2909
vt 0.9351 0.2930
vt 0.9351 0.2870
vt 0.9381 0.2828
vt 0.9411 0.3121
vt 0.9351 0.3121
vt 0.9351 0.2989
vt 0.9426 0.2989
vt 0.9318 0.3336
vt 0.9351 0.3315
vt 0.9351 0.3377
vt 0.9331 0.3418
vt 0.9351 0.3490
vt 0.9372 0.3418
vt 0.9393 0.3459
vt 0.9372 0.3562
vt 0.9384 0.3336
vt 0.9418 0.3356
vt 0.9291 0.3121
vt 0.9232 0.3121
vt 0.9203 0.2989
vt 0.9277 0.2989
vt 0.9190 0.2888
vt 0.9248 0.2888
vt 0.9500 0.2989
vt 0.9455 0.2888
vt 0.9513 0.2888
vt 0.9299 0.2909
vt 0.9293 0.2787
vt 0.9322 0.2828
vt 0.9351 0.2763
vt 0.9322 0.2696
vt 0.9171 0.3043
vt 0.9443 0.3253
vt 0.9471 0.3121
vt 0.9503 0.3172
vt 0.9403 0.2909
vt 0.9351 0.2930
vt 0.9351 0.2870
vt 0.9381 0.2828
vt 0.9411 0.3121
vt 0.9351 0.3121
vt 0.9351 0.2989
vt 0.9426 0.2989
vt 0.9318 0.3336
vt 0.9351 0.3315
vt 0.9351 0.3377
vt 0.9331 0.3418
vt 0.8144 0.3490
vt 0.8165 0.3418
vt 0.8186 0.3459
vt 0.8165 0.3562
vt 0.8177 0.3336
vt 0.8210 0.3356
vt 0.8084 0.3121
vt 0.8023 0.3121
vt 0.7995 0.2989
vt 0.8069 0.2989
vt 0.7982 0.2888
vt 0.8040 0.2888
vt 0.8293 0.2989
vt 0.8248 0.2888
vt 0.8305 0.2888
vt 0.8092 0.2909
vt 0.8086 0.2787
vt 0.8115 0.2828
vt 0.8144 0.2763
vt 0.8115 0.2696
vt 0.7964 0.3043
vt 0.8235 0.3253
vt 0.8264 0.3121
vt 0.8296 0.3172
vt 0.8196 0.2909
vt 0.8144 0.2930
vt 0.8144 0.2870
vt 0.8173 0.2828
vt 0.8204 0.3121
vt 0.8144 0.3121
vt 0.8144 0.2989
vt 0.8219 0.2989
vt 0.8110 0.3336
vt 0.8144 0.3315
vt 0.8144 0.3377
vt 0.8123 0.3418
vt 0.6872 0.3490
vt 0.6893 0.3418
vt 0.6872 0.3377
vt 0.6851 0.3418
vt 0.6905 0.3336
vt 0.6939 0.3356
vt 0.6963 0.3253
vt 0.6918 0.3253
vt 0.6812 0.3121
vt 0.6751 0.3121
vt 0.6780 0.3253
vt 0.6826 0.3253
vt 0.6814 0.2787
vt 0.6755 0.2787
vt 0.6768 0.2888
vt 0.7046 0.2787
vt 0.6988 0.2787
vt 0.7033 0.2888
vt 0.6820 0.2909
vt 0.6723 0.2989
vt 0.6797 0.2989
vt 0.6872 0.2763
vt 0.6843 0.2828
vt 0.6872 0.2870
vt 0.6901 0.2828
vt 0.6660 0.3096
vt 0.6720 0.3174
vt 0.6691 0.3043
vt 0.7084 0.3091
vt 0.7053 0.3040
vt 0.7024 0.3172
vt 0.6924 0.2909
vt 0.6872 0.2930
vt 0.6872 0.2989
vt 0.6946 0.2989
vt 0.6932 0.3121
vt 0.6872 0.3121
vt 0.6872 0.3253
vt 0.6839 0.3336
vt 0.6872 0.3315
vt 0.9351 0.3490
vt 0.9372 0.3418
vt 0.9351 0.3377
vt 0.9331 0.3418
vt 0.9384 0.3336
vt 0.9418 0.3356
vt 0.9443 0.3253
vt 0.9397 0.3253
vt 0.9291 0.3121
vt 0.9232 0.3121
vt 0.9260 0.3253
vt 0.9305 0.3253
vt 0.9293 0.2787
vt 0.9235 0.2787
vt 0.9248 0.2888
vt 0.9526 0.2787
vt 0.9468 0.2787
vt 0.9513 0.2888
vt 0.9299 0.2909
vt 0.9203 0.2989
vt 0.9277 0.2989
vt 0.9351 0.2763
vt 0.9322 0.2828
vt 0.9351 0.2870
vt 0.9381 0.2828
vt 0.9139 0.3096
vt 0.9200 0.3174
vt 0.9171 0.3043
vt 0.9564 0.3091
vt 0.9532 0.3040
vt 0.9503 0.3172
vt 0.9403 0.2909
vt 0.9351 0.2930
vt 0.9351 0.2989
vt 0.9426 0.2989
vt 0.9411 0.3121
vt 0.9351 0.3121
vt 0.9351 0.3253
vt 0.9318 0.3336
vt 0.9351 0.3315
vt 0.9351 0.3490
vt 0.9372 0.3418
vt 0.9351 0.3377
vt 0.9331 0.3418
vt 0.9384 0.3336
vt 0.9418 0.3356
vt 0.9443 0.3253
vt 0.9397 0.3253
vt 0.9291 0.3121
vt 0.9232 0.3121
vt 0.9260 0.3253
vt 0.9305 0.3253
vt 0.9293 0.2787
vt 0.9235 0.2787
vt 0.9248 0.2888
vt 0.9526 0.2787
vt 0.9468 0.2787
vt 0.9513 0.2888
vt 0.9299 0.2909
vt 0.9203 0.2989
vt 0.9277 0.2989
vt 0.9351 0.2763
vt 0.9322 0.2828
vt 0.9351 0.2870
vt 0.9381 0.2828
vt 0.9139 0.3096
vt 0.9200 0.3174
vt 0.9171 0.3043
vt 0.9564 0.3091
vt 0.9532 0.3040
vt 0.9503 0.3172
vt 0.9403 0.2909
vt 0.9351 0.2930
vt 0.9351 0.2989
vt 0.9426 0.2989
vt 0.9411 0.3121
vt 0.9351 0.3121
vt 0.9351 0.3253
vt 0.9318 0.3336
vt 0.9351 0.3315
vt 0.8144 0.3490
vt 0.8165 0.3418
vt 0.8144 0.3377
vt 0.8123 0.3418
vt 0.8177 0.3336
vt 0.8210 0.3356
vt 0.8235 0.3253
vt 0.8189 0.3253
vt 0.8084 0.3121
vt 0.8023 0.3121
vt 0.8052 0.3253
vt 0.8098 0.3253
vt 0.8086 0.2787
vt 0.8027 0.2787
vt 0.8040 0.2888
vt 0.8318 0.2787
vt 0.8260 0.2787
vt 0.8305 0.2888
vt 0.8092 0.2909
vt 0.7995 0.2989
vt 0.8069 0.2989
vt 0.8144 0.2763
vt 0.8115 0.2828
vt 0.8144 0.2870
vt 0.8173 0.2828
vt 0.7932 0.3096
vt 0.7992 0.3174
vt 0.7964 0.3043
vt 0.8356 0.3091
vt 0.8325 0.3040
vt 0.8296 0.3172
vt 0.8196 0.2909
vt 0.8144 0.2930
vt 0.8144 0.2989
vt 0.8219 0.2989
vt 0.8204 0.3121
vt 0.8144 0.3121
vt 0.8144 0.3253
vt 0.8110 0.3336
vt 0.8144 0.3315
vt 0.8077 0.3356
vt 0.8102 0.3459
vt 0.8264 0.3121
vt 0.8293 0.2989
vt 0.8248 0.2888
vt 0.8202 0.2787
vt 0.8173 0.2696
vt 0.8144 0.2606
vt 0.8115 0.2696
vt 0.7982 0.2888
vt 0.7969 0.2787
vt 0.8186 0.3459
vt 0.8123 0.3562
vt 0.8144 0.3666
vt 0.8165 0.3562
vt 0.9285 0.3356
vt 0.9310 0.3459
vt 0.9471 0.3121
vt 0.9500 0.2989
vt 0.9455 0.2888
vt 0.9410 0.2787
vt 0.9381 0.2696
vt 0.9351 0.2606
vt 0.9322 0.2696
vt 0.9190 0.2888
vt 0.9177 0.2787
vt 0.9393 0.3459
vt 0.9331 0.3562
vt 0.9351 0.3666
vt 0.9372 0.3562
vt 0.9285 0.3356
vt 0.9310 0.3459
vt 0.9471 0.3121
vt 0.9500 0.2989
vt 0.9455 0.2888
vt 0.9410 0.2787
vt 0.9381 0.2696
vt 0.9351 0.2606
vt 0.9322 0.2696
vt 0.9190 0.2888
vt 0.9177 0.2787
vt 0.9393 0.3459
vt 0.9331 0.3562
vt 0.9351 0.3666
vt 0.9372 0.3562
vt 0.6805 0.3356
vt 0.6830 0.3459
vt 0.6992 0.3121
vt 0.7021 0.2989
vt 0.6975 0.2888
vt 0.6930 0.2787
vt 0.6901 0.2696
vt 0.6872 0.2606
vt 0.6843 0.2696
vt 0.6710 0.2888
vt 0.6697 0.2787
vt 0.6914 0.3459
vt 0.6851 0.3562
vt 0.6872 0.3666
vt 0.6893 0.3562
vt 0.8077 0.3356
vt 0.8102 0.3459
vt 0.8052 0.3253
vt 0.8098 0.3253
vt 0.8144 0.3253
vt 0.8189 0.3253
vt 0.8202 0.2787
vt 0.8325 0.3040
vt 0.8356 0.3091
vt 0.7992 0.3174
vt 0.7932 0.3096
vt 0.8173 0.2696
vt 0.8144 0.2606
vt 0.8260 0.2787
vt 0.8318 0.2787
vt 0.8027 0.2787
vt 0.7969 0.2787
vt 0.8123 0.3562
vt 0.8144 0.3666
vt 0.9285 0.3356
vt 0.9310 0.3459
vt 0.9260 0.3253
vt 0.9305 0.3253
vt 0.9351 0.3253
vt 0.9397 0.3253
vt 0.9410 0.2787
vt 0.9532 0.3040
vt 0.9564 0.3091
vt 0.9200 0.3174
vt 0.9139 0.3096
vt 0.9381 0.2696
vt 0.9351 0.2606
vt 0.9468 0.2787
vt 0.9526 0.2787
vt 0.9235 0.2787
vt 0.9177 0.2787
vt 0.9331 0.3562
vt 0.9351 0.3666
vt 0.9285 0.3356
vt 0.9310 0.3459
vt 0.9260 0.3253
vt 0.9305 0.3253
vt 0.9351 0.3253
vt 0.9397 0.3253
vt 0.9410 0.2787
vt 0.9532 0.3040
vt 0.9564 0.3091
vt 0.9200 0.3174
vt 0.9139 0.3096
vt 0.9381 0.2696
vt 0.9351 0.2606
vt 0.9468 0.2787
vt 0.9526 0.2787
vt 0.9235 0.2787
vt 0.9177 0.2787
vt 0.9331 0.3562
vt 0.9351 0.3666
vt 0.6805 0.3356
vt 0.6830 0.3459
vt 0.6780 0.3253
vt 0.6826 0.3253
vt 0.6872 0.3253
vt 0.6918 0.3253
vt 0.6930 0.2787
vt 0.7053 0.3040
vt 0.7084 0.3091
vt 0.6720 0.3174
vt 0.6660 0.3096
vt 0.6901 0.2696
vt 0.6872 0.2606
vt 0.6988 0.2787
vt 0.7046 0.2787
vt 0.6755 0.2787
vt 0.6697 0.2787
vt 0.6851 0.3562
vt 0.6872 0.3666
vt 0.8229 0.8013
vt 0.8155 0.8045
vt 0.8081 0.8076
vt 0.9016 0.8960
vt 0.8989 0.8960
vt 0.9043 0.8960
vt 0.9155 0.9442
vt 0.9132 0.9682
vt 0.9110 0.9923
vt 0.9176 0.8968
vt 0.9149 0.8965
vt 0.9204 0.8971
vt 0.9180 0.9207
vt 0.9069 0.8960
vt 0.9096 0.8961
vt 0.8960 0.8960
vt 0.8932 0.8961
vt 0.9123 0.8963
vt 0.8036 0.8565
vt 0.8039 0.8571
vt 0.8033 0.8560
vt 0.9296 0.9399
vt 0.9295 0.9416
vt 0.9298 0.9383
vt 0.9298 0.9367
vt 0.9298 0.9350
vt 0.9490 0.9367
vt 0.9682 0.9383
vt 0.9296 0.9433
vt 0.9298 0.9450
vt 0.8034 0.8514
vt 0.8042 0.8519
vt 0.8027 0.8510
vt 0.9564 0.9597
vt 0.9565 0.9581
vt 0.9564 0.9614
vt 0.9562 0.9631
vt 0.9561 0.9647
vt 0.9428 0.9635
vt 0.9295 0.9623
vt 0.9563 0.9564
vt 0.9561 0.9548
vt 0.8027 0.8553
vt 0.8027 0.8546
vt 0.8027 0.8559
vt 0.9533 0.9233
vt 0.9651 0.9240
vt 0.9769 0.9248
vt 0.9298 0.9265
vt 0.9295 0.9292
vt 0.9301 0.9237
vt 0.9298 0.9208
vt 0.9295 0.9180
vt 0.9414 0.9207
vt 0.9295 0.9320
vt 0.9295 0.9349
vt 0.8034 0.8533
vt 0.8042 0.8537
vt 0.8027 0.8528
vt 0.9596 0.9032
vt 0.9745 0.9042
vt 0.9894 0.9051
vt 0.9299 0.9072
vt 0.9295 0.9107
vt 0.9303 0.9037
vt 0.9299 0.9001
vt 0.9295 0.8965
vt 0.9445 0.8999
vt 0.9295 0.9143
vt 0.9295 0.9179
vn 0.2600 -0.8346 -0.4857
vn 0.2744 -0.8298 -0.4859
vn 0.2983 -0.8149 0.4969
vn 0.2944 -0.8160 0.4975
vn 0.0559 0.0119 0.9984
vn 0.0378 0.0114 0.9992
vn -0.2028 0.8396 0.5038
vn -0.1677 0.8473 0.5039
vn -0.2102 0.8482 -0.4862
vn -0.2368 0.8409 -0.4867
vn 0.0291 -0.0013 -0.9996
vn 0.0363 0.0057 -0.9993
vn 0.2882 -0.8248 -0.4864
vn 0.9095 -0.2326 -0.3446
vn 0.3726 -0.7792 0.5040
vn 0.3011 -0.8086 0.5055
vn 0.0216 0.0063 0.9997
vn 0.6516 0.3039 0.6950
vn -0.1992 0.8426 0.5003
vn -0.2450 0.8302 0.5007
vn -0.2636 0.8316 -0.4888
vn 0.3818 0.8541 -0.3531
vn 0.0801 0.0305 -0.9963
vn 0.0185 0.0092 -0.9998
vn -0.5117 -0.8346 0.2040
vn -0.5229 -0.8298 0.1948
vn 0.0920 -0.8149 -0.5723
vn 0.0953 -0.8160 -0.5702
vn 0.6003 0.0119 -0.7997
vn 0.6147 0.0114 -0.7887
vn 0.4797 0.8396 -0.2547
vn 0.4529 0.8473 -0.2774
vn -0.1524 0.8482 0.5073
vn -0.1324 0.8409 0.5248
vn -0.6662 -0.0013 0.7458
vn -0.6715 0.0057 0.7410
vn -0.5338 -0.8248 0.1864
vn -0.9176 -0.2326 -0.3223
vn 0.0396 -0.7792 -0.6255
vn 0.0954 -0.8086 -0.5806
vn 0.6275 0.0063 -0.7786
vn -0.0507 0.3039 -0.9513
vn 0.4746 0.8426 -0.2543
vn 0.5099 0.8302 -0.2252
vn -0.1132 0.8316 0.5437
vn -0.5195 0.8541 0.0242
vn -0.7030 0.0305 0.7105
vn -0.6582 0.0092 0.7528
vn 0.2232 -0.8619 0.4553
vn -0.4627 -0.4977 0.7337
vn -0.4091 -0.8559 -0.3164
vn -0.3236 -0.8681 -0.3764
vn -0.5552 -0.0133 -0.8316
vn -0.9840 0.0789 -0.1597
vn -0.3393 0.8584 -0.3846
vn -0.2672 0.8618 -0.4313
vn 0.2798 0.8720 0.4017
vn -0.3527 0.6781 0.6448
vn 0.4345 0.0183 0.9005
vn 0.5132 0.0138 0.8582
vn -0.3485 -0.8527 -0.3892
vn 0.1194 -0.4344 -0.8928
vn 0.5155 -0.8502 0.1068
vn 0.4948 -0.8586 0.1344
vn 0.8532 -0.0121 0.5215
vn 0.9635 0.1489 -0.2224
vn 0.3946 0.8568 0.3319
vn 0.3773 0.8546 0.3567
vn -0.4681 0.8677 -0.1675
vn -0.0637 0.7789 -0.6239
vn -0.8123 0.0183 -0.5829
vn -0.8303 0.0159 -0.5571
vn -0.7776 0.0341 -0.6278
vn -0.7765 0.0205 -0.6298
vn -0.2393 0.0183 -0.9708
vn -0.2484 0.0322 -0.9681
vn -0.7774 0.0102 -0.6289
vn -0.6935 0.2896 -0.6597
vn -0.2066 0.0775 -0.9753
vn -0.2233 0.0038 -0.9747
vn 0.2617 -0.0018 0.9651
vn 0.2582 0.0177 0.9659
vn -0.3964 0.0241 0.9178
vn -0.3747 0.0044 0.9271
vn 0.2465 0.0414 0.9683
vn 0.3635 0.3240 0.8734
vn -0.4236 0.2078 0.8817
vn -0.4111 0.0514 0.9101
vn 0.3877 0.0216 -0.9215
vn 0.4132 0.0095 -0.9106
vn 0.8622 0.0120 -0.5065
vn 0.8378 0.0157 -0.5457
vn 0.4696 0.0035 -0.8829
vn 0.2171 0.3292 -0.9190
vn 0.8542 0.2926 -0.4298
vn 0.8847 0.0192 -0.4657
vn -0.8644 0.0154 0.5025
vn -0.8829 0.0248 0.4688
vn -0.9946 0.0251 -0.1004
vn -0.9962 0.0300 -0.0815
vn -0.8819 0.0413 0.4696
vn -0.8532 0.3076 0.4213
vn -0.9868 0.1431 -0.0754
vn -0.9948 0.0282 -0.0974
vn 0.9998 0.0081 0.0163
vn 0.9983 0.0156 0.0565
vn 0.7764 0.0192 0.6300
vn 0.7872 0.0031 0.6167
vn 0.9964 0.0265 0.0811
vn 0.9309 0.2449 0.2709
vn 0.7554 0.0868 0.6494
vn 0.7652 0.0379 0.6427
vn 0.1586 0.9241 0.3477
vn -0.3117 0.8626 -0.3985
vn -0.0422 0.9069 0.4193
vn 0.0152 0.9019 0.4317
vn 0.0085 0.9041 0.4272
vn -0.0369 0.9078 0.4177
vn 0.0743 0.8940 0.4419
vn 0.0903 0.8913 0.4443
vn -0.1760 0.9017 0.3949
vn -0.3240 0.8833 0.3387
vn -0.2535 0.8768 0.4087
vn -0.1724 0.8938 0.4140
vn -0.3659 0.7956 0.4828
vn -0.2880 0.8331 0.4722
vn 0.1452 0.8571 0.4943
vn 0.0862 0.8003 0.5934
vn -0.0197 0.8109 0.5849
vn -0.1635 0.8782 0.4494
vn -0.1190 0.8438 0.5233
vn -0.0006 0.8444 0.5358
vn 0.2064 0.8067 0.5537
vn 0.2279 0.8215 0.5227
vn -0.4128 0.8576 0.3067
vn 0.1570 0.8977 0.4116
vn 0.2492 0.8905 0.3807
vn 0.3717 0.8675 0.3305
vn 0.1866 0.8091 0.5573
vn 0.0357 0.8744 0.4839
vn 0.1180 0.8397 0.5301
vn 0.2516 0.7710 0.5850
vn 0.0976 0.9038 0.4167
vn -0.0392 0.9089 0.4152
vn -0.0189 0.8977 0.4402
vn 0.1148 0.8705 0.4786
vn -0.1602 0.8901 0.4268
vn -0.0431 0.8996 0.4347
vn -0.0430 0.8999 0.4339
vn -0.1005 0.9000 0.4242
vn 0.1938 0.8825 0.4286
vn 0.2484 0.8792 0.4066
vn 0.2403 0.8813 0.4068
vn 0.1973 0.8837 0.4243
vn 0.3032 0.8731 0.3818
vn 0.3178 0.8710 0.3747
vn 0.0691 0.8732 0.4824
vn -0.0850 0.8518 0.5169
vn 0.0125 0.8446 0.5353
vn 0.0828 0.8645 0.4957
vn -0.0391 0.7554 0.6541
vn 0.0195 0.7965 0.6044
vn 0.3915 0.8365 0.3834
vn 0.3979 0.7725 0.4948
vn 0.3052 0.7793 0.5472
vn 0.1100 0.8476 0.5191
vn 0.1882 0.8113 0.5535
vn 0.2935 0.8160 0.4981
vn 0.4756 0.7857 0.3956
vn 0.4761 0.8029 0.3588
vn -0.1765 0.8242 0.5381
vn 0.3550 0.8816 0.3109
vn 0.4143 0.8796 0.2336
vn 0.4882 0.8641 0.1225
vn 0.4612 0.7871 0.4097
vn 0.2946 0.8499 0.4368
vn 0.3889 0.8163 0.4272
vn 0.5308 0.7503 0.3941
vn 0.3085 0.8851 0.3485
vn 0.1940 0.8848 0.4237
vn 0.2249 0.8732 0.4324
vn 0.3574 0.8495 0.3882
vn 0.1000 0.8607 0.4993
vn 0.2016 0.8744 0.4413
vn 0.2013 0.8748 0.4407
vn 0.1481 0.8730 0.4646
vn 0.1856 0.8982 -0.3984
vn 0.1313 0.8974 -0.4213
vn 0.1372 0.8991 -0.4156
vn 0.1801 0.8996 -0.3978
vn 0.0747 0.8937 -0.4424
vn 0.0593 0.8922 -0.4477
vn 0.3118 0.8835 -0.3496
vn 0.4450 0.8548 -0.2670
vn 0.3885 0.8529 -0.3489
vn 0.3112 0.8757 -0.3691
vn 0.5065 0.7632 -0.4013
vn 0.4309 0.8063 -0.4051
vn 0.0123 0.8617 -0.5073
vn 0.0845 0.8000 -0.5940
vn 0.1873 0.8029 -0.5659
vn 0.3079 0.8606 -0.4056
vn 0.2756 0.8290 -0.4867
vn 0.1620 0.8381 -0.5210
vn -0.0402 0.8155 -0.5774
vn -0.0660 0.8320 -0.5508
vn 0.5242 0.8229 -0.2191
vn -0.0117 0.9037 -0.4280
vn -0.1083 0.9034 -0.4148
vn -0.2393 0.8898 -0.3885
vn -0.0200 0.8163 -0.5772
vn 0.1189 0.8710 -0.4766
vn 0.0444 0.8421 -0.5375
vn -0.0814 0.7829 -0.6168
vn 0.0479 0.9054 -0.4219
vn 0.1820 0.9005 -0.3950
vn 0.1660 0.8906 -0.4234
vn 0.0401 0.8730 -0.4861
vn 0.3014 0.8728 -0.3839
vn 0.1888 0.8908 -0.4134
vn 0.1886 0.8911 -0.4127
vn 0.2432 0.8871 -0.3924
vn -0.4605 0.8872 0.0288
vn -0.4597 0.8838 0.0876
vn -0.4569 0.8859 0.0800
vn -0.4578 0.8884 0.0336
vn -0.4562 0.8775 0.1477
vn -0.4549 0.8753 0.1638
vn -0.4660 0.8783 -0.1070
vn -0.4430 0.8570 -0.2632
vn -0.4954 0.8501 -0.1788
vn -0.4835 0.8698 -0.0990
vn -0.5885 0.7621 -0.2699
vn -0.5628 0.8027 -0.1973
vn -0.4899 0.8411 0.2294
vn -0.5968 0.7783 0.1952
vn -0.6123 0.7855 0.0899
vn -0.5152 0.8531 -0.0820
vn -0.5758 0.8173 -0.0215
vn -0.5619 0.8215 0.0967
vn -0.5320 0.7905 0.3034
vn -0.4977 0.8073 0.3171
vn -0.4302 0.8295 -0.3562
vn -0.4087 0.8854 0.2215
vn -0.3579 0.8827 0.3046
vn -0.2809 0.8661 0.4135
vn -0.5400 0.7920 0.2849
vn -0.5048 0.8549 0.1198
vn -0.5300 0.8213 0.2112
vn -0.5508 0.7552 0.3554
vn -0.4270 0.8892 0.1646
vn -0.4560 0.8895 0.0307
vn -0.4753 0.8780 0.0564
vn -0.4819 0.8540 0.1959
vn -0.4930 0.8659 -0.0842
vn -0.4753 0.8792 0.0315
vn -0.4746 0.8796 0.0314
vn -0.4778 0.8781 -0.0268
vn 0.0422 -0.9069 -0.4193
vn -0.0152 -0.9019 -0.4317
vn 0.0430 -0.8999 -0.4339
vn 0.1005 -0.9000 -0.4242
vn -0.0743 -0.8940 -0.4419
vn -0.0903 -0.8913 -0.4443
vn -0.1570 -0.8977 -0.4116
vn -0.0930 -0.8991 -0.4278
vn 0.1760 -0.9017 -0.3949
vn 0.3240 -0.8833 -0.3387
vn 0.2385 -0.8911 -0.3860
vn 0.1770 -0.8946 -0.4103
vn 0.1190 -0.8438 -0.5232
vn 0.3628 -0.7843 -0.5032
vn 0.2881 -0.8331 -0.4722
vn 0.0519 -0.8009 -0.5965
vn -0.0072 -0.7997 -0.6003
vn 0.0197 -0.8109 -0.5849
vn 0.1635 -0.8783 -0.4494
vn 0.2535 -0.8768 -0.4087
vn 0.1724 -0.8938 -0.4140
vn -0.2064 -0.8067 -0.5538
vn 0.0006 -0.8444 -0.5358
vn -0.1180 -0.8397 -0.5301
vn -0.2516 -0.7710 -0.5851
vn 0.4741 -0.8425 -0.2556
vn 0.4365 -0.8551 -0.2797
vn 0.4129 -0.8576 -0.3067
vn -0.4141 -0.8555 -0.3109
vn -0.3332 -0.8689 -0.3660
vn -0.3717 -0.8675 -0.3305
vn -0.1866 -0.8090 -0.5573
vn -0.0357 -0.8744 -0.4839
vn 0.0189 -0.8977 -0.4402
vn -0.1148 -0.8705 -0.4786
vn -0.0976 -0.9038 -0.4167
vn 0.0392 -0.9089 -0.4152
vn 0.0424 -0.9051 -0.4231
vn 0.1602 -0.8901 -0.4268
vn 0.0431 -0.8996 -0.4347
vn -0.1938 -0.8825 -0.4286
vn -0.2484 -0.8792 -0.4066
vn -0.2013 -0.8748 -0.4407
vn -0.1481 -0.8730 -0.4646
vn -0.3032 -0.8731 -0.3818
vn -0.3178 -0.8710 -0.3747
vn -0.3550 -0.8816 -0.3109
vn -0.3108 -0.8797 -0.3600
vn -0.0691 -0.8732 -0.4824
vn 0.0850 -0.8518 -0.5169
vn -0.0123 -0.8606 -0.5091
vn -0.0769 -0.8653 -0.4953
vn -0.1882 -0.8113 -0.5535
vn 0.0251 -0.7433 -0.6685
vn -0.0194 -0.7965 -0.6044
vn -0.2851 -0.7675 -0.5741
vn -0.3362 -0.7685 -0.5444
vn -0.3052 -0.7793 -0.5472
vn -0.1100 -0.8476 -0.5191
vn -0.0125 -0.8446 -0.5353
vn -0.0828 -0.8645 -0.4957
vn -0.4756 -0.7857 -0.3956
vn -0.2935 -0.8160 -0.4981
vn -0.3889 -0.8163 -0.4272
vn -0.5308 -0.7503 -0.3941
vn 0.2557 -0.8093 -0.5288
vn 0.2112 -0.8221 -0.5287
vn 0.1765 -0.8242 -0.5381
vn -0.5126 -0.8547 -0.0819
vn -0.4760 -0.8622 -0.1733
vn -0.4883 -0.8641 -0.1225
vn -0.4612 -0.7871 -0.4097
vn -0.2946 -0.8499 -0.4368
vn -0.2249 -0.8732 -0.4324
vn -0.3574 -0.8495 -0.3882
vn -0.3085 -0.8851 -0.3485
vn -0.1940 -0.8848 -0.4237
vn -0.1957 -0.8805 -0.4317
vn -0.1000 -0.8607 -0.4993
vn -0.2016 -0.8744 -0.4413
vn -0.1856 -0.8982 0.3984
vn -0.1313 -0.8974 0.4213
vn -0.1886 -0.8911 0.4127
vn -0.2432 -0.8871 0.3924
vn -0.0747 -0.8937 0.4424
vn -0.0593 -0.8922 0.4477
vn 0.0117 -0.9037 0.4280
vn -0.0542 -0.9003 0.4320
vn -0.3118 -0.8835 0.3496
vn -0.4450 -0.8548 0.2669
vn -0.3706 -0.8684 0.3293
vn -0.3151 -0.8762 0.3646
vn -0.2756 -0.8290 0.4866
vn -0.5064 -0.7520 0.4219
vn -0.4310 -0.8063 0.4051
vn -0.2203 -0.7905 0.5714
vn -0.1630 -0.7936 0.5862
vn -0.1873 -0.8029 0.5659
vn -0.3079 -0.8606 0.4056
vn -0.3885 -0.8529 0.3488
vn -0.3112 -0.8757 0.3691
vn 0.0403 -0.8155 0.5774
vn -0.1620 -0.8381 0.5210
vn -0.0444 -0.8421 0.5375
vn 0.0814 -0.7829 0.6168
vn -0.5736 -0.8038 0.1576
vn -0.5422 -0.8189 0.1882
vn -0.5242 -0.8229 0.2191
vn 0.2854 -0.8811 0.3772
vn 0.1949 -0.8882 0.4161
vn 0.2394 -0.8898 0.3885
vn 0.0200 -0.8163 0.5772
vn -0.1189 -0.8710 0.4766
vn -0.1660 -0.8906 0.4234
vn -0.0401 -0.8730 0.4861
vn -0.0479 -0.9054 0.4219
vn -0.1820 -0.9005 0.3950
vn -0.1864 -0.8964 0.4021
vn -0.3014 -0.8728 0.3839
vn -0.1888 -0.8908 0.4134
vn 0.4605 -0.8872 -0.0288
vn 0.4597 -0.8838 -0.0876
vn 0.4746 -0.8796 -0.0314
vn 0.4778 -0.8781 0.0269
vn 0.4562 -0.8775 -0.1477
vn 0.4549 -0.8753 -0.1638
vn 0.4087 -0.8854 -0.2215
vn 0.4386 -0.8838 -0.1626
vn 0.4660 -0.8783 0.1070
vn 0.4430 -0.8570 0.2632
vn 0.4707 -0.8659 0.1696
vn 0.4809 -0.8705 0.1043
vn 0.5758 -0.8173 0.0215
vn 0.6071 -0.7502 0.2620
vn 0.5628 -0.8027 0.1973
vn 0.6303 -0.7739 -0.0614
vn 0.6210 -0.7746 -0.1198
vn 0.6123 -0.7855 -0.0899
vn 0.5152 -0.8531 0.0821
vn 0.4953 -0.8501 0.1788
vn 0.4834 -0.8698 0.0990
vn 0.5320 -0.7905 -0.3034
vn 0.5619 -0.8216 -0.0967
vn 0.5300 -0.8213 -0.2112
vn 0.5508 -0.7552 -0.3554
vn 0.3933 -0.8143 0.4269
vn 0.4090 -0.8272 0.3852
vn 0.4302 -0.8295 0.3563
vn 0.2519 -0.8563 -0.4508
vn 0.3240 -0.8647 -0.3838
vn 0.2809 -0.8661 -0.4136
vn 0.5400 -0.7920 -0.2849
vn 0.5048 -0.8549 -0.1199
vn 0.4753 -0.8780 -0.0564
vn 0.4819 -0.8540 -0.1959
vn 0.4270 -0.8892 -0.1646
vn 0.4560 -0.8895 -0.0307
vn 0.4642 -0.8853 -0.0294
vn 0.4930 -0.8659 0.0842
vn 0.4753 -0.8792 -0.0315
vn 0.4967 -0.8622 0.0997
vn 0.4729 -0.8809 0.0207
vn 0.3579 -0.8827 -0.3047
vn 0.4899 -0.8411 -0.2294
vn 0.5968 -0.7783 -0.1952
vn 0.5521 -0.7607 -0.3414
vn 0.4751 -0.7862 -0.3951
vn 0.4663 -0.7972 -0.3834
vn 0.4977 -0.8073 -0.3172
vn 0.5885 -0.7621 0.2699
vn 0.6126 -0.7365 0.2867
vn 0.4569 -0.8859 -0.0800
vn 0.4595 -0.8879 -0.0232
vn 0.4582 -0.8884 -0.0283
vn 0.4578 -0.8884 -0.0336
vn -0.3169 -0.8685 0.3812
vn -0.2357 -0.8900 0.3902
vn 0.1083 -0.9034 0.4148
vn -0.0123 -0.8617 0.5073
vn -0.0844 -0.8000 0.5940
vn 0.0679 -0.7878 0.6122
vn 0.1471 -0.8139 0.5621
vn 0.1396 -0.8241 0.5490
vn 0.0661 -0.8320 0.5508
vn -0.5066 -0.7631 0.4013
vn -0.5308 -0.7374 0.4176
vn -0.1372 -0.8991 0.4156
vn -0.1903 -0.8987 0.3952
vn -0.1851 -0.8994 0.3961
vn -0.1802 -0.8996 0.3978
vn -0.0869 -0.8568 -0.5082
vn -0.1520 -0.8759 -0.4579
vn -0.4143 -0.8796 -0.2336
vn -0.3915 -0.8365 -0.3834
vn -0.3979 -0.7725 -0.4948
vn -0.5182 -0.7557 -0.4004
vn -0.5407 -0.7822 -0.3095
vn -0.5267 -0.7932 -0.3056
vn -0.4761 -0.8029 -0.3588
vn 0.0392 -0.7554 -0.6541
vn 0.0462 -0.7295 -0.6824
vn -0.2403 -0.8813 -0.4068
vn -0.1883 -0.8832 -0.4296
vn -0.1925 -0.8837 -0.4266
vn -0.1973 -0.8837 -0.4243
vn 0.1763 -0.8869 -0.4270
vn 0.0934 -0.9024 -0.4206
vn -0.2492 -0.8905 -0.3807
vn -0.1452 -0.8571 -0.4943
vn -0.0862 -0.8003 -0.5934
vn -0.2379 -0.7769 -0.5830
vn -0.3081 -0.7974 -0.5189
vn -0.2991 -0.8082 -0.5072
vn -0.2279 -0.8215 -0.5227
vn 0.3660 -0.7956 -0.4828
vn 0.3886 -0.7716 -0.5036
vn -0.0085 -0.9041 -0.4272
vn 0.0473 -0.9077 -0.4170
vn 0.0421 -0.9080 -0.4169
vn 0.0369 -0.9078 -0.4177
vn -0.4967 0.8622 -0.0997
vn -0.4729 0.8809 -0.0208
vn -0.4707 0.8659 -0.1696
vn -0.4809 0.8705 -0.1043
vn -0.4642 0.8853 0.0294
vn -0.4386 0.8838 0.1626
vn -0.5521 0.7607 0.3414
vn -0.3240 0.8647 0.3838
vn -0.2520 0.8563 0.4508
vn -0.4090 0.8273 -0.3852
vn -0.3933 0.8143 -0.4268
vn -0.4751 0.7862 0.3950
vn -0.4663 0.7972 0.3834
vn -0.6210 0.7746 0.1198
vn -0.6303 0.7739 0.0613
vn -0.6071 0.7502 -0.2619
vn -0.6126 0.7365 -0.2867
vn -0.4595 0.8879 0.0232
vn -0.4582 0.8884 0.0283
vn 0.3169 0.8685 -0.3812
vn 0.2357 0.8900 -0.3902
vn 0.3706 0.8684 -0.3293
vn 0.3151 0.8762 -0.3646
vn 0.1864 0.8964 -0.4021
vn 0.0542 0.9003 -0.4320
vn -0.0679 0.7878 -0.6122
vn -0.1949 0.8882 -0.4161
vn -0.2854 0.8811 -0.3772
vn 0.5421 0.8189 -0.1882
vn 0.5736 0.8038 -0.1577
vn -0.1471 0.8139 -0.5621
vn -0.1396 0.8241 -0.5489
vn 0.1630 0.7936 -0.5862
vn 0.2203 0.7906 -0.5714
vn 0.5063 0.7521 -0.4220
vn 0.5308 0.7375 -0.4176
vn 0.1903 0.8987 -0.3952
vn 0.1851 0.8994 -0.3961
vn 0.0869 0.8568 0.5082
vn 0.1520 0.8759 0.4579
vn 0.0123 0.8606 0.5091
vn 0.0769 0.8653 0.4953
vn 0.1957 0.8805 0.4317
vn 0.3108 0.8797 0.3600
vn 0.5182 0.7557 0.4004
vn 0.4760 0.8622 0.1734
vn 0.5126 0.8547 0.0820
vn -0.2111 0.8222 0.5287
vn -0.2557 0.8093 0.5288
vn 0.5407 0.7822 0.3095
vn 0.5267 0.7932 0.3056
vn 0.3362 0.7685 0.5444
vn 0.2850 0.7675 0.5741
vn -0.0250 0.7433 0.6685
vn -0.0461 0.7296 0.6823
vn 0.1882 0.8832 0.4296
vn 0.1925 0.8837 0.4266
vn -0.1763 0.8869 0.4270
vn -0.0934 0.9024 0.4206
vn -0.2385 0.8911 0.3860
vn -0.1770 0.8946 0.4103
vn -0.0424 0.9051 0.4231
vn 0.0930 0.8991 0.4278
vn 0.2379 0.7769 0.5830
vn 0.3332 0.8689 0.3660
vn 0.4141 0.8555 0.3110
vn -0.4365 0.8552 0.2797
vn -0.4741 0.8426 0.2557
vn 0.3081 0.7974 0.5189
vn 0.2991 0.8083 0.5072
vn 0.0072 0.7997 0.6003
vn -0.0519 0.8009 0.5965
vn -0.3627 0.7844 0.5032
vn -0.3885 0.7716 0.5036
vn -0.0473 0.9077 0.4170
vn -0.0421 0.9080 0.4169
vn 1.0000 0.0057 -0.0009
vn 0.7934 -0.0011 0.6087
vn 0.8244 0.0150 -0.5658
vn -0.8510 0.0120 0.5250
vn -0.9970 0.0290 -0.0722
vn -0.3633 -0.0007 0.9317
vn 0.3714 0.0225 -0.9282
vn -0.2553 0.0331 -0.9663
vn 0.2639 -0.0064 0.9645
vn -0.7757 0.0348 -0.6301
vn -0.4789 0.8609 -0.1721
vn -0.8320 -0.0062 -0.5548
vn 0.3585 0.8639 0.3537
vn 0.8518 -0.0155 0.5236
vn 0.4601 -0.8803 0.1162
vn -0.3603 -0.8464 -0.3921
vn 0.2865 0.8698 0.4018
vn 0.5229 0.0380 0.8516
vn -0.2411 0.8789 -0.4117
vn -0.5499 -0.0029 -0.8352
vn -0.3106 -0.8725 -0.3771
vn 0.2338 -0.8563 0.4605
vn -0.1628 0.8419 0.5144
vn -0.6879 -0.1175 0.7162
vn 0.4809 0.8132 -0.3279
vn 0.5925 -0.0238 -0.8052
vn 0.0613 -0.8453 -0.5308
vn -0.4999 -0.8442 0.1937
vn -0.2068 0.8419 -0.4984
vn 0.0648 -0.1175 -0.9910
vn -0.1566 0.8132 0.5606
vn 0.0655 -0.0238 0.9976
vn 0.2950 -0.8452 0.4455
vn 0.2576 -0.8442 -0.4702
usemtl None
s 1
f 588/1/1 492/2/2 3/3/3 410/4/4
f 587/5/5 480/6/6 5/7/7 247/8/8
f 586/9/9 334/10/10 2/11/11 268/12/12
f 585/13/13 404/14/14 8/15/15 408/16/16
f 584/17/17 327/18/18 9/19/19 457/20/20
f 583/21/21 471/22/22 7/23/23 472/24/24
f 9/25/19 327/26/18 471/27/22
f 582/28/25 368/29/26 12/30/27 289/31/28
f 581/32/29 355/33/30 14/34/31 452/35/32
f 580/36/33 210/37/34 11/38/35 445/39/36
f 579/40/37 311/41/38 17/42/39 286/43/40
f 578/44/41 491/45/42 18/46/43 331/47/44
f 577/48/45 323/49/46 16/50/47 365/51/48
f 18/52/43 491/53/42 323/54/46
f 576/55/49 253/56/50 21/57/51 463/58/52
f 575/59/53 235/60/54 23/61/55 319/62/56
f 574/63/57 392/64/58 20/65/59 325/66/60
f 23/67/55 235/68/54 392/69/58
f 573/70/61 421/71/62 27/72/63 337/73/64
f 572/74/65 413/75/66 29/76/67 205/77/68
f 571/78/69 267/79/70 26/80/71 196/81/72
f 29/82/67 413/83/66 267/84/70
f 570/85/73 283/86/74 33/87/75 258/88/76
f 569/89/77 396/90/78 36/91/79 398/92/80
f 568/93/81 299/94/82 39/95/83 387/96/84
f 567/97/85 214/98/86 42/99/87 201/100/88
f 566/101/89 444/102/90 43/103/91 352/104/92
f 565/105/93 438/106/94 45/107/95 270/108/96
f 564/109/97 310/110/98 32/111/99 357/112/100
f 563/113/101 227/114/102 35/115/103 295/116/104
f 562/117/105 291/118/106 38/119/107 234/120/108
f 561/121/109 272/122/110 41/123/111 449/124/112
f 42/125/87 214/126/86 432/127/113
f 35/128/103 227/129/102 279/130/114
f 36/131/79 396/132/78 438/133/94
f 560/134/115 378/135/116 48/136/117 447/137/118
f 559/138/119 233/139/120 48/136/117 378/135/116
f 558/140/121 193/141/122 53/142/123 263/143/124
f 53/142/123 483/144/125 407/145/126
f 57/146/127 294/147/128 213/148/129
f 557/149/130 407/145/126 56/150/131 238/151/132
f 556/152/133 238/151/132 56/150/131 465/153/134
f 53/142/123 193/141/122 261/154/135
f 51/155/136 336/156/137 453/157/138
f 555/158/139 241/159/140 60/160/141 281/161/142
f 554/162/143 420/163/144 54/164/145 479/165/146
f 553/166/147 451/167/148 47/168/149 284/169/150
f 552/170/151 243/171/152 66/172/153 469/173/154
f 551/174/155 297/175/156 66/172/153 243/171/152
f 550/176/157 436/177/158 71/178/159 372/179/160
f 71/178/159 443/180/161 495/181/162
f 75/182/163 333/183/164 409/184/165
f 549/185/166 495/181/162 74/186/167 324/187/168
f 548/188/169 324/187/168 74/186/167 403/189/170
f 71/178/159 436/177/158 367/190/171
f 69/191/172 262/192/173 428/193/174
f 547/194/175 318/195/176 78/196/177 339/197/178
f 546/198/179 204/199/180 72/200/181 391/201/182
f 545/202/183 383/203/184 65/204/185 231/205/186
f 544/206/187 290/207/188 84/208/189 212/209/190
f 543/210/191 346/211/192 84/208/189 290/207/188
f 542/212/193 249/213/194 89/214/195 476/215/196
f 89/214/195 246/216/197 307/217/198
f 93/218/199 486/219/200 256/220/201
f 541/221/202 307/217/198 92/222/203 461/223/204
f 540/224/205 461/223/204 92/222/203 237/225/206
f 89/214/195 249/213/194 326/226/207
f 87/227/208 335/228/209 405/229/210
f 539/230/211 450/231/212 96/232/213 475/233/214
f 538/234/215 260/235/216 90/236/217 230/237/218
f 537/238/219 435/239/220 83/240/221 385/241/222
f 536/242/223 427/243/224 102/244/225 494/245/226
f 535/246/227 345/247/228 102/244/225 427/243/224
f 534/248/229 489/249/230 107/250/231 264/251/232
f 107/250/231 459/252/233 380/253/234
f 111/254/235 259/255/236 484/256/237
f 533/257/238 380/253/234 110/258/239 194/259/240
f 532/260/241 194/259/240 110/258/239 424/261/242
f 107/250/231 489/249/230 191/262/243
f 105/263/244 309/264/245 448/265/246
f 531/266/247 192/267/248 114/268/249 257/269/250
f 530/270/251 376/271/252 108/272/253 468/273/254
f 529/274/255 271/275/256 101/276/257 349/277/258
f 528/278/259 296/279/260 120/280/261 416/281/262
f 527/282/263 423/283/264 122/284/265 266/285/266
f 526/286/267 496/287/268 126/288/269 456/289/270
f 127/290/271 338/291/272 419/292/273
f 129/293/274 222/294/275 288/295/276
f 525/296/277 419/292/273 125/297/278 422/298/279
f 524/299/280 354/300/281 132/301/282 211/302/283
f 134/303/284 371/304/285 226/305/286
f 135/306/287 251/307/288 302/308/289
f 523/309/290 199/310/291 124/311/292 277/312/293
f 522/313/294 344/314/295 123/315/296 266/285/266
f 521/316/297 229/317/298 123/315/296 456/289/270
f 520/318/299 482/319/300 138/320/301 401/321/302
f 519/322/303 321/323/304 140/324/305 232/325/306
f 518/326/307 282/327/308 144/328/309 314/329/310
f 145/330/311 440/331/312 353/332/313
f 147/333/314 287/334/315 361/335/316
f 517/336/317 353/332/313 143/337/318 394/338/319
f 516/339/320 411/340/321 150/341/322 240/342/323
f 152/343/324 370/344/325 216/345/326
f 153/346/327 316/347/328 198/348/329
f 515/349/330 273/350/331 142/351/332 488/352/333
f 514/353/334 473/354/335 141/355/336 232/325/306
f 513/356/337 248/357/338 141/355/336 314/329/310
f 512/358/339 275/359/340 156/360/341 203/361/342
f 511/362/343 439/363/344 158/364/345 366/365/346
f 510/366/347 190/367/348 162/368/349 206/369/350
f 163/370/351 360/371/352 429/372/353
f 165/373/354 215/374/355 393/375/356
f 509/376/357 429/372/353 161/377/358 431/378/359
f 508/379/360 320/380/361 168/381/362 458/382/363
f 170/383/364 313/384/365 460/385/366
f 171/386/367 343/387/368 265/388/369
f 507/389/370 202/390/371 160/391/372 430/392/373
f 506/393/374 197/394/375 159/395/376 366/365/346
f 505/396/377 356/397/378 159/395/376 206/369/350
f 504/398/379 446/399/380 174/400/381 228/401/382
f 503/402/383 301/403/384 176/404/385 454/405/386
f 502/406/387 389/407/388 180/408/389 382/409/390
f 181/410/391 242/411/392 304/412/393
f 183/413/394 397/414/395 312/415/396
f 501/416/397 304/412/393 179/417/398 300/418/399
f 500/419/400 464/420/401 186/421/402 359/422/403
f 188/423/404 474/424/405 329/425/406
f 189/426/407 306/427/408 388/428/409
f 499/429/410 341/430/411 178/431/412 425/432/413
f 498/433/414 224/434/415 177/435/416 454/405/386
f 497/436/417 379/437/418 177/435/416 382/409/390
f 308/438/419 497/436/417 382/409/390 180/408/389
f 175/439/420 228/401/382 497/436/417 308/438/419
f 228/401/382 174/400/381 379/437/418 497/436/417
f 384/440/421 498/433/414 454/405/386 176/404/385
f 185/441/422 425/432/413 498/433/414 384/440/421
f 425/432/413 178/431/412 224/434/415 498/433/414
f 466/442/423 499/429/410 425/432/413 185/441/422
f 184/443/424 359/422/403 499/429/410 466/442/423
f 359/422/403 186/421/402 341/430/411 499/429/410
f 388/428/409 384/440/421 176/404/385
f 388/428/409 306/427/408 384/440/421
f 306/427/408 185/441/422 384/440/421
f 329/425/406 389/407/388 179/417/398
f 329/425/406 474/424/405 389/407/388
f 474/424/405 180/408/389 389/407/388
f 274/444/425 500/419/400 359/422/403 184/443/424
f 187/445/426 400/446/427 500/419/400 274/444/425
f 400/446/427 181/410/391 464/420/401 500/419/400
f 341/430/411 501/416/397 300/418/399 178/431/412
f 186/421/402 464/420/401 501/416/397 341/430/411
f 464/420/401 181/410/391 304/412/393 501/416/397
f 312/415/396 466/442/423 185/441/422
f 312/415/396 397/414/395 466/442/423
f 397/414/395 184/443/424 466/442/423
f 304/412/393 223/447/428 179/417/398
f 304/412/393 242/411/392 223/447/428
f 242/411/392 182/448/429 223/447/428
f 224/434/415 502/406/387 382/409/390 177/435/416
f 178/431/412 300/418/399 502/406/387 224/434/415
f 300/418/399 179/417/398 389/407/388 502/406/387
f 379/437/418 503/402/383 454/405/386 177/435/416
f 174/400/381 446/399/380 503/402/383 379/437/418
f 446/399/380 173/449/430 301/403/384 503/402/383
f 220/450/431 504/398/379 228/401/382 175/439/420
f 172/451/432 369/452/433 504/398/379 220/450/431
f 369/452/433 173/449/430 446/399/380 504/398/379
f 298/453/434 505/396/377 206/369/350 162/368/349
f 157/454/435 203/361/342 505/396/377 298/453/434
f 203/361/342 156/360/341 356/397/378 505/396/377
f 250/455/436 506/393/374 366/365/346 158/364/345
f 167/456/437 430/392/373 506/393/374 250/455/436
f 430/392/373 160/391/372 197/394/375 506/393/374
f 239/457/438 507/389/370 430/392/373 167/456/437
f 166/458/439 458/382/363 507/389/370 239/457/438
f 458/382/363 168/381/362 202/390/371 507/389/370
f 265/388/369 250/455/436 158/364/345
f 265/388/369 343/387/368 250/455/436
f 343/387/368 167/456/437 250/455/436
f 460/385/366 190/367/348 161/377/358
f 460/385/366 313/384/365 190/367/348
f 313/384/365 162/368/349 190/367/348
f 390/459/440 508/379/360 458/382/363 166/458/439
f 169/460/441 236/461/442 508/379/360 390/459/440
f 236/461/442 163/370/351 320/380/361 508/379/360
f 202/390/371 509/376/357 431/378/359 160/391/372
f 168/381/362 320/380/361 509/376/357 202/390/371
f 320/380/361 163/370/351 429/372/353 509/376/357
f 393/375/356 239/457/438 167/456/437
f 393/375/356 215/374/355 239/457/438
f 215/374/355 166/458/439 239/457/438
f 429/372/353 348/462/443 161/377/358
f 429/372/353 360/371/352 348/462/443
f 360/371/352 164/463/444 348/462/443
f 197/394/375 510/366/347 206/369/350 159/395/376
f 160/391/372 431/378/359 510/366/347 197/394/375
f 431/378/359 161/377/358 190/367/348 510/366/347
f 356/397/378 511/362/343 366/365/346 159/395/376
f 156/360/341 275/359/340 511/362/343 356/397/378
f 275/359/340 155/464/445 439/363/344 511/362/343
f 221/465/446 512/358/339 203/361/342 157/454/435
f 154/466/447 374/467/448 512/358/339 221/465/446
f 374/467/448 155/464/445 275/359/340 512/358/339
f 315/468/449 513/356/337 314/329/310 144/328/309
f 139/469/450 401/321/302 513/356/337 315/468/449
f 401/321/302 138/320/301 248/357/338 513/356/337
f 493/470/451 514/353/334 232/325/306 140/324/305
f 149/471/452 488/352/333 514/353/334 493/470/451
f 488/352/333 142/351/332 473/354/335 514/353/334
f 218/472/453 515/349/330 488/352/333 149/471/452
f 148/473/454 240/342/323 515/349/330 218/472/453
f 240/342/323 150/341/322 273/350/331 515/349/330
f 198/348/329 493/470/451 140/324/305
f 198/348/329 316/347/328 493/470/451
f 316/347/328 149/471/452 493/470/451
f 216/345/326 282/327/308 143/337/318
f 216/345/326 370/344/325 282/327/308
f 370/344/325 144/328/309 282/327/308
f 317/474/455 516/339/320 240/342/323 148/473/454
f 151/475/456 481/476/457 516/339/320 317/474/455
f 481/476/457 145/330/311 411/340/321 516/339/320
f 273/350/331 517/336/317 394/338/319 142/351/332
f 150/341/322 411/340/321 517/336/317 273/350/331
f 411/340/321 145/330/311 353/332/313 517/336/317
f 361/335/316 218/472/453 149/471/452
f 361/335/316 287/334/315 218/472/453
f 287/334/315 148/473/454 218/472/453
f 353/332/313 362/477/458 143/337/318
f 353/332/313 440/331/312 362/477/458
f 440/331/312 146/478/459 362/477/458
f 473/354/335 518/326/307 314/329/310 141/355/336
f 142/351/332 394/338/319 518/326/307 473/354/335
f 394/338/319 143/337/318 282/327/308 518/326/307
f 248/357/338 519/322/303 232/325/306 141/355/336
f 138/320/301 482/319/300 519/322/303 248/357/338
f 482/319/300 137/479/460 321/323/304 519/322/303
f 358/480/461 520/318/299 401/321/302 139/469/450
f 136/481/462 255/482/463 520/318/299 358/480/461
f 255/482/463 137/479/460 482/319/300 520/318/299
f 467/483/464 521/316/297 456/289/270 126/288/269
f 121/484/465 416/281/262 521/316/297 467/483/464
f 416/281/262 120/280/261 229/317/298 521/316/297
f 276/485/466 522/313/294 266/285/266 122/284/265
f 131/486/467 277/312/293 522/313/294 276/485/466
f 277/312/293 124/311/292 344/314/295 522/313/294
f 442/487/468 523/309/290 277/312/293 131/486/467
f 130/488/469 211/302/283 523/309/290 442/487/468
f 211/302/283 132/301/282 199/310/291 523/309/290
f 302/308/289 276/485/466 122/284/265
f 302/308/289 251/307/288 276/485/466
f 251/307/288 131/486/467 276/485/466
f 226/305/286 496/287/268 125/297/278
f 226/305/286 371/304/285 496/287/268
f 371/304/285 126/288/269 496/287/268
f 285/489/470 524/299/280 211/302/283 130/488/469
f 133/490/471 278/491/472 524/299/280 285/489/470
f 278/491/472 127/290/271 354/300/281 524/299/280
f 199/310/291 525/296/277 422/298/279 124/311/292
f 132/301/282 354/300/281 525/296/277 199/310/291
f 354/300/281 127/290/271 419/292/273 525/296/277
f 288/295/276 442/487/468 131/486/467
f 288/295/276 222/294/275 442/487/468
f 222/294/275 130/488/469 442/487/468
f 419/292/273 342/492/473 125/297/278
f 419/292/273 338/291/272 342/492/473
f 338/291/272 128/493/474 342/492/473
f 344/314/295 526/286/267 456/289/270 123/315/296
f 124/311/292 422/298/279 526/286/267 344/314/295
f 422/298/279 125/297/278 496/287/268 526/286/267
f 229/317/298 527/282/263 266/285/266 123/315/296
f 120/280/261 296/279/260 527/282/263 229/317/298
f 296/279/260 119/494/475 423/283/264 527/282/263
f 375/495/476 528/278/259 416/281/262 121/484/465
f 118/496/477 219/497/478 528/278/259 375/495/476
f 219/497/478 119/494/475 296/279/260 528/278/259
f 245/498/479 529/274/255 349/277/258 100/499/480
f 106/500/481 225/501/482 529/274/255 245/498/479
f 225/501/482 104/502/483 271/275/256 529/274/255
f 309/264/245 530/270/251 468/273/254 111/254/235
f 105/263/244 330/503/484 530/270/251 309/264/245
f 330/503/484 104/502/483 376/271/252 530/270/251
f 259/255/236 531/266/247 257/269/250 112/504/485
f 111/254/235 468/273/254 531/266/247 259/255/236
f 468/273/254 108/272/253 192/267/248 531/266/247
f 448/265/246 426/505/486 117/506/487
f 448/265/246 309/264/245 426/505/486
f 309/264/245 111/254/235 426/505/486
f 191/262/243 332/507/488 116/508/489
f 191/262/243 489/249/230 332/507/488
f 489/249/230 106/500/481 332/507/488
f 478/509/490 532/260/241 424/261/242 115/510/491
f 112/504/485 257/269/250 532/260/241 478/509/490
f 257/269/250 114/268/249 194/259/240 532/260/241
f 192/267/248 533/257/238 194/259/240 114/268/249
f 108/272/253 264/251/232 533/257/238 192/267/248
f 264/251/232 107/250/231 380/253/234 533/257/238
f 484/256/237 402/511/492 113/512/493
f 484/256/237 259/255/236 402/511/492
f 259/255/236 112/504/485 402/511/492
f 380/253/234 415/513/494 110/258/239
f 380/253/234 459/252/233 415/513/494
f 459/252/233 109/514/495 415/513/494
f 376/271/252 534/248/229 264/251/232 108/272/253
f 104/502/483 225/501/482 534/248/229 376/271/252
f 225/501/482 106/500/481 489/249/230 534/248/229
f 271/275/256 535/246/227 427/243/224 101/276/257
f 104/502/483 330/503/484 535/246/227 271/275/256
f 330/503/484 105/263/244 345/247/228 535/246/227
f 490/515/496 536/242/223 494/245/226 103/516/497
f 100/499/480 349/277/258 536/242/223 490/515/496
f 349/277/258 101/276/257 427/243/224 536/242/223
f 441/517/498 537/238/219 385/241/222 82/518/499
f 88/519/500 434/520/501 537/238/219 441/517/498
f 434/520/501 86/521/502 435/239/220 537/238/219
f 335/228/209 538/234/215 230/237/218 93/218/199
f 87/227/208 350/522/503 538/234/215 335/228/209
f 350/522/503 86/521/502 260/235/216 538/234/215
f 486/219/200 539/230/211 475/233/214 94/523/504
f 93/218/199 230/237/218 539/230/211 486/219/200
f 230/237/218 90/236/217 450/231/212 539/230/211
f 405/229/210 412/524/505 99/525/506
f 405/229/210 335/228/209 412/524/505
f 335/228/209 93/218/199 412/524/505
f 326/226/207 485/526/507 98/527/508
f 326/226/207 249/213/194 485/526/507
f 249/213/194 88/519/500 485/526/507
f 252/528/509 540/224/205 237/225/206 97/529/510
f 94/523/504 475/233/214 540/224/205 252/528/509
f 475/233/214 96/232/213 461/223/204 540/224/205
f 450/231/212 541/221/202 461/223/204 96/232/213
f 90/236/217 476/215/196 541/221/202 450/231/212
f 476/215/196 89/214/195 307/217/198 541/221/202
f 256/220/201 395/530/511 95/531/512
f 256/220/201 486/219/200 395/530/511
f 486/219/200 94/523/504 395/530/511
f 307/217/198 305/532/513 92/222/203
f 307/217/198 246/216/197 305/532/513
f 246/216/197 91/533/514 305/532/513
f 260/235/216 542/212/193 476/215/196 90/236/217
f 86/521/502 434/520/501 542/212/193 260/235/216
f 434/520/501 88/519/500 249/213/194 542/212/193
f 435/239/220 543/210/191 290/207/188 83/240/221
f 86/521/502 350/522/503 543/210/191 435/239/220
f 350/522/503 87/227/208 346/211/192 543/210/191
f 217/534/515 544/206/187 212/209/190 85/535/516
f 82/518/499 385/241/222 544/206/187 217/534/515
f 385/241/222 83/240/221 290/207/188 544/206/187
f 477/536/517 545/202/183 231/205/186 64/537/518
f 70/538/519 351/539/520 545/202/183 477/536/517
f 351/539/520 68/540/521 383/203/184 545/202/183
f 262/192/173 546/198/179 391/201/182 75/182/163
f 69/191/172 293/541/522 546/198/179 262/192/173
f 293/541/522 68/540/521 204/199/180 546/198/179
f 333/183/164 547/194/175 339/197/178 76/542/523
f 75/182/163 391/201/182 547/194/175 333/183/164
f 391/201/182 72/200/181 318/195/176 547/194/175
f 428/193/174 406/543/524 81/544/525
f 428/193/174 262/192/173 406/543/524
f 262/192/173 75/182/163 406/543/524
f 367/190/171 208/545/526 80/546/527
f 367/190/171 436/177/158 208/545/526
f 436/177/158 70/538/519 208/545/526
f 417/547/528 548/188/169 403/189/170 79/548/529
f 76/542/523 339/197/178 548/188/169 417/547/528
f 339/197/178 78/196/177 324/187/168 548/188/169
f 318/195/176 549/185/166 324/187/168 78/196/177
f 72/200/181 372/179/160 549/185/166 318/195/176
f 372/179/160 71/178/159 495/181/162 549/185/166
f 409/184/165 280/549/530 77/550/531
f 409/184/165 333/183/164 280/549/530
f 333/183/164 76/542/523 280/549/530
f 495/181/162 200/551/532 74/186/167
f 495/181/162 443/180/161 200/551/532
f 443/180/161 73/552/533 200/551/532
f 204/199/180 550/176/157 372/179/160 72/200/181
f 68/540/521 351/539/520 550/176/157 204/199/180
f 351/539/520 70/538/519 436/177/158 550/176/157
f 383/203/184 551/174/155 243/171/152 65/204/185
f 68/540/521 293/541/522 551/174/155 383/203/184
f 293/541/522 69/191/172 297/175/156 551/174/155
f 386/553/534 552/170/151 469/173/154 67/554/535
f 64/537/518 231/205/186 552/170/151 386/553/534
f 231/205/186 65/204/185 243/171/152 552/170/151
f 462/555/536 553/166/147 284/169/150 46/556/537
f 52/557/538 269/558/539 553/166/147 462/555/536
f 269/558/539 50/559/540 451/167/148 553/166/147
f 336/156/137 554/162/143 479/165/146 57/146/127
f 51/155/136 347/560/541 554/162/143 336/156/137
f 347/560/541 50/559/540 420/163/144 554/162/143
f 294/147/128 555/158/139 281/161/142 58/561/542
f 57/146/127 479/165/146 555/158/139 294/147/128
f 479/165/146 54/164/145 241/159/140 555/158/139
f 453/157/138 195/562/543 63/563/544
f 453/157/138 336/156/137 195/562/543
f 336/156/137 57/146/127 195/562/543
f 261/154/135 377/564/545 62/565/546
f 261/154/135 193/141/122 377/564/545
f 193/141/122 52/557/538 377/564/545
f 209/566/547 556/152/133 465/153/134 61/567/548
f 58/561/542 281/161/142 556/152/133 209/566/547
f 281/161/142 60/160/141 238/151/132 556/152/133
f 241/159/140 557/149/130 238/151/132 60/160/141
f 54/164/145 263/143/124 557/149/130 241/159/140
f 263/143/124 53/142/123 407/145/126 557/149/130
f 213/148/129 363/568/549 59/569/550
f 213/148/129 294/147/128 363/568/549
f 294/147/128 58/561/542 363/568/549
f 407/145/126 418/570/551 56/150/131
f 407/145/126 483/144/125 418/570/551
f 483/144/125 55/571/552 418/570/551
f 420/163/144 558/140/121 263/143/124 54/164/145
f 50/559/540 269/558/539 558/140/121 420/163/144
f 269/558/539 52/557/538 193/141/122 558/140/121
f 451/167/148 559/138/119 378/135/116 47/168/149
f 50/559/540 347/560/541 559/138/119 451/167/148
f 347/560/541 51/155/136 233/139/120 559/138/119
f 437/572/553 560/134/115 447/137/118 49/573/554
f 46/556/537 284/169/150 560/134/115 437/572/553
f 284/169/150 47/168/149 378/135/116 560/134/115
f 438/133/94 279/130/114 45/574/95
f 438/133/94 396/132/78 279/130/114
f 396/132/78 35/128/103 279/130/114
f 279/130/114 432/127/113 45/574/95
f 279/130/114 227/129/102 432/127/113
f 227/129/102 42/125/87 432/127/113
f 432/127/113 272/575/110 45/574/95
f 432/127/113 214/126/86 272/575/110
f 214/126/86 41/576/111 272/575/110
f 291/118/106 561/121/109 449/124/112 38/119/107
f 43/103/91 270/108/96 561/121/109 291/118/106
f 270/108/96 45/107/95 272/122/110 561/121/109
f 373/577/555 562/117/105 234/120/108 37/578/556
f 44/579/557 352/104/92 562/117/105 373/577/555
f 352/104/92 43/103/91 291/118/106 562/117/105
f 310/110/98 563/113/101 295/116/104 32/111/99
f 39/580/83 201/581/88 563/113/101 310/110/98
f 201/581/88 42/582/87 227/114/102 563/113/101
f 244/583/558 564/109/97 357/112/100 31/584/559
f 40/585/560 387/586/84 564/109/97 244/583/558
f 387/586/84 39/580/83 310/110/98 564/109/97
f 444/102/90 565/105/93 270/108/96 43/103/91
f 33/87/75 398/92/80 565/105/93 444/102/90
f 398/92/80 36/91/79 438/106/94 565/105/93
f 207/587/561 566/101/89 352/104/92 44/579/557
f 34/588/562 258/88/76 566/101/89 207/587/561
f 258/88/76 33/87/75 444/102/90 566/101/89
f 299/94/82 567/97/85 201/100/88 39/95/83
f 38/119/107 449/124/112 567/97/85 299/94/82
f 449/124/112 41/123/111 214/98/86 567/97/85
f 381/589/563 568/93/81 387/96/84 40/590/560
f 37/578/556 234/120/108 568/93/81 381/589/563
f 234/120/108 38/119/107 299/94/82 568/93/81
f 283/86/74 569/89/77 398/92/80 33/87/75
f 32/111/99 295/116/104 569/89/77 283/86/74
f 295/116/104 35/115/103 396/90/78 569/89/77
f 364/591/564 570/85/73 258/88/76 34/588/562
f 31/584/559 357/112/100 570/85/73 364/591/564
f 357/112/100 32/111/99 283/86/74 570/85/73
f 267/84/70 421/592/62 26/593/71
f 267/84/70 413/83/66 421/592/62
f 413/83/66 27/594/63 421/592/62
f 487/595/565 571/78/69 196/81/72 25/596/566
f 30/597/567 205/77/68 571/78/69 487/595/565
f 205/77/68 29/76/67 267/79/70 571/78/69
f 328/598/568 572/74/65 205/77/68 30/597/567
f 28/599/569 337/600/64 572/74/65 328/598/568
f 337/600/64 27/601/63 413/75/66 572/74/65
f 340/602/570 573/70/61 337/73/64 28/603/569
f 25/596/566 196/81/72 573/70/61 340/602/570
f 196/81/72 26/80/71 421/71/62 573/70/61
f 392/69/58 253/604/50 20/605/59
f 392/69/58 235/68/54 253/604/50
f 235/68/54 21/606/51 253/604/50
f 322/607/571 574/63/57 325/66/60 19/608/572
f 24/609/573 319/62/56 574/63/57 322/607/571
f 319/62/56 23/61/55 392/64/58 574/63/57
f 455/610/574 575/59/53 319/62/56 24/609/573
f 22/611/575 463/612/52 575/59/53 455/610/574
f 463/612/52 21/613/51 235/60/54 575/59/53
f 470/614/576 576/55/49 463/58/52 22/615/575
f 19/608/572 325/66/60 576/55/49 470/614/576
f 325/66/60 20/65/59 253/56/50 576/55/49
f 323/54/46 311/616/38 16/617/47
f 323/54/46 491/53/42 311/616/38
f 491/53/42 17/618/39 311/616/38
f 210/37/34 577/48/45 365/51/48 11/38/35
f 14/34/31 331/47/44 577/48/45 210/37/34
f 331/47/44 18/46/43 323/49/46 577/48/45
f 355/33/30 578/44/41 331/47/44 14/34/31
f 12/619/27 286/620/40 578/44/41 355/33/30
f 286/620/40 17/621/39 491/45/42 578/44/41
f 368/29/26 579/40/37 286/43/40 12/30/27
f 11/38/35 365/51/48 579/40/37 368/29/26
f 365/51/48 16/50/47 311/41/38 579/40/37
f 433/622/577 580/36/33 445/39/36 10/623/578
f 15/624/579 452/35/32 580/36/33 433/622/577
f 452/35/32 14/34/31 210/37/34 580/36/33
f 303/625/580 581/32/29 452/35/32 15/624/579
f 13/626/581 289/627/28 581/32/29 303/625/580
f 289/627/28 12/619/27 355/33/30 581/32/29
f 292/628/582 582/28/25 289/31/28 13/629/581
f 10/623/578 445/39/36 582/28/25 292/628/582
f 445/39/36 11/38/35 368/29/26 582/28/25
f 471/27/22 404/630/14 7/631/23
f 471/27/22 327/26/18 404/630/14
f 327/26/18 8/632/15 404/630/14
f 334/10/10 583/21/21 472/24/24 2/11/11
f 5/7/7 457/20/20 583/21/21 334/10/10
f 457/20/20 9/19/19 471/22/22 583/21/21
f 480/6/6 584/17/17 457/20/20 5/7/7
f 3/633/3 408/634/16 584/17/17 480/6/6
f 408/634/16 8/635/15 327/18/18 584/17/17
f 492/2/2 585/13/13 408/16/16 3/3/3
f 2/11/11 472/24/24 585/13/13 492/2/2
f 472/24/24 7/23/23 404/14/14 585/13/13
f 254/636/583 586/9/9 268/12/12 1/637/584
f 6/638/585 247/8/8 586/9/9 254/636/583
f 247/8/8 5/7/7 334/10/10 586/9/9
f 399/639/586 587/5/5 247/8/8 6/638/585
f 4/640/587 410/641/4 587/5/5 399/639/586
f 410/641/4 3/633/3 480/6/6 587/5/5
f 414/642/588 588/1/1 410/4/4 4/643/587
f 1/637/584 268/12/12 588/1/1 414/642/588
f 268/12/12 2/11/11 492/2/2 588/1/1
