# Blender v2.78 (sub 0) OBJ File: ''
# www.blender.org
mtllib Pine_Tree_NoLeaves_l_04.mtl
o Pine_Tree_NoLeaves_l_04
v -0.045242 5.605276 -0.154967
v -0.412285 5.923859 -0.797599
v -0.435316 5.912952 -0.792425
v -0.098455 5.573852 -0.134882
v -0.057254 5.545065 -0.176061
v -0.420440 5.903983 -0.811748
v -0.037645 7.570268 0.039177
v -0.281732 7.764591 0.457846
v -0.312588 7.752088 0.451959
v -0.091672 7.546243 0.025887
v -0.303225 7.780945 0.437480
v -0.077042 7.601236 0.005092
v -0.212011 6.904425 -0.127221
v -0.184421 10.352528 -0.147381
v -0.076701 10.349384 -0.194023
v 0.012189 6.855937 -0.200052
v 0.123240 6.859331 -0.075652
v 0.000485 10.349443 -0.107948
v -0.057860 10.347527 -0.006244
v 0.005713 6.803166 0.117355
v -0.219642 6.895041 0.062143
v -0.173303 10.351948 -0.031987
v -0.133702 15.492296 0.132812
v -0.172641 15.507280 0.153726
v -0.046298 17.881874 0.393312
v -0.035893 17.854904 0.385516
v -0.117467 15.489054 0.210377
v -0.098606 15.494908 0.173518
v -0.026340 17.884132 0.398477
v -0.031234 17.872162 0.409933
v -0.167101 15.514017 0.193133
v -0.040636 17.913948 0.411107
v 0.108388 0.027334 0.270532
v -0.019885 3.321689 0.178728
v -0.316491 3.252017 0.118099
v -0.252853 0.023663 0.193349
v 0.033531 0.026498 -0.340663
v -0.050868 3.309451 -0.287893
v 0.159541 3.311193 -0.053328
v 0.293150 0.026604 -0.054832
v -0.327104 3.343781 -0.164083
v -0.285012 0.028218 -0.168739
v -0.039070 12.965298 0.110023
v -0.132659 12.993988 0.070515
v -0.077011 12.964632 -0.034777
v -0.014239 12.958034 0.035534
v -0.145394 13.005264 -0.007846
v -0.112434 12.985261 -0.023735
v -0.153828 15.499596 0.141970
v 0.069949 6.829651 0.023753
v -0.267673 5.743374 -0.463143
v -0.141691 13.000834 0.031091
v -0.192635 3.328284 -0.234481
v -0.086043 12.979548 0.092773
v -0.142513 15.501532 0.202974
v 0.045454 1.602377 0.228355
v -0.109351 16.746614 0.277300
v -0.196927 8.643026 -0.138920
v 0.214653 0.026969 0.115986
v -0.270656 5.123976 -0.145135
v -0.079450 5.557200 -0.155485
v 0.174499 0.026551 -0.208920
v -0.269873 5.071617 0.090409
v -0.116329 10.349737 -0.015630
v -0.115209 15.493515 0.152217
v -0.238633 5.723822 -0.494474
v -0.106969 14.230404 0.047410
v -0.030486 17.881916 0.393088
v -0.104733 16.753864 0.304199
v -0.075216 16.732967 0.312790
v -0.182408 10.352238 -0.089318
v -0.057814 14.228319 0.103205
v -0.019237 5.081071 -0.242983
v -0.331125 3.297168 -0.021923
v -0.287815 1.563062 0.158632
v 0.061465 8.619641 -0.094548
v -0.048930 5.575234 -0.167018
v -0.077425 11.672558 -0.116990
v -0.035454 10.349413 -0.153366
v -0.031140 8.617727 -0.198100
v -0.044137 12.960490 -0.001292
v -0.039879 17.894062 0.392002
v -0.085233 16.725760 0.263061
v -0.311713 7.770003 0.452654
v -0.430163 5.924233 -0.806998
v -0.151340 14.256226 0.129920
v -0.171003 3.285418 0.156749
v -0.042974 17.911209 0.403484
v -0.048195 11.673010 0.048260
v -0.158821 7.667365 0.248950
v -0.009054 1.594680 -0.318701
v -0.223265 6.902308 -0.032320
v -0.296952 7.775963 0.455441
v -0.086633 7.573908 0.014335
v -0.072572 5.591758 -0.143405
v -0.163952 11.694097 -0.080524
v -0.079350 14.228758 0.158863
v 0.073317 6.857862 -0.142232
v -0.025942 8.589128 0.052685
v -0.284053 0.025941 0.014450
v -0.151565 11.687897 0.015786
v -0.202778 7.648449 0.239019
v -0.008215 5.060167 0.148546
v -0.106652 15.491613 0.192902
v -0.301448 7.762202 0.462412
v -0.030012 17.976229 0.412245
v -0.024069 12.961082 0.074612
v -0.132267 0.027358 -0.269159
v -0.171315 15.511299 0.173503
v -0.109002 6.847949 0.096043
v -0.434086 5.914973 -0.813802
v -0.055673 7.587680 0.021957
v 0.141111 5.083807 -0.063847
v -0.195506 8.639893 0.012523
v -0.132005 10.350956 -0.173962
v -0.063715 16.728666 0.287884
v 0.230161 1.595502 -0.053925
v -0.190353 7.691872 0.220752
v 0.078148 3.317857 0.067559
v -0.075628 0.025498 0.247290
v -0.101511 6.880127 -0.168671
v -0.007488 11.669002 -0.038880
v 0.061807 3.309403 -0.176379
v -0.228190 5.765296 -0.476223
v -0.160506 14.258690 0.071248
v -0.309738 1.612285 -0.168138
v -0.034449 17.921158 0.413048
v -0.423194 5.920070 -0.816170
v -0.064053 7.556158 0.033864
v -0.025603 10.348485 -0.055307
v -0.027809 17.907089 0.407043
v -0.033119 17.973743 0.405982
v -0.134682 14.244607 0.057468
v -0.122026 11.683484 -0.101599
v -0.066596 14.228063 0.132428
v -0.025006 11.670713 0.006501
v -0.157977 14.258387 0.100499
v -0.160863 11.691600 -0.032307
v -0.081175 14.228895 0.073998
v -0.040386 11.670359 -0.079961
v -0.115549 14.242443 0.146253
v -0.100343 11.680407 0.035018
v -0.147570 5.103331 -0.200823
v -0.163668 1.604317 -0.253088
v 0.073345 5.071897 0.046229
v 0.147174 1.599648 0.092695
v -0.278647 5.098719 -0.026719
v -0.309110 1.587308 -0.003414
v 0.067474 5.082094 -0.158490
v 0.118474 1.594632 -0.193387
v -0.141470 5.064598 0.126792
v -0.123861 1.582002 0.203417
v -0.090088 16.743595 0.309336
v -0.073894 16.726809 0.274830
v -0.107918 16.750935 0.290844
v -0.068631 16.730524 0.300887
v -0.097718 16.736008 0.269337
v -0.112116 8.613933 0.037494
v 0.019291 8.618799 -0.149704
v -0.201708 8.642748 -0.062906
v 0.022040 8.603585 -0.018587
v -0.115555 8.630351 -0.172657
v -0.173615 7.680693 0.234707
v -0.197867 7.670257 0.229228
v -0.180470 7.656736 0.244786
v -0.254014 5.732505 -0.478898
v -0.232230 5.744600 -0.486115
v -0.248252 5.755387 -0.468828
vt 0.9677 0.9081
vt 0.9611 0.9081
vt 0.9611 0.9079
vt 0.9677 0.9077
vt 0.9676 0.9088
vt 0.9611 0.9085
vt 0.9612 0.9083
vt 0.9676 0.9085
vt 0.9610 0.9265
vt 0.9611 0.9263
vt 0.9612 0.9265
vt 0.9676 0.9073
vt 0.9611 0.9077
vt 0.9610 0.9075
vt 0.9676 0.9069
vt 0.9656 0.9124
vt 0.9701 0.9121
vt 0.9702 0.9124
vt 0.9657 0.9128
vt 0.9656 0.9106
vt 0.9701 0.9109
vt 0.9701 0.9112
vt 0.9656 0.9110
vt 0.9656 0.9115
vt 0.9701 0.9115
vt 0.9701 0.9118
vt 0.9656 0.9119
vt 0.9610 0.9240
vt 0.9612 0.9238
vt 0.9613 0.9240
vt 0.9420 0.9137
vt 0.9416 0.9400
vt 0.9404 0.9400
vt 0.9405 0.9135
vt 0.9506 0.9137
vt 0.9488 0.9403
vt 0.9476 0.9402
vt 0.9492 0.9133
vt 0.9448 0.9140
vt 0.9440 0.9401
vt 0.9428 0.9400
vt 0.9435 0.9139
vt 0.9392 0.9135
vt 0.9392 0.9400
vt 0.9380 0.9400
vt 0.9380 0.9135
vt 0.9477 0.9137
vt 0.9464 0.9402
vt 0.9452 0.9401
vt 0.9462 0.9140
vt 0.9575 0.9422
vt 0.9579 0.9428
vt 0.9582 0.9610
vt 0.9579 0.9603
vt 0.9602 0.9421
vt 0.9607 0.9424
vt 0.9603 0.9596
vt 0.9599 0.9600
vt 0.9583 0.9431
vt 0.9586 0.9433
vt 0.9590 0.9614
vt 0.9586 0.9612
vt 0.9563 0.9420
vt 0.9570 0.9416
vt 0.9576 0.9596
vt 0.9573 0.9597
vt 0.9592 0.9426
vt 0.9597 0.9418
vt 0.9596 0.9604
vt 0.9593 0.9609
vt 0.9276 0.9121
vt 0.9259 0.9375
vt 0.9236 0.9367
vt 0.9250 0.9116
vt 0.9242 0.9636
vt 0.9225 0.9898
vt 0.9207 0.9905
vt 0.9222 0.9636
vt 0.9118 0.9120
vt 0.9120 0.9376
vt 0.9095 0.9376
vt 0.9090 0.9120
vt 0.9125 0.9636
vt 0.9130 0.9895
vt 0.9117 0.9896
vt 0.9106 0.9636
vt 0.9224 0.9119
vt 0.9214 0.9374
vt 0.9191 0.9382
vt 0.9198 0.9123
vt 0.9203 0.9640
vt 0.9193 0.9905
vt 0.9178 0.9904
vt 0.9184 0.9643
vt 0.9327 0.9128
vt 0.9304 0.9383
vt 0.9282 0.9383
vt 0.9302 0.9126
vt 0.9283 0.9640
vt 0.9261 0.9896
vt 0.9244 0.9890
vt 0.9263 0.9636
vt 0.9172 0.9121
vt 0.9168 0.9378
vt 0.9145 0.9375
vt 0.9146 0.9119
vt 0.9164 0.9639
vt 0.9160 0.9900
vt 0.9142 0.9895
vt 0.9144 0.9635
vt 0.9452 0.9590
vt 0.9462 0.9589
vt 0.9448 0.9776
vt 0.9439 0.9778
vt 0.9590 0.9055
vt 0.9598 0.9049
vt 0.9598 0.9232
vt 0.9590 0.9243
vt 0.9396 0.9587
vt 0.9405 0.9587
vt 0.9407 0.9774
vt 0.9400 0.9774
vt 0.9552 0.9054
vt 0.9561 0.9051
vt 0.9564 0.9236
vt 0.9553 0.9244
vt 0.9433 0.9590
vt 0.9441 0.9590
vt 0.9431 0.9780
vt 0.9425 0.9780
vt 0.9578 0.9060
vt 0.9582 0.9061
vt 0.9583 0.9253
vt 0.9579 0.9250
vt 0.9471 0.9589
vt 0.9480 0.9590
vt 0.9460 0.9776
vt 0.9454 0.9776
vt 0.9604 0.9053
vt 0.9610 0.9058
vt 0.9610 0.9252
vt 0.9604 0.9242
vt 0.9414 0.9589
vt 0.9424 0.9590
vt 0.9419 0.9781
vt 0.9413 0.9778
vt 0.9567 0.9055
vt 0.9573 0.9060
vt 0.9576 0.9247
vt 0.9570 0.9241
vt 0.9616 0.9223
vt 0.9618 0.9220
vt 0.9622 0.9228
vt 0.9620 0.9232
vt 0.9610 0.9228
vt 0.9610 0.9223
vt 0.9614 0.9232
vt 0.9614 0.9226
vt 0.9617 0.9235
vt 0.9610 0.9217
vt 0.9613 0.9215
vt 0.9615 0.9213
vt 0.9558 0.8865
vt 0.9564 0.8868
vt 0.9570 0.8872
vt 0.9598 0.8865
vt 0.9604 0.8864
vt 0.9610 0.8864
vt 0.9499 0.9404
vt 0.9576 0.8871
vt 0.9582 0.8870
vt 0.9542 0.9058
vt 0.9542 0.9252
vt 0.9543 0.8864
vt 0.9550 0.8864
vt 0.9387 0.9587
vt 0.9393 0.9774
vt 0.9590 0.8867
vt 0.9177 0.8864
vt 0.9148 0.8864
vt 0.9206 0.8864
vt 0.9327 0.9384
vt 0.9302 0.9643
vt 0.9278 0.9902
vt 0.9351 0.8872
vt 0.9321 0.8869
vt 0.9380 0.8875
vt 0.9354 0.9129
vt 0.9234 0.8864
vt 0.9263 0.8865
vt 0.9117 0.8864
vt 0.9086 0.8864
vt 0.9292 0.8867
vt 0.9556 0.9425
vt 0.9570 0.9598
vt 0.9489 0.8871
vt 0.9471 0.8879
vt 0.9508 0.8864
vt 0.9392 0.8870
vt 0.9380 0.8870
vt 0.9405 0.8870
vt 0.9456 0.8879
vt 0.9442 0.8879
vt 0.9525 0.8870
vt 0.9542 0.8876
vt 0.9520 0.9140
vt 0.9424 0.8874
vt 0.9614 0.9238
vt 0.9616 0.9240
vt 0.9613 0.9235
vt 0.9610 0.9115
vt 0.9610 0.9121
vt 0.9610 0.9109
vt 0.9611 0.9103
vt 0.9612 0.9098
vt 0.9657 0.9102
vt 0.9702 0.9106
vt 0.9611 0.9126
vt 0.9612 0.9132
vt 0.9742 0.9069
vt 0.9741 0.9064
vt 0.9743 0.9075
vt 0.9613 0.9263
vt 0.9614 0.9265
vt 0.9612 0.9262
vt 0.9741 0.9092
vt 0.9741 0.9086
vt 0.9741 0.9098
vt 0.9676 0.9092
vt 0.9610 0.9086
vt 0.9742 0.9081
vn -0.2621 0.7981 0.5426
vn -0.4580 0.8858 -0.0743
vn -0.9277 0.0623 0.3682
vn -0.8875 0.0168 0.4605
vn 0.8670 0.0003 -0.4982
vn 0.2642 0.4156 -0.8703
vn 0.5553 0.8310 -0.0321
vn 0.6036 0.7959 0.0474
vn -0.6185 -0.7807 -0.0896
vn -0.7804 -0.1079 -0.6159
vn 0.1784 -0.6948 -0.6967
vn 0.2468 -0.7755 -0.5811
vn 0.2338 -0.8206 0.5215
vn -0.1199 -0.2000 0.9724
vn -0.7389 -0.6068 0.2931
vn -0.6396 -0.7675 0.0436
vn -0.8782 0.0496 -0.4756
vn -0.8787 0.3967 0.2655
vn -0.3513 0.8934 -0.2800
vn -0.2604 0.8375 -0.4804
vn 0.6148 0.7887 -0.0029
vn 0.1408 0.8344 0.5328
vn 0.7178 0.0642 0.6933
vn 0.8548 -0.0320 0.5179
vn -0.3410 -0.0043 -0.9400
vn -0.3742 0.0245 -0.9270
vn 0.2179 0.0321 -0.9754
vn 0.2329 0.0082 -0.9725
vn 0.8563 0.0349 0.5153
vn 0.8739 0.0062 0.4861
vn 0.3985 0.0010 0.9172
vn 0.3918 0.0394 0.9192
vn -0.9998 0.0119 0.0151
vn -0.9969 0.0116 0.0777
vn -0.8447 0.0215 -0.5349
vn -0.8175 0.0033 -0.5759
vn 0.7452 0.0209 -0.6666
vn 0.7439 0.0308 -0.6676
vn 0.9925 0.0232 -0.1197
vn 0.9957 0.0341 -0.0857
vn -0.2218 0.0307 0.9746
vn -0.2404 -0.0022 0.9707
vn -0.7656 0.0063 0.6433
vn -0.7728 0.0268 0.6341
vn -0.4273 0.1139 -0.8969
vn -0.8792 0.0945 -0.4670
vn -0.8942 0.1048 -0.4353
vn -0.3150 0.2046 -0.9268
vn 0.9045 -0.0670 0.4211
vn 0.9888 -0.0159 -0.1484
vn 0.9894 0.0139 -0.1444
vn 0.8880 0.0014 0.4599
vn -0.9846 0.0362 0.1711
vn -0.7496 -0.0203 0.6616
vn -0.7238 0.0318 0.6893
vn -0.9859 0.1362 -0.0975
vn 0.7549 0.0392 -0.6546
vn 0.2097 0.0949 -0.9731
vn 0.2137 0.1000 -0.9718
vn 0.5985 0.1087 -0.7937
vn -0.3199 -0.0679 0.9450
vn 0.3811 -0.0910 0.9201
vn 0.4131 -0.0891 0.9063
vn 0.1437 -0.0092 0.9896
vn -0.2071 0.0216 0.9781
vn -0.2117 0.0201 0.9771
vn -0.7649 0.0108 0.6441
vn -0.7540 0.0019 0.6569
vn -0.2165 0.0217 0.9760
vn -0.2228 0.0266 0.9745
vn -0.7784 0.0307 0.6270
vn -0.7702 0.0306 0.6370
vn 0.7416 0.0315 -0.6701
vn 0.7436 0.0180 -0.6684
vn 0.9982 0.0264 -0.0537
vn 0.9958 0.0433 -0.0805
vn 0.7452 0.0044 -0.6668
vn 0.7462 0.0120 -0.6656
vn 0.9972 0.0224 -0.0707
vn 0.9984 0.0085 -0.0560
vn -0.9979 -0.0142 0.0636
vn -0.9992 0.0089 0.0396
vn -0.8480 0.0157 -0.5297
vn -0.8661 -0.0093 -0.4998
vn -0.9995 0.0315 0.0100
vn -0.9997 0.0213 -0.0140
vn -0.8020 0.0170 -0.5971
vn -0.8201 0.0329 -0.5713
vn 0.8355 0.0435 0.5478
vn 0.8093 0.0253 0.5869
vn 0.3506 0.0236 0.9362
vn 0.3790 0.0392 0.9246
vn 0.8197 0.0088 0.5727
vn 0.8436 0.0220 0.5365
vn 0.3811 0.0255 0.9242
vn 0.3614 0.0155 0.9323
vn -0.4457 0.0005 -0.8952
vn -0.4072 0.0147 -0.9132
vn 0.1998 0.0200 -0.9796
vn 0.1869 0.0203 -0.9822
vn -0.3590 0.0262 -0.9330
vn -0.3272 0.0103 -0.9449
vn 0.2438 0.0139 -0.9697
vn 0.2264 0.0189 -0.9739
vn -0.3053 -0.0359 0.9516
vn 0.3972 -0.0411 0.9168
vn 0.3970 -0.0324 0.9172
vn -0.3723 -0.0427 0.9271
vn -0.3838 -0.0489 0.9221
vn 0.3717 -0.0261 0.9280
vn 0.3496 -0.0564 0.9352
vn -0.3590 -0.0582 0.9315
vn 0.7453 0.0411 -0.6655
vn 0.2318 0.0587 -0.9710
vn 0.2514 0.0657 -0.9656
vn 0.7475 0.0517 -0.6623
vn 0.7500 0.0610 -0.6586
vn 0.2403 0.0697 -0.9682
vn 0.2045 0.0797 -0.9756
vn 0.7522 0.0506 -0.6569
vn -0.9919 0.0095 0.1264
vn -0.7675 -0.0146 0.6408
vn -0.7793 -0.0288 0.6260
vn -0.9889 -0.0071 0.1486
vn -0.9883 -0.0202 0.1513
vn -0.7801 -0.0409 0.6243
vn -0.7784 -0.0281 0.6272
vn -0.9895 0.0098 0.1445
vn 0.9065 -0.0212 0.4217
vn 0.9881 0.0131 -0.1530
vn 0.9815 0.0287 -0.1895
vn 0.9340 -0.0024 0.3573
vn 0.9294 0.0131 0.3689
vn 0.9816 0.0432 -0.1862
vn 0.9869 0.0124 -0.1611
vn 0.9067 -0.0278 0.4208
vn -0.3723 0.0558 -0.9264
vn -0.8620 0.0401 -0.5053
vn -0.8642 0.0299 -0.5022
vn -0.3573 0.0562 -0.9323
vn -0.3870 0.0542 -0.9205
vn -0.8756 0.0215 -0.4826
vn -0.8804 0.0580 -0.4707
vn -0.4258 0.0829 -0.9010
vn -0.3365 0.5972 -0.7281
vn -0.0756 0.9796 -0.1863
vn -0.4605 -0.0015 -0.8877
vn 0.1879 0.0196 -0.9820
vn -0.8741 -0.0118 -0.4856
vn 0.8542 0.0431 0.5182
vn 0.4009 0.0399 0.9152
vn 0.9944 0.0435 -0.0966
vn -0.9968 -0.0162 0.0785
vn -0.7442 0.0005 0.6680
vn 0.7411 0.0318 -0.6706
vn -0.2070 0.0197 0.9781
vn 0.6182 0.7860 -0.0025
vn 0.8626 -0.0096 0.5059
vn -0.2247 0.8517 -0.4734
vn -0.8762 0.0534 -0.4790
vn -0.6316 -0.7740 0.0444
vn 0.2391 -0.8193 0.5211
vn -0.6239 -0.7770 -0.0834
vn 0.2039 -0.7987 -0.5661
vn -0.8914 -0.0078 0.4532
vn 0.8673 -0.0014 -0.4979
vn 0.5905 0.8046 0.0626
vn -0.2674 0.7946 0.5450
usemtl None
s 1
f 168/1/1 85/2/2 3/3/3 51/4/4
f 167/5/5 128/6/6 2/7/7 124/8/8
f 2/9/7 128/10/6 85/11/2
f 166/12/9 111/13/10 6/14/11 66/15/12
f 165/16/13 105/17/14 9/18/15 102/19/16
f 164/20/17 84/21/18 11/22/19 118/23/20
f 163/24/21 93/25/22 8/26/23 90/27/24
f 11/28/19 84/29/18 93/30/22
f 162/31/25 115/32/26 15/33/27 80/34/28
f 161/35/29 130/36/30 19/37/31 99/38/32
f 160/39/33 71/40/34 14/41/35 58/42/36
f 159/43/37 79/44/38 18/45/39 76/46/40
f 158/47/41 64/48/42 22/49/43 114/50/44
f 157/51/45 57/52/46 25/53/47 82/54/48
f 156/55/49 116/56/50 29/57/51 131/58/52
f 155/59/53 69/60/54 32/61/55 88/62/56
f 154/63/57 83/64/58 26/65/59 68/66/60
f 153/67/61 70/68/62 30/69/63 127/70/64
f 152/71/65 87/72/66 35/73/67 75/74/68
f 151/75/69 110/76/70 21/77/71 63/78/72
f 150/79/73 123/80/74 39/81/75 117/82/76
f 149/83/77 98/84/78 17/85/79 113/86/80
f 148/87/81 74/88/82 41/89/83 126/90/84
f 147/91/85 92/92/86 13/93/87 60/94/88
f 146/95/89 119/96/90 34/97/91 56/98/92
f 145/99/93 50/100/94 20/101/95 103/102/96
f 144/103/97 53/104/98 38/105/99 91/106/100
f 143/107/101 121/108/102 16/109/103 73/110/104
f 142/111/105 89/112/106 43/113/107 54/114/108
f 141/115/109 97/116/110 27/117/111 55/118/112
f 140/119/113 78/120/114 45/121/115 81/122/116
f 139/123/117 67/124/118 23/125/119 65/126/120
f 138/127/121 101/128/122 44/129/123 52/130/124
f 137/131/125 86/132/126 31/133/127 109/134/128
f 136/135/129 122/136/130 46/137/131 107/138/132
f 135/139/133 72/140/134 28/141/135 104/142/136
f 134/143/137 96/144/138 47/145/139 48/146/140
f 133/147/141 125/148/142 24/149/143 49/150/144
f 132/151/145 82/152/48 25/153/47 88/154/56
f 30/155/63 131/156/52 127/157/64
f 127/157/64 106/158/146 32/159/55
f 127/157/64 131/156/52 106/158/146
f 131/156/52 29/160/51 106/158/146
f 106/158/146 132/151/145 88/154/56 32/159/55
f 29/160/51 68/161/60 132/151/145 106/158/146
f 68/161/60 26/162/59 82/152/48 132/151/145
f 67/124/118 133/147/141 49/150/144 23/125/119
f 45/163/115 48/164/140 133/147/141 67/124/118
f 48/164/140 47/165/139 125/148/142 133/147/141
f 78/120/114 134/143/137 48/146/140 45/121/115
f 15/33/27 115/32/26 134/143/137 78/120/114
f 115/32/26 14/41/35 96/144/138 134/143/137
f 97/116/110 135/139/133 104/142/136 27/117/111
f 43/166/107 107/167/132 135/139/133 97/116/110
f 107/167/132 46/168/131 72/140/134 135/139/133
f 89/112/106 136/135/129 107/138/132 43/113/107
f 19/37/31 130/36/30 136/135/129 89/112/106
f 130/36/30 18/169/39 122/136/130 136/135/129
f 125/148/142 137/131/125 109/134/128 24/149/143
f 47/165/139 52/170/124 137/131/125 125/148/142
f 52/170/124 44/171/123 86/132/126 137/131/125
f 96/144/138 138/127/121 52/130/124 47/145/139
f 14/41/35 71/40/34 138/127/121 96/144/138
f 71/40/34 22/49/43 101/128/122 138/127/121
f 72/172/134 139/123/117 65/126/120 28/173/135
f 46/174/131 81/175/116 139/123/117 72/172/134
f 81/175/116 45/163/115 67/124/118 139/123/117
f 122/176/130 140/119/113 81/122/116 46/177/131
f 18/45/39 79/44/38 140/119/113 122/176/130
f 79/44/38 15/33/27 78/120/114 140/119/113
f 86/132/126 141/115/109 55/118/112 31/133/127
f 44/171/123 54/178/108 141/115/109 86/132/126
f 54/178/108 43/166/107 97/116/110 141/115/109
f 101/128/122 142/111/105 54/114/108 44/129/123
f 22/49/43 64/48/42 142/111/105 101/128/122
f 64/48/42 19/37/31 89/112/106 142/111/105
f 53/104/98 143/107/101 73/110/104 38/105/99
f 41/89/83 60/94/88 143/107/101 53/104/98
f 60/94/88 13/93/87 121/108/102 143/107/101
f 108/179/147 144/103/97 91/106/100 37/180/148
f 42/181/149 126/90/84 144/103/97 108/179/147
f 126/90/84 41/89/83 53/104/98 144/103/97
f 119/96/90 145/99/93 103/102/96 34/97/91
f 39/182/75 113/183/80 145/99/93 119/96/90
f 113/183/80 17/184/79 50/100/94 145/99/93
f 59/185/150 146/95/89 56/98/92 33/186/151
f 40/187/152 117/188/76 146/95/89 59/185/150
f 117/188/76 39/182/75 119/96/90 146/95/89
f 74/88/82 147/91/85 60/94/88 41/89/83
f 35/73/67 63/78/72 147/91/85 74/88/82
f 63/78/72 21/77/71 92/92/86 147/91/85
f 100/189/153 148/87/81 126/90/84 42/181/149
f 36/190/154 75/74/68 148/87/81 100/189/153
f 75/74/68 35/73/67 74/88/82 148/87/81
f 123/80/74 149/83/77 113/86/80 39/81/75
f 38/105/99 73/110/104 149/83/77 123/80/74
f 73/110/104 16/109/103 98/84/78 149/83/77
f 62/191/155 150/79/73 117/82/76 40/192/152
f 37/180/148 91/106/100 150/79/73 62/191/155
f 91/106/100 38/105/99 123/80/74 150/79/73
f 87/72/66 151/75/69 63/78/72 35/73/67
f 34/97/91 103/102/96 151/75/69 87/72/66
f 103/102/96 20/101/95 110/76/70 151/75/69
f 120/193/156 152/71/65 75/74/68 36/190/154
f 33/186/151 56/98/92 152/71/65 120/193/156
f 56/98/92 34/97/91 87/72/66 152/71/65
f 69/60/54 153/67/61 127/70/64 32/61/55
f 31/133/127 55/118/112 153/67/61 69/60/54
f 55/118/112 27/117/111 70/68/62 153/67/61
f 116/194/50 154/63/57 68/66/60 29/195/51
f 28/173/135 65/126/120 154/63/57 116/194/50
f 65/126/120 23/125/119 83/64/58 154/63/57
f 57/52/46 155/59/53 88/62/56 25/53/47
f 24/149/143 109/134/128 155/59/53 57/52/46
f 109/134/128 31/133/127 69/60/54 155/59/53
f 70/68/62 156/55/49 131/58/52 30/69/63
f 27/117/111 104/142/136 156/55/49 70/68/62
f 104/142/136 28/141/135 116/56/50 156/55/49
f 83/64/58 157/51/45 82/54/48 26/65/59
f 23/125/119 49/150/144 157/51/45 83/64/58
f 49/150/144 24/149/143 57/52/46 157/51/45
f 110/196/70 158/47/41 114/50/44 21/197/71
f 20/198/95 99/38/32 158/47/41 110/196/70
f 99/38/32 19/37/31 64/48/42 158/47/41
f 98/199/78 159/43/37 76/46/40 17/200/79
f 16/201/103 80/34/28 159/43/37 98/199/78
f 80/34/28 15/33/27 79/44/38 159/43/37
f 92/202/86 160/39/33 58/42/36 13/203/87
f 21/197/71 114/50/44 160/39/33 92/202/86
f 114/50/44 22/49/43 71/40/34 160/39/33
f 50/204/94 161/35/29 99/38/32 20/198/95
f 17/205/79 76/206/40 161/35/29 50/204/94
f 76/206/40 18/169/39 130/36/30 161/35/29
f 121/207/102 162/31/25 80/34/28 16/201/103
f 13/203/87 58/42/36 162/31/25 121/207/102
f 58/42/36 14/41/35 115/32/26 162/31/25
f 93/30/22 105/208/14 8/209/23
f 93/30/22 84/29/18 105/208/14
f 84/29/18 9/210/15 105/208/14
f 112/211/157 163/24/21 90/27/24 7/212/158
f 12/213/159 118/23/20 163/24/21 112/211/157
f 118/23/20 11/22/19 93/25/22 163/24/21
f 94/214/160 164/20/17 118/23/20 12/213/159
f 10/215/161 102/216/16 164/20/17 94/214/160
f 102/216/16 9/217/15 84/21/18 164/20/17
f 129/218/162 165/16/13 102/19/16 10/219/161
f 7/212/158 90/27/24 165/16/13 129/218/162
f 90/27/24 8/26/23 105/17/14 165/16/13
f 61/220/163 166/12/9 66/15/12 5/221/164
f 4/222/165 51/4/4 166/12/9 61/220/163
f 51/4/4 3/3/3 111/13/10 166/12/9
f 85/11/2 111/223/10 3/224/3
f 85/11/2 128/10/6 111/223/10
f 128/10/6 6/225/11 111/223/10
f 77/226/166 167/5/5 124/8/8 1/227/167
f 5/228/164 66/229/12 167/5/5 77/226/166
f 66/229/12 6/230/11 128/6/6 167/5/5
f 95/231/168 168/1/1 51/4/4 4/222/165
f 1/227/167 124/8/8 168/1/1 95/231/168
f 124/8/8 2/7/7 85/2/2 168/1/1
