# Blender v2.78 (sub 0) OBJ File: ''
# www.blender.org
mtllib Pine_Tree_s_05.mtl
o Pine_Tree_s_05
v 0.032565 0.920812 -0.027904
v 0.218014 0.547505 0.497818
v -0.385034 0.590366 0.495915
v -0.231704 0.608415 -0.538991
v 0.478907 0.559627 -0.588245
v -0.579448 0.462950 -0.067978
v 0.627017 0.369928 0.008291
v 0.082494 1.528133 -0.064119
v 0.198841 1.509198 -0.065429
v 0.158712 1.518724 0.100665
v 0.058974 1.535515 0.100615
v 0.233088 1.503447 0.019331
v 0.265340 0.948738 0.423042
v -0.219245 0.975969 0.420344
v 0.020084 1.539532 0.007940
v -0.122125 1.008694 -0.394503
v 0.387134 1.026925 -0.423110
v -0.443743 1.137189 -0.017078
v 0.330532 1.994941 0.066259
v 0.233036 2.017748 0.065729
v 0.657126 1.060500 0.046103
v 0.368721 1.980026 -0.094442
v 0.404482 1.973699 -0.013140
v 0.255031 2.005970 -0.094478
v 0.191759 2.022366 -0.024837
v 0.324959 1.658630 0.249558
v 0.025044 1.721046 0.249355
v 0.595556 1.483235 0.002538
v 0.096310 1.779464 -0.238324
v 0.448564 1.705698 -0.237618
v -0.208637 1.621730 -0.019657
v 0.344339 2.280044 -0.141047
v 0.511427 2.231985 -0.139151
v 0.453387 2.261494 0.085109
v 0.311399 2.302323 0.083438
v 0.558310 2.221997 -0.026288
v 0.611497 2.755146 -0.055455
v 0.254805 2.307600 -0.044515
v -0.053677 0.308382 0.084021
v 0.013599 0.958168 0.067145
v -0.011241 0.962636 -0.011570
v -0.087217 0.312942 -0.020495
v 0.000560 0.300761 -0.085092
v 0.053590 0.950089 -0.060163
v 0.118269 0.937210 -0.011432
v 0.088196 0.288615 -0.020480
v 0.054678 0.293461 0.083959
v 0.093665 0.942553 0.067190
v 0.104334 0.018207 -0.035129
v 0.064258 0.018335 0.088227
v -0.105518 0.018519 -0.035144
v -0.000564 0.018256 -0.111415
v -0.065433 0.018370 0.088277
v 0.368469 1.984113 0.027154
v 0.174716 1.692276 0.253817
v 0.344389 0.637349 -0.010144
v -0.088106 0.018441 0.027422
v 0.578086 1.843621 -0.011480
v 0.130552 1.873456 0.155860
v 0.558432 0.464245 -0.292822
v 0.027227 0.629535 -0.072599
v 0.387698 1.952746 0.170141
v 0.066035 1.504754 -0.246131
v 0.107570 0.939563 0.028420
v -0.060405 0.157141 0.086651
v -0.096908 1.670506 0.116689
v 0.211232 2.020382 0.020949
v -0.289160 1.074178 -0.209250
v -0.072079 0.310891 0.032301
v 0.222260 2.014413 -0.060335
v 0.021610 0.959952 0.428601
v 0.050199 1.534020 -0.028737
v 0.124345 0.587558 -0.568984
v 0.302138 2.301075 -0.093369
v 0.587633 2.495507 -0.041078
v 0.108595 1.527211 0.101858
v -0.289757 0.685926 -0.048356
v -0.044336 0.306992 -0.054200
v 0.498113 1.729998 -0.005580
v 0.189019 1.034768 0.300845
v 0.038402 1.537756 0.054769
v 0.217303 1.506044 -0.023618
v 0.086926 0.018277 0.027403
v 0.479819 2.523231 -0.099473
v 0.407936 1.846622 -0.163989
v 0.387987 1.976475 -0.054376
v 0.053635 0.950370 0.068912
v 0.176849 1.897091 -0.164614
v 0.464011 1.568462 0.128070
v 0.264563 0.732482 -0.320837
v 0.564072 2.498772 -0.098274
v 0.430666 2.262707 -0.140655
v -0.410406 0.535837 -0.305994
v 0.163799 2.005049 0.169197
v -0.212105 1.340061 -0.003854
v 0.210938 1.233067 0.261451
v 0.000501 0.300924 0.085729
v 0.103414 0.616864 -0.015889
v -0.080154 1.254891 0.260072
v -0.084793 0.572284 0.501891
v 0.385056 2.289058 0.084288
v 0.327211 1.830703 0.156201
v 0.290689 1.268024 -0.242558
v -0.054666 0.018386 -0.075518
v 0.435156 2.539326 -0.050253
v 0.508693 2.248925 0.029171
v -0.126547 1.579788 -0.021227
v 0.467649 1.004702 0.238593
v 0.443880 1.283911 0.033302
v 0.196823 1.510927 0.060565
v -0.105000 0.757896 -0.297474
v 0.281534 2.006486 0.067256
v 0.132921 1.016363 -0.416006
v 0.020183 0.956556 -0.037279
v 0.532849 1.517520 0.016585
v -0.020302 1.267725 -0.227780
v 0.059419 0.149712 0.086594
v -0.006866 1.823764 -0.022098
v 0.140871 1.518592 -0.065832
v 0.045387 0.294544 -0.054192
v -0.000426 0.960716 0.028326
v 0.216601 2.023540 -0.191666
v 0.312080 1.992880 -0.095558
v -0.000450 0.153298 -0.098964
v 0.535014 2.514610 0.015285
v -0.280764 1.000644 -0.030151
v -0.486863 0.526653 0.216066
v -0.186955 0.748419 0.246032
v 0.074343 0.622023 0.075704
v 0.378893 1.501641 -0.260678
v -0.338327 1.057943 0.204813
v 0.431349 0.935671 0.013876
v -0.075054 1.070010 -0.302977
v 0.341024 1.035396 -0.328444
v 0.073067 0.290810 0.032277
v -0.019907 0.637481 0.075711
v 0.479760 1.961820 -0.190352
v -0.164112 1.064867 0.299878
v 0.425751 0.458155 0.255994
v -0.097465 0.159485 -0.028067
v 0.538006 2.233871 -0.083242
v -0.061139 1.700320 -0.131269
v -0.000588 0.018352 0.091018
v 0.298915 1.469785 0.245873
v 0.129268 0.725926 0.248098
v 0.529794 1.044877 -0.191952
v -0.049110 0.642049 -0.015966
v 0.462784 2.535574 0.014194
v 0.285840 2.312372 0.019161
v 0.006252 1.494554 0.244239
v 0.086920 0.943449 -0.037208
v 0.016478 1.957161 -0.031946
v 0.053511 0.018231 -0.075510
v 0.096465 0.147242 -0.028053
v 0.527321 1.592305 -0.119623
v 0.273795 1.745933 -0.241833
v 0.090295 0.619210 0.030379
v -0.080737 0.158426 0.029882
v 0.049122 0.150198 -0.065051
v -0.000493 0.153427 0.088529
v -0.050071 0.156461 -0.065058
v 0.079744 0.148365 0.029859
v -0.011817 0.635935 -0.045516
v 0.027219 0.629757 0.077231
v 0.066197 0.623052 -0.045476
v -0.035926 0.639997 0.030344
v 0.485541 1.896753 0.080812
v 0.113137 1.990443 -0.113481
v 0.532673 1.901283 -0.102408
v 0.086641 1.980963 0.069934
v 0.275401 1.980243 0.172836
v 0.349029 1.994252 -0.193799
v 0.058704 1.848332 0.068053
v 0.456348 1.787036 -0.086118
v 0.081937 1.860411 -0.094834
v 0.293174 1.873473 -0.166781
v 0.415020 1.779012 0.076619
v -0.033937 1.543012 -0.135748
v 0.419571 1.493590 0.133536
v 0.228614 1.853370 0.158842
v -0.064147 1.538016 0.113347
v 0.222775 1.502415 -0.257554
v 0.460396 1.509969 -0.124064
v 0.371786 1.276410 -0.106637
v -0.119862 1.304605 -0.117871
v 0.331079 1.258451 0.149670
v 0.151740 1.481040 0.249141
v -0.150109 1.298274 0.129944
v 0.135504 1.267114 -0.239298
v -0.227039 1.032407 0.137103
v 0.391639 0.984405 -0.159870
v -0.182322 1.035060 -0.169074
v 0.064549 1.242824 0.264824
v 0.313834 0.984125 0.160201
v 0.011414 1.051213 0.305458
v 0.133936 1.054147 -0.320791
vt 0.5382 0.3277
vt 0.5305 0.3342
vt 0.5217 0.3120
vt 0.5724 0.2905
vt 0.5780 0.2839
vt 0.5907 0.3093
vt 0.5472 0.2807
vt 0.5429 0.2713
vt 0.5654 0.2790
vt 0.5850 0.3222
vt 0.5970 0.3252
vt 0.5785 0.3414
vt 0.5270 0.3010
vt 0.5161 0.2987
vt 0.5328 0.2815
vt 0.5822 0.3164
vt 0.5655 0.3142
vt 0.5684 0.3061
vt 0.5896 0.2999
vt 0.5675 0.3392
vt 0.5698 0.3499
vt 0.5452 0.3399
vt 0.5317 0.3055
vt 0.5374 0.2908
vt 0.5481 0.3015
vt 0.5455 0.3089
vt 0.5525 0.2853
vt 0.5677 0.2797
vt 0.5605 0.2985
vt 0.5543 0.3000
vt 0.5299 0.3190
vt 0.5362 0.3357
vt 0.5251 0.3481
vt 0.5160 0.3231
vt 0.5613 0.3370
vt 0.5476 0.3410
vt 0.5524 0.3243
vt 0.5574 0.3234
vt 0.5786 0.2898
vt 0.5645 0.3023
vt 0.5368 0.3306
vt 0.5259 0.3202
vt 0.5430 0.3163
vt 0.5477 0.3203
vt 0.5838 0.3067
vt 0.5769 0.2873
vt 0.5854 0.2746
vt 0.5950 0.3037
vt 0.5349 0.2906
vt 0.5237 0.3023
vt 0.5069 0.2981
vt 0.5231 0.2807
vt 0.5357 0.3066
vt 0.5410 0.2940
vt 0.5558 0.3086
vt 0.5548 0.3113
vt 0.5535 0.3408
vt 0.5707 0.3458
vt 0.5758 0.3612
vt 0.5504 0.3547
vt 0.5615 0.2831
vt 0.5461 0.2788
vt 0.5394 0.2634
vt 0.5624 0.2690
vt 0.5807 0.3360
vt 0.5906 0.3261
vt 0.6046 0.3327
vt 0.5902 0.3469
vt 0.5774 0.2917
vt 0.5856 0.3000
vt 0.5640 0.3103
vt 0.5626 0.3088
vt 0.5795 0.3152
vt 0.5733 0.3304
vt 0.5621 0.3163
vt 0.5631 0.3133
vt 0.5398 0.3290
vt 0.5304 0.3193
vt 0.5539 0.3140
vt 0.5556 0.3157
vt 0.5450 0.3309
vt 0.5619 0.3379
vt 0.5651 0.3591
vt 0.5364 0.3472
vt 0.5550 0.2887
vt 0.5691 0.2835
vt 0.5612 0.3072
vt 0.5585 0.3079
vt 0.5612 0.3346
vt 0.5491 0.3388
vt 0.5574 0.3174
vt 0.5597 0.3169
vt 0.5744 0.3302
vt 0.5869 0.3224
vt 0.6065 0.3332
vt 0.5858 0.3462
vt 0.5683 0.2887
vt 0.5493 0.2807
vt 0.5429 0.2630
vt 0.5750 0.2766
vt 0.5389 0.2878
vt 0.5285 0.2948
vt 0.5086 0.2870
vt 0.5258 0.2750
vt 0.5871 0.3096
vt 0.5872 0.2968
vt 0.6071 0.2902
vt 0.6068 0.3117
vt 0.5283 0.3093
vt 0.5282 0.3239
vt 0.5077 0.3353
vt 0.5081 0.3112
vt 0.4526 0.3342
vt 0.4426 0.3245
vt 0.4509 0.3215
vt 0.4700 0.3270
vt 0.4238 0.2906
vt 0.4391 0.2847
vt 0.4368 0.3008
vt 0.4295 0.3040
vt 0.4443 0.3047
vt 0.4367 0.3081
vt 0.4343 0.3274
vt 0.4284 0.3245
vt 0.4354 0.3214
vt 0.4518 0.3085
vt 0.4513 0.3150
vt 0.4442 0.3119
vt 0.4226 0.3215
vt 0.4223 0.3143
vt 0.4295 0.3185
vt 0.4084 0.3126
vt 0.4085 0.2964
vt 0.4221 0.3071
vt 0.4703 0.3134
vt 0.4217 0.3352
vt 0.4083 0.3289
vt 0.4548 0.2923
vt 0.4705 0.2998
vt 0.4437 0.3185
vt 0.9302 0.9425
vt 0.9301 0.9695
vt 0.9232 0.9695
vt 0.9234 0.9425
vt 0.9714 0.9426
vt 0.9712 0.9699
vt 0.9644 0.9699
vt 0.9645 0.9426
vt 0.9439 0.9426
vt 0.9439 0.9696
vt 0.9370 0.9695
vt 0.9370 0.9426
vt 0.9165 0.9424
vt 0.9163 0.9696
vt 0.9094 0.9696
vt 0.9096 0.9424
vt 0.9579 0.9028
vt 0.9577 0.9153
vt 0.9507 0.9154
vt 0.9510 0.9030
vt 0.9165 0.9030
vt 0.9168 0.9153
vt 0.9099 0.9152
vt 0.9096 0.9027
vt 0.9441 0.9032
vt 0.9439 0.9155
vt 0.9371 0.9156
vt 0.9372 0.9034
vt 0.9717 0.9028
vt 0.9715 0.9153
vt 0.9646 0.9152
vt 0.9648 0.9026
vt 0.9303 0.9033
vt 0.9304 0.9155
vt 0.9236 0.9155
vt 0.9234 0.9032
vt 0.9576 0.9426
vt 0.9576 0.9698
vt 0.9508 0.9697
vt 0.9507 0.9426
vt 0.9302 0.8911
vt 0.9232 0.8910
vt 0.9372 0.8912
vt 0.9718 0.8902
vt 0.9649 0.8900
vt 0.9786 0.8905
vt 0.9786 0.9030
vt 0.9785 0.9154
vt 0.9442 0.8909
vt 0.9512 0.8906
vt 0.9162 0.8906
vt 0.9093 0.8902
vt 0.9581 0.8903
vt 0.9783 0.9427
vt 0.9781 0.9699
vt 0.4365 0.3154
vt 0.4413 0.2687
vt 0.4653 0.2799
vt 0.4892 0.2911
vt 0.4352 0.3415
vt 0.4361 0.3556
vt 0.4150 0.3459
vt 0.3939 0.3362
vt 0.4892 0.3117
vt 0.4892 0.3324
vt 0.4293 0.3113
vt 0.3944 0.3109
vt 0.3949 0.2857
vt 0.4181 0.2772
vt 0.4627 0.3440
vt 0.5483 0.3026
vt 0.5484 0.3075
vt 0.5486 0.3124
vt 0.5673 0.3117
vt 0.5673 0.3075
vt 0.5673 0.3033
vt 0.5557 0.2984
vt 0.5520 0.3005
vt 0.5615 0.3009
vt 0.5587 0.3167
vt 0.5630 0.3142
vt 0.5846 0.3445
vt 0.5627 0.3523
vt 0.5408 0.3601
vt 0.5262 0.2793
vt 0.5516 0.2695
vt 0.5769 0.2597
vt 0.5537 0.3146
vt 0.5239 0.3424
vt 0.5070 0.3246
vt 0.6073 0.2896
vt 0.5960 0.3171
vt 0.5921 0.2747
vt 0.5657 0.3305
vt 0.5712 0.3250
vt 0.5766 0.3195
vt 0.5684 0.3000
vt 0.5606 0.2971
vt 0.5528 0.2942
vt 0.5473 0.3233
vt 0.5565 0.3269
vt 0.5166 0.3020
vt 0.5466 0.3004
vt 0.5404 0.3066
vt 0.5725 0.3098
vt 0.5429 0.3578
vt 0.5259 0.3409
vt 0.5089 0.3240
vt 0.5748 0.2609
vt 0.5928 0.2773
vt 0.6107 0.2937
vt 0.5749 0.3329
vt 0.5625 0.3224
vt 0.5873 0.3434
vt 0.5651 0.3506
vt 0.5439 0.3149
vt 0.5267 0.2801
vt 0.5508 0.2705
vt 0.5178 0.3020
vt 0.5474 0.3507
vt 0.5228 0.3407
vt 0.5720 0.3606
vt 0.5990 0.3185
vt 0.5218 0.2792
vt 0.5385 0.2619
vt 0.5052 0.2964
vt 0.5905 0.3443
vt 0.6090 0.3281
vt 0.5610 0.2696
vt 0.5836 0.2773
vt 0.5963 0.3027
vt 0.5140 0.3185
vn -0.0518 -0.9982 -0.0315
vn -0.3686 -0.8156 -0.4460
vn 0.2991 -0.8972 -0.3250
vn 0.2931 -0.8766 0.3817
vn -0.3881 -0.8847 0.2583
vn 0.5916 -0.8023 0.0791
vn -0.6618 -0.7297 -0.1718
vn -0.0096 0.4760 -0.8794
vn 0.1000 -0.8521 -0.5137
vn 0.4427 -0.8075 0.3897
vn 0.5682 0.5112 -0.6449
vn 0.0316 0.3814 0.9239
vn 0.4471 0.3579 0.8198
vn 0.4345 -0.8899 -0.1386
vn -0.0580 -0.9021 0.4275
vn 0.7764 0.2747 0.5672
vn 0.9200 0.3215 0.2243
vn 0.4174 -0.8974 0.1428
vn 0.6125 -0.7694 -0.1813
vn -0.0358 -0.4948 -0.8683
vn -0.3045 -0.5172 -0.7999
vn 0.1457 -0.8502 0.5059
vn -0.0633 -0.9031 0.4248
vn -0.7500 0.4745 -0.4609
vn -0.8596 0.4947 -0.1282
vn -0.6320 -0.7709 -0.0793
vn -0.7741 -0.4681 0.4262
vn 0.9257 0.3445 -0.1565
vn 0.5544 -0.6530 0.5160
vn -0.8509 0.4776 0.2188
vn -0.4997 0.5187 0.6937
vn -0.5022 -0.6891 -0.5224
vn -0.6324 -0.4487 -0.6314
vn 0.0318 -0.5717 0.8199
vn 0.2781 -0.5986 0.7512
vn -0.4021 -0.7852 -0.4709
vn -0.0080 -0.8856 -0.4643
vn 0.6065 -0.6277 -0.4881
vn 0.3125 -0.5920 -0.7429
vn -0.5069 -0.7292 0.4597
vn -0.6430 -0.7636 0.0597
vn 0.0248 0.3207 0.9468
vn 0.3657 0.2816 0.8871
vn -0.5008 -0.7778 0.3797
vn -0.3750 -0.8432 0.3852
vn -0.5471 -0.5223 -0.6542
vn -0.7209 -0.6761 -0.1523
vn 0.7132 -0.6904 0.1214
vn 0.3902 -0.9047 0.1711
vn 0.4992 -0.6099 0.6155
vn 0.6609 -0.7466 0.0766
vn -0.8615 -0.5048 -0.0546
vn -0.5527 -0.8075 -0.2062
vn -0.6841 -0.6093 0.4010
vn -0.3565 -0.6433 0.6776
vn 0.2550 -0.7516 -0.6084
vn 0.4007 -0.9000 -0.1717
vn 0.8551 0.2006 -0.4781
vn 0.4727 0.2944 -0.8306
vn -0.3504 -0.8666 -0.3554
vn -0.1083 -0.6689 -0.7354
vn -0.0332 0.3166 -0.9480
vn -0.3417 0.3900 -0.8551
vn -0.3290 -0.8945 -0.3028
vn -0.5229 -0.7716 -0.3621
vn -0.7062 0.4988 0.5024
vn -0.3801 0.4461 0.8103
vn -0.2350 -0.9263 0.2946
vn -0.2390 -0.7361 0.6333
vn -0.1027 -0.4810 -0.8707
vn -0.4572 -0.4190 -0.7845
vn -0.1293 -0.7985 0.5880
vn -0.1894 -0.8985 0.3960
vn 0.6654 0.2207 0.7131
vn 0.9526 0.2647 0.1496
vn -0.4149 -0.8414 -0.3464
vn -0.4073 -0.6067 0.6826
vn -0.6075 0.4356 -0.6642
vn -0.8114 0.5757 -0.1010
vn -0.0615 -0.9971 0.0451
vn -0.1090 -0.7900 -0.6034
vn -0.7424 -0.3141 -0.5918
vn -0.9090 -0.3670 -0.1975
vn 0.3782 -0.9247 0.0427
vn -0.1461 -0.8878 0.4364
vn -0.1088 -0.4923 0.8636
vn 0.2696 -0.6295 0.7287
vn -0.2253 -0.6860 -0.6918
vn -0.1931 -0.9115 -0.3632
vn 0.6042 -0.6474 0.4646
vn 0.7015 -0.7094 0.0681
vn -0.7262 -0.6808 -0.0957
vn -0.1204 -0.7433 -0.6580
vn -0.8959 -0.3664 0.2512
vn -0.5790 -0.4953 0.6476
vn -0.0447 -0.6853 -0.7269
vn -0.0534 -0.7874 -0.6141
vn 0.6630 -0.6734 -0.3272
vn 0.3272 -0.6528 -0.6832
vn -0.3780 -0.6511 0.6581
vn -0.3694 -0.7617 0.5324
vn 0.0477 0.1775 -0.9830
vn 0.0527 0.1603 -0.9857
vn 0.5468 0.0662 -0.8346
vn 0.5294 0.1004 -0.8424
vn 0.0572 0.2538 0.9656
vn 0.4127 0.1611 0.8965
vn 0.4096 0.1436 0.9009
vn 0.0576 0.2509 0.9663
vn 0.7198 0.0082 0.6942
vn 0.4254 0.1209 0.8969
vn -0.3066 0.3248 -0.8947
vn -0.6085 0.4378 -0.6619
vn -0.2847 0.3258 -0.9016
vn 0.9829 -0.0125 0.1838
vn 0.9082 -0.0566 -0.4147
vn 0.9797 -0.0849 0.1816
vn -0.8036 0.5720 -0.1642
vn -0.7445 0.5539 0.3726
vn -0.7676 0.6114 -0.1923
vn -0.7478 0.5114 0.4235
vn -0.4073 0.4375 0.8017
vn -0.4206 0.4658 0.7786
vn 0.8831 0.0126 -0.4691
vn -0.6436 0.4287 -0.6340
vn -0.8256 0.5516 -0.1189
vn 0.7082 0.0564 0.7037
vn 0.9872 0.0470 0.1522
vn 0.5787 0.0234 -0.8152
vn -0.9458 0.1075 0.3066
vn -0.9462 0.1074 0.3052
vn -0.9486 0.1150 -0.2948
vn -0.9445 0.1141 -0.3080
vn 0.5954 -0.0167 -0.8033
vn 0.5954 -0.0171 -0.8032
vn 0.9481 -0.0408 -0.3154
vn 0.9510 -0.0406 -0.3065
vn 0.0045 0.0269 0.9996
vn 0.0019 0.0265 0.9996
vn -0.6078 0.0838 0.7896
vn -0.5824 0.0809 0.8089
vn -0.5855 0.0795 -0.8068
vn -0.5882 0.0801 -0.8047
vn -0.0331 0.0409 -0.9986
vn 0.0058 0.0378 -0.9993
vn 0.9509 0.0426 0.3065
vn 0.9516 -0.0043 0.3073
vn 0.5791 0.0073 0.8152
vn 0.5892 0.0346 0.8073
vn -0.5850 0.0794 -0.8072
vn -0.5850 0.0798 -0.8071
vn -0.0069 0.0661 -0.9978
vn 0.0035 0.0949 -0.9955
vn 0.0015 0.0184 0.9998
vn 0.0006 0.0225 0.9997
vn -0.5912 0.0581 0.8044
vn -0.5865 0.0371 0.8091
vn 0.5919 0.0782 -0.8022
vn 0.5945 0.0298 -0.8035
vn 0.9522 0.0181 -0.3049
vn 0.9495 0.0737 -0.3050
vn -0.9503 0.0456 0.3080
vn -0.9486 0.0775 0.3067
vn -0.9490 0.0958 -0.3003
vn -0.9484 0.0755 -0.3078
vn 0.9513 -0.0484 0.3046
vn 0.9514 -0.0488 0.3041
vn 0.5653 -0.0129 0.8248
vn 0.5919 -0.0151 0.8059
vn -0.9506 0.0422 0.3076
vn -0.9451 0.0730 -0.3185
vn -0.5934 0.0341 0.8042
vn 0.5886 0.0807 -0.8044
vn 0.9451 0.0769 -0.3177
vn 0.0024 0.0956 -0.9954
vn 0.0009 0.0159 0.9999
vn 0.5949 0.0352 0.8030
vn -0.5851 0.0782 -0.8072
vn 0.9508 0.0440 0.3067
vn 0.3817 0.9231 -0.0465
vn -0.3231 0.3290 -0.8873
vn -0.3939 0.4994 0.7716
vn -0.6668 -0.6664 0.3335
vn -0.7017 -0.7021 -0.1212
vn -0.5828 -0.7239 0.3693
vn -0.5286 -0.4897 0.6934
vn 0.5987 -0.7931 0.1117
vn 0.5084 -0.7737 -0.3781
vn 0.4337 -0.4733 -0.7667
vn -0.4194 0.5220 -0.7427
vn -0.3891 -0.5293 -0.7540
vn -0.4287 -0.7160 -0.5510
vn 0.2251 -0.6375 0.7369
vn 0.2661 -0.8150 0.5147
vn -0.0527 -0.7656 0.6411
vn -0.0910 -0.7164 -0.6918
usemtl None
s 1
f 1/1/1 145/2/2 128/3/3
f 1/4/1 111/5/4 90/6/5
f 1/7/1 77/8/6 111/9/4
f 1/10/1 90/11/5 56/12/7
f 1/13/1 128/14/3 77/15/6
f 196/16/8 119/17/9 9/18/10 134/19/11
f 1/20/1 56/21/7 145/22/2
f 195/23/12 80/24/13 10/25/14 76/26/15
f 194/27/16 132/28/17 12/29/18 110/30/19
f 193/31/20 96/32/21 13/33/22 71/34/23
f 192/35/24 126/36/25 15/37/26 72/38/27
f 191/39/28 134/19/11 9/18/10 82/40/29
f 190/41/30 138/42/31 11/43/32 81/44/33
f 189/45/34 116/46/35 16/47/36 113/48/37
f 188/49/38 99/50/39 14/51/40 131/52/41
f 187/53/42 144/54/43 19/55/44 112/56/45
f 186/57/46 109/58/47 21/59/48 108/60/49
f 185/61/50 95/62/51 18/63/52 68/64/53
f 184/65/54 103/66/55 17/67/56 146/68/57
f 183/69/58 130/70/59 22/71/60 86/72/61
f 182/73/62 63/74/63 24/75/64 123/76/65
f 181/77/66 150/78/67 20/79/68 67/80/69
f 180/81/70 102/82/71 26/83/72 55/84/73
f 179/85/74 115/86/75 23/87/76 54/88/77
f 178/89/78 107/90/79 25/91/80 70/92/81
f 177/93/82 79/94/83 28/95/84 89/96/85
f 176/97/86 88/98/87 29/99/88 156/100/89
f 175/101/90 118/102/91 31/103/92 142/104/93
f 174/105/94 85/106/95 30/107/96 155/108/97
f 173/109/98 59/110/99 27/111/100 66/112/101
f 172/113/102 92/114/103 33/115/104 137/116/105
f 171/117/106 62/118/107 34/119/108 101/120/109
f 34/119/108 106/121/110 125/122/111
f 32/123/112 74/124/113 84/125/114
f 36/126/115 141/127/116 75/128/117
f 38/129/118 149/130/119 105/131/120
f 170/132/121 94/133/122 35/134/123 149/130/119
f 34/119/108 125/122/111 101/120/109
f 169/135/124 137/116/105 33/115/104 141/127/116
f 168/136/125 152/137/126 38/129/118 74/124/113
f 167/138/127 58/139/128 36/126/115 106/121/110
f 33/115/104 92/114/103 91/140/129
f 166/141/130 121/142/131 41/143/132 147/144/133
f 165/145/134 151/146/135 45/147/136 98/148/137
f 164/149/138 87/150/139 40/151/140 136/152/141
f 163/153/142 114/154/143 44/155/144 61/156/145
f 162/157/146 135/158/147 47/159/148 117/160/149
f 161/161/150 78/162/151 43/163/152 124/164/153
f 160/165/154 97/166/155 39/167/156 65/168/157
f 159/169/158 120/170/159 46/171/160 154/172/161
f 158/173/162 69/174/163 42/175/164 140/176/165
f 157/177/166 64/178/167 48/179/168 129/180/169
f 135/158/147 157/177/166 129/180/169 47/159/148
f 46/171/160 98/148/137 157/177/166 135/158/147
f 98/148/137 45/147/136 64/178/167 157/177/166
f 57/181/170 158/173/162 140/176/165 51/182/171
f 53/183/172 65/168/157 158/173/162 57/181/170
f 65/168/157 39/167/156 69/174/163 158/173/162
f 153/184/173 159/169/158 154/172/161 49/185/174
f 52/186/175 124/187/153 159/169/158 153/184/173
f 124/187/153 43/188/152 120/170/159 159/169/158
f 143/189/176 160/165/154 65/168/157 53/183/172
f 50/190/177 117/160/149 160/165/154 143/189/176
f 117/160/149 47/159/148 97/166/155 160/165/154
f 104/191/178 161/161/150 124/164/153 52/192/175
f 51/182/171 140/176/165 161/161/150 104/191/178
f 140/176/165 42/175/164 78/162/151 161/161/150
f 83/193/179 162/157/146 117/160/149 50/190/177
f 49/185/174 154/172/161 162/157/146 83/193/179
f 154/172/161 46/171/160 135/158/147 162/157/146
f 78/162/151 163/153/142 61/156/145 43/163/152
f 42/175/164 147/144/133 163/153/142 78/162/151
f 147/144/133 41/143/132 114/154/143 163/153/142
f 97/166/155 164/149/138 136/152/141 39/167/156
f 47/159/148 129/180/169 164/149/138 97/166/155
f 129/180/169 48/179/168 87/150/139 164/149/138
f 120/170/159 165/145/134 98/148/137 46/171/160
f 43/188/152 61/194/145 165/145/134 120/170/159
f 61/194/145 44/195/144 151/146/135 165/145/134
f 69/174/163 166/141/130 147/144/133 42/175/164
f 39/167/156 136/152/141 166/141/130 69/174/163
f 136/152/141 40/151/140 121/142/131 166/141/130
f 91/140/129 84/125/114 37/196/180
f 91/140/129 92/114/103 84/125/114
f 92/114/103 32/123/112 84/125/114
f 62/118/107 167/138/127 106/121/110 34/119/108
f 26/197/72 89/198/85 167/138/127 62/118/107
f 89/198/85 28/199/84 58/139/128 167/138/127
f 122/200/181 168/136/125 74/124/113 32/123/112
f 29/201/88 142/202/93 168/136/125 122/200/181
f 142/202/93 31/203/92 152/137/126 168/136/125
f 58/139/128 169/135/124 141/127/116 36/126/115
f 28/199/84 155/204/97 169/135/124 58/139/128
f 155/204/97 30/205/96 137/116/105 169/135/124
f 101/120/109 148/206/182 35/134/123
f 101/120/109 125/122/111 148/206/182
f 125/122/111 37/196/180 148/206/182
f 152/137/126 170/132/121 149/130/119 38/129/118
f 31/203/92 66/207/101 170/132/121 152/137/126
f 66/207/101 27/208/100 94/133/122 170/132/121
f 105/131/120 148/206/182 37/196/180
f 105/131/120 149/130/119 148/206/182
f 149/130/119 35/134/123 148/206/182
f 75/128/117 91/140/129 37/196/180
f 75/128/117 141/127/116 91/140/129
f 141/127/116 33/115/104 91/140/129
f 84/125/114 105/131/120 37/196/180
f 84/125/114 74/124/113 105/131/120
f 74/124/113 38/129/118 105/131/120
f 125/122/111 75/128/117 37/196/180
f 125/122/111 106/121/110 75/128/117
f 106/121/110 36/126/115 75/128/117
f 94/133/122 171/117/106 101/120/109 35/134/123
f 27/208/100 55/209/73 171/117/106 94/133/122
f 55/209/73 26/197/72 62/118/107 171/117/106
f 156/210/89 172/113/102 137/116/105 30/205/96
f 29/201/88 122/200/181 172/113/102 156/210/89
f 122/200/181 32/123/112 92/114/103 172/113/102
f 118/102/91 173/109/98 66/112/101 31/103/92
f 25/211/80 67/212/69 173/109/98 118/102/91
f 67/212/69 20/213/68 59/110/99 173/109/98
f 79/94/83 174/105/94 155/108/97 28/95/84
f 23/214/76 86/215/61 174/105/94 79/94/83
f 86/215/61 22/216/60 85/106/95 174/105/94
f 88/98/87 175/101/90 142/104/93 29/99/88
f 24/217/64 70/218/81 175/101/90 88/98/87
f 70/218/81 25/211/80 118/102/91 175/101/90
f 85/106/95 176/97/86 156/100/89 30/107/96
f 22/216/60 123/219/65 176/97/86 85/106/95
f 123/219/65 24/217/64 88/98/87 176/97/86
f 102/82/71 177/93/82 89/96/85 26/83/72
f 19/220/44 54/221/77 177/93/82 102/82/71
f 54/221/77 23/214/76 79/94/83 177/93/82
f 63/74/63 178/89/78 70/92/81 24/75/64
f 16/222/36 68/223/53 178/89/78 63/74/63
f 68/223/53 18/224/52 107/90/79 178/89/78
f 144/54/43 179/85/74 54/88/77 19/55/44
f 13/225/22 108/226/49 179/85/74 144/54/43
f 108/226/49 21/227/48 115/86/75 179/85/74
f 59/110/99 180/81/70 55/84/73 27/111/100
f 20/213/68 112/228/45 180/81/70 59/110/99
f 112/228/45 19/220/44 102/82/71 180/81/70
f 107/90/79 181/77/66 67/80/69 25/91/80
f 18/224/52 131/229/41 181/77/66 107/90/79
f 131/229/41 14/230/40 150/78/67 181/77/66
f 130/70/59 182/73/62 123/76/65 22/71/60
f 17/231/56 113/232/37 182/73/62 130/70/59
f 113/232/37 16/222/36 63/74/63 182/73/62
f 115/86/75 183/69/58 86/72/61 23/87/76
f 21/227/48 146/233/57 183/69/58 115/86/75
f 146/233/57 17/231/56 130/70/59 183/69/58
f 109/58/47 184/65/54 146/68/57 21/59/48
f 12/234/18 82/235/29 184/65/54 109/58/47
f 82/235/29 9/236/10 103/66/55 184/65/54
f 116/46/35 185/61/50 68/64/53 16/47/36
f 8/237/183 72/238/27 185/61/50 116/46/35
f 72/238/27 15/239/26 95/62/51 185/61/50
f 96/32/21 186/57/46 108/60/49 13/33/22
f 10/240/14 110/241/19 186/57/46 96/32/21
f 110/241/19 12/234/18 109/58/47 186/57/46
f 150/78/67 187/53/42 112/56/45 20/79/68
f 14/230/40 71/242/23 187/53/42 150/78/67
f 71/242/23 13/225/22 144/54/43 187/53/42
f 95/62/51 188/49/38 131/52/41 18/63/52
f 15/239/26 81/243/33 188/49/38 95/62/51
f 81/243/33 11/244/32 99/50/39 188/49/38
f 103/66/55 189/45/34 113/48/37 17/67/56
f 9/236/10 119/245/9 189/45/34 103/66/55
f 119/245/9 8/237/183 116/46/35 189/45/34
f 126/36/25 190/41/30 81/44/33 15/37/26
f 6/246/184 127/247/185 190/41/30 126/36/25
f 127/247/185 3/248/186 138/42/31 190/41/30
f 132/28/17 191/39/28 82/40/29 12/29/18
f 7/249/187 60/250/188 191/39/28 132/28/17
f 60/250/188 5/251/189 134/19/11 191/39/28
f 133/252/190 192/35/24 72/38/27 8/253/183
f 4/254/191 93/255/192 192/35/24 133/252/190
f 93/255/192 6/246/184 126/36/25 192/35/24
f 99/50/39 193/31/20 71/34/23 14/51/40
f 11/244/32 76/256/15 193/31/20 99/50/39
f 76/256/15 10/240/14 96/32/21 193/31/20
f 80/24/13 194/27/16 110/30/19 10/25/14
f 2/257/193 139/258/194 194/27/16 80/24/13
f 139/258/194 7/249/187 132/28/17 194/27/16
f 138/42/31 195/23/12 76/26/15 11/43/32
f 3/248/186 100/259/195 195/23/12 138/42/31
f 100/259/195 2/257/193 80/24/13 195/23/12
f 145/22/2 139/260/194 2/261/193
f 145/22/2 56/21/7 139/260/194
f 56/21/7 7/262/187 139/260/194
f 73/263/196 196/16/8 134/19/11 5/251/189
f 4/254/191 133/252/190 196/16/8 73/263/196
f 133/252/190 8/253/183 119/17/9 196/16/8
f 77/15/6 127/264/185 6/265/184
f 77/15/6 128/14/3 127/264/185
f 128/14/3 3/266/186 127/264/185
f 56/12/7 60/267/188 7/262/187
f 56/12/7 90/11/5 60/267/188
f 90/11/5 5/268/189 60/267/188
f 111/9/4 93/269/192 4/270/191
f 111/9/4 77/8/6 93/269/192
f 77/8/6 6/265/184 93/269/192
f 90/6/5 73/271/196 5/268/189
f 90/6/5 111/5/4 73/271/196
f 111/5/4 4/270/191 73/271/196
f 128/3/3 100/272/195 3/266/186
f 128/3/3 145/2/2 100/272/195
f 145/2/2 2/261/193 100/272/195
