# Blender v2.78 (sub 0) OBJ File: ''
# www.blender.org
mtllib Pine_Tree_s_08.mtl
o Pine_Tree_s_08
v -0.015985 0.181750 -0.038135
v 0.009012 0.728310 -0.040636
v 0.045707 0.728541 -0.029751
v 0.037197 0.181751 -0.016038
v 0.016535 0.181743 0.047401
v 0.031416 0.728652 0.014030
v -0.004592 0.728718 -0.005734
v -0.039511 0.181741 0.027063
v 0.047987 0.004635 -0.024929
v 0.022836 0.004635 0.052273
v -0.047438 0.004635 0.031948
v -0.016788 0.004636 -0.055329
v 0.007341 0.713182 0.000004
v 0.039927 0.269831 0.370025
v -0.261148 0.379586 0.222344
v -0.060338 0.373619 -0.286096
v 0.260762 0.292457 -0.200770
v -0.366657 0.244094 -0.087124
v 0.079789 1.022803 0.146640
v -0.020051 1.028061 0.109048
v 0.341082 0.399501 0.146000
v 0.047417 1.024023 -0.037979
v 0.088596 1.024952 0.019138
v -0.049538 1.026619 -0.078589
v -0.058468 1.027218 0.010371
v 0.060616 0.766145 0.233453
v -0.187678 0.716376 0.197287
v 0.296562 0.678386 0.056987
v -0.102593 0.712847 -0.246432
v 0.128662 0.764850 -0.151102
v -0.223945 0.809944 -0.038012
v -0.026399 1.220027 -0.054112
v 0.071940 1.219849 -0.029159
v 0.091065 1.219566 0.132538
v -0.012923 1.221690 0.113369
v 0.136830 1.221634 0.028121
v 0.090827 1.588716 0.035324
v -0.056908 1.223862 0.026774
v -0.189644 0.473353 -0.047230
v 0.085515 1.023840 0.083720
v -0.065723 0.741196 0.219660
v 0.041534 0.458785 -0.022960
v 0.219446 0.942150 0.042919
v -0.103096 0.873780 0.152802
v 0.075576 0.985953 0.184982
v -0.055071 0.699756 -0.183464
v -0.209672 0.763664 0.081469
v -0.040199 1.027696 0.060198
v -0.215907 0.310788 -0.189084
v -0.055288 1.026940 -0.035439
v 0.025132 0.487091 0.194125
v 0.028006 0.181747 0.016124
v -0.040923 1.228633 -0.013660
v 0.114221 1.412135 0.031898
v -0.141574 0.703507 0.167053
v -0.013092 0.004635 0.044442
v 0.191520 0.852586 0.036984
v -0.016770 0.086917 -0.047193
v 0.024028 0.458836 0.030769
v 0.016390 0.004636 -0.042461
v 0.032103 1.410993 -0.008871
v 0.086322 0.897581 -0.094018
v 0.068885 1.024481 -0.010305
v -0.076732 0.871331 -0.162280
v 0.182987 0.721877 0.147765
v 0.081772 1.410313 0.002470
v 0.023339 1.226660 -0.041410
v -0.103259 0.961538 0.157118
v -0.317448 0.314129 0.067299
v 0.027746 0.728418 -0.036282
v 0.040200 1.227348 0.123437
v 0.070305 0.897874 0.188639
v -0.022012 0.458870 0.010542
v 0.016824 1.411869 0.031483
v 0.115143 1.227448 0.080256
v -0.214695 0.632755 -0.038742
v 0.183876 0.549741 0.076739
v -0.044230 0.086907 0.030113
v 0.019716 0.086909 0.050546
v 0.011067 0.181751 -0.028429
v 0.030276 1.025417 0.130058
v 0.101898 0.335607 -0.246966
v 0.216026 0.712489 0.083684
v 0.060402 0.644113 0.261275
v 0.042860 0.086915 -0.020534
v 0.037324 0.004635 0.014390
v -0.139554 0.922728 -0.013440
v -0.066317 0.958900 -0.153043
v -0.001443 1.025302 -0.059603
v 0.142676 0.498608 -0.106516
v 0.092631 1.410182 0.084298
v 0.039571 0.728599 -0.007434
v 0.155852 0.656306 -0.120226
v -0.111784 0.327170 0.298788
v -0.034026 0.004635 -0.012408
v 0.100960 0.985429 -0.092033
v 0.001201 0.728512 -0.023612
v 0.105243 1.227616 -0.000722
v -0.166022 0.761838 -0.145707
v 0.192698 0.336940 0.260755
v -0.028365 0.535959 -0.152610
v 0.013026 0.728693 0.005237
v -0.003474 0.458665 -0.039351
v 0.304838 0.348717 -0.028616
v -0.028887 0.181745 -0.005979
v 0.040345 1.411804 0.075177
v -0.033962 1.229489 0.070209
v -0.011949 0.181741 0.038574
v -0.143822 1.010461 -0.006237
v 0.217556 0.721240 -0.047862
v 0.012497 0.738733 -0.203143
v -0.135939 0.538610 0.117051
v -0.031787 0.086912 -0.009031
v 0.150565 0.963860 0.115599
v -0.107171 0.984910 -0.081943
v 0.163390 0.963615 -0.025376
v -0.126144 0.986278 0.076662
v -0.014927 0.973690 0.174172
v 0.016872 0.972077 -0.125408
v -0.123725 0.898535 0.070840
v 0.141832 0.874891 -0.029362
v -0.110162 0.897262 -0.090268
v 0.004335 0.884388 -0.130997
v 0.133773 0.875017 0.114500
v -0.137786 0.665970 -0.113842
v 0.140884 0.678262 0.175528
v -0.017288 0.885788 0.173973
v -0.181823 0.668057 0.064657
v 0.051409 0.678145 -0.155395
v 0.189680 0.684656 -0.019452
v -0.041424 0.673837 0.218083
v 0.033729 0.458811 0.004286
v 0.013573 0.086916 -0.035409
v -0.012784 0.086908 0.041875
v -0.013691 0.458767 -0.014786
v 0.032575 0.086912 0.015497
v 0.000632 0.458856 0.021735
v 0.019406 0.458722 -0.032235
vt 0.8365 0.9333
vt 0.8364 0.9485
vt 0.8303 0.9485
vt 0.8303 0.9332
vt 0.8119 0.9333
vt 0.8119 0.9484
vt 0.8058 0.9484
vt 0.8058 0.9333
vt 0.8244 0.9068
vt 0.8242 0.9180
vt 0.8180 0.9181
vt 0.8182 0.9070
vt 0.7936 0.9333
vt 0.7937 0.9181
vt 0.8058 0.9183
vt 0.8120 0.9072
vt 0.8119 0.9182
vt 0.8059 0.9073
vt 0.8367 0.9068
vt 0.8367 0.9180
vt 0.8304 0.9179
vt 0.8305 0.9067
vt 0.8242 0.9332
vt 0.8241 0.9484
vt 0.8180 0.9484
vt 0.8180 0.9333
vt 0.5536 0.3235
vt 0.5440 0.3370
vt 0.5347 0.3135
vt 0.5736 0.3024
vt 0.5813 0.2894
vt 0.5908 0.3140
vt 0.5468 0.3090
vt 0.5314 0.3063
vt 0.5434 0.2870
vt 0.5422 0.3102
vt 0.5480 0.2994
vt 0.5614 0.3114
vt 0.5595 0.3133
vt 0.5709 0.3329
vt 0.5760 0.3483
vt 0.5527 0.3417
vt 0.5553 0.2955
vt 0.5476 0.2803
vt 0.5721 0.2860
vt 0.5796 0.3166
vt 0.5938 0.3211
vt 0.5803 0.3401
vt 0.5809 0.2980
vt 0.5877 0.3102
vt 0.5689 0.3137
vt 0.5676 0.3116
vt 0.5831 0.3214
vt 0.5784 0.3325
vt 0.5670 0.3184
vt 0.5680 0.3160
vt 0.5434 0.3318
vt 0.5365 0.3210
vt 0.5575 0.3151
vt 0.5597 0.3174
vt 0.5480 0.3296
vt 0.5599 0.3342
vt 0.5576 0.3512
vt 0.5378 0.3436
vt 0.5611 0.2926
vt 0.5742 0.2857
vt 0.5663 0.3096
vt 0.5638 0.3105
vt 0.5644 0.3375
vt 0.5503 0.3425
vt 0.5620 0.3198
vt 0.5645 0.3191
vt 0.5760 0.3295
vt 0.5921 0.3248
vt 0.6118 0.3356
vt 0.5847 0.3434
vt 0.5726 0.2899
vt 0.5601 0.2852
vt 0.5583 0.2691
vt 0.5794 0.2770
vt 0.5451 0.2921
vt 0.5301 0.2990
vt 0.5080 0.2925
vt 0.5332 0.2808
vt 0.5886 0.3097
vt 0.5850 0.2946
vt 0.6005 0.2848
vt 0.6062 0.3102
vt 0.5331 0.3121
vt 0.5360 0.3251
vt 0.5179 0.3360
vt 0.5130 0.3142
vt 0.4528 0.3376
vt 0.4453 0.3241
vt 0.4513 0.3214
vt 0.4654 0.3310
vt 0.4288 0.2847
vt 0.4425 0.2791
vt 0.4410 0.2965
vt 0.4345 0.2994
vt 0.4489 0.2999
vt 0.4412 0.3041
vt 0.4393 0.3267
vt 0.4325 0.3224
vt 0.4403 0.3192
vt 0.4567 0.3033
vt 0.4540 0.3123
vt 0.4491 0.3075
vt 0.4257 0.3181
vt 0.4268 0.3102
vt 0.4336 0.3149
vt 0.4120 0.3081
vt 0.4151 0.2904
vt 0.4279 0.3024
vt 0.4704 0.3118
vt 0.4246 0.3350
vt 0.4089 0.3259
vt 0.4589 0.2858
vt 0.4753 0.2925
vt 0.4463 0.3165
vt 0.7936 0.9071
vt 0.7815 0.9179
vt 0.7812 0.9068
vt 0.7935 0.8960
vt 0.7810 0.8956
vt 0.8060 0.8964
vt 0.4414 0.3117
vt 0.4440 0.2617
vt 0.4690 0.2717
vt 0.4940 0.2817
vt 0.4402 0.3441
vt 0.4412 0.3615
vt 0.4166 0.3476
vt 0.3921 0.3336
vt 0.4868 0.3112
vt 0.4796 0.3407
vt 0.4347 0.3070
vt 0.3972 0.3060
vt 0.4024 0.2784
vt 0.4232 0.2700
vt 0.4604 0.3511
vt 0.5522 0.3056
vt 0.5531 0.3099
vt 0.5541 0.3142
vt 0.5725 0.3140
vt 0.5710 0.3092
vt 0.5696 0.3044
vt 0.5619 0.3013
vt 0.5570 0.3034
vt 0.5658 0.3029
vt 0.5623 0.3171
vt 0.5674 0.3155
vt 0.5899 0.3467
vt 0.5643 0.3559
vt 0.5387 0.3652
vt 0.5345 0.2875
vt 0.5583 0.2746
vt 0.5821 0.2618
vt 0.5582 0.3156
vt 0.5271 0.3461
vt 0.5155 0.3270
vt 0.6064 0.3068
vt 0.5982 0.3268
vt 0.5942 0.2843
vt 0.5945 0.3447
vt 0.5810 0.3637
vt 0.6080 0.3256
vt 0.5645 0.2707
vt 0.5890 0.2764
vt 0.5400 0.2650
vt 0.5577 0.3571
vt 0.5345 0.3504
vt 0.5250 0.3072
vt 0.5280 0.2843
vt 0.5159 0.3036
vt 0.5985 0.3010
vt 0.5252 0.3270
vt 0.8368 0.8957
vt 0.8307 0.8954
vt 0.8430 0.8959
vt 0.8429 0.9070
vt 0.8429 0.9181
vt 0.8122 0.8961
vt 0.8184 0.8959
vt 0.7936 0.9484
vt 0.7813 0.9484
vt 0.7814 0.9332
vt 0.8246 0.8957
vt 0.8427 0.9333
vt 0.8426 0.9486
vn 0.3408 -0.0237 -0.9398
vn 0.3177 -0.0236 -0.9479
vn 0.8939 -0.0242 -0.4476
vn 0.9013 -0.0237 -0.4326
vn -0.4026 0.0742 0.9124
vn -0.4363 0.0753 0.8967
vn -0.9318 0.0788 0.3544
vn -0.9200 0.0794 0.3837
vn 0.9498 0.0456 0.3096
vn 0.9504 0.0187 0.3105
vn 0.4283 0.0477 0.9024
vn 0.4585 0.0470 0.8875
vn -0.9364 0.0408 -0.3486
vn -0.9399 0.0403 -0.3391
vn -0.9055 0.0672 0.4190
vn -0.3061 0.0313 0.9515
vn -0.3453 0.0543 0.9369
vn -0.8985 0.0503 0.4360
vn 0.4052 0.0828 -0.9105
vn 0.3804 0.0270 -0.9244
vn 0.9133 0.0275 -0.4065
vn 0.9143 0.0808 -0.3969
vn 0.9507 -0.0065 0.3101
vn 0.9510 -0.0066 0.3090
vn 0.4136 0.0470 0.9093
vn 0.4129 0.0464 0.9096
vn 0.0101 -0.9989 0.0461
vn -0.0630 -0.6463 -0.7605
vn 0.5364 -0.7235 -0.4346
vn 0.1490 -0.6554 0.7404
vn -0.5504 -0.6109 0.5692
vn 0.7185 -0.6320 0.2903
vn -0.3330 0.2862 0.8984
vn 0.1983 0.2935 0.9352
vn -0.6521 -0.4721 0.5932
vn -0.6615 -0.7489 0.0398
vn -0.6089 -0.7577 -0.2350
vn 0.8766 0.3168 -0.3623
vn 0.6539 0.3326 -0.6796
vn 0.3013 -0.9496 0.0864
vn 0.5597 -0.6682 0.4902
vn 0.3320 0.2932 -0.8965
vn -0.2429 0.3233 -0.9146
vn 0.2230 -0.9427 -0.2480
vn 0.1897 -0.9315 -0.3102
vn -0.9106 0.3553 0.2112
vn -0.6950 0.3601 0.6223
vn -0.4362 -0.8462 -0.3061
vn -0.5156 -0.7898 -0.3322
vn 0.2406 -0.3648 -0.8994
vn -0.3386 -0.3574 -0.8704
vn 0.0828 -0.8337 0.5460
vn 0.2383 -0.9002 0.3645
vn 0.7043 0.2750 0.6545
vn 0.9160 0.3681 0.1596
vn 0.0967 -0.7210 0.6862
vn -0.2647 -0.4197 0.8682
vn -0.7342 0.2983 -0.6099
vn -0.9002 0.3690 -0.2311
vn -0.2636 -0.8502 -0.4557
vn -0.0722 -0.7991 -0.5968
vn -0.7928 -0.3554 -0.4951
vn -0.8730 -0.4875 -0.0114
vn 0.5570 -0.8284 0.0590
vn -0.1200 -0.8398 0.5295
vn -0.2905 -0.4385 0.8505
vn 0.2687 -0.5172 0.8126
vn -0.2797 -0.7785 -0.5618
vn 0.1873 -0.9198 -0.3447
vn 0.7401 -0.4947 0.4555
vn 0.8114 -0.5812 0.0612
vn -0.7009 -0.6923 -0.1715
vn -0.4768 -0.8726 -0.1056
vn -0.7673 -0.4343 0.4718
vn -0.5508 -0.4619 0.6952
vn 0.1714 -0.8124 -0.5573
vn 0.0652 -0.8635 -0.5001
vn 0.7853 -0.5280 -0.3233
vn 0.5642 -0.4877 -0.6662
vn -0.3715 -0.8297 0.4167
vn -0.5162 -0.8435 -0.1484
vn 0.2819 0.2967 -0.9124
vn 0.2533 0.2196 -0.9421
vn 0.4853 0.2078 -0.8493
vn 0.5399 0.2730 -0.7962
vn -0.1772 0.2287 0.9572
vn 0.3174 0.2084 0.9251
vn 0.4063 0.2123 0.8887
vn -0.1697 0.2438 0.9549
vn 0.8630 0.1416 0.4849
vn 0.4807 0.2255 0.8474
vn -0.3932 0.3677 -0.8427
vn -0.8447 0.3552 -0.4003
vn -0.4204 0.3401 -0.8412
vn 0.9689 0.2029 -0.1418
vn 0.6916 0.1544 -0.7056
vn 0.9676 0.1277 -0.2177
vn -0.9284 0.3715 0.0049
vn -0.8527 0.3313 0.4040
vn -0.9243 0.3770 0.0599
vn -0.8812 0.3398 0.3286
vn -0.6068 0.3212 0.7270
vn -0.5678 0.3138 0.7611
vn 0.7601 0.2263 -0.6091
vn -0.7775 0.3551 -0.5190
vn -0.9189 0.3818 -0.0994
vn 0.7347 0.1858 0.6525
vn 0.9616 0.2723 0.0354
vn 0.4577 0.1349 -0.8788
vn -0.9416 0.0382 -0.3345
vn -0.4252 0.0504 -0.9037
vn -0.4039 0.0890 -0.9105
vn -0.9421 0.0365 -0.3334
vn -0.3827 0.0923 -0.9193
vn -0.8952 0.0460 0.4433
vn 0.1411 0.9899 -0.0162
vn -0.2946 0.3828 -0.8756
vn -0.5459 0.3226 0.7733
vn -0.0839 -0.7069 -0.7023
vn -0.1531 -0.8676 -0.4730
vn -0.6147 -0.7819 -0.1037
vn 0.1071 -0.8391 0.5333
vn 0.6303 -0.7668 0.1211
vn 0.8140 -0.5507 0.1846
vn -0.4036 -0.7618 0.5067
vn -0.6133 -0.6193 0.4903
vn 0.4215 -0.8106 -0.4065
vn -0.0499 -0.8713 -0.4882
vn 0.5271 -0.8475 0.0626
vn -0.4524 -0.8270 0.3338
vn 0.4148 0.0880 -0.9057
vn 0.9119 0.0852 -0.4014
vn -0.2904 0.0269 0.9565
vn 0.4767 0.0452 0.8779
vn -0.9338 0.0408 -0.3556
vn -0.4158 0.0120 -0.9094
vn -0.4236 0.0129 -0.9058
vn 0.9500 0.0475 0.3086
usemtl None
s 1
f 138/1/1 70/2/2 3/3/3 42/4/4
f 137/5/5 102/6/6 7/7/7 73/8/8
f 136/9/9 52/10/10 5/11/11 79/12/12
f 135/13/13 105/14/14 8/15/15 73/8/8
f 134/16/16 108/17/17 8/15/15 78/18/18
f 133/19/19 80/20/20 4/21/21 85/22/22
f 132/23/23 92/24/24 6/25/25 59/26/26
f 13/27/27 51/28/28 112/29/29
f 13/30/27 101/31/30 90/32/31
f 13/33/27 112/34/29 39/35/32
f 131/36/33 84/37/34 19/38/35 81/39/36
f 13/40/27 77/41/37 51/42/28
f 13/43/27 39/44/32 101/45/30
f 13/46/27 90/47/31 77/48/37
f 130/49/38 93/50/39 22/51/40 63/52/41
f 129/53/42 46/54/43 24/55/44 89/56/45
f 128/57/46 55/58/47 20/59/48 48/60/49
f 127/61/50 72/62/51 26/63/52 41/64/53
f 126/65/54 83/66/55 23/67/56 40/68/57
f 125/69/58 76/70/59 25/71/60 50/72/61
f 124/73/62 57/74/63 28/75/64 65/76/65
f 123/77/66 64/78/67 29/79/68 111/80/69
f 122/81/70 87/82/71 31/83/72 99/84/73
f 121/85/74 62/86/75 30/87/76 110/88/77
f 120/89/78 44/90/79 27/91/80 47/92/81
f 119/93/82 67/94/83 33/95/84 96/96/85
f 118/97/86 45/98/87 34/99/88 71/100/89
f 34/99/88 75/101/90 91/102/91
f 32/103/92 53/104/93 61/105/94
f 36/106/95 98/107/96 54/108/97
f 38/109/98 107/110/99 74/111/100
f 117/112/101 68/113/102 35/114/103 107/110/99
f 34/99/88 91/102/91 71/100/89
f 116/115/104 96/96/85 33/95/84 98/107/96
f 115/116/105 109/117/106 38/109/98 53/104/93
f 114/118/107 43/119/108 36/106/95 75/101/90
f 33/95/84 67/94/83 66/120/109
f 113/121/110 105/14/14 1/122/111 58/123/112
f 95/124/113 113/121/110 58/123/112 12/125/114
f 11/126/115 78/18/18 113/121/110 95/124/113
f 78/18/18 8/15/15 105/14/14 113/121/110
f 66/120/109 61/105/94 37/127/116
f 66/120/109 67/94/83 61/105/94
f 67/94/83 32/103/92 61/105/94
f 45/98/87 114/118/107 75/101/90 34/99/88
f 26/128/52 65/129/65 114/118/107 45/98/87
f 65/129/65 28/130/64 43/119/108 114/118/107
f 88/131/117 115/116/105 53/104/93 32/103/92
f 29/132/68 99/133/73 115/116/105 88/131/117
f 99/133/73 31/134/72 109/117/106 115/116/105
f 43/119/108 116/115/104 98/107/96 36/106/95
f 28/130/64 110/135/77 116/115/104 43/119/108
f 110/135/77 30/136/76 96/96/85 116/115/104
f 71/100/89 106/137/118 35/114/103
f 71/100/89 91/102/91 106/137/118
f 91/102/91 37/127/116 106/137/118
f 109/117/106 117/112/101 107/110/99 38/109/98
f 31/134/72 47/138/81 117/112/101 109/117/106
f 47/138/81 27/139/80 68/113/102 117/112/101
f 74/111/100 106/137/118 37/127/116
f 74/111/100 107/110/99 106/137/118
f 107/110/99 35/114/103 106/137/118
f 54/108/97 66/120/109 37/127/116
f 54/108/97 98/107/96 66/120/109
f 98/107/96 33/95/84 66/120/109
f 61/105/94 74/111/100 37/127/116
f 61/105/94 53/104/93 74/111/100
f 53/104/93 38/109/98 74/111/100
f 91/102/91 54/108/97 37/127/116
f 91/102/91 75/101/90 54/108/97
f 75/101/90 36/106/95 54/108/97
f 68/113/102 118/97/86 71/100/89 35/114/103
f 27/139/80 41/140/53 118/97/86 68/113/102
f 41/140/53 26/128/52 45/98/87 118/97/86
f 111/141/69 119/93/82 96/96/85 30/136/76
f 29/132/68 88/131/117 119/93/82 111/141/69
f 88/131/117 32/103/92 67/94/83 119/93/82
f 87/82/71 120/89/78 47/92/81 31/83/72
f 25/142/60 48/143/49 120/89/78 87/82/71
f 48/143/49 20/144/48 44/90/79 120/89/78
f 57/74/63 121/85/74 110/88/77 28/75/64
f 23/145/56 63/146/41 121/85/74 57/74/63
f 63/146/41 22/147/40 62/86/75 121/85/74
f 64/78/67 122/81/70 99/84/73 29/79/68
f 24/148/44 50/149/61 122/81/70 64/78/67
f 50/149/61 25/142/60 87/82/71 122/81/70
f 62/86/75 123/77/66 111/80/69 30/87/76
f 22/147/40 89/150/45 123/77/66 62/86/75
f 89/150/45 24/148/44 64/78/67 123/77/66
f 72/62/51 124/73/62 65/76/65 26/63/52
f 19/151/35 40/152/57 124/73/62 72/62/51
f 40/152/57 23/145/56 57/74/63 124/73/62
f 46/54/43 125/69/58 50/72/61 24/55/44
f 16/153/119 49/154/120 125/69/58 46/54/43
f 49/154/120 18/155/121 76/70/59 125/69/58
f 84/37/34 126/65/54 40/68/57 19/38/35
f 14/156/122 100/157/123 126/65/54 84/37/34
f 100/157/123 21/158/124 83/66/55 126/65/54
f 44/90/79 127/61/50 41/64/53 27/91/80
f 20/144/48 81/159/36 127/61/50 44/90/79
f 81/159/36 19/151/35 72/62/51 127/61/50
f 76/70/59 128/57/46 48/60/49 25/71/60
f 18/155/121 69/160/125 128/57/46 76/70/59
f 69/160/125 15/161/126 55/58/47 128/57/46
f 93/50/39 129/53/42 89/56/45 22/51/40
f 17/162/127 82/163/128 129/53/42 93/50/39
f 82/163/128 16/153/119 46/54/43 129/53/42
f 83/66/55 130/49/38 63/52/41 23/67/56
f 21/158/124 104/164/129 130/49/38 83/66/55
f 104/164/129 17/162/127 93/50/39 130/49/38
f 77/48/37 104/165/129 21/166/124
f 77/48/37 90/47/31 104/165/129
f 90/47/31 17/167/127 104/165/129
f 101/45/30 49/168/120 16/169/119
f 101/45/30 39/44/32 49/168/120
f 39/44/32 18/170/121 49/168/120
f 51/42/28 100/171/123 14/172/122
f 51/42/28 77/41/37 100/171/123
f 77/41/37 21/166/124 100/171/123
f 55/58/47 131/36/33 81/39/36 20/59/48
f 15/161/126 94/173/130 131/36/33 55/58/47
f 94/173/130 14/156/122 84/37/34 131/36/33
f 39/35/32 69/174/125 18/170/121
f 39/35/32 112/34/29 69/174/125
f 112/34/29 15/175/126 69/174/125
f 90/32/31 82/176/128 17/167/127
f 90/32/31 101/31/30 82/176/128
f 101/31/30 16/169/119 82/176/128
f 112/29/29 94/177/130 15/175/126
f 112/29/29 51/28/28 94/177/130
f 51/28/28 14/172/122 94/177/130
f 52/10/10 132/23/23 59/26/26 5/11/11
f 4/21/21 42/4/4 132/23/23 52/10/10
f 42/4/4 3/3/3 92/24/24 132/23/23
f 60/178/131 133/19/19 85/22/22 9/179/132
f 12/180/114 58/181/112 133/19/19 60/178/131
f 58/181/112 1/182/111 80/20/20 133/19/19
f 56/183/133 134/16/16 78/18/18 11/126/115
f 10/184/134 79/12/12 134/16/16 56/183/133
f 79/12/12 5/11/11 108/17/17 134/16/16
f 97/185/135 135/13/13 73/8/8 7/7/7
f 2/186/136 103/187/137 135/13/13 97/185/135
f 103/187/137 1/122/111 105/14/14 135/13/13
f 86/188/138 136/9/9 79/12/12 10/184/134
f 9/179/132 85/22/22 136/9/9 86/188/138
f 85/22/22 4/21/21 52/10/10 136/9/9
f 108/17/17 137/5/5 73/8/8 8/15/15
f 5/11/11 59/26/26 137/5/5 108/17/17
f 59/26/26 6/25/25 102/6/6 137/5/5
f 80/20/20 138/1/1 42/4/4 4/21/21
f 1/182/111 103/189/137 138/1/1 80/20/20
f 103/189/137 2/190/136 70/2/2 138/1/1
