# Blender v2.78 (sub 0) OBJ File: ''
# www.blender.org
mtllib Pine_Tree_l_05.mtl
o Pine_Tree_l_05
v 0.013444 3.920963 2.749108
v 0.128895 7.889711 0.707702
v -0.341905 7.900804 0.512732
v -1.923188 4.596525 1.943982
v 1.962812 4.589758 -1.943510
v 0.599862 7.879678 -0.430663
v 0.794400 7.874416 0.041035
v 2.763279 3.919310 0.000236
v 0.013446 3.920983 -2.748636
v 0.129250 7.892648 -0.625632
v 0.599612 7.877626 0.512732
v 1.962811 4.589744 1.943981
v -1.923187 4.596539 -1.943510
v -0.341653 7.902904 -0.430663
v -2.736873 3.921465 0.000236
v -0.536292 7.907343 0.041035
v 1.933716 5.635374 1.900248
v 0.734811 9.949578 0.425790
v 0.377952 10.342019 0.593354
v 0.056218 6.443151 2.623137
v 0.056224 6.443184 -2.622305
v 0.378416 10.344107 -0.544181
v 0.735102 9.950978 -0.376618
v 1.933719 5.635397 -1.899417
v -1.861070 5.658505 -1.899417
v -0.065623 9.989492 -0.376618
v 0.945733 10.313184 0.024586
v 2.674304 6.410863 0.000416
v -2.562268 6.468727 0.000416
v -0.189400 10.372437 0.024586
v -1.861073 5.658482 1.900248
v -0.065915 9.988064 0.425790
v 2.654754 7.764861 0.000157
v 1.302677 12.865259 0.000002
v 1.229316 13.178698 0.328736
v 1.761436 8.451705 1.601239
v -1.434765 8.544168 -1.600926
v 0.569948 13.227306 -0.328733
v 0.831381 12.899431 -0.469974
v 0.118200 7.824682 -2.541419
v -2.418787 7.876145 0.000157
v 0.360121 12.933633 0.000002
v 1.229316 13.178698 -0.328733
v 1.761438 8.451714 -1.600925
v -1.434767 8.544159 1.601239
v 0.569948 13.227306 0.328736
v 0.118197 7.824668 2.541732
v 0.831381 12.899431 0.469977
v 2.576844 10.078356 0.000002
v 1.615149 14.319641 0.000002
v 1.552203 14.653031 0.316406
v 1.669878 10.964967 1.240302
v -0.806943 11.107504 -1.240298
v 0.918178 14.698966 -0.316402
v 1.163019 14.352547 -0.451079
v 0.319332 10.187234 -2.261266
v -1.938679 10.288267 0.000002
v 0.710911 14.385619 0.000002
v 1.552203 14.653031 -0.316402
v 1.669878 10.964967 -1.240298
v -0.806943 11.107505 1.240301
v 0.918178 14.698966 0.316406
v 0.319332 10.187234 2.261267
v 1.163019 14.352547 0.451084
v 2.380899 14.645833 0.000002
v 1.928114 17.297449 0.000003
v 1.892895 17.556236 0.160085
v 2.079056 15.226715 0.758487
v 0.557632 15.330004 -0.758483
v 1.573042 17.574945 -0.160080
v 1.701195 17.310944 -0.227080
v 1.196885 14.728114 -1.179576
v 0.012980 14.812063 0.000002
v 1.474278 17.324469 0.000003
v 1.892895 17.556236 -0.160080
v 2.079057 15.226715 -0.758483
v 0.557632 15.330003 0.758487
v 1.573040 17.574945 0.160085
v 1.196885 14.728114 1.179579
v 1.701195 17.310944 0.227086
v 2.069452 17.764721 0.000003
v 1.853854 18.969271 0.000003
v 1.982956 17.854975 0.230947
v 1.521297 17.880554 -0.230942
v 1.742991 17.782885 -0.326603
v 1.416528 17.801081 0.000003
v 1.982956 17.854975 -0.230942
v 1.521297 17.880554 0.230947
v 1.742991 17.782885 0.326607
v 1.556546 16.492771 -0.757082
v 1.055673 16.743084 -0.535337
v 0.798683 16.539736 0.000003
v 1.055672 16.743084 0.535342
v 1.556546 16.492771 0.757086
v 2.127140 16.678146 0.535341
v 2.127140 16.678146 -0.535337
v 2.314415 16.446285 0.000003
v 2.318426 12.597198 0.000002
v 1.782168 16.026764 0.000003
v 1.733168 16.216202 0.195135
v 1.903091 13.021196 1.081766
v -0.269762 13.178202 -1.081762
v 1.342734 16.241503 -0.195131
v 1.504982 16.044933 -0.276986
v 0.730095 12.709883 -1.581939
v -0.857548 12.823242 0.000002
v 1.227804 16.063175 0.000003
v 1.733168 16.216202 -0.195131
v 1.903091 13.021196 -1.081762
v -0.269762 13.178202 1.081766
v 1.342734 16.241503 0.195135
v 0.730095 12.709883 1.581942
v 1.504982 16.044933 0.276991
v 0.079175 6.633527 -0.003767
v -0.327210 0.031585 -0.023909
v -0.181972 3.797947 0.033976
v 0.020947 3.694654 -0.224103
v -0.068752 0.030685 -0.342608
v 0.064086 8.696145 -0.048157
v 0.245392 8.858366 -0.240962
v 0.317945 0.031373 0.208047
v 0.285891 3.774430 0.233479
v -0.049254 3.777720 0.323197
v -0.096514 0.031401 0.322159
v 0.375163 8.778906 0.116037
v 0.205851 8.796533 0.161314
v 0.300869 3.823856 -0.095102
v 0.304992 0.031798 -0.192617
v 0.424439 8.861045 -0.139456
v -0.117311 3.788182 0.179683
v 0.091899 7.166701 1.665365
v -0.129357 10.180341 0.225894
v -0.963828 7.821421 -1.138805
v 2.120584 16.876148 0.000003
v 1.636836 17.442961 0.194267
v 0.741881 16.066734 0.000003
v -1.375164 8.424026 0.012449
v 0.700084 13.063413 0.400752
v 1.064469 16.452200 0.459893
v -0.058565 6.263760 -0.007010
v 1.863396 17.824890 -0.278279
v 0.941887 8.138094 -2.079233
v 1.285766 17.305630 0.385078
v 1.799171 18.381786 0.164684
v 1.632976 17.837652 -0.278279
v -1.029105 10.405343 0.000002
v 2.026338 17.815825 -0.115265
v 1.799171 18.381786 -0.164678
v 0.842117 10.131989 -0.176721
v 1.042018 5.600467 0.991303
v -0.244458 10.647500 1.757964
v -0.432392 10.887877 0.965842
v 1.064470 16.452200 -0.459888
v 2.050642 14.310880 0.000002
v -0.440977 7.905177 -0.195647
v 0.071372 5.902697 -1.689415
v -1.102155 6.776365 1.206613
v 2.365230 4.259202 0.972904
v -0.568685 13.001081 0.542722
v 2.026338 17.815825 0.115271
v -1.133880 6.250371 -1.188511
v -0.432392 10.887877 -0.965839
v 0.295322 3.799549 0.069312
v 0.995259 10.575994 -1.757962
v 1.629887 16.906006 0.490400
v 2.155189 15.969905 0.000003
v 1.283015 6.235345 -1.188511
v -0.568685 13.001081 -0.542718
v 1.632976 17.837652 0.278284
v 0.401256 8.819898 -0.011471
v 1.727820 13.838684 -0.698966
v 1.316117 17.162554 0.346766
v 0.924781 16.641558 0.268664
v 1.980101 10.315803 0.000002
v -1.102027 6.777430 -1.165059
v 1.797327 17.433575 -0.194262
v 0.055020 12.901326 -0.778813
v 0.363006 6.359766 -0.117176
v -0.943654 5.603823 0.991304
v 0.118687 3.775846 0.280286
v 0.071193 5.901208 1.730969
v 1.451123 5.269608 -0.001899
v 1.246131 9.200077 -0.987957
v 1.318440 12.865398 1.336867
v 1.965408 13.461029 0.000002
v 1.423517 16.143240 -0.236883
v 1.470034 17.846729 -0.115265
v 1.758492 16.121429 -0.097906
v -1.934824 8.210314 0.802769
v 0.941884 8.138083 2.079547
v -2.219962 6.063684 0.954065
v 0.092079 7.168189 -1.623810
v 0.574937 11.546223 1.364781
v 0.876198 15.029119 0.972773
v 2.056198 17.260139 -0.385072
v 1.634565 18.390945 0.000003
v 2.097840 12.195576 0.000002
v -1.549812 7.188345 0.020778
v 0.946778 13.533884 -1.014873
v 1.040037 14.525796 0.385100
v 1.267397 13.021873 -0.164943
v 0.155314 10.165067 0.511275
v 1.727820 13.838684 0.698970
v -1.934823 8.210319 -0.802455
v 2.312301 6.023017 0.954065
v -0.616232 12.333460 0.000002
v 0.153387 8.776815 -0.145866
v 1.351794 15.388917 0.727155
v 0.699011 7.875967 0.277716
v -0.214706 0.031493 0.150953
v 0.133692 6.293633 -0.232480
v 1.284445 16.152393 0.097910
v 0.700084 13.063413 -0.400749
v 0.155693 10.166832 -0.462102
v 0.995259 10.575994 1.757964
v 0.055020 12.901326 0.778816
v -2.332013 4.263635 -0.972564
v 1.758492 16.121429 0.097910
v 0.998703 6.039321 -2.269166
v 0.924782 16.641558 -0.268659
v 1.733569 7.142855 0.020778
v 1.284445 16.152393 -0.097906
v 1.585035 14.486236 -0.158761
v 1.335406 7.790783 -1.138805
v 0.314797 0.031585 0.007866
v 2.193845 17.098873 0.000003
v 2.115791 12.808839 -0.542718
v -1.379980 10.698206 -0.620802
v 1.267397 13.021873 0.164947
v 0.574937 11.546223 -1.364779
v 2.009871 17.120876 -0.346761
v 1.522977 17.449749 0.080326
v 0.217694 8.396072 1.608131
v -0.129210 10.181059 -0.176721
v 0.998700 6.039293 2.269998
v 1.040037 14.525796 -0.385096
v 1.448265 12.075123 0.783398
v 1.619416 16.130547 0.236887
v 1.117140 14.376356 -0.930204
v 1.285766 17.305630 -0.385072
v -0.256038 1.895368 0.005204
v 0.111748 0.031387 0.268255
v 1.986333 16.391100 -0.459888
v 1.818144 14.616626 -0.639096
v 1.810566 8.365554 0.012449
v 0.302925 1.907954 -0.144085
v -0.071492 13.607185 0.000002
v 1.522978 17.449749 -0.080321
v 1.797327 17.433575 0.194267
v 1.448265 12.075123 -0.783395
v -0.073938 1.884789 0.323677
v 0.324568 13.940267 0.698970
v 0.228317 12.944180 -1.336863
v 2.233733 14.936013 -0.380300
v 1.585035 14.486236 0.158766
v 0.463634 13.080576 0.164947
v 1.906158 15.724216 -0.475882
v 1.316118 17.162554 -0.346761
v 1.818144 14.616626 0.639100
v 0.463634 13.080576 -0.164943
v 2.115791 12.808839 0.542722
v 1.497262 10.817474 -0.965839
v -0.107032 7.897803 -0.530157
v 1.448507 16.017893 0.704537
v -1.379980 10.698206 0.620805
v 1.919955 18.416546 -0.116444
v 0.876198 15.029119 -0.972770
v -0.906159 6.050808 2.269998
v -0.963975 7.820697 1.163703
v 0.324568 13.940267 -0.698966
v 1.030929 13.039020 0.400752
v 1.863396 17.824890 0.278284
v 2.216141 8.108099 -0.802455
v 1.282889 6.234306 1.230065
v 1.448507 16.017893 -0.704533
v 0.161593 3.759077 -0.161451
v 0.046041 5.270429 -1.406501
v 1.351794 15.388917 -0.727151
v 2.223174 16.562069 -0.268659
v 0.841971 10.131286 0.225894
v -0.441104 7.904122 0.277716
v 1.619416 16.130547 -0.236883
v 0.475596 10.362652 1.506351
v -0.943654 5.603823 -0.995103
v 1.986333 16.391100 0.459893
v -0.660349 8.184555 -2.079234
v -0.906154 6.050836 -2.269166
v 0.989084 4.260005 2.348557
v -0.081810 3.745953 -0.096383
v -1.359286 5.270660 -0.001899
v 2.233732 14.936013 0.380305
v 0.813186 14.542393 -0.158761
v 0.335892 8.860756 -0.192095
v -0.117597 12.170864 -0.783395
v 0.557463 10.147519 -0.462102
v 0.365387 7.886147 -0.530157
v -1.638995 5.910252 0.020777
v 1.919955 18.416546 0.116450
v 1.358173 14.502748 0.385100
v 0.475596 10.362652 -1.506349
v 2.365230 4.259207 -0.972564
v 2.130529 10.521317 -0.620802
v 0.330636 6.293593 0.174936
v 1.842834 16.585400 0.648608
v 1.497262 10.817474 0.965842
v 0.228317 12.944180 1.336867
v 2.216140 8.108095 0.802769
v -0.788862 11.614002 0.000002
v 1.117140 14.376356 0.930207
v 2.223174 16.562069 0.268663
v 1.781300 5.892785 0.020777
v 1.305118 16.617983 -0.648603
v -0.244458 10.647500 -1.757962
v 0.557085 10.145768 0.511275
v 1.799052 9.035171 0.012449
v 1.648942 17.131359 -0.544576
v -1.134008 6.249308 1.230066
v 0.281552 15.071300 0.380305
v -0.955624 4.263409 2.348558
v -2.219960 6.063696 -0.953233
v 1.104043 17.164106 0.000003
v 0.740925 12.266451 -1.358299
v 0.046041 5.270429 1.402701
v 1.906158 15.724216 0.475886
v 1.042017 5.600467 -0.995103
v 0.247063 9.080621 -1.542785
v 1.938506 11.474536 0.000002
v 1.611325 12.807147 0.778817
v -0.117597 12.170864 0.783398
v 1.639031 14.977348 0.972773
v 2.130529 10.521317 0.620806
v 1.629887 16.906006 -0.490395
v 0.281552 15.071300 -0.380300
v 0.813186 14.542393 0.158766
v 0.119155 0.031242 -0.270649
v 1.266130 6.753219 1.206613
v 1.470034 17.846729 0.115271
v 1.030929 13.039020 -0.400749
v 0.133498 8.745720 0.057578
v 1.636836 17.442961 -0.194262
v 1.611325 12.807147 -0.778813
v 1.687182 18.429426 0.116450
v 1.911186 17.426802 -0.080321
v -0.660352 8.184544 2.079547
v -0.955622 4.263423 -2.348218
v 1.687182 18.429426 -0.116444
v -2.332014 4.263629 0.972904
v 1.245984 9.199368 1.012856
v -0.200534 0.031135 -0.185353
v 0.622386 15.439934 0.000003
v 2.312302 6.023027 -0.953233
v -0.024829 1.842521 -0.283921
v 0.952092 15.788361 0.475886
v 1.842834 16.585400 -0.648603
v 0.365083 7.883644 0.612226
v 0.740925 12.266451 1.358302
v 0.078689 6.304317 0.242353
v -1.305392 9.120583 0.012449
v 1.648942 17.131359 0.544581
v 0.989085 4.260018 -2.348218
v 1.963776 18.372641 0.000003
v 1.358173 14.502748 -0.385096
v 1.318440 12.865398 -1.336863
v 0.217928 8.397129 -1.583232
v 0.952092 15.788361 -0.475882
v 1.639031 14.977348 -0.972770
v 0.699136 7.876997 -0.195647
v 1.911186 17.426802 0.080326
v 1.139195 16.936119 0.000003
v 2.056198 17.260139 0.385077
v 1.266255 6.754258 -1.165059
v 0.535190 14.707886 0.639100
v -0.750846 9.265752 -0.987958
v 0.246829 9.079563 1.567683
v 1.423517 16.143240 0.236887
v 1.305117 16.617983 0.648608
v 0.183987 14.442204 0.000002
v 1.335259 7.790075 1.163703
v 0.302126 1.883184 0.221411
v -0.750993 9.265030 1.012856
v 2.081259 15.338774 0.000002
v -0.107336 7.895275 0.612226
v 2.009871 17.120876 0.346765
v 0.535190 14.707886 -0.639096
v 0.290898 8.787805 0.140630
v 0.946778 13.533884 1.014877
v 0.348337 6.326854 0.029031
v 0.304744 1.895772 0.038781
v 0.008662 6.283980 0.118595
v -0.166903 1.890253 0.165675
v 0.249057 6.327004 -0.176459
v 0.139778 1.875149 -0.216066
v 0.204993 6.298873 0.210351
v 0.114666 1.883873 0.274700
v 0.036408 6.278357 -0.120894
v -0.142040 1.868771 -0.140804
v 1.504997 6.947959 0.615978
v 1.505060 6.948480 -0.574423
v 0.681449 6.961230 -1.399592
v -0.507255 6.972818 -1.399592
v -1.331068 6.982954 -0.574423
v -1.331132 6.982419 0.615978
v -0.507409 6.971538 1.441146
v 0.681296 6.959963 1.441146
v 1.527463 9.117483 -0.489142
v 0.747983 9.140285 -1.270253
v -0.253276 9.173267 -1.270253
v -1.032992 9.193295 -0.489142
v -1.033066 9.192932 0.514041
v -0.253468 9.172374 1.295152
v 0.747792 9.139399 1.295152
v 1.527390 9.117128 0.514041
v 1.012218 11.810597 -1.078375
v 0.228054 11.858631 -1.078375
v -0.457515 11.892646 -0.392313
v -0.457515 11.892646 0.392316
v 0.228054 11.858631 1.078377
v 1.012218 11.810597 1.078378
v 1.697670 11.774605 0.392316
v 1.697670 11.774605 -0.392313
v 1.338504 13.686194 -0.860103
v 0.634467 13.737164 -0.860103
v 0.123343 13.773956 -0.350682
v 0.123343 13.773956 0.350686
v 0.634467 13.737164 0.860107
v 1.338504 13.686194 0.860107
v 1.849810 13.649629 0.350686
v 1.849810 13.649629 -0.350682
v 1.629677 15.556523 -0.603799
v 1.995998 15.531338 -0.238641
v 1.995998 15.531338 0.238645
v 1.629677 15.556523 0.603803
v 1.151242 15.588679 0.603803
v 0.784950 15.614307 0.238645
v 0.784950 15.614307 -0.238641
v 1.151242 15.588679 -0.603799
v 1.820516 17.013405 -0.420116
v 1.472366 17.034317 -0.420116
v 1.226118 17.049431 -0.174016
v 1.226117 17.049431 0.174021
v 1.472365 17.034317 0.420121
v 1.820516 17.013405 0.420121
v 2.066766 16.998417 0.174021
v 2.066766 16.998417 -0.174016
v 1.468736 14.496410 0.787572
v 0.825069 14.542200 0.787572
v 0.356661 14.575251 0.320641
v 1.937322 14.463547 -0.320636
v 1.468736 14.496410 -0.787568
v 0.356661 14.575251 -0.320636
v 0.825069 14.542200 -0.787568
v 1.937322 14.463547 0.320641
v 2.126730 17.179405 0.193248
v 1.466647 17.218534 0.466537
v 1.193196 17.234970 -0.193242
v 2.126730 17.179405 -0.193242
v 1.853278 17.195709 -0.466532
v 1.853278 17.195709 0.466537
v 1.193196 17.234970 0.193248
v 1.466647 17.218534 -0.466532
v 1.718091 16.204456 0.584426
v 1.255817 16.235085 0.584426
v 0.900957 16.259621 0.230619
v 2.072979 16.180351 -0.230614
v 1.718091 16.204456 -0.584422
v 0.900958 16.259621 -0.230614
v 1.255817 16.235085 -0.584422
v 2.072979 16.180351 0.230619
v 1.176733 12.536726 1.072827
v 0.397366 12.583974 1.072827
v -0.284869 12.617603 0.390017
v 1.858846 12.501139 -0.390013
v 1.176733 12.536726 -1.072824
v -0.284869 12.617603 -0.390013
v 0.397366 12.583974 -1.072824
v 1.858846 12.501139 0.390017
v 0.987753 10.589989 1.240825
v 0.020279 10.625351 1.240825
v -0.735472 10.646744 0.484246
v 1.743404 10.566492 -0.484243
v 0.987753 10.589989 -1.240823
v -0.735472 10.646744 -0.484243
v 0.020279 10.625351 -1.240823
v 1.743404 10.566492 0.484246
v -0.375359 8.108393 1.390921
v -1.174565 8.122448 0.590296
v -1.174491 8.122810 -0.565397
v 1.577907 8.077716 0.590296
v 1.577981 8.078072 -0.565397
v -0.375167 8.109286 -1.366023
v 0.778886 8.093960 -1.366023
v 0.778694 8.093073 1.390921
v -1.391866 6.079805 0.627644
v -1.391802 6.080338 -0.586089
v -0.533470 6.076557 -1.444327
v 0.679258 6.067736 1.485881
v 1.537458 6.063516 0.627643
v 0.679411 6.069004 -1.444327
v 1.537521 6.064037 -0.586089
v -0.533624 6.075277 1.485881
vt 0.9553 0.4130
vt 0.9477 0.4295
vt 0.9430 0.4291
vt 0.9438 0.4096
vt 0.9528 0.4658
vt 0.9467 0.4484
vt 0.9514 0.4484
vt 0.9647 0.4635
vt 0.9294 0.4647
vt 0.9374 0.4480
vt 0.9421 0.4483
vt 0.9410 0.4682
vt 0.9681 0.4518
vt 0.9517 0.4437
vt 0.9520 0.4391
vt 0.9715 0.4402
vt 0.9692 0.4284
vt 0.9521 0.4345
vt 0.9523 0.4298
vt 0.9669 0.4165
vt 0.9154 0.4493
vt 0.9330 0.4429
vt 0.9328 0.4476
vt 0.9178 0.4613
vt 0.9166 0.4259
vt 0.9334 0.4336
vt 0.9331 0.4382
vt 0.9131 0.4374
vt 0.9319 0.4119
vt 0.9384 0.4290
vt 0.9337 0.4289
vt 0.9200 0.4143
vt 0.9585 0.4094
vt 0.9510 0.4269
vt 0.9461 0.4266
vt 0.9462 0.4061
vt 0.9576 0.4649
vt 0.9506 0.4467
vt 0.9555 0.4467
vt 0.9699 0.4620
vt 0.9330 0.4645
vt 0.9409 0.4466
vt 0.9458 0.4468
vt 0.9453 0.4677
vt 0.9732 0.4497
vt 0.9556 0.4418
vt 0.9558 0.4369
vt 0.9764 0.4374
vt 0.9735 0.4250
vt 0.9558 0.4320
vt 0.9558 0.4271
vt 0.9707 0.4126
vt 0.9178 0.4488
vt 0.9360 0.4414
vt 0.9360 0.4464
vt 0.9207 0.4612
vt 0.9182 0.4241
vt 0.9361 0.4316
vt 0.9360 0.4365
vt 0.9150 0.4363
vt 0.9338 0.4090
vt 0.9412 0.4266
vt 0.9363 0.4267
vt 0.9215 0.4118
vt 0.9484 0.4110
vt 0.9412 0.4263
vt 0.9371 0.4261
vt 0.9377 0.4078
vt 0.9462 0.4592
vt 0.9404 0.4429
vt 0.9445 0.4430
vt 0.9570 0.4570
vt 0.9247 0.4582
vt 0.9322 0.4426
vt 0.9363 0.4428
vt 0.9353 0.4613
vt 0.9600 0.4464
vt 0.9447 0.4389
vt 0.9448 0.4348
vt 0.9631 0.4358
vt 0.9610 0.4249
vt 0.9450 0.4307
vt 0.9452 0.4266
vt 0.9590 0.4140
vt 0.9119 0.4442
vt 0.9283 0.4381
vt 0.9281 0.4423
vt 0.9140 0.4552
vt 0.9129 0.4227
vt 0.9287 0.4299
vt 0.9285 0.4340
vt 0.9099 0.4333
vt 0.9269 0.4100
vt 0.9330 0.4259
vt 0.9289 0.4258
vt 0.9160 0.4121
vt 0.9484 0.4110
vt 0.9412 0.4263
vt 0.9371 0.4261
vt 0.9377 0.4078
vt 0.9462 0.4592
vt 0.9404 0.4429
vt 0.9445 0.4430
vt 0.9570 0.4570
vt 0.9247 0.4582
vt 0.9322 0.4426
vt 0.9363 0.4428
vt 0.9353 0.4613
vt 0.9600 0.4464
vt 0.9447 0.4389
vt 0.9448 0.4348
vt 0.9631 0.4358
vt 0.9610 0.4249
vt 0.9450 0.4307
vt 0.9452 0.4266
vt 0.9590 0.4140
vt 0.9119 0.4442
vt 0.9283 0.4381
vt 0.9281 0.4423
vt 0.9140 0.4552
vt 0.9129 0.4227
vt 0.9287 0.4299
vt 0.9285 0.4340
vt 0.9099 0.4333
vt 0.9269 0.4100
vt 0.9330 0.4259
vt 0.9289 0.4258
vt 0.9160 0.4121
vt 0.9484 0.4110
vt 0.9412 0.4263
vt 0.9371 0.4261
vt 0.9377 0.4078
vt 0.9462 0.4592
vt 0.9404 0.4429
vt 0.9445 0.4430
vt 0.9570 0.4570
vt 0.9247 0.4582
vt 0.9322 0.4426
vt 0.9363 0.4428
vt 0.9353 0.4613
vt 0.9600 0.4464
vt 0.9447 0.4389
vt 0.9448 0.4348
vt 0.9631 0.4358
vt 0.9610 0.4249
vt 0.9450 0.4307
vt 0.9452 0.4266
vt 0.9590 0.4140
vt 0.9119 0.4442
vt 0.9283 0.4381
vt 0.9281 0.4423
vt 0.9140 0.4552
vt 0.9129 0.4227
vt 0.9287 0.4299
vt 0.9285 0.4340
vt 0.9099 0.4333
vt 0.9269 0.4100
vt 0.9330 0.4259
vt 0.9289 0.4258
vt 0.9160 0.4121
vt 0.9727 0.4015
vt 0.9549 0.4138
vt 0.9555 0.3956
vt 0.9343 0.4799
vt 0.9394 0.4614
vt 0.9519 0.4755
vt 0.9000 0.4680
vt 0.9181 0.4554
vt 0.9172 0.4739
vt 0.9695 0.4711
vt 0.9571 0.4530
vt 0.9755 0.4539
vt 0.9814 0.4368
vt 0.9633 0.4317
vt 0.9771 0.4191
vt 0.8912 0.4327
vt 0.9096 0.4375
vt 0.8956 0.4503
vt 0.9031 0.3984
vt 0.9158 0.4162
vt 0.8972 0.4155
vt 0.9384 0.3896
vt 0.9337 0.4077
vt 0.9208 0.3940
vt 0.9519 0.4755
vt 0.9695 0.4711
vt 0.9695 0.4711
vt 0.9519 0.4755
vt 0.8956 0.4503
vt 0.9000 0.4680
vt 0.9000 0.4680
vt 0.8956 0.4503
vt 0.9208 0.3940
vt 0.9031 0.3984
vt 0.9031 0.3984
vt 0.9208 0.3940
vt 0.9755 0.4539
vt 0.9814 0.4368
vt 0.9814 0.4368
vt 0.9755 0.4539
vt 0.9771 0.4191
vt 0.9727 0.4015
vt 0.9727 0.4015
vt 0.9771 0.4191
vt 0.9172 0.4739
vt 0.9343 0.4799
vt 0.9343 0.4799
vt 0.9172 0.4739
vt 0.8972 0.4155
vt 0.8912 0.4327
vt 0.8912 0.4327
vt 0.8972 0.4155
vt 0.9555 0.3956
vt 0.9384 0.3896
vt 0.9384 0.3896
vt 0.9555 0.3956
vt 0.9484 0.4110
vt 0.9412 0.4263
vt 0.9371 0.4261
vt 0.9377 0.4078
vt 0.9462 0.4592
vt 0.9404 0.4429
vt 0.9445 0.4430
vt 0.9570 0.4570
vt 0.9247 0.4582
vt 0.9322 0.4426
vt 0.9363 0.4428
vt 0.9353 0.4613
vt 0.9600 0.4464
vt 0.9447 0.4389
vt 0.9448 0.4348
vt 0.9631 0.4358
vt 0.9610 0.4249
vt 0.9450 0.4307
vt 0.9452 0.4266
vt 0.9590 0.4140
vt 0.9119 0.4442
vt 0.9283 0.4381
vt 0.9281 0.4423
vt 0.9140 0.4552
vt 0.9129 0.4227
vt 0.9287 0.4299
vt 0.9285 0.4340
vt 0.9099 0.4333
vt 0.9269 0.4100
vt 0.9330 0.4259
vt 0.9289 0.4258
vt 0.9160 0.4121
vt 0.9610 0.4249
vt 0.9590 0.4140
vt 0.9452 0.4266
vt 0.9450 0.4307
vt 0.9483 0.4110
vt 0.9377 0.4078
vt 0.9371 0.4261
vt 0.9412 0.4263
vt 0.9269 0.4100
vt 0.9160 0.4121
vt 0.9289 0.4258
vt 0.9330 0.4259
vt 0.9129 0.4227
vt 0.9099 0.4333
vt 0.9285 0.4340
vt 0.9287 0.4299
vt 0.9119 0.4442
vt 0.9140 0.4552
vt 0.9281 0.4423
vt 0.9283 0.4381
vt 0.9247 0.4582
vt 0.9353 0.4613
vt 0.9363 0.4428
vt 0.9322 0.4426
vt 0.9462 0.4592
vt 0.9570 0.4570
vt 0.9445 0.4430
vt 0.9404 0.4429
vt 0.9601 0.4464
vt 0.9631 0.4358
vt 0.9448 0.4348
vt 0.9447 0.4389
vt 0.9462 0.4592
vt 0.9353 0.4613
vt 0.9343 0.4799
vt 0.9519 0.4755
vt 0.9247 0.4582
vt 0.9140 0.4552
vt 0.9000 0.4680
vt 0.9172 0.4739
vt 0.9119 0.4442
vt 0.9099 0.4333
vt 0.8912 0.4327
vt 0.8956 0.4503
vt 0.9129 0.4227
vt 0.9160 0.4121
vt 0.9031 0.3984
vt 0.8972 0.4155
vt 0.9269 0.4100
vt 0.9377 0.4078
vt 0.9384 0.3896
vt 0.9208 0.3940
vt 0.9483 0.4110
vt 0.9590 0.4140
vt 0.9727 0.4015
vt 0.9555 0.3956
vt 0.9610 0.4249
vt 0.9631 0.4358
vt 0.9814 0.4368
vt 0.9771 0.4191
vt 0.9601 0.4464
vt 0.9570 0.4570
vt 0.9695 0.4711
vt 0.9755 0.4539
vt 0.9610 0.4249
vt 0.9590 0.4140
vt 0.9452 0.4266
vt 0.9450 0.4307
vt 0.9483 0.4110
vt 0.9377 0.4078
vt 0.9371 0.4261
vt 0.9412 0.4263
vt 0.9269 0.4100
vt 0.9160 0.4121
vt 0.9289 0.4258
vt 0.9330 0.4259
vt 0.9129 0.4227
vt 0.9099 0.4333
vt 0.9285 0.4340
vt 0.9287 0.4299
vt 0.9119 0.4442
vt 0.9140 0.4552
vt 0.9281 0.4423
vt 0.9283 0.4381
vt 0.9247 0.4582
vt 0.9353 0.4613
vt 0.9363 0.4428
vt 0.9322 0.4426
vt 0.9462 0.4592
vt 0.9570 0.4570
vt 0.9445 0.4430
vt 0.9404 0.4429
vt 0.9601 0.4464
vt 0.9631 0.4358
vt 0.9448 0.4348
vt 0.9447 0.4389
vt 0.9610 0.4249
vt 0.9590 0.4140
vt 0.9452 0.4266
vt 0.9450 0.4307
vt 0.9483 0.4110
vt 0.9377 0.4078
vt 0.9371 0.4261
vt 0.9412 0.4263
vt 0.9269 0.4100
vt 0.9160 0.4121
vt 0.9289 0.4258
vt 0.9330 0.4259
vt 0.9129 0.4227
vt 0.9099 0.4333
vt 0.9285 0.4340
vt 0.9287 0.4299
vt 0.9119 0.4442
vt 0.9140 0.4552
vt 0.9281 0.4423
vt 0.9283 0.4381
vt 0.9247 0.4582
vt 0.9353 0.4613
vt 0.9363 0.4428
vt 0.9322 0.4426
vt 0.9462 0.4592
vt 0.9570 0.4570
vt 0.9445 0.4430
vt 0.9404 0.4429
vt 0.9601 0.4464
vt 0.9631 0.4358
vt 0.9448 0.4348
vt 0.9447 0.4389
vt 0.9557 0.4138
vt 0.9471 0.4083
vt 0.9558 0.4271
vt 0.9558 0.4320
vt 0.9359 0.4104
vt 0.9246 0.4125
vt 0.9461 0.4266
vt 0.9510 0.4269
vt 0.9192 0.4211
vt 0.9137 0.4297
vt 0.9363 0.4267
vt 0.9412 0.4266
vt 0.9159 0.4410
vt 0.9180 0.4523
vt 0.9360 0.4365
vt 0.9361 0.4316
vt 0.9266 0.4577
vt 0.9352 0.4631
vt 0.9360 0.4464
vt 0.9360 0.4414
vt 0.9464 0.4610
vt 0.9577 0.4589
vt 0.9458 0.4468
vt 0.9409 0.4466
vt 0.9631 0.4503
vt 0.9685 0.4417
vt 0.9555 0.4467
vt 0.9506 0.4467
vt 0.9663 0.4305
vt 0.9642 0.4192
vt 0.9558 0.4369
vt 0.9556 0.4418
vt 0.9591 0.4132
vt 0.9493 0.4078
vt 0.9523 0.4298
vt 0.9521 0.4345
vt 0.9371 0.4104
vt 0.9248 0.4130
vt 0.9430 0.4291
vt 0.9477 0.4295
vt 0.9193 0.4228
vt 0.9139 0.4326
vt 0.9337 0.4289
vt 0.9384 0.4290
vt 0.9165 0.4448
vt 0.9192 0.4571
vt 0.9331 0.4382
vt 0.9334 0.4336
vt 0.9290 0.4626
vt 0.9388 0.4681
vt 0.9328 0.4476
vt 0.9330 0.4429
vt 0.9510 0.4654
vt 0.9632 0.4628
vt 0.9421 0.4483
vt 0.9374 0.4480
vt 0.9687 0.4530
vt 0.9742 0.4431
vt 0.9514 0.4484
vt 0.9467 0.4484
vt 0.9715 0.4309
vt 0.9689 0.4187
vt 0.9520 0.4391
vt 0.9517 0.4437
vt 0.9780 0.4785
vt 0.9845 0.4599
vt 0.9593 0.4546
vt 0.9911 0.4413
vt 0.9863 0.4223
vt 0.9620 0.4357
vt 0.9815 0.4032
vt 0.9630 0.3967
vt 0.9533 0.4164
vt 0.9445 0.3901
vt 0.9254 0.3949
vt 0.9346 0.4139
vt 0.9063 0.3996
vt 0.8997 0.4182
vt 0.9152 0.4225
vt 0.8931 0.4367
vt 0.8979 0.4558
vt 0.9125 0.4413
vt 0.9027 0.4749
vt 0.9213 0.4815
vt 0.9211 0.4606
vt 0.9399 0.4881
vt 0.9589 0.4833
vt 0.9400 0.4633
vt 0.8048 0.9140
vt 0.8032 0.9391
vt 0.8010 0.9383
vt 0.8023 0.9136
vt 0.8016 0.9648
vt 0.8000 0.9905
vt 0.7982 0.9912
vt 0.7996 0.9647
vt 0.7894 0.9139
vt 0.7896 0.9391
vt 0.7872 0.9391
vt 0.7867 0.9139
vt 0.7900 0.9647
vt 0.7905 0.9904
vt 0.7893 0.9904
vt 0.7882 0.9648
vt 0.7998 0.9139
vt 0.7988 0.9390
vt 0.7966 0.9397
vt 0.7973 0.9142
vt 0.7978 0.9651
vt 0.7968 0.9912
vt 0.7953 0.9912
vt 0.7959 0.9654
vt 0.8100 0.9147
vt 0.8077 0.9398
vt 0.8055 0.9398
vt 0.8074 0.9145
vt 0.8056 0.9651
vt 0.8035 0.9904
vt 0.8018 0.9898
vt 0.8037 0.9648
vt 0.7947 0.9140
vt 0.7943 0.9394
vt 0.7920 0.9391
vt 0.7922 0.9139
vt 0.7939 0.9651
vt 0.7935 0.9907
vt 0.7917 0.9903
vt 0.7918 0.9647
vt 0.7951 0.8887
vt 0.7923 0.8887
vt 0.7980 0.8887
vt 0.8100 0.9399
vt 0.8076 0.9654
vt 0.8052 0.9910
vt 0.8123 0.8895
vt 0.8093 0.8892
vt 0.8152 0.8898
vt 0.8126 0.9148
vt 0.8008 0.8888
vt 0.8036 0.8888
vt 0.7893 0.8887
vt 0.7863 0.8887
vt 0.8065 0.8890
vt 0.9590 0.4585
vt 0.9401 0.4385
vt 0.9780 0.4785
vt 0.9397 0.4672
vt 0.9396 0.4464
vt 0.9399 0.4881
vt 0.9173 0.4604
vt 0.9318 0.4460
vt 0.9027 0.4749
vt 0.9086 0.4410
vt 0.9240 0.4454
vt 0.8931 0.4367
vt 0.9154 0.4186
vt 0.9246 0.4376
vt 0.9063 0.3996
vt 0.9348 0.4099
vt 0.9251 0.4297
vt 0.9445 0.3901
vt 0.9571 0.4166
vt 0.9328 0.4301
vt 0.9815 0.4032
vt 0.9658 0.4360
vt 0.9406 0.4307
vt 0.9911 0.4413
vt 0.9742 0.4431
vt 0.9514 0.4484
vt 0.9969 0.4379
vt 0.9913 0.4180
vt 0.9857 0.3982
vt 0.9632 0.4628
vt 0.9421 0.4483
vt 0.9844 0.4773
vt 0.9906 0.4576
vt 0.9969 0.4379
vt 0.9388 0.4681
vt 0.9328 0.4476
vt 0.9447 0.4886
vt 0.9646 0.4829
vt 0.9844 0.4773
vt 0.9192 0.4571
vt 0.9331 0.4382
vt 0.9053 0.4760
vt 0.9250 0.4823
vt 0.9447 0.4886
vt 0.9139 0.4326
vt 0.9337 0.4289
vt 0.8940 0.4362
vt 0.8996 0.4561
vt 0.9053 0.4760
vt 0.9248 0.4130
vt 0.9430 0.4291
vt 0.9066 0.3969
vt 0.9003 0.4165
vt 0.8940 0.4362
vt 0.9493 0.4078
vt 0.9523 0.4298
vt 0.9464 0.3857
vt 0.9265 0.3913
vt 0.9066 0.3969
vt 0.9689 0.4187
vt 0.9520 0.4391
vt 0.9857 0.3982
vt 0.9661 0.3920
vt 0.9464 0.3857
vt 0.9685 0.4417
vt 0.9555 0.4467
vt 0.9814 0.4368
vt 0.9771 0.4191
vt 0.9727 0.4015
vt 0.9577 0.4589
vt 0.9458 0.4468
vt 0.9695 0.4711
vt 0.9755 0.4539
vt 0.9814 0.4368
vt 0.9352 0.4631
vt 0.9360 0.4464
vt 0.9343 0.4799
vt 0.9519 0.4755
vt 0.9695 0.4711
vt 0.9180 0.4523
vt 0.9360 0.4365
vt 0.9000 0.4680
vt 0.9172 0.4739
vt 0.9343 0.4799
vt 0.9137 0.4297
vt 0.9363 0.4267
vt 0.8912 0.4327
vt 0.8956 0.4503
vt 0.9000 0.4680
vt 0.9246 0.4125
vt 0.9461 0.4266
vt 0.9031 0.3984
vt 0.8972 0.4155
vt 0.8912 0.4327
vt 0.9471 0.4083
vt 0.9558 0.4271
vt 0.9384 0.3896
vt 0.9208 0.3940
vt 0.9031 0.3984
vt 0.9642 0.4192
vt 0.9558 0.4369
vt 0.9727 0.4015
vt 0.9555 0.3956
vt 0.9384 0.3896
vt 0.9570 0.4570
vt 0.9445 0.4430
vt 0.9695 0.4711
vt 0.9755 0.4539
vt 0.9814 0.4368
vt 0.9353 0.4613
vt 0.9363 0.4428
vt 0.9343 0.4799
vt 0.9519 0.4755
vt 0.9695 0.4711
vt 0.9140 0.4552
vt 0.9281 0.4423
vt 0.9000 0.4680
vt 0.9172 0.4739
vt 0.9343 0.4799
vt 0.9099 0.4333
vt 0.9285 0.4340
vt 0.8912 0.4327
vt 0.8956 0.4503
vt 0.9000 0.4680
vt 0.9160 0.4121
vt 0.9289 0.4258
vt 0.9031 0.3984
vt 0.8972 0.4155
vt 0.8912 0.4327
vt 0.9377 0.4078
vt 0.9371 0.4261
vt 0.9384 0.3896
vt 0.9208 0.3940
vt 0.9031 0.3984
vt 0.9590 0.4140
vt 0.9452 0.4266
vt 0.9727 0.4015
vt 0.9555 0.3956
vt 0.9384 0.3896
vt 0.9631 0.4358
vt 0.9448 0.4348
vt 0.9814 0.4368
vt 0.9771 0.4191
vt 0.9727 0.4015
vt 0.9570 0.4570
vt 0.9445 0.4430
vt 0.9695 0.4711
vt 0.9755 0.4539
vt 0.9814 0.4368
vt 0.9353 0.4613
vt 0.9363 0.4428
vt 0.9343 0.4799
vt 0.9519 0.4755
vt 0.9695 0.4711
vt 0.9140 0.4552
vt 0.9281 0.4423
vt 0.9000 0.4680
vt 0.9172 0.4739
vt 0.9343 0.4799
vt 0.9099 0.4333
vt 0.9285 0.4340
vt 0.8912 0.4327
vt 0.8956 0.4503
vt 0.9000 0.4680
vt 0.9160 0.4121
vt 0.9289 0.4258
vt 0.9031 0.3984
vt 0.8972 0.4155
vt 0.8912 0.4327
vt 0.9377 0.4078
vt 0.9371 0.4261
vt 0.9384 0.3896
vt 0.9208 0.3940
vt 0.9031 0.3984
vt 0.9590 0.4140
vt 0.9452 0.4266
vt 0.9727 0.4015
vt 0.9555 0.3956
vt 0.9384 0.3896
vt 0.9631 0.4358
vt 0.9448 0.4348
vt 0.9814 0.4368
vt 0.9771 0.4191
vt 0.9727 0.4015
vt 0.9631 0.4358
vt 0.9814 0.4368
vt 0.9448 0.4348
vt 0.9447 0.4389
vt 0.9445 0.4430
vt 0.9590 0.4140
vt 0.9727 0.4015
vt 0.9452 0.4266
vt 0.9450 0.4307
vt 0.9448 0.4348
vt 0.9377 0.4078
vt 0.9384 0.3896
vt 0.9371 0.4261
vt 0.9412 0.4263
vt 0.9452 0.4266
vt 0.9160 0.4121
vt 0.9031 0.3984
vt 0.9289 0.4258
vt 0.9330 0.4259
vt 0.9371 0.4261
vt 0.9099 0.4333
vt 0.8912 0.4327
vt 0.9285 0.4340
vt 0.9287 0.4299
vt 0.9289 0.4258
vt 0.9140 0.4552
vt 0.9000 0.4680
vt 0.9281 0.4423
vt 0.9283 0.4381
vt 0.9285 0.4340
vt 0.9353 0.4613
vt 0.9343 0.4799
vt 0.9363 0.4428
vt 0.9322 0.4426
vt 0.9281 0.4423
vt 0.9570 0.4570
vt 0.9695 0.4711
vt 0.9445 0.4430
vt 0.9404 0.4429
vt 0.9363 0.4428
vt 0.9570 0.4570
vt 0.9445 0.4430
vt 0.9695 0.4711
vt 0.9755 0.4539
vt 0.9814 0.4368
vt 0.9353 0.4613
vt 0.9363 0.4428
vt 0.9343 0.4799
vt 0.9519 0.4755
vt 0.9695 0.4711
vt 0.9140 0.4552
vt 0.9281 0.4423
vt 0.9000 0.4680
vt 0.9172 0.4739
vt 0.9343 0.4799
vt 0.9099 0.4333
vt 0.9285 0.4340
vt 0.8912 0.4327
vt 0.8956 0.4503
vt 0.9000 0.4680
vt 0.9160 0.4121
vt 0.9289 0.4258
vt 0.9031 0.3984
vt 0.8972 0.4155
vt 0.8912 0.4327
vt 0.9377 0.4078
vt 0.9371 0.4261
vt 0.9384 0.3896
vt 0.9208 0.3940
vt 0.9031 0.3984
vt 0.9590 0.4140
vt 0.9452 0.4266
vt 0.9727 0.4015
vt 0.9555 0.3956
vt 0.9384 0.3896
vt 0.9631 0.4358
vt 0.9448 0.4348
vt 0.9814 0.4368
vt 0.9771 0.4191
vt 0.9727 0.4015
vt 0.9208 0.3940
vt 0.9031 0.3984
vt 0.9384 0.3896
vt 0.8972 0.4155
vt 0.8912 0.4327
vt 0.8956 0.4503
vt 0.9000 0.4680
vt 0.9771 0.4191
vt 0.9727 0.4015
vt 0.9814 0.4368
vt 0.9755 0.4539
vt 0.9695 0.4711
vt 0.9172 0.4739
vt 0.9343 0.4799
vt 0.9519 0.4755
vt 0.9555 0.3956
vt 0.9160 0.4121
vt 0.9289 0.4258
vt 0.9099 0.4333
vt 0.9285 0.4340
vt 0.9140 0.4552
vt 0.9281 0.4423
vt 0.9590 0.4140
vt 0.9452 0.4266
vt 0.9631 0.4358
vt 0.9448 0.4348
vt 0.9353 0.4613
vt 0.9363 0.4428
vt 0.9570 0.4570
vt 0.9445 0.4430
vt 0.9377 0.4078
vt 0.9371 0.4261
vt 0.9208 0.3940
vt 0.9031 0.3984
vt 0.9384 0.3896
vt 0.8972 0.4155
vt 0.8912 0.4327
vt 0.8956 0.4503
vt 0.9000 0.4680
vt 0.9771 0.4191
vt 0.9727 0.4015
vt 0.9814 0.4368
vt 0.9755 0.4539
vt 0.9695 0.4711
vt 0.9172 0.4739
vt 0.9343 0.4799
vt 0.9519 0.4755
vt 0.9555 0.3956
vt 0.9208 0.3940
vt 0.9031 0.3984
vt 0.9384 0.3896
vt 0.8972 0.4155
vt 0.8912 0.4327
vt 0.8956 0.4503
vt 0.9000 0.4680
vt 0.9771 0.4191
vt 0.9727 0.4015
vt 0.9814 0.4368
vt 0.9755 0.4539
vt 0.9695 0.4711
vt 0.9172 0.4739
vt 0.9343 0.4799
vt 0.9519 0.4755
vt 0.9555 0.3956
vt 0.9208 0.3940
vt 0.9031 0.3984
vt 0.9384 0.3896
vt 0.8972 0.4155
vt 0.8912 0.4327
vt 0.8956 0.4503
vt 0.9000 0.4680
vt 0.9771 0.4191
vt 0.9727 0.4015
vt 0.9814 0.4368
vt 0.9755 0.4539
vt 0.9695 0.4711
vt 0.9172 0.4739
vt 0.9343 0.4799
vt 0.9519 0.4755
vt 0.9555 0.3956
vt 0.9265 0.3913
vt 0.9066 0.3969
vt 0.9464 0.3857
vt 0.9003 0.4165
vt 0.8940 0.4362
vt 0.8996 0.4561
vt 0.9053 0.4760
vt 0.9913 0.4180
vt 0.9857 0.3982
vt 0.9969 0.4379
vt 0.9906 0.4576
vt 0.9844 0.4773
vt 0.9250 0.4823
vt 0.9447 0.4886
vt 0.9646 0.4829
vt 0.9661 0.3920
vt 0.9254 0.3949
vt 0.9063 0.3996
vt 0.9445 0.3901
vt 0.8997 0.4182
vt 0.8931 0.4367
vt 0.8979 0.4558
vt 0.9027 0.4749
vt 0.9863 0.4223
vt 0.9815 0.4032
vt 0.9911 0.4413
vt 0.9845 0.4599
vt 0.9780 0.4785
vt 0.9213 0.4815
vt 0.9399 0.4881
vt 0.9589 0.4833
vt 0.9630 0.3967
vn -0.2303 0.4631 0.8558
vn 0.3749 -0.6321 0.6781
vn -0.1283 -0.9862 0.1046
vn -0.5958 0.5334 0.6004
vn 0.8621 0.4480 -0.2367
vn 0.6685 -0.6391 0.3802
vn 0.5808 -0.8140 -0.0070
vn 0.8925 0.4510 0.0010
vn 0.2336 0.4677 -0.8525
vn -0.4136 -0.6033 -0.6819
vn 0.0867 -0.9886 -0.1228
vn 0.6075 0.5169 -0.6031
vn 0.8636 0.4439 0.2390
vn 0.6634 -0.6393 -0.3889
vn 0.0771 -0.9906 0.1133
vn 0.6115 0.5063 0.6080
vn 0.2398 0.4529 0.8587
vn -0.4090 -0.6172 0.6722
vn -0.0234 -0.8046 0.5934
vn 0.0042 0.4629 0.8864
vn -0.2241 0.4775 -0.8496
vn 0.3797 -0.6186 -0.6878
vn -0.0232 -0.7924 -0.6095
vn 0.0043 0.4771 -0.8788
vn -0.8442 0.4865 -0.2252
vn -0.6947 -0.5999 0.3969
vn -0.1377 -0.9839 -0.1143
vn -0.5916 0.5435 -0.5955
vn -0.8458 0.4828 0.2272
vn -0.6896 -0.5999 -0.4056
vn -0.6201 -0.7845 -0.0067
vn -0.8722 0.4891 0.0009
vn 0.5251 0.3832 0.7599
vn 0.3646 -0.8693 0.3336
vn -0.1085 -0.9934 -0.0366
vn 0.0110 0.4718 0.8816
vn 0.5272 0.3900 -0.7550
vn 0.3741 -0.8644 -0.3359
vn 0.4369 -0.7627 -0.4769
vn 0.6554 0.3972 -0.6424
vn -0.5056 0.4535 -0.7340
vn -0.4986 -0.8043 -0.3233
vn -0.1070 -0.9938 0.0311
vn 0.0113 0.4803 -0.8770
vn 0.7690 0.3743 -0.5182
vn 0.2909 -0.8640 -0.4110
vn -0.0876 -0.9961 -0.0086
vn 0.9080 0.4189 -0.0007
vn 0.7721 0.3692 0.5172
vn 0.2916 -0.8683 0.4014
vn 0.4315 -0.7703 0.4696
vn 0.6563 0.3914 0.6450
vn -0.7231 0.4645 -0.5113
vn -0.3630 -0.8081 -0.4638
vn -0.5087 -0.7193 -0.4730
vn -0.6196 0.4702 -0.6285
vn -0.7265 0.4601 0.5104
vn -0.3645 -0.8123 0.4553
vn -0.0218 -0.9997 -0.0067
vn -0.8494 0.5278 -0.0007
vn -0.5040 0.4468 0.7391
vn -0.4907 -0.8100 0.3212
vn -0.5045 -0.7270 0.4657
vn -0.6210 0.4649 0.6311
vn 0.9204 0.2209 0.3227
vn 0.1133 -0.8364 0.5362
vn -0.0936 -0.9893 0.1122
vn 0.6852 0.2734 0.6751
vn -0.2847 0.3827 -0.8789
vn -0.6303 -0.7395 -0.2363
vn -0.1221 -0.9293 -0.3486
vn 0.0240 0.3670 -0.9299
vn -0.8443 0.4538 -0.2852
vn -0.3576 -0.7587 -0.5446
vn -0.2403 -0.9691 -0.0555
vn -0.6228 0.4499 -0.6402
vn 0.3240 0.3023 -0.8965
vn 0.4446 -0.8613 -0.2460
vn -0.0936 -0.9893 -0.1122
vn 0.6852 0.2733 -0.6751
vn 0.9204 0.2209 -0.3227
vn 0.1133 -0.8364 -0.5362
vn 0.2303 -0.9731 -0.0000
vn 0.9696 0.2447 -0.0000
vn -0.8443 0.4538 0.2852
vn -0.3576 -0.7587 0.5446
vn -0.4524 -0.8918 -0.0000
vn -0.8787 0.4773 -0.0000
vn -0.2846 0.3827 0.8789
vn -0.6303 -0.7395 0.2363
vn -0.2403 -0.9691 0.0555
vn -0.6227 0.4499 0.6401
vn 0.3239 0.3023 0.8965
vn 0.4446 -0.8613 0.2460
vn -0.1221 -0.9293 0.3486
vn 0.0240 0.3671 0.9299
vn 0.9020 0.1727 0.3956
vn -0.0706 -0.4875 0.8703
vn 0.0271 -0.9563 0.2910
vn 0.6912 0.2172 0.6892
vn -0.3145 0.4093 -0.8565
vn -0.9077 -0.4140 -0.0686
vn -0.0138 -0.9487 -0.3158
vn 0.0478 0.3777 -0.9247
vn -0.8082 0.5003 -0.3107
vn -0.2536 -0.5503 -0.7955
vn -0.4222 -0.8919 -0.1623
vn -0.6126 0.4751 -0.6316
vn 0.3904 0.2738 -0.8790
vn 0.7525 -0.6510 -0.1001
vn 0.0271 -0.9563 -0.2910
vn 0.6912 0.2172 -0.6892
vn 0.9020 0.1727 -0.3956
vn -0.0706 -0.4875 -0.8703
vn 0.0402 -0.9992 0.0000
vn 0.9788 0.2050 0.0000
vn -0.8082 0.5003 0.3107
vn -0.2536 -0.5503 0.7955
vn 0.0000 0.0000 0.0000
vn -0.8448 0.5350 0.0000
vn -0.3145 0.4093 0.8565
vn -0.9077 -0.4140 0.0686
vn -0.4222 -0.8919 0.1623
vn -0.6126 0.4751 0.6316
vn 0.3904 0.2738 0.8790
vn 0.7525 -0.6510 0.1001
vn -0.0138 -0.9487 0.3158
vn 0.0478 0.3777 0.9247
vn 0.9678 0.1509 0.2014
vn 0.0990 -0.6394 0.7625
vn 0.0379 -0.9956 0.0862
vn 0.6957 0.2433 0.6759
vn -0.1649 0.3510 -0.9217
vn -0.8775 -0.4476 -0.1723
vn 0.0275 -0.8327 -0.5531
vn 0.0253 0.3325 -0.9428
vn -0.8616 0.4749 -0.1792
vn -0.2368 -0.4262 -0.8731
vn -0.2838 -0.9240 -0.2563
vn -0.6063 0.4655 -0.6448
vn 0.2092 0.2851 -0.9354
vn 0.7476 -0.6338 -0.1983
vn 0.0379 -0.9956 -0.0862
vn 0.6957 0.2433 -0.6759
vn 0.9678 0.1509 -0.2014
vn 0.0990 -0.6394 -0.7625
vn 0.3580 -0.9337 0.0000
vn 0.9869 0.1611 0.0000
vn -0.8616 0.4749 0.1792
vn -0.2368 -0.4262 0.8731
vn -0.7291 -0.6844 0.0000
vn -0.8701 0.4930 -0.0000
vn -0.1649 0.3510 0.9217
vn -0.8775 -0.4476 0.1723
vn -0.2838 -0.9240 0.2563
vn -0.6063 0.4655 0.6448
vn 0.2092 0.2851 0.9354
vn 0.7476 -0.6338 0.1983
vn 0.0275 -0.8327 0.5531
vn 0.0253 0.3325 0.9428
vn 0.9835 0.1807 0.0000
vn 0.9843 0.1764 0.0000
vn 0.9443 0.1737 0.2795
vn -0.6378 0.3802 -0.6698
vn -0.6525 0.3436 -0.6754
vn -0.2578 0.3078 -0.9159
vn -0.9130 0.4080 0.0000
vn -0.9365 0.3507 -0.0000
vn -0.8844 0.3784 -0.2732
vn 0.0219 0.2953 -0.9552
vn 0.0142 0.2643 -0.9643
vn 0.2913 0.2469 -0.9242
vn 0.6993 0.2347 -0.6752
vn 0.6978 0.2230 -0.6807
vn 0.9443 0.1737 -0.2795
vn -0.6378 0.3802 0.6698
vn -0.6525 0.3436 0.6754
vn -0.8844 0.3784 0.2732
vn 0.0219 0.2953 0.9552
vn 0.0142 0.2643 0.9643
vn -0.2578 0.3078 0.9159
vn 0.6993 0.2347 0.6752
vn 0.6978 0.2230 0.6807
vn 0.2913 0.2469 0.9242
vn -0.2366 0.3401 -0.9101
vn 0.0200 0.3143 -0.9491
vn -0.0945 -0.8759 -0.4732
vn -0.6854 -0.6938 -0.2211
vn -0.8689 0.4256 0.2529
vn -0.8984 0.4392 -0.0000
vn -0.5888 -0.8083 -0.0000
vn -0.3198 -0.7065 0.6314
vn 0.2759 0.2710 0.9222
vn 0.0200 0.3143 0.9491
vn -0.0945 -0.8759 0.4732
vn 0.5475 -0.8067 0.2224
vn 0.2759 0.2710 -0.9222
vn 0.6939 0.2570 -0.6727
vn 0.4904 -0.7059 -0.5111
vn 0.5475 -0.8067 -0.2224
vn 0.9474 0.1810 -0.2640
vn 0.9829 0.1843 0.0000
vn 0.3467 -0.9380 -0.0000
vn 0.1135 -0.7850 -0.6090
vn -0.8689 0.4256 -0.2529
vn -0.6222 0.4296 -0.6544
vn -0.5849 -0.5794 -0.5676
vn -0.3198 -0.7065 -0.6314
vn -0.2366 0.3401 0.9101
vn -0.6222 0.4296 0.6544
vn -0.5849 -0.5794 0.5676
vn -0.6854 -0.6938 0.2211
vn 0.9474 0.1810 0.2640
vn 0.6939 0.2570 0.6727
vn 0.4904 -0.7059 0.5111
vn 0.1135 -0.7850 0.6090
vn 0.9529 0.1394 0.2693
vn 0.0827 -0.6821 0.7266
vn 0.0522 -0.9811 0.1862
vn 0.6966 0.2330 0.6786
vn -0.2136 0.3885 -0.8964
vn -0.8353 -0.5131 -0.1976
vn 0.0210 -0.9178 -0.3965
vn 0.0332 0.3521 -0.9354
vn -0.8254 0.5179 -0.2246
vn -0.3179 -0.5356 -0.7824
vn -0.3668 -0.8983 -0.2420
vn -0.5898 0.5025 -0.6322
vn 0.2727 0.2852 -0.9188
vn 0.6636 -0.7132 -0.2256
vn 0.0522 -0.9811 -0.1862
vn 0.6966 0.2330 -0.6786
vn 0.9529 0.1394 -0.2693
vn 0.0827 -0.6821 -0.7266
vn 0.1782 -0.9840 0.0000
vn 0.9888 0.1493 -0.0000
vn -0.8254 0.5179 0.2246
vn -0.3179 -0.5356 0.7824
vn -0.5934 -0.8049 -0.0000
vn -0.8441 0.5362 0.0000
vn -0.2136 0.3885 0.8964
vn -0.8353 -0.5131 0.1976
vn -0.3668 -0.8983 0.2420
vn -0.5898 0.5025 0.6322
vn 0.2727 0.2852 0.9188
vn 0.6636 -0.7132 0.2256
vn 0.0210 -0.9178 0.3965
vn 0.0332 0.3521 0.9354
vn -0.9366 -0.3493 0.0268
vn -0.9252 -0.3795 -0.0000
vn -0.9366 -0.3493 -0.0268
vn -0.6381 -0.4793 -0.6026
vn -0.0356 -0.4784 -0.8774
vn -0.0353 -0.5075 -0.8609
vn -0.0201 -0.4803 -0.8769
vn 0.5213 -0.6371 -0.5678
vn 0.8017 -0.5977 0.0094
vn 0.7809 -0.6246 0.0000
vn 0.8017 -0.5977 -0.0094
vn 0.5213 -0.6371 0.5678
vn -0.0201 -0.4803 0.8769
vn -0.0353 -0.5075 0.8609
vn -0.0356 -0.4784 0.8774
vn -0.6381 -0.4793 0.6026
vn -0.0278 -0.5424 0.8396
vn 0.4428 -0.7312 0.5189
vn 0.7325 -0.6808 -0.0036
vn 0.7248 -0.6890 0.0000
vn 0.7325 -0.6808 0.0036
vn 0.4428 -0.7312 -0.5189
vn -0.0278 -0.5424 -0.8396
vn -0.0391 -0.5496 -0.8345
vn -0.0448 -0.5394 -0.8409
vn -0.6173 -0.5575 -0.5551
vn -0.9255 -0.3781 -0.0237
vn -0.9218 -0.3877 -0.0000
vn -0.9255 -0.3781 0.0237
vn -0.6173 -0.5575 0.5551
vn -0.0448 -0.5394 0.8409
vn -0.0391 -0.5496 0.8345
vn -0.9369 -0.3273 0.1228
vn 0.1053 -0.8680 -0.4853
vn 0.3536 -0.9354 -0.0000
vn -0.9354 -0.3537 -0.0000
vn -0.9369 -0.3273 -0.1228
vn 0.1053 -0.8680 0.4853
vn 0.4216 -0.7719 0.4759
vn -0.6503 -0.4603 -0.6043
vn -0.1354 -0.4981 -0.8565
vn 0.4240 -0.8652 0.2677
vn -0.1159 -0.8382 0.5330
vn -0.0471 -0.5383 -0.8415
vn 0.0555 -0.5374 -0.8415
vn -0.5986 -0.7442 0.2964
vn -0.5941 -0.5871 0.5498
vn 0.4795 -0.6868 -0.5462
vn 0.7317 -0.6776 -0.0736
vn -0.4296 -0.7187 0.5468
vn -0.6820 -0.7313 -0.0000
vn 0.7200 -0.6939 -0.0000
vn 0.7317 -0.6776 0.0736
vn -0.4296 -0.7187 -0.5468
vn -0.5941 -0.5871 -0.5498
vn 0.4795 -0.6868 0.5462
vn 0.0555 -0.5374 0.8415
vn -0.5986 -0.7442 -0.2964
vn -0.1159 -0.8382 -0.5330
vn -0.0471 -0.5383 0.8415
vn -0.1354 -0.4981 0.8565
vn 0.4240 -0.8652 -0.2677
vn 0.4216 -0.7719 -0.4759
vn -0.6503 -0.4603 0.6043
vn -0.8975 -0.3599 0.2551
vn -0.0064 -0.8107 -0.5854
vn 0.4507 -0.8927 -0.0000
vn -0.9185 -0.3953 -0.0000
vn -0.8975 -0.3599 -0.2551
vn -0.0064 -0.8107 0.5854
vn 0.3653 -0.8348 0.4120
vn -0.6505 -0.4268 -0.6283
vn -0.2591 -0.4659 -0.8460
vn 0.5533 -0.8265 0.1039
vn -0.1165 -0.8090 0.5762
vn -0.0460 -0.5296 -0.8470
vn 0.1795 -0.5364 -0.8246
vn -0.7086 -0.6892 0.1511
vn -0.5640 -0.6516 0.5073
vn 0.5347 -0.6242 -0.5696
vn 0.7581 -0.6250 -0.1861
vn -0.2485 -0.6905 0.6793
vn -0.6777 -0.7353 0.0000
vn 0.7631 -0.6462 0.0000
vn 0.7581 -0.6250 0.1861
vn -0.2485 -0.6905 -0.6793
vn -0.5640 -0.6516 -0.5073
vn 0.5347 -0.6242 0.5696
vn 0.1795 -0.5364 0.8246
vn -0.7086 -0.6892 -0.1511
vn -0.1165 -0.8090 -0.5762
vn -0.0460 -0.5296 0.8470
vn -0.2591 -0.4659 0.8460
vn 0.5533 -0.8265 -0.1039
vn 0.3653 -0.8348 -0.4120
vn -0.6505 -0.4268 0.6283
vn -0.7270 -0.5948 -0.3430
vn 0.3109 -0.8857 0.3447
vn 0.4536 -0.7265 0.5162
vn -0.5371 -0.6703 -0.5120
vn -0.3550 -0.6181 -0.7013
vn 0.3316 -0.8668 0.3724
vn -0.0621 -0.7844 0.6171
vn -0.0255 -0.6397 -0.7682
vn 0.2944 -0.6669 -0.6846
vn -0.3947 -0.8196 0.4153
vn -0.5794 -0.6232 0.5253
vn 0.4636 -0.7388 -0.4891
vn 0.6557 -0.6919 -0.3022
vn -0.4714 -0.7931 0.3858
vn 0.7219 -0.6920 -0.0005
vn 0.6525 -0.6958 0.3002
vn -0.4721 -0.7917 -0.3878
vn 0.4598 -0.7451 0.4831
vn 0.2897 -0.6757 0.6778
vn -0.4003 -0.8152 -0.4186
vn -0.0614 -0.7825 -0.6196
vn -0.0256 -0.6489 0.7605
vn -0.3509 -0.6281 0.6945
vn 0.3371 -0.8629 -0.3765
vn 0.4611 -0.7233 -0.5141
vn -0.5338 -0.6777 0.5057
vn -0.7238 -0.6001 0.3406
vn 0.3124 -0.8844 -0.3467
vn 0.5491 -0.8357 0.0020
vn -0.8072 -0.5903 -0.0007
vn -0.4513 -0.6770 -0.5814
vn 0.0101 -0.7855 0.6188
vn -0.0387 -0.5492 0.8348
vn -0.0114 -0.7818 -0.6234
vn 0.4321 -0.6987 -0.5702
vn -0.0385 -0.7618 0.6467
vn -0.4496 -0.7844 0.4274
vn 0.5093 -0.6878 -0.5173
vn 0.5595 -0.7021 -0.4404
vn -0.6603 -0.7502 0.0333
vn -0.8588 -0.5123 0.0056
vn 0.5992 -0.8006 -0.0013
vn 0.5497 -0.7108 0.4388
vn -0.6671 -0.7441 -0.0371
vn -0.4529 -0.7799 -0.4320
vn 0.5030 -0.6976 0.5103
vn 0.4307 -0.7100 0.5571
vn -0.0439 -0.7542 -0.6552
vn -0.0380 -0.5387 -0.8416
vn -0.0116 -0.7937 0.6082
vn -0.4503 -0.6888 0.5681
vn 0.0159 -0.7782 -0.6278
vn 0.4055 -0.8071 -0.4290
vn -0.5279 -0.6741 0.5166
vn -0.5819 -0.6848 0.4387
vn 0.6105 -0.7918 -0.0210
vn 0.8130 -0.5822 0.0045
vn -0.6348 -0.7727 -0.0014
vn -0.5916 -0.6753 -0.4404
vn 0.6030 -0.7976 0.0169
vn 0.4013 -0.8116 0.4246
vn -0.5340 -0.6637 -0.5238
vn -0.0123 -0.9999 0.0007
vn -0.7108 -0.7034 0.0000
vn -0.4277 -0.7976 -0.4254
vn -0.0015 -0.7126 -0.7016
vn 0.4160 -0.8072 -0.4187
vn 0.6934 -0.7206 0.0000
vn 0.4165 -0.8066 0.4194
vn -0.0015 -0.7115 0.7026
vn -0.4282 -0.7970 0.4260
vn -0.7769 0.0397 -0.6284
vn -0.7746 0.0349 -0.6315
vn -0.2340 0.0264 -0.9719
vn -0.2435 0.0381 -0.9691
vn -0.7620 0.0293 -0.6469
vn -0.7490 0.0289 -0.6619
vn 0.0055 -0.0034 -1.0000
vn -0.1982 0.0054 -0.9802
vn 0.2623 -0.0037 0.9650
vn 0.2596 0.0073 0.9657
vn -0.4093 0.0277 0.9120
vn -0.3829 0.0069 0.9238
vn 0.2592 0.0181 0.9657
vn 0.2589 0.0183 0.9657
vn -0.2929 0.0447 0.9551
vn -0.3932 0.0483 0.9182
vn 0.3894 0.0224 -0.9208
vn 0.4187 0.0010 -0.9081
vn 0.8586 -0.0088 -0.5126
vn 0.8349 0.0157 -0.5502
vn 0.4550 -0.0208 -0.8902
vn 0.4720 -0.0214 -0.8813
vn 0.8583 -0.0253 -0.5126
vn 0.8824 -0.0252 -0.4698
vn -0.8689 0.0186 0.4946
vn -0.8905 0.0380 0.4534
vn -0.9939 0.0434 -0.1018
vn -0.9960 0.0375 -0.0815
vn -0.8776 0.0561 0.4762
vn -0.8591 0.0567 0.5086
vn -0.9904 0.0495 -0.1289
vn -0.9933 0.0498 -0.1047
vn 1.0000 0.0050 0.0038
vn 0.9988 -0.0076 0.0480
vn 0.7750 0.0016 0.6320
vn 0.7931 0.0017 0.6090
vn 0.9940 -0.0192 0.1075
vn 0.9899 -0.0192 0.1401
vn 0.7794 -0.0006 0.6265
vn 0.7622 0.0003 0.6473
vn 0.9999 0.0054 -0.0158
vn 0.8018 0.0018 0.5976
vn 0.8219 0.0164 -0.5694
vn -0.8493 0.0175 0.5276
vn -0.9970 0.0372 -0.0677
vn -0.3687 0.0061 0.9295
vn 0.3797 0.0229 -0.9248
vn -0.2530 0.0383 -0.9667
vn 0.2640 -0.0040 0.9645
vn -0.7764 0.0397 -0.6290
vn 0.4633 -0.7486 -0.4743
vn 0.6177 -0.7864 -0.0026
vn 0.5942 -0.5207 -0.6130
vn 0.4805 -0.7371 -0.4753
vn -0.0064 -0.7762 -0.6305
vn -0.4830 -0.7322 -0.4803
vn -0.6115 -0.5017 -0.6119
vn -0.4878 -0.7246 -0.4868
vn -0.6393 -0.7690 -0.0026
vn -0.4864 -0.7260 0.4861
vn -0.6188 -0.5064 0.6005
vn -0.4800 -0.7376 0.4749
vn -0.0065 -0.7796 0.6262
vn 0.4772 -0.7427 0.4699
vn 0.6014 -0.5258 0.6016
vn 0.4617 -0.7499 0.4738
vn 0.5542 -0.7887 -0.2659
vn -0.1221 -0.8563 -0.5018
vn 0.5049 -0.6710 -0.5430
vn 0.1276 -0.7681 -0.6274
vn 0.3353 -0.9421 0.0000
vn 0.1276 -0.7681 0.6274
vn 0.5049 -0.6710 0.5430
vn 0.5542 -0.7887 0.2659
vn -0.1221 -0.8563 0.5018
vn -0.7264 -0.6398 0.2508
vn -0.6214 -0.5107 0.5942
vn -0.3688 -0.6493 0.6651
vn -0.6482 -0.7615 0.0000
vn -0.3688 -0.6493 -0.6651
vn -0.6214 -0.5107 -0.5942
vn -0.7264 -0.6398 -0.2508
vn 0.0896 0.9960 -0.0000
usemtl None
s 1
f 500/1/1 382/2/2 3/3/3 317/4/4
f 499/5/5 367/6/6 7/7/7 311/8/8
f 498/9/9 296/10/10 6/11/11 167/12/12
f 497/13/13 209/14/14 11/15/15 274/16/16
f 496/17/17 355/18/18 2/19/19 181/20/20
f 495/21/21 263/22/22 10/23/23 156/24/24
f 494/25/25 155/26/26 14/27/27 161/28/28
f 493/29/29 281/30/30 16/31/31 297/32/32
f 492/33/33 314/34/34 19/35/35 233/36/36
f 491/37/37 295/38/38 23/39/39 224/40/40
f 490/41/41 214/42/42 22/43/43 364/44/44
f 489/45/45 149/46/46 27/47/47 245/48/48
f 488/49/49 280/50/50 18/51/51 378/52/52
f 487/53/53 234/54/54 26/55/55 133/56/56
f 486/57/57 132/58/58 30/59/59 137/60/60
f 485/61/61 202/62/62 32/63/63 269/64/64
f 484/65/65 229/66/66 35/67/67 305/68/68
f 483/69/69 213/70/70 39/71/71 300/72/72
f 482/73/73 260/74/74 38/75/75 162/76/76
f 481/77/77 338/78/78 43/79/79 262/80/80
f 480/81/81 201/82/82 34/83/83 174/84/84
f 479/85/85 256/86/86 42/87/87 146/88/88
f 478/89/89 138/90/90 46/91/91 152/92/92
f 477/93/93 271/94/94 48/95/95 283/96/96
f 476/97/97 255/98/98 51/99/99 328/100/100
f 475/101/101 236/102/102 55/103/103 322/104/104
f 474/105/105 292/106/106 54/107/107 177/108/108
f 473/109/109 362/110/110 59/111/111 341/112/112
f 472/113/113 223/114/114 50/115/115 197/116/116
f 471/117/117 334/118/118 58/119/119 206/120/120
f 470/121/121 200/122/122 62/123/123 216/124/124
f 469/125/125 299/126/126 64/127/127 356/128/128
f 468/129/129 368/130/130 67/131/131 285/132/132
f 467/133/133 340/134/134 71/135/135 275/136/136
f 466/137/137 248/138/138 70/139/139 153/140/140
f 465/141/141 176/142/142 75/143/143 243/144/144
f 464/145/145 343/146/146 66/147/147 166/148/148
f 463/149/149 232/150/150 74/151/151 136/152/152
f 462/153/153 135/154/154 78/155/155 139/156/156
f 461/157/157 249/158/158 80/159/159 264/160/160
f 81/161/161 361/162/162 160/163/163
f 84/164/164 346/165/165 145/166/166
f 86/167/167 196/168/168 187/169/169
f 85/170/170 148/171/171 141/172/172
f 87/173/173 266/174/174 147/175/175
f 88/176/176 342/177/177 337/178/178
f 89/179/179 144/180/180 169/181/181
f 83/182/182 298/183/183 272/184/184
f 460/185/185 316/186/186 90/187/187 312/188/188
f 459/189/189 321/190/190 92/191/191 173/192/192
f 458/193/193 359/194/194 94/195/195 304/196/196
f 457/197/197 195/198/198 96/199/199 354/200/200
f 456/201/201 226/202/202 97/203/203 279/204/204
f 455/205/205 240/206/206 91/207/207 220/208/208
f 454/209/209 143/210/210 93/211/211 376/212/212
f 453/213/213 370/214/214 95/215/215 310/216/216
f 452/217/217 218/218/218 100/219/219 259/220/220
f 451/221/221 186/222/222 104/223/223 239/224/224
f 450/225/225 222/226/226 103/227/227 384/228/228
f 449/229/229 282/230/230 108/231/231 244/232/232
f 448/233/233 188/234/234 99/235/235 154/236/236
f 447/237/237 212/238/238 107/239/239 377/240/240
f 446/241/241 375/242/242 111/243/243 372/244/244
f 445/245/245 238/246/246 113/247/247 309/248/248
f 444/249/249 279/250/204 97/251/203 134/252/250
f 443/253/251 310/254/216 95/255/215 383/256/252
f 442/257/253 304/258/196 94/259/195 165/260/254
f 441/261/255 376/262/212 93/263/211 172/264/256
f 440/265/257 173/266/192 92/267/191 369/268/258
f 439/269/259 220/270/208 91/271/207 258/272/260
f 438/273/261 312/274/188 90/275/187 332/276/262
f 437/277/263 354/278/200 96/279/199 231/280/264
f 436/281/265 186/282/222 103/283/227 365/284/266
f 435/285/267 222/286/226 107/287/239 350/288/268
f 434/289/269 212/290/238 111/291/243 353/292/270
f 433/293/271 375/294/242 113/295/247 208/296/272
f 432/297/273 238/298/246 100/299/219 324/300/274
f 431/301/275 218/302/218 99/303/235 381/304/276
f 430/305/277 188/306/234 108/307/231 257/308/278
f 429/309/279 282/310/230 104/311/223 278/312/280
f 428/313/281 227/314/282 98/315/283 185/316/284
f 427/317/285 261/318/286 101/319/287 203/320/288
f 426/321/289 184/322/290 112/323/291 386/324/292
f 425/325/293 306/326/294 110/327/295 252/328/296
f 424/329/297 159/330/298 106/331/299 247/332/300
f 423/333/301 168/334/302 102/335/303 270/336/304
f 422/337/305 253/338/306 105/339/307 199/340/308
f 421/341/309 363/342/310 109/343/311 171/344/312
f 420/345/313 302/346/314 49/347/315 327/348/316
f 419/349/317 331/350/318 52/351/319 237/352/320
f 418/353/321 215/354/322 63/355/323 193/356/324
f 417/357/325 151/358/326 61/359/327 329/360/328
f 416/361/329 265/362/330 57/363/331 308/364/332
f 415/365/333 228/366/334 53/367/335 294/368/336
f 414/369/337 313/370/338 56/371/339 230/372/340
f 413/373/341 164/374/342 60/375/343 250/376/344
f 412/377/345 307/378/346 36/379/347 348/380/348
f 411/381/349 190/382/350 47/383/351 374/384/352
f 410/385/353 344/386/354 45/387/355 380/388/356
f 409/389/357 189/390/358 41/391/119 358/392/359
f 408/393/360 204/394/361 37/395/119 373/396/362
f 407/397/363 286/398/364 40/399/365 326/400/366
f 406/401/367 142/402/368 44/403/369 183/404/370
f 405/405/371 273/406/372 33/407/373 315/408/374
f 404/409/375 235/410/376 20/411/377 131/412/378
f 403/413/379 268/414/380 31/415/381 157/416/382
f 402/417/383 191/418/384 29/419/385 198/420/386
f 401/421/387 320/422/388 25/423/389 175/424/390
f 400/425/391 287/426/392 21/427/393 192/428/394
f 399/429/395 219/430/396 24/431/397 371/432/398
f 398/433/399 351/434/400 28/435/401 221/436/402
f 397/437/403 205/438/404 17/439/405 336/440/406
f 114/441/407 182/442/408 150/443/409
f 114/444/407 150/445/409 323/446/410
f 114/447/407 323/448/410 179/449/411
f 114/450/407 179/451/411 290/452/412
f 114/453/407 290/454/412 284/455/413
f 114/456/407 284/457/413 277/458/414
f 114/459/407 277/460/414 325/461/415
f 114/462/407 325/463/415 182/464/408
f 396/465/416 289/466/417 117/467/418 352/468/419
f 395/469/420 207/470/421 120/471/422 211/472/423
f 394/473/424 180/474/425 123/475/426 251/476/427
f 393/477/428 385/478/429 126/479/430 357/480/431
f 392/481/432 276/482/433 127/483/434 246/484/435
f 391/485/436 293/486/437 129/487/438 178/488/439
f 390/489/440 130/490/441 116/491/442 241/492/443
f 389/493/444 339/494/445 119/495/446 140/496/447
f 388/497/448 163/498/449 122/499/450 379/500/451
f 387/501/452 170/502/453 125/503/454 303/504/455
f 163/498/449 387/501/452 303/504/455 122/499/450
f 127/483/434 178/488/439 387/501/452 163/498/449
f 178/488/439 129/487/438 170/502/453 387/501/452
f 225/505/456 388/497/448 379/500/451 121/506/457
f 128/507/458 246/484/435 388/497/448 225/505/456
f 246/484/435 127/483/434 163/498/449 388/497/448
f 130/490/441 389/493/444 140/496/447 116/491/442
f 123/508/426 357/509/431 389/493/444 130/490/441
f 357/509/431 126/510/430 339/494/445 389/493/444
f 210/511/459 390/489/440 241/492/443 115/512/460
f 124/513/461 251/514/427 390/489/440 210/511/459
f 251/514/427 123/508/426 130/490/441 390/489/440
f 276/482/433 391/485/436 178/488/439 127/483/434
f 117/467/418 211/472/423 391/485/436 276/482/433
f 211/472/423 120/471/422 293/486/437 391/485/436
f 335/515/462 392/481/432 246/484/435 128/507/458
f 118/516/463 352/468/419 392/481/432 335/515/462
f 352/468/419 117/467/418 276/482/433 392/481/432
f 180/474/425 393/477/428 357/480/431 123/475/426
f 122/499/450 303/504/455 393/477/428 180/474/425
f 303/504/455 125/503/454 385/478/429 393/477/428
f 242/517/464 394/473/424 251/476/427 124/518/461
f 121/506/457 379/500/451 394/473/424 242/517/464
f 379/500/451 122/499/450 180/474/425 394/473/424
f 289/466/417 395/469/420 211/472/423 117/467/418
f 116/491/442 140/496/447 395/469/420 289/466/417
f 140/496/447 119/495/446 207/470/421 395/469/420
f 349/519/465 396/465/416 352/468/419 118/516/463
f 115/512/460 241/492/443 396/465/416 349/519/465
f 241/492/443 116/491/442 289/466/417 396/465/416
f 182/464/408 301/520/466 8/521/467
f 182/464/408 325/463/415 301/520/466
f 325/463/415 5/522/468 301/520/466
f 325/461/415 360/523/469 5/524/468
f 325/461/415 277/460/414 360/523/469
f 277/460/414 9/525/470 360/523/469
f 277/458/414 345/526/471 9/527/470
f 277/458/414 284/457/413 345/526/471
f 284/457/413 13/528/472 345/526/471
f 284/455/413 217/529/473 13/530/472
f 284/455/413 290/454/412 217/529/473
f 290/454/412 15/531/474 217/529/473
f 290/452/412 347/532/475 15/533/474
f 290/452/412 179/451/411 347/532/475
f 179/451/411 4/534/476 347/532/475
f 179/449/411 319/535/477 4/536/476
f 179/449/411 323/448/410 319/535/477
f 323/448/410 1/537/478 319/535/477
f 323/446/410 288/538/479 1/539/478
f 323/446/410 150/445/409 288/538/479
f 150/445/409 12/540/480 288/538/479
f 150/443/409 158/541/481 12/542/480
f 150/443/409 182/442/408 158/541/481
f 182/442/408 8/543/467 158/541/481
f 209/544/14 397/437/403 336/440/406 11/545/15
f 7/546/7 221/547/402 397/437/403 209/544/14
f 221/547/402 28/548/401 205/438/404 397/437/403
f 367/549/6 398/433/399 221/436/402 7/550/7
f 6/551/11 371/552/398 398/433/399 367/549/6
f 371/552/398 24/553/397 351/434/400 398/433/399
f 296/554/10 399/429/395 371/432/398 6/555/11
f 10/556/23 192/557/394 399/429/395 296/554/10
f 192/557/394 21/558/393 219/430/396 399/429/395
f 263/559/22 400/425/391 192/428/394 10/560/23
f 14/561/27 175/562/390 400/425/391 263/559/22
f 175/562/390 25/563/389 287/426/392 400/425/391
f 155/564/26 401/421/387 175/424/390 14/565/27
f 16/566/31 198/567/386 401/421/387 155/564/26
f 198/567/386 29/568/385 320/422/388 401/421/387
f 281/569/30 402/417/383 198/420/386 16/570/31
f 3/571/3 157/572/382 402/417/383 281/569/30
f 157/572/382 31/573/381 191/418/384 402/417/383
f 382/574/2 403/413/379 157/416/382 3/575/3
f 2/576/19 131/577/378 403/413/379 382/574/2
f 131/577/378 20/578/377 268/414/380 403/413/379
f 355/579/18 404/409/375 131/412/378 2/580/19
f 11/581/15 336/582/406 404/409/375 355/579/18
f 336/582/406 17/583/405 235/410/376 404/409/375
f 149/584/46 405/405/371 315/408/374 27/585/47
f 23/586/39 183/587/370 405/405/371 149/584/46
f 183/587/370 44/588/369 273/406/372 405/405/371
f 295/589/38 406/401/367 183/404/370 23/590/39
f 22/591/43 326/592/366 406/401/367 295/589/38
f 326/592/366 40/593/365 142/402/368 406/401/367
f 214/594/42 407/397/363 326/400/366 22/595/43
f 26/596/55 373/597/362 407/397/363 214/594/42
f 373/597/362 37/598/119 286/398/364 407/397/363
f 234/599/54 408/393/360 373/396/362 26/600/55
f 30/601/59 358/602/359 408/393/360 234/599/54
f 358/602/359 41/603/119 204/394/361 408/393/360
f 132/604/58 409/389/357 358/392/359 30/605/59
f 32/606/63 380/607/356 409/389/357 132/604/58
f 380/607/356 45/608/355 189/390/358 409/389/357
f 202/609/62 410/385/353 380/388/356 32/610/63
f 19/611/35 374/612/352 410/385/353 202/609/62
f 374/612/352 47/613/351 344/386/354 410/385/353
f 314/614/34 411/381/349 374/384/352 19/615/35
f 18/616/51 348/617/348 411/381/349 314/614/34
f 348/617/348 36/618/347 190/382/350 411/381/349
f 280/619/50 412/377/345 348/380/348 18/620/51
f 27/621/47 315/622/374 412/377/345 280/619/50
f 315/622/374 33/623/373 307/378/346 412/377/345
f 338/624/78 413/373/341 250/376/344 43/625/79
f 39/626/71 230/627/340 413/373/341 338/624/78
f 230/627/340 56/628/339 164/374/342 413/373/341
f 213/629/70 414/369/337 230/372/340 39/630/71
f 38/631/75 294/632/336 414/369/337 213/629/70
f 294/632/336 53/633/335 313/370/338 414/369/337
f 260/634/74 415/365/333 294/368/336 38/635/75
f 42/636/87 308/637/332 415/365/333 260/634/74
f 308/637/332 57/638/331 228/366/334 415/365/333
f 256/639/86 416/361/329 308/364/332 42/640/87
f 46/641/91 329/642/328 416/361/329 256/639/86
f 329/642/328 61/643/327 265/362/330 416/361/329
f 138/644/90 417/357/325 329/360/328 46/645/91
f 48/646/95 193/647/324 417/357/325 138/644/90
f 193/647/324 63/648/323 151/358/326 417/357/325
f 271/649/94 418/353/321 193/356/324 48/650/95
f 35/651/67 237/652/320 418/353/321 271/649/94
f 237/652/320 52/653/319 215/354/322 418/353/321
f 229/654/66 419/349/317 237/352/320 35/655/67
f 34/656/83 327/657/316 419/349/317 229/654/66
f 327/657/316 49/658/315 331/350/318 419/349/317
f 201/659/82 420/345/313 327/348/316 34/660/83
f 43/661/79 250/662/344 420/345/313 201/659/82
f 250/662/344 60/663/343 302/346/314 420/345/313
f 362/664/110 421/341/309 171/344/312 59/665/111
f 55/666/103 199/667/308 421/341/309 362/664/110
f 199/667/308 105/668/307 363/342/310 421/341/309
f 236/669/102 422/337/305 199/340/308 55/670/103
f 54/671/107 270/672/304 422/337/305 236/669/102
f 270/672/304 102/673/303 253/338/306 422/337/305
f 292/674/106 423/333/301 270/336/304 54/675/107
f 58/676/119 247/677/300 423/333/301 292/674/106
f 247/677/300 106/678/299 168/334/302 423/333/301
f 334/679/118 424/329/297 247/332/300 58/680/119
f 62/681/123 252/682/296 424/329/297 334/679/118
f 252/682/296 110/683/295 159/330/298 424/329/297
f 200/684/122 425/325/293 252/328/296 62/685/123
f 64/686/127 386/687/292 425/325/293 200/684/122
f 386/687/292 112/688/291 306/326/294 425/325/293
f 299/689/126 426/321/289 386/324/292 64/690/127
f 51/691/99 203/692/288 426/321/289 299/689/126
f 203/692/288 101/693/287 184/322/290 426/321/289
f 255/694/98 427/317/285 203/320/288 51/695/99
f 50/696/115 185/697/284 427/317/285 255/694/98
f 185/697/284 98/698/283 261/318/286 427/317/285
f 223/699/114 428/313/281 185/316/284 50/700/115
f 59/701/111 171/702/312 428/313/281 223/699/114
f 171/702/312 109/703/311 227/314/282 428/313/281
f 366/704/482 429/309/279 278/312/280 72/705/483
f 76/706/484 257/707/278 429/309/279 366/704/482
f 257/707/278 108/708/231 282/310/230 429/309/279
f 254/709/485 430/305/277 257/308/278 76/710/484
f 65/711/486 381/712/276 430/305/277 254/709/485
f 381/712/276 99/713/235 188/306/234 430/305/277
f 291/714/487 431/301/275 381/304/276 65/715/486
f 68/716/488 324/717/274 431/301/275 291/714/487
f 324/717/274 100/718/219 218/302/218 431/301/275
f 330/719/489 432/297/273 324/300/274 68/720/488
f 79/721/490 208/722/272 432/297/273 330/719/489
f 208/722/272 113/723/247 238/298/246 432/297/273
f 194/724/491 433/293/271 208/296/272 79/725/490
f 77/726/492 353/727/270 433/293/271 194/724/491
f 353/727/270 111/728/243 375/294/242 433/293/271
f 318/729/493 434/289/269 353/292/270 77/730/492
f 73/731/494 350/732/268 434/289/269 318/729/493
f 350/732/268 107/733/239 212/290/238 434/289/269
f 333/734/495 435/285/267 350/288/268 73/735/494
f 69/736/496 365/737/266 435/285/267 333/734/495
f 365/737/266 103/738/227 222/286/226 435/285/267
f 267/739/497 436/281/265 365/284/266 69/740/496
f 72/741/483 278/742/280 436/281/265 267/739/497
f 278/742/280 104/743/223 186/282/222 436/281/265
f 176/744/142 437/277/263 231/280/264 75/745/143
f 71/746/135 332/747/262 437/277/263 176/744/142
f 332/747/262 90/748/187 354/278/200 437/277/263
f 340/749/134 438/273/261 332/276/262 71/750/135
f 70/751/139 258/752/260 438/273/261 340/749/134
f 258/752/260 91/753/207 312/274/188 438/273/261
f 248/754/138 439/269/259 258/272/260 70/755/139
f 74/756/151 369/757/258 439/269/259 248/754/138
f 369/757/258 92/758/191 220/270/208 439/269/259
f 232/759/150 440/265/257 369/268/258 74/760/151
f 78/761/155 172/762/256 440/265/257 232/759/150
f 172/762/256 93/763/211 173/266/192 440/265/257
f 135/764/154 441/261/255 172/264/256 78/765/155
f 80/766/159 165/767/254 441/261/255 135/764/154
f 165/767/254 94/768/195 376/262/212 441/261/255
f 249/769/158 442/257/253 165/260/254 80/770/159
f 67/771/131 383/772/252 442/257/253 249/769/158
f 383/772/252 95/773/215 304/258/196 442/257/253
f 368/774/130 443/253/251 383/256/252 67/775/131
f 66/776/147 134/777/250 443/253/251 368/774/130
f 134/777/250 97/778/203 310/254/216 443/253/251
f 343/779/146 444/249/249 134/252/250 66/780/147
f 75/781/143 231/782/264 444/249/249 343/779/146
f 231/782/264 96/783/199 279/250/204 444/249/249
f 184/784/290 445/245/245 309/248/248 112/785/291
f 101/786/287 259/220/220 445/245/245 184/784/290
f 259/220/220 100/219/219 238/246/246 445/245/245
f 306/787/294 446/241/241 372/244/244 110/788/295
f 112/785/291 309/248/248 446/241/241 306/787/294
f 309/248/248 113/247/247 375/242/242 446/241/241
f 159/789/298 447/237/237 377/240/240 106/790/299
f 110/788/295 372/244/244 447/237/237 159/789/298
f 372/244/244 111/243/243 212/238/238 447/237/237
f 227/791/282 448/233/233 154/236/236 98/792/283
f 109/793/311 244/232/232 448/233/233 227/791/282
f 244/232/232 108/231/231 188/234/234 448/233/233
f 363/794/310 449/229/229 244/232/232 109/793/311
f 105/795/307 239/224/224 449/229/229 363/794/310
f 239/224/224 104/223/223 282/230/230 449/229/229
f 168/796/302 450/225/225 384/228/228 102/797/303
f 106/790/299 377/240/240 450/225/225 168/796/302
f 377/240/240 107/239/239 222/226/226 450/225/225
f 253/798/306 451/221/221 239/224/224 105/795/307
f 102/797/303 384/228/228 451/221/221 253/798/306
f 384/228/228 103/227/227 186/222/222 451/221/221
f 261/799/286 452/217/217 259/220/220 101/786/287
f 98/792/283 154/236/236 452/217/217 261/799/286
f 154/236/236 99/235/235 218/218/218 452/217/217
f 226/202/202 453/213/213 310/216/216 97/203/203
f 81/161/161 160/163/163 453/213/213 226/202/202
f 160/163/163 83/182/182 370/214/214 453/213/213
f 359/194/194 454/209/209 376/212/212 94/195/195
f 89/179/179 169/181/181 454/209/209 359/194/194
f 169/181/181 88/176/176 143/210/210 454/209/209
f 321/190/190 455/205/205 220/208/208 92/191/191
f 86/167/167 187/169/169 455/205/205 321/190/190
f 187/169/169 84/164/164 240/206/206 455/205/205
f 195/198/198 456/201/201 279/204/204 96/199/199
f 87/173/173 147/175/175 456/201/201 195/198/198
f 147/175/175 81/161/161 226/202/202 456/201/201
f 316/186/186 457/197/197 354/200/200 90/187/187
f 85/170/170 141/172/172 457/197/197 316/186/186
f 141/172/172 87/173/173 195/198/198 457/197/197
f 370/214/214 458/193/193 304/196/196 95/215/215
f 83/182/182 272/184/184 458/193/193 370/214/214
f 272/184/184 89/179/179 359/194/194 458/193/193
f 143/210/210 459/189/189 173/192/192 93/211/211
f 88/176/176 337/178/178 459/189/189 143/210/210
f 337/178/178 86/167/167 321/190/190 459/189/189
f 240/206/206 460/185/185 312/188/188 91/207/207
f 84/164/164 145/166/166 460/185/185 240/206/206
f 145/166/166 85/170/170 316/186/186 460/185/185
f 272/184/184 144/800/180 89/179/179
f 272/184/184 298/183/183 144/800/180
f 298/183/183 82/801/498 144/800/180
f 169/181/181 342/802/177 88/176/176
f 169/181/181 144/180/180 342/802/177
f 144/180/180 82/803/498 342/802/177
f 337/178/178 196/804/168 86/167/167
f 337/178/178 342/177/177 196/804/168
f 342/177/177 82/805/498 196/804/168
f 147/175/175 361/806/162 81/161/161
f 147/175/175 266/174/174 361/806/162
f 266/174/174 82/807/498 361/806/162
f 141/172/172 266/808/174 87/173/173
f 141/172/172 148/171/171 266/808/174
f 148/171/171 82/809/498 266/808/174
f 187/169/169 346/810/165 84/164/164
f 187/169/169 196/168/168 346/810/165
f 196/168/168 82/811/498 346/810/165
f 145/166/166 148/812/171 85/170/170
f 145/166/166 346/165/165 148/812/171
f 346/165/165 82/813/498 148/812/171
f 160/163/163 298/814/183 83/182/182
f 160/163/163 361/162/162 298/814/183
f 361/162/162 82/815/498 298/814/183
f 330/816/489 461/157/157 264/160/160 79/817/490
f 68/818/488 285/132/132 461/157/157 330/816/489
f 285/132/132 67/131/131 249/158/158 461/157/157
f 194/819/491 462/153/153 139/156/156 77/820/492
f 79/817/490 264/160/160 462/153/153 194/819/491
f 264/160/160 80/159/159 135/154/154 462/153/153
f 318/821/493 463/149/149 136/152/152 73/822/494
f 77/820/492 139/156/156 463/149/149 318/821/493
f 139/156/156 78/155/155 232/150/150 463/149/149
f 254/823/485 464/145/145 166/148/148 65/824/486
f 76/825/484 243/144/144 464/145/145 254/823/485
f 243/144/144 75/143/143 343/146/146 464/145/145
f 366/826/482 465/141/141 243/144/144 76/825/484
f 72/827/483 275/136/136 465/141/141 366/826/482
f 275/136/136 71/135/135 176/142/142 465/141/141
f 333/828/495 466/137/137 153/140/140 69/829/496
f 73/822/494 136/152/152 466/137/137 333/828/495
f 136/152/152 74/151/151 248/138/138 466/137/137
f 267/830/497 467/133/133 275/136/136 72/827/483
f 69/829/496 153/140/140 467/133/133 267/830/497
f 153/140/140 70/139/139 340/134/134 467/133/133
f 291/831/487 468/129/129 285/132/132 68/818/488
f 65/824/486 166/148/148 468/129/129 291/831/487
f 166/148/148 66/147/147 368/130/130 468/129/129
f 215/832/322 469/125/125 356/128/128 63/833/323
f 52/834/319 328/100/100 469/125/125 215/832/322
f 328/100/100 51/99/99 299/126/126 469/125/125
f 151/835/326 470/121/121 216/124/124 61/836/327
f 63/833/323 356/128/128 470/121/121 151/835/326
f 356/128/128 64/127/127 200/122/122 470/121/121
f 265/837/330 471/117/117 206/120/120 57/838/331
f 61/836/327 216/124/124 471/117/117 265/837/330
f 216/124/124 62/123/123 334/118/118 471/117/117
f 302/839/314 472/113/113 197/116/116 49/840/315
f 60/841/343 341/112/112 472/113/113 302/839/314
f 341/112/112 59/111/111 223/114/114 472/113/113
f 164/842/342 473/109/109 341/112/112 60/841/343
f 56/843/339 322/104/104 473/109/109 164/842/342
f 322/104/104 55/103/103 362/110/110 473/109/109
f 228/844/334 474/105/105 177/108/108 53/845/335
f 57/838/331 206/120/120 474/105/105 228/844/334
f 206/120/120 58/119/119 292/106/106 474/105/105
f 313/846/338 475/101/101 322/104/104 56/843/339
f 53/845/335 177/108/108 475/101/101 313/846/338
f 177/108/108 54/107/107 236/102/102 475/101/101
f 331/847/318 476/97/97 328/100/100 52/834/319
f 49/840/315 197/116/116 476/97/97 331/847/318
f 197/116/116 50/115/115 255/98/98 476/97/97
f 190/848/350 477/93/93 283/96/96 47/849/351
f 36/850/347 305/68/68 477/93/93 190/848/350
f 305/68/68 35/67/67 271/94/94 477/93/93
f 344/851/354 478/89/89 152/92/92 45/852/355
f 47/849/351 283/96/96 478/89/89 344/851/354
f 283/96/96 48/95/95 138/90/90 478/89/89
f 189/853/358 479/85/85 146/88/88 41/854/119
f 45/852/355 152/92/92 479/85/85 189/853/358
f 152/92/92 46/91/91 256/86/86 479/85/85
f 273/855/372 480/81/81 174/84/84 33/856/373
f 44/857/369 262/80/80 480/81/81 273/855/372
f 262/80/80 43/79/79 201/82/82 480/81/81
f 142/858/368 481/77/77 262/80/80 44/857/369
f 40/859/365 300/72/72 481/77/77 142/858/368
f 300/72/72 39/71/71 338/78/78 481/77/77
f 204/860/361 482/73/73 162/76/76 37/861/119
f 41/854/119 146/88/88 482/73/73 204/860/361
f 146/88/88 42/87/87 260/74/74 482/73/73
f 286/862/364 483/69/69 300/72/72 40/859/365
f 37/861/119 162/76/76 483/69/69 286/862/364
f 162/76/76 38/75/75 213/70/70 483/69/69
f 307/863/346 484/65/65 305/68/68 36/850/347
f 33/856/373 174/84/84 484/65/65 307/863/346
f 174/84/84 34/83/83 229/66/66 484/65/65
f 268/864/380 485/61/61 269/64/64 31/865/381
f 20/866/377 233/36/36 485/61/61 268/864/380
f 233/36/36 19/35/35 202/62/62 485/61/61
f 191/867/384 486/57/57 137/60/60 29/868/385
f 31/865/381 269/64/64 486/57/57 191/867/384
f 269/64/64 32/63/63 132/58/58 486/57/57
f 320/869/388 487/53/53 133/56/56 25/870/389
f 29/868/385 137/60/60 487/53/53 320/869/388
f 137/60/60 30/59/59 234/54/54 487/53/53
f 205/871/404 488/49/49 378/52/52 17/872/405
f 28/873/401 245/48/48 488/49/49 205/871/404
f 245/48/48 27/47/47 280/50/50 488/49/49
f 351/874/400 489/45/45 245/48/48 28/873/401
f 24/875/397 224/40/40 489/45/45 351/874/400
f 224/40/40 23/39/39 149/46/46 489/45/45
f 287/876/392 490/41/41 364/44/44 21/877/393
f 25/870/389 133/56/56 490/41/41 287/876/392
f 133/56/56 26/55/55 214/42/42 490/41/41
f 219/878/396 491/37/37 224/40/40 24/875/397
f 21/877/393 364/44/44 491/37/37 219/878/396
f 364/44/44 22/43/43 295/38/38 491/37/37
f 235/879/376 492/33/33 233/36/36 20/866/377
f 17/872/405 378/52/52 492/33/33 235/879/376
f 378/52/52 18/51/51 314/34/34 492/33/33
f 347/880/475 493/29/29 297/32/32 15/881/474
f 4/882/476 317/4/4 493/29/29 347/880/475
f 317/4/4 3/3/3 281/30/30 493/29/29
f 217/883/473 494/25/25 161/28/28 13/884/472
f 15/881/474 297/32/32 494/25/25 217/883/473
f 297/32/32 16/31/31 155/26/26 494/25/25
f 345/885/471 495/21/21 156/24/24 9/886/470
f 13/884/472 161/28/28 495/21/21 345/885/471
f 161/28/28 14/27/27 263/22/22 495/21/21
f 288/887/479 496/17/17 181/20/20 1/888/478
f 12/889/480 274/16/16 496/17/17 288/887/479
f 274/16/16 11/15/15 355/18/18 496/17/17
f 158/890/481 497/13/13 274/16/16 12/889/480
f 8/891/467 311/8/8 497/13/13 158/890/481
f 311/8/8 7/7/7 209/14/14 497/13/13
f 360/892/469 498/9/9 167/12/12 5/893/468
f 9/886/470 156/24/24 498/9/9 360/892/469
f 156/24/24 10/23/23 296/10/10 498/9/9
f 301/894/466 499/5/5 311/8/8 8/891/467
f 5/893/468 167/12/12 499/5/5 301/894/466
f 167/12/12 6/11/11 367/6/6 499/5/5
f 319/895/477 500/1/1 317/4/4 4/882/476
f 1/888/478 181/20/20 500/1/1 319/895/477
f 181/20/20 2/19/19 382/2/2 500/1/1
