# Blender v2.78 (sub 0) OBJ File: ''
# www.blender.org
mtllib Pine_Tree_s_01.mtl
o Pine_Tree_s_01
v -0.046644 0.244130 0.072635
v -0.041330 0.692860 0.065567
v -0.066924 0.692755 -0.013069
v -0.076017 0.244142 -0.017762
v 0.000879 0.244151 -0.073629
v 0.000016 0.692484 -0.061616
v 0.066982 0.692424 -0.012984
v 0.077777 0.244146 -0.017761
v 0.048405 0.244133 0.072635
v 0.041429 0.692660 0.065619
v 0.093968 0.004024 -0.031156
v 0.058081 0.004024 0.079292
v -0.093938 0.004024 -0.031156
v 0.000015 0.004024 -0.099417
v -0.058051 0.004023 0.079292
v -0.020527 0.639365 0.020374
v 0.219903 0.481090 0.544734
v -0.372493 0.274240 0.546987
v -0.298030 0.274214 -0.588584
v 0.282177 0.481065 -0.529142
v -0.621086 0.481085 0.013944
v 0.660076 0.274220 0.030752
v -0.108581 1.368324 -0.086878
v 0.022039 1.368767 -0.034839
v 0.074642 1.370117 0.215530
v -0.060394 1.370328 0.167075
v 0.078177 1.368814 0.038046
v 0.231338 0.758408 0.534578
v -0.285448 0.955733 0.462881
v -0.114892 1.369700 0.036262
v -0.235273 0.956306 -0.400483
v 0.282390 0.806080 -0.433517
v -0.606547 0.758374 0.048004
v 0.083595 1.764599 0.212500
v -0.051079 1.764618 0.163995
v 0.582392 0.956345 0.050267
v 0.030881 1.763003 -0.036011
v 0.087837 1.765350 0.035433
v -0.099317 1.762370 -0.088192
v -0.105728 1.762333 0.033645
v 0.160349 1.427625 0.380741
v -0.214346 1.281586 0.373419
v 0.472882 1.316940 0.037907
v -0.198597 1.281524 -0.315116
v 0.165262 1.427564 -0.247175
v -0.369372 1.427084 0.027548
v -0.116479 1.989634 -0.087891
v 0.049613 1.993121 -0.046766
v 0.085145 1.995620 0.226424
v -0.090465 1.992127 0.193956
v 0.159169 2.002221 0.047143
v -0.007491 2.511579 0.062706
v -0.166687 1.991791 0.048797
v -0.148597 1.522599 -0.201069
v -0.043596 1.368532 -0.061946
v -0.164336 0.452379 -0.294296
v 0.104494 2.003382 0.000054
v -0.235546 1.597680 0.030365
v 0.121480 1.599074 0.295488
v 0.050819 1.368781 0.000866
v -0.204258 0.821508 -0.339588
v 0.000015 0.004024 0.081182
v -0.071529 0.470914 -0.015383
v -0.141720 1.996417 -0.019782
v -0.158893 1.628929 -0.203972
v 0.097162 1.597934 -0.140258
v 0.412139 0.857063 0.296027
v -0.034540 1.762671 -0.063216
v -0.426331 0.857026 -0.178675
v -0.112798 1.369009 -0.026419
v 0.000451 0.120718 -0.086946
v 0.108683 1.704679 -0.149072
v 0.152147 1.086903 -0.233532
v 0.152994 1.063427 0.374983
v -0.203222 0.452379 0.293403
v 0.279130 1.541966 0.036509
v 0.335905 1.361093 0.042918
v -0.048073 0.004024 -0.066816
v -0.357657 1.258497 0.040942
v -0.500101 0.377287 0.282866
v -0.038244 0.244147 -0.046625
v 0.021169 2.257124 0.007265
v 0.147786 0.928585 0.381385
v 0.152338 0.927570 -0.282883
v 0.000452 0.470782 -0.067634
v 0.024033 0.881507 -0.423028
v -0.172395 1.164933 0.314417
v 0.000049 0.692763 0.066931
v 0.077501 1.369468 0.127477
v 0.053479 0.120707 0.076259
v -0.002607 1.999547 0.210692
v 0.157469 1.283009 -0.236017
v -0.131979 1.523752 0.267903
v -0.332249 0.553011 0.016564
v -0.087970 2.256343 0.055621
v 0.329687 1.164470 0.044294
v -0.077344 0.377289 0.549503
v -0.462431 0.377277 -0.289450
v -0.154019 1.630208 0.285918
v 0.007474 1.370235 0.193151
v 0.137615 0.553011 -0.264874
v 0.048103 0.004024 -0.066816
v -0.055401 0.692812 0.026662
v 0.319652 1.653225 0.042441
v 0.321023 1.372514 0.211193
v 0.016602 1.764621 0.190121
v -0.062605 2.256237 -0.012733
v 0.075846 2.262445 0.055516
v 0.123838 1.705962 0.305753
v -0.295361 1.354335 0.202653
v -0.451746 0.857054 0.257867
v -0.088410 1.370025 0.102067
v 0.072445 0.470749 -0.015339
v 0.060101 1.764179 -0.001038
v 0.086253 0.120715 -0.024607
v -0.062422 0.244136 0.027791
v -0.008303 0.377269 -0.563218
v 0.104768 0.553011 0.292142
v 0.157994 1.259659 0.374538
v -0.368588 0.928371 0.024982
v 0.044959 0.470861 0.069233
v 0.370175 0.821760 0.034373
v 0.064183 0.244139 0.027792
v 0.323446 1.372483 -0.106393
v -0.048876 2.257533 0.128989
v -0.034242 0.692619 -0.038426
v -0.033650 1.997032 -0.067230
v 0.443679 0.377281 0.289719
v 0.000880 0.244131 0.073783
v 0.086835 1.764991 0.124669
v -0.052577 0.120705 0.076259
v -0.079200 1.763475 0.099232
v -0.027255 0.857071 0.504517
v -0.217227 0.822537 0.358457
v 0.331006 0.452379 0.025724
v -0.103609 1.762336 -0.028398
v -0.360668 1.063213 0.042365
v 0.077822 0.004024 0.024652
v -0.168674 1.360641 0.314010
v 0.034286 0.692450 -0.038382
v -0.270805 1.703767 0.038047
v -0.128652 1.997674 0.121371
v -0.044022 0.470961 0.069206
v 0.122470 2.004642 0.136824
v -0.167476 1.359802 -0.244917
v 0.438011 0.881527 -0.194977
v -0.085351 0.120711 -0.024607
v -0.287306 1.354304 -0.146452
v -0.028051 1.354373 0.381506
v 0.475050 0.377271 -0.250686
v 0.040003 0.244149 -0.046624
v -0.171560 1.164218 -0.242414
v 0.055479 0.692540 0.026732
v -0.017573 1.354312 -0.285184
v 0.039566 2.258423 0.145080
v -0.077792 0.004024 0.024652
v 0.224847 1.679749 0.175427
v -0.217273 1.666336 -0.084886
v 0.217106 1.679100 -0.054633
v -0.214873 1.666983 0.163390
v -0.015605 1.667949 0.299077
v -0.025747 1.666652 -0.179259
v -0.185912 1.560716 0.150425
v 0.190704 1.570066 -0.053128
v -0.194275 1.560132 -0.087248
v -0.026331 1.560142 -0.173240
v 0.203068 1.570644 0.167284
v -0.265820 1.308985 -0.103768
v 0.250145 1.310227 0.210881
v -0.005604 1.561304 0.284845
v -0.266438 1.309569 0.178894
v -0.004927 1.321554 -0.244038
v 0.249868 1.322209 -0.098600
v 0.244082 1.125839 -0.096664
v -0.269355 1.113558 -0.101798
v 0.244522 1.113793 0.211785
v -0.005268 1.310156 0.348104
v -0.269789 1.114078 0.179802
v -0.009632 1.125711 -0.241530
v -0.296254 0.875459 0.193886
v 0.264925 0.874660 -0.126088
v -0.289632 0.874938 -0.159776
v -0.009625 1.114186 0.348518
v 0.262676 0.875174 0.210028
v -0.035180 0.875567 0.374228
v -0.026309 0.874533 -0.315551
v 0.059726 0.470804 0.027280
v -0.070184 0.120708 0.026222
v 0.044106 0.120717 -0.056814
v 0.000451 0.120706 0.077542
v -0.043204 0.120715 -0.056814
v 0.071086 0.120711 0.026222
v -0.036171 0.470848 -0.042379
v 0.000469 0.470912 0.070296
v 0.037081 0.470764 -0.042357
v -0.058799 0.470939 0.027244
vt 0.7997 0.9351
vt 0.7997 0.9519
vt 0.7935 0.9519
vt 0.7937 0.9351
vt 0.8365 0.9351
vt 0.8364 0.9521
vt 0.8303 0.9521
vt 0.8303 0.9350
vt 0.8119 0.9351
vt 0.8119 0.9520
vt 0.8058 0.9519
vt 0.8058 0.9351
vt 0.7875 0.9350
vt 0.7873 0.9519
vt 0.7812 0.9519
vt 0.7814 0.9349
vt 0.8244 0.9068
vt 0.8242 0.9180
vt 0.8180 0.9181
vt 0.8182 0.9070
vt 0.7874 0.9070
vt 0.7876 0.9181
vt 0.7815 0.9179
vt 0.7812 0.9068
vt 0.8120 0.9072
vt 0.8119 0.9182
vt 0.8058 0.9183
vt 0.8059 0.9073
vt 0.8367 0.9068
vt 0.8367 0.9180
vt 0.8304 0.9179
vt 0.8305 0.9067
vt 0.7997 0.9073
vt 0.7998 0.9182
vt 0.7938 0.9182
vt 0.7936 0.9073
vt 0.8242 0.9350
vt 0.8241 0.9520
vt 0.8180 0.9520
vt 0.8180 0.9351
vt 0.5488 0.3260
vt 0.5421 0.3312
vt 0.5331 0.3128
vt 0.5799 0.2937
vt 0.5867 0.2855
vt 0.5958 0.3059
vt 0.5518 0.2827
vt 0.5461 0.2738
vt 0.5726 0.2800
vt 0.5887 0.3159
vt 0.6003 0.3170
vt 0.5841 0.3385
vt 0.5382 0.3037
vt 0.5279 0.3017
vt 0.5393 0.2843
vt 0.5879 0.3223
vt 0.5734 0.3175
vt 0.5756 0.3110
vt 0.5932 0.3104
vt 0.5751 0.3405
vt 0.5773 0.3508
vt 0.5552 0.3385
vt 0.5420 0.3094
vt 0.5476 0.2973
vt 0.5562 0.3055
vt 0.5534 0.3113
vt 0.5615 0.2903
vt 0.5753 0.2832
vt 0.5684 0.3013
vt 0.5623 0.3034
vt 0.5416 0.3213
vt 0.5477 0.3360
vt 0.5385 0.3489
vt 0.5296 0.3264
vt 0.5673 0.3389
vt 0.5518 0.3435
vt 0.5590 0.3264
vt 0.5651 0.3252
vt 0.5842 0.2968
vt 0.5720 0.3061
vt 0.5441 0.3325
vt 0.5364 0.3214
vt 0.5507 0.3170
vt 0.5548 0.3217
vt 0.5895 0.3055
vt 0.5835 0.2903
vt 0.5909 0.2778
vt 0.6000 0.3015
vt 0.5434 0.2941
vt 0.5355 0.3066
vt 0.5207 0.3040
vt 0.5323 0.2854
vt 0.5460 0.3104
vt 0.5515 0.3000
vt 0.5643 0.3115
vt 0.5625 0.3133
vt 0.5630 0.3415
vt 0.5783 0.3469
vt 0.5832 0.3617
vt 0.5609 0.3553
vt 0.5674 0.2859
vt 0.5512 0.2815
vt 0.5439 0.2669
vt 0.5674 0.2724
vt 0.5869 0.3338
vt 0.5954 0.3207
vt 0.6091 0.3251
vt 0.5961 0.3434
vt 0.5831 0.2986
vt 0.5896 0.3104
vt 0.5716 0.3137
vt 0.5704 0.3117
vt 0.5852 0.3211
vt 0.5808 0.3318
vt 0.5698 0.3182
vt 0.5707 0.3159
vt 0.5472 0.3310
vt 0.5405 0.3207
vt 0.5607 0.3150
vt 0.5628 0.3173
vt 0.5515 0.3290
vt 0.5630 0.3334
vt 0.5607 0.3497
vt 0.5416 0.3424
vt 0.5641 0.2934
vt 0.5767 0.2868
vt 0.5691 0.3097
vt 0.5667 0.3106
vt 0.5673 0.3366
vt 0.5538 0.3413
vt 0.5650 0.3196
vt 0.5674 0.3189
vt 0.5784 0.3289
vt 0.5939 0.3243
vt 0.6127 0.3347
vt 0.5867 0.3422
vt 0.5751 0.2908
vt 0.5631 0.2863
vt 0.5614 0.2709
vt 0.5817 0.2784
vt 0.5487 0.2930
vt 0.5344 0.2996
vt 0.5131 0.2933
vt 0.5373 0.2821
vt 0.5905 0.3099
vt 0.5871 0.2954
vt 0.6020 0.2859
vt 0.6073 0.3103
vt 0.5372 0.3121
vt 0.5400 0.3246
vt 0.5226 0.3351
vt 0.5179 0.3142
vt 0.4461 0.3380
vt 0.4393 0.3253
vt 0.4447 0.3228
vt 0.4574 0.3318
vt 0.4245 0.2885
vt 0.4367 0.2831
vt 0.4354 0.2995
vt 0.4295 0.3022
vt 0.4424 0.3026
vt 0.4356 0.3066
vt 0.4339 0.3278
vt 0.4279 0.3238
vt 0.4348 0.3208
vt 0.4495 0.3058
vt 0.4471 0.3143
vt 0.4426 0.3098
vt 0.4218 0.3197
vt 0.4227 0.3124
vt 0.4288 0.3167
vt 0.4095 0.3104
vt 0.4123 0.2937
vt 0.4237 0.3050
vt 0.4618 0.3138
vt 0.4207 0.3356
vt 0.4067 0.3270
vt 0.4515 0.2894
vt 0.4663 0.2957
vt 0.4402 0.3183
vt 0.4358 0.3138
vt 0.4381 0.2668
vt 0.4606 0.2762
vt 0.4830 0.2856
vt 0.4348 0.3442
vt 0.4356 0.3605
vt 0.4136 0.3474
vt 0.3916 0.3343
vt 0.4765 0.3133
vt 0.4701 0.3409
vt 0.4297 0.3094
vt 0.3963 0.3084
vt 0.4009 0.2825
vt 0.4195 0.2746
vt 0.4528 0.3507
vt 0.5556 0.3059
vt 0.5565 0.3100
vt 0.5573 0.3141
vt 0.5750 0.3140
vt 0.5736 0.3094
vt 0.5722 0.3048
vt 0.5648 0.3017
vt 0.5602 0.3038
vt 0.5685 0.3033
vt 0.5652 0.3170
vt 0.5701 0.3155
vt 0.5918 0.3454
vt 0.5672 0.3543
vt 0.5426 0.3631
vt 0.5386 0.2885
vt 0.5614 0.2762
vt 0.5842 0.2639
vt 0.5612 0.3155
vt 0.5314 0.3448
vt 0.5203 0.3265
vt 0.6076 0.3071
vt 0.5997 0.3263
vt 0.5959 0.2855
vt 0.5735 0.3321
vt 0.5776 0.3242
vt 0.5818 0.3164
vt 0.5761 0.3028
vt 0.5674 0.2995
vt 0.5586 0.2962
vt 0.5569 0.3231
vt 0.5652 0.3276
vt 0.5294 0.3075
vt 0.5545 0.3027
vt 0.5504 0.3092
vt 0.5789 0.3096
vt 0.5446 0.3606
vt 0.5333 0.3432
vt 0.5221 0.3259
vt 0.5822 0.2651
vt 0.5964 0.2874
vt 0.6107 0.3097
vt 0.5827 0.3342
vt 0.5711 0.3240
vt 0.5944 0.3444
vt 0.5695 0.3525
vt 0.5537 0.3162
vt 0.5390 0.2891
vt 0.5606 0.2771
vt 0.5306 0.3075
vt 0.5574 0.3487
vt 0.5354 0.3364
vt 0.5795 0.3611
vt 0.6026 0.3271
vt 0.5289 0.2823
vt 0.5404 0.2649
vt 0.5175 0.2997
vt 0.5957 0.3396
vt 0.6118 0.3182
vt 0.5669 0.2711
vt 0.5934 0.2772
vt 0.6026 0.2977
vt 0.5264 0.3180
vt 0.7997 0.8964
vt 0.7934 0.8963
vt 0.8060 0.8964
vt 0.8368 0.8957
vt 0.8307 0.8954
vt 0.8430 0.8959
vt 0.8429 0.9070
vt 0.8429 0.9181
vt 0.8122 0.8961
vt 0.8184 0.8959
vt 0.7872 0.8960
vt 0.7810 0.8956
vt 0.8246 0.8957
vt 0.8427 0.9351
vt 0.8426 0.9521
vn -0.9509 0.0161 0.3092
vn -0.9508 0.0162 0.3094
vn -0.9515 0.0220 -0.3069
vn -0.9508 0.0221 -0.3090
vn 0.5876 0.0228 -0.8089
vn 0.5875 0.0227 -0.8089
vn 0.9511 0.0258 -0.3077
vn 0.9508 0.0257 -0.3089
vn -0.0003 0.0157 0.9999
vn -0.0005 0.0160 0.9999
vn -0.5878 0.0194 0.8087
vn -0.5876 0.0192 0.8089
vn -0.5873 0.0204 -0.8091
vn -0.5872 0.0203 -0.8092
vn -0.0013 0.0261 -0.9997
vn 0.0002 0.0263 -0.9997
vn 0.9499 0.0489 0.3087
vn 0.9504 0.0343 0.3090
vn 0.5855 0.0346 0.8100
vn 0.5869 0.0472 0.8083
vn -0.5854 0.0908 -0.8057
vn -0.5869 0.0553 -0.8078
vn 0.0010 0.0679 -0.9977
vn 0.0002 0.1080 -0.9942
vn 0.0000 0.0298 0.9996
vn -0.0000 0.0229 0.9997
vn -0.5842 0.0356 0.8108
vn -0.5866 0.0514 0.8083
vn 0.5856 0.0866 -0.8060
vn 0.5870 0.0545 -0.8077
vn 0.9513 0.0543 -0.3033
vn 0.9482 0.0822 -0.3070
vn -0.9496 0.0558 0.3086
vn -0.9504 0.0359 0.3091
vn -0.9511 0.0560 -0.3038
vn -0.9476 0.0890 -0.3068
vn 0.9509 0.0196 0.3090
vn 0.9508 0.0198 0.3091
vn 0.5855 0.0216 0.8104
vn 0.5875 0.0213 0.8090
vn 0.0020 -0.9999 -0.0105
vn -0.0966 -0.9641 -0.2475
vn 0.2643 -0.8690 -0.4182
vn 0.2459 -0.8789 0.4088
vn -0.1138 -0.9695 0.2172
vn 0.2557 -0.9667 -0.0097
vn -0.4683 -0.8831 -0.0280
vn 0.0291 0.4513 -0.8919
vn -0.5198 -0.6771 -0.5209
vn 0.3266 -0.9439 0.0484
vn 0.4613 0.5149 -0.7225
vn -0.1685 0.3470 0.9226
vn 0.4172 0.4056 0.8133
vn -0.0631 -0.9761 -0.2081
vn -0.5403 -0.7877 0.2960
vn 0.8400 0.3752 0.3920
vn 0.8892 0.4574 -0.0018
vn 0.5745 -0.8091 0.1233
vn 0.5882 -0.7716 -0.2422
vn 0.0178 -0.5187 -0.8548
vn -0.3629 -0.5440 -0.7565
vn 0.2089 -0.8517 0.4806
vn -0.3599 -0.8391 0.4078
vn -0.7991 0.3999 -0.4490
vn -0.8806 0.4736 0.0150
vn -0.1834 -0.9805 0.0701
vn -0.1782 -0.7353 -0.6539
vn 0.7963 0.4451 -0.4096
vn 0.7131 -0.6406 0.2849
vn -0.7799 0.4097 0.4733
vn -0.5103 0.4055 0.7584
vn -0.2505 -0.9012 0.3536
vn -0.2108 -0.7642 0.6096
vn -0.1718 -0.6013 0.7804
vn 0.3659 -0.6576 0.6585
vn -0.3546 -0.6635 -0.6588
vn -0.2365 -0.8200 -0.5212
vn 0.7391 -0.6093 -0.2872
vn 0.4216 -0.6491 -0.6332
vn -0.3952 -0.6272 0.6711
vn -0.2831 -0.7866 0.5488
vn -0.0896 0.3294 0.9399
vn 0.4047 0.3625 0.8395
vn 0.1834 -0.9265 0.3287
vn 0.6724 -0.6208 0.4031
vn -0.6551 -0.5811 -0.4829
vn -0.6671 -0.7445 0.0249
vn 0.8535 -0.5211 -0.0001
vn 0.5562 -0.8287 0.0627
vn 0.7728 -0.5616 0.2957
vn 0.7850 -0.6195 0.0074
vn -0.6475 -0.7620 0.0082
vn -0.2412 -0.8214 -0.5169
vn -0.5508 -0.6486 0.5252
vn -0.3705 -0.6425 0.6708
vn 0.3012 -0.7689 -0.5640
vn 0.5864 -0.7988 -0.1344
vn 0.7031 0.4261 -0.5693
vn 0.4381 0.4333 -0.7876
vn 0.2428 -0.9199 -0.3080
vn 0.3085 -0.8655 -0.3947
vn 0.1300 0.3821 -0.9149
vn -0.4313 0.4166 -0.8002
vn 0.0506 -0.9865 -0.1559
vn 0.2156 -0.8930 -0.3951
vn -0.8170 0.4068 0.4088
vn -0.5100 0.4166 0.7526
vn 0.3654 -0.9206 0.1376
vn -0.5734 -0.7824 -0.2431
vn 0.2266 -0.4315 -0.8732
vn -0.3559 -0.5370 -0.7648
vn 0.2874 -0.7339 0.6155
vn 0.3549 -0.8450 0.3999
vn 0.7866 0.3723 0.4926
vn 0.8678 0.4947 -0.0465
vn 0.1801 -0.9413 0.2856
vn 0.1472 -0.7165 0.6819
vn -0.8399 0.3670 -0.3999
vn -0.9007 0.4344 -0.0003
vn -0.4330 -0.8818 -0.1871
vn -0.4194 -0.9026 -0.0966
vn -0.7774 -0.5327 -0.3344
vn -0.7707 -0.6312 0.0874
vn 0.6647 -0.7456 -0.0479
vn 0.1539 -0.8368 0.5254
vn -0.0875 -0.4772 0.8744
vn 0.4056 -0.4943 0.7688
vn -0.2020 -0.8387 -0.5058
vn 0.3249 -0.8675 -0.3767
vn 0.7801 -0.4681 0.4151
vn 0.8162 -0.5770 -0.0294
vn -0.7291 -0.6820 -0.0567
vn -0.4545 -0.8907 0.0063
vn -0.6534 -0.5721 0.4957
vn -0.3881 -0.5752 0.7201
vn 0.2575 -0.7248 -0.6391
vn 0.1338 -0.8300 -0.5414
vn 0.7308 -0.5019 -0.4627
vn 0.5097 -0.4861 -0.7099
vn -0.2400 -0.8592 0.4518
vn -0.4932 -0.8675 -0.0645
vn 0.1094 0.3216 -0.9405
vn 0.1908 0.2709 -0.9435
vn 0.4221 0.2990 -0.8558
vn 0.4080 0.3615 -0.8384
vn -0.1411 0.2583 0.9557
vn 0.3889 0.3099 0.8676
vn 0.4242 0.3240 0.8456
vn -0.1677 0.2626 0.9502
vn 0.8576 0.2945 0.4216
vn 0.4455 0.3451 0.8261
vn -0.4476 0.3347 -0.8293
vn -0.8818 0.2819 -0.3782
vn -0.4392 0.3342 -0.8339
vn 0.9134 0.3637 -0.1831
vn 0.6374 0.2817 -0.7172
vn 0.9236 0.3108 -0.2244
vn -0.9512 0.3053 0.0449
vn -0.8498 0.2622 0.4572
vn -0.9539 0.2932 0.0639
vn -0.8363 0.2764 0.4734
vn -0.5401 0.2924 0.7892
vn -0.5608 0.2875 0.7765
vn 0.6712 0.3442 -0.6566
vn -0.8396 0.2819 -0.4644
vn -0.9460 0.3242 0.0080
vn 0.7976 0.3110 0.5168
vn 0.9088 0.4091 -0.0823
vn 0.4387 0.2346 -0.8675
vn 0.0020 0.9999 -0.0156
vn -0.4319 0.3349 -0.8375
vn -0.5681 0.2884 0.7707
vn -0.1619 -0.9347 -0.3164
vn -0.9229 -0.3840 -0.0281
vn -0.7538 -0.6507 0.0917
vn -0.4077 -0.7027 0.5831
vn 0.7606 -0.6492 0.0020
vn 0.5015 -0.6438 -0.5779
vn 0.4916 -0.3628 -0.7916
vn -0.4419 0.4536 -0.7740
vn -0.3202 -0.6837 -0.6557
vn -0.7369 -0.6623 -0.1354
vn 0.3940 -0.4480 0.8026
vn 0.4503 -0.6845 0.5734
vn 0.2079 -0.6834 0.6999
vn 0.3235 -0.6178 -0.7167
vn -0.9498 0.0558 0.3080
vn -0.9439 0.0897 -0.3177
vn -0.5934 0.0511 0.8033
vn 0.5852 0.0872 -0.8062
vn 0.9443 0.0827 -0.3187
vn -0.0013 0.1086 -0.9941
vn -0.0001 0.0292 0.9996
vn 0.5918 0.0467 0.8047
vn -0.5851 0.0915 -0.8058
vn 0.9501 0.0487 0.3081
usemtl None
s 1
f 196/1/1 103/2/2 3/3/3 63/4/4
f 195/5/5 140/6/6 7/7/7 113/8/8
f 194/9/9 88/10/10 2/11/11 143/12/12
f 193/13/13 126/14/14 6/15/15 85/16/16
f 192/17/17 123/18/18 9/19/19 90/20/20
f 191/21/21 81/22/22 5/23/23 71/24/24
f 190/25/25 129/26/26 1/27/27 131/28/28
f 189/29/29 151/30/30 8/31/31 115/32/32
f 188/33/33 116/34/34 4/35/35 147/36/36
f 187/37/37 153/38/38 10/39/39 121/40/40
f 16/41/41 118/42/42 75/43/43
f 16/44/41 56/45/44 101/46/45
f 16/47/41 94/48/46 56/49/44
f 16/50/41 101/51/45 135/52/47
f 16/53/41 75/54/43 94/55/46
f 186/56/48 55/57/49 24/58/50 84/59/51
f 16/60/41 135/61/47 118/62/42
f 185/63/52 83/64/53 25/65/54 100/66/55
f 184/67/56 122/68/57 27/69/58 89/70/59
f 183/71/60 74/72/61 28/73/62 133/74/63
f 182/75/64 120/76/65 30/77/66 70/78/67
f 181/79/68 84/59/51 24/58/50 60/80/69
f 180/81/70 134/82/71 26/83/72 112/84/73
f 179/85/74 152/86/75 31/87/76 86/88/77
f 178/89/78 87/90/79 29/91/80 111/92/81
f 177/93/82 119/94/83 34/95/84 106/96/85
f 176/97/86 96/98/87 36/99/88 67/100/89
f 175/101/90 137/102/91 33/103/92 69/104/93
f 174/105/94 73/106/95 32/107/96 146/108/97
f 173/109/98 92/110/99 37/111/100 114/112/101
f 172/113/102 145/114/103 39/115/104 68/116/105
f 171/117/106 139/118/107 35/119/108 132/120/109
f 170/121/110 59/122/111 41/123/112 149/124/113
f 169/125/114 77/126/115 38/127/116 130/128/117
f 168/129/118 79/130/119 40/131/120 136/132/121
f 167/133/122 76/134/123 43/135/124 105/136/125
f 166/137/126 54/138/127 44/139/128 154/140/129
f 165/141/130 58/142/131 46/143/132 148/144/133
f 164/145/134 66/146/135 45/147/136 124/148/137
f 163/149/138 93/150/139 42/151/140 110/152/141
f 162/153/142 127/154/143 48/155/144 72/156/145
f 161/157/146 109/158/147 49/159/148 91/160/149
f 49/159/148 144/161/150 155/162/151
f 47/163/152 64/164/153 107/165/154
f 51/166/155 57/167/156 108/168/157
f 53/169/158 142/170/159 95/171/160
f 160/172/161 99/173/162 50/174/163 142/170/159
f 49/159/148 155/162/151 91/160/149
f 159/175/164 72/156/145 48/155/144 57/167/156
f 158/176/165 141/177/166 53/169/158 64/164/153
f 157/178/167 104/179/168 51/166/155 144/161/150
f 48/155/144 127/154/143 82/180/169
f 82/180/169 107/165/154 52/181/170
f 82/180/169 127/154/143 107/165/154
f 127/154/143 47/163/152 107/165/154
f 109/158/147 157/178/167 144/161/150 49/159/148
f 41/182/112 105/183/125 157/178/167 109/158/147
f 105/183/125 43/184/124 104/179/168 157/178/167
f 65/185/171 158/176/165 64/164/153 47/163/152
f 44/186/128 148/187/133 158/176/165 65/185/171
f 148/187/133 46/188/132 141/177/166 158/176/165
f 104/179/168 159/175/164 57/167/156 51/166/155
f 43/184/124 124/189/137 159/175/164 104/179/168
f 124/189/137 45/190/136 72/156/145 159/175/164
f 91/160/149 125/191/172 50/174/163
f 91/160/149 155/162/151 125/191/172
f 155/162/151 52/181/170 125/191/172
f 141/177/166 160/172/161 142/170/159 53/169/158
f 46/188/132 110/192/141 160/172/161 141/177/166
f 110/192/141 42/193/140 99/173/162 160/172/161
f 95/171/160 125/191/172 52/181/170
f 95/171/160 142/170/159 125/191/172
f 142/170/159 50/174/163 125/191/172
f 108/168/157 82/180/169 52/181/170
f 108/168/157 57/167/156 82/180/169
f 57/167/156 48/155/144 82/180/169
f 107/165/154 95/171/160 52/181/170
f 107/165/154 64/164/153 95/171/160
f 64/164/153 53/169/158 95/171/160
f 155/162/151 108/168/157 52/181/170
f 155/162/151 144/161/150 108/168/157
f 144/161/150 51/166/155 108/168/157
f 99/173/162 161/157/146 91/160/149 50/174/163
f 42/193/140 149/194/113 161/157/146 99/173/162
f 149/194/113 41/182/112 109/158/147 161/157/146
f 154/195/129 162/153/142 72/156/145 45/190/136
f 44/186/128 65/185/171 162/153/142 154/195/129
f 65/185/171 47/163/152 127/154/143 162/153/142
f 58/142/131 163/149/138 110/152/141 46/143/132
f 40/196/120 132/197/109 163/149/138 58/142/131
f 132/197/109 35/198/108 93/150/139 163/149/138
f 76/134/123 164/145/134 124/148/137 43/135/124
f 38/199/116 114/200/101 164/145/134 76/134/123
f 114/200/101 37/201/100 66/146/135 164/145/134
f 54/138/127 165/141/130 148/144/133 44/139/128
f 39/202/104 136/203/121 165/141/130 54/138/127
f 136/203/121 40/196/120 58/142/131 165/141/130
f 66/146/135 166/137/126 154/140/129 45/147/136
f 37/201/100 68/204/105 166/137/126 66/146/135
f 68/204/105 39/202/104 54/138/127 166/137/126
f 59/122/111 167/133/122 105/136/125 41/123/112
f 34/205/84 130/206/117 167/133/122 59/122/111
f 130/206/117 38/199/116 76/134/123 167/133/122
f 145/114/103 168/129/118 136/132/121 39/115/104
f 31/207/76 69/208/93 168/129/118 145/114/103
f 69/208/93 33/209/92 79/130/119 168/129/118
f 119/94/83 169/125/114 130/128/117 34/95/84
f 28/210/62 67/211/89 169/125/114 119/94/83
f 67/211/89 36/212/88 77/126/115 169/125/114
f 93/150/139 170/121/110 149/124/113 42/151/140
f 35/198/108 106/213/85 170/121/110 93/150/139
f 106/213/85 34/205/84 59/122/111 170/121/110
f 79/130/119 171/117/106 132/120/109 40/131/120
f 33/209/92 111/214/81 171/117/106 79/130/119
f 111/214/81 29/215/80 139/118/107 171/117/106
f 92/110/99 172/113/102 68/116/105 37/111/100
f 32/216/96 86/217/77 172/113/102 92/110/99
f 86/217/77 31/207/76 145/114/103 172/113/102
f 77/126/115 173/109/98 114/112/101 38/127/116
f 36/212/88 146/218/97 173/109/98 77/126/115
f 146/218/97 32/216/96 92/110/99 173/109/98
f 96/98/87 174/105/94 146/108/97 36/99/88
f 27/219/58 60/220/69 174/105/94 96/98/87
f 60/220/69 24/221/50 73/106/95 174/105/94
f 152/86/75 175/101/90 69/104/93 31/87/76
f 23/222/173 70/223/67 175/101/90 152/86/75
f 70/223/67 30/224/66 137/102/91 175/101/90
f 74/72/61 176/97/86 67/100/89 28/73/62
f 25/225/54 89/226/59 176/97/86 74/72/61
f 89/226/59 27/219/58 96/98/87 176/97/86
f 139/118/107 177/93/82 106/96/85 35/119/108
f 29/215/80 133/227/63 177/93/82 139/118/107
f 133/227/63 28/210/62 119/94/83 177/93/82
f 137/102/91 178/89/78 111/92/81 33/103/92
f 30/224/66 112/228/73 178/89/78 137/102/91
f 112/228/73 26/229/72 87/90/79 178/89/78
f 73/106/95 179/85/74 86/88/77 32/107/96
f 24/221/50 55/230/49 179/85/74 73/106/95
f 55/230/49 23/222/173 152/86/75 179/85/74
f 120/76/65 180/81/70 112/84/73 30/77/66
f 21/231/174 80/232/175 180/81/70 120/76/65
f 80/232/175 18/233/176 134/82/71 180/81/70
f 122/68/57 181/79/68 60/80/69 27/69/58
f 22/234/177 150/235/178 181/79/68 122/68/57
f 150/235/178 20/236/179 84/59/51 181/79/68
f 61/237/180 182/75/64 70/78/67 23/238/173
f 19/239/181 98/240/182 182/75/64 61/237/180
f 98/240/182 21/231/174 120/76/65 182/75/64
f 87/90/79 183/71/60 133/74/63 29/91/80
f 26/229/72 100/241/55 183/71/60 87/90/79
f 100/241/55 25/225/54 74/72/61 183/71/60
f 83/64/53 184/67/56 89/70/59 25/65/54
f 17/242/183 128/243/184 184/67/56 83/64/53
f 128/243/184 22/234/177 122/68/57 184/67/56
f 134/82/71 185/63/52 100/66/55 26/83/72
f 18/233/176 97/244/185 185/63/52 134/82/71
f 97/244/185 17/242/183 83/64/53 185/63/52
f 118/62/42 128/245/184 17/246/183
f 118/62/42 135/61/47 128/245/184
f 135/61/47 22/247/177 128/245/184
f 117/248/186 186/56/48 84/59/51 20/236/179
f 19/239/181 61/237/180 186/56/48 117/248/186
f 61/237/180 23/238/173 55/57/49 186/56/48
f 94/55/46 80/249/175 21/250/174
f 94/55/46 75/54/43 80/249/175
f 75/54/43 18/251/176 80/249/175
f 135/52/47 150/252/178 22/247/177
f 135/52/47 101/51/45 150/252/178
f 101/51/45 20/253/179 150/252/178
f 56/49/44 98/254/182 19/255/181
f 56/49/44 94/48/46 98/254/182
f 94/48/46 21/250/174 98/254/182
f 101/46/45 117/256/186 20/253/179
f 101/46/45 56/45/44 117/256/186
f 56/45/44 19/255/181 117/256/186
f 75/43/43 97/257/185 18/251/176
f 75/43/43 118/42/42 97/257/185
f 118/42/42 17/246/183 97/257/185
f 123/18/18 187/37/37 121/40/40 9/19/19
f 8/31/31 113/8/8 187/37/37 123/18/18
f 113/8/8 7/7/7 153/38/38 187/37/37
f 156/258/187 188/33/33 147/36/36 13/259/188
f 15/260/189 131/28/28 188/33/33 156/258/187
f 131/28/28 1/27/27 116/34/34 188/33/33
f 102/261/190 189/29/29 115/32/32 11/262/191
f 14/263/192 71/264/24 189/29/29 102/261/190
f 71/264/24 5/265/23 151/30/30 189/29/29
f 62/266/193 190/25/25 131/28/28 15/260/189
f 12/267/194 90/20/20 190/25/25 62/266/193
f 90/20/20 9/19/19 129/26/26 190/25/25
f 78/268/195 191/21/21 71/24/24 14/269/192
f 13/259/188 147/36/36 191/21/21 78/268/195
f 147/36/36 4/35/35 81/22/22 191/21/21
f 138/270/196 192/17/17 90/20/20 12/267/194
f 11/262/191 115/32/32 192/17/17 138/270/196
f 115/32/32 8/31/31 123/18/18 192/17/17
f 81/22/22 193/13/13 85/16/16 5/23/23
f 4/35/35 63/4/4 193/13/13 81/22/22
f 63/4/4 3/3/3 126/14/14 193/13/13
f 129/26/26 194/9/9 143/12/12 1/27/27
f 9/19/19 121/40/40 194/9/9 129/26/26
f 121/40/40 10/39/39 88/10/10 194/9/9
f 151/30/30 195/5/5 113/8/8 8/31/31
f 5/265/23 85/271/16 195/5/5 151/30/30
f 85/271/16 6/272/15 140/6/6 195/5/5
f 116/34/34 196/1/1 63/4/4 4/35/35
f 1/27/27 143/12/12 196/1/1 116/34/34
f 143/12/12 2/11/11 103/2/2 196/1/1
