# Blender v2.78 (sub 0) OBJ File: ''
# www.blender.org
mtllib Pine_Tree_OneSided_s_01.mtl
o Pine_Tree_OneSided_s_01
v -0.044108 0.253383 0.068754
v -0.038316 0.666826 0.061416
v -0.062074 0.666736 -0.011588
v -0.071867 0.253388 -0.016673
v 0.000803 0.253384 -0.069466
v 0.000069 0.666504 -0.056661
v 0.062233 0.666453 -0.011514
v 0.073475 0.253376 -0.016668
v 0.045718 0.253376 0.068757
v 0.038510 0.666654 0.061461
v 0.085424 0.017705 -0.027906
v 0.052820 0.017704 0.072438
v -0.085292 0.017704 -0.027906
v 0.000066 0.017705 -0.089922
v -0.052688 0.017703 0.072438
v -0.273306 0.365637 -0.522135
v -0.111498 1.304647 -0.104827
v 0.030884 1.320759 -0.061249
v 0.256871 0.507244 -0.472723
v -0.335298 0.365790 0.495303
v 0.204357 0.507395 0.497928
v 0.073778 1.322515 0.219118
v -0.072769 1.306422 0.183497
v 0.578940 0.365675 0.028164
v 0.106917 1.305076 0.044475
v -0.559886 0.507363 0.010619
v -0.138539 1.322141 0.035285
v -0.261452 0.975104 0.426178
v 0.213958 0.840047 0.483100
v 0.083816 1.705158 0.217287
v -0.059082 1.720165 0.175966
v 0.515732 0.978809 0.049296
v 0.256315 0.879063 -0.380392
v 0.040694 1.706869 -0.058498
v 0.112073 1.720389 0.043313
v -0.219502 0.978617 -0.358620
v -0.099005 1.718174 -0.094835
v -0.536734 0.839874 0.045000
v -0.131691 1.703133 0.035153
v -0.182797 1.338605 -0.277886
v -0.110339 1.981924 -0.083844
v 0.049822 1.992321 -0.048952
v 0.156632 1.441086 -0.223815
v -0.194928 1.338795 0.343529
v 0.153264 1.441276 0.351415
v 0.079934 1.994489 0.216895
v -0.088103 1.984087 0.191621
v 0.158394 1.994090 0.051360
v -0.008579 2.419210 0.062919
v -0.163539 1.990777 0.048805
v -0.339625 1.438274 0.028917
v 0.418480 1.368458 0.042129
v -0.010407 0.436441 -0.541689
v -0.355052 0.918856 0.023564
v 0.000066 0.017703 0.080756
v -0.067226 0.470910 -0.013984
v -0.147079 1.636875 0.276132
v -0.280696 1.388440 -0.140134
v -0.121721 1.710566 -0.036438
v 0.000451 0.120717 -0.081554
v -0.409918 0.907403 -0.171097
v 0.151206 1.289966 -0.224439
v 0.351140 0.831272 0.035733
v -0.047502 0.017705 -0.065643
v -0.137541 2.011451 -0.018555
v -0.432814 0.907489 0.249810
v -0.482354 0.436576 0.276047
v -0.038502 0.253386 -0.047157
v 0.301994 1.657913 0.045654
v -0.161731 1.351833 -0.232209
v -0.287821 1.388534 0.198949
v 0.106356 1.698988 -0.143323
v 0.000452 0.470786 -0.063113
v 0.000099 0.666753 0.067326
v -0.047890 2.226638 0.130164
v -0.110154 1.314342 0.111726
v 0.050310 0.120707 0.071897
v -0.089934 2.225492 0.055288
v 0.002560 1.314542 0.212154
v -0.042211 1.312625 -0.089413
v 0.418997 0.930778 -0.185214
v -0.448017 0.436500 -0.278262
v 0.428601 0.436535 0.284219
v 0.120399 1.700215 0.293495
v 0.047634 0.017705 -0.065643
v -0.055799 0.666799 0.026730
v 0.080739 1.713641 -0.011986
v -0.062186 2.225343 -0.011084
v 0.068143 0.470755 -0.013943
v 0.073073 1.312861 -0.012713
v 0.081125 0.120715 -0.022941
v -0.062793 0.253385 0.027602
v -0.018391 1.388486 -0.274541
v 0.096751 1.313813 0.135837
v -0.195975 0.831033 -0.321349
v 0.074940 2.231049 0.059741
v 0.104510 1.712869 0.134420
v 0.014384 1.712738 0.207617
v 0.042299 0.470861 0.065574
v -0.261011 1.697127 0.038262
v -0.126154 2.012576 0.120187
v 0.104561 2.018334 0.000614
v 0.064402 0.253376 0.027606
v -0.152203 1.635651 -0.191106
v 0.395781 0.907585 0.287342
v 0.313219 1.406132 -0.101160
v -0.031046 1.712427 -0.083205
v -0.072920 0.436592 0.536302
v -0.034468 0.666618 -0.038889
v 0.000805 0.253379 0.073807
v 0.141695 0.919063 0.365413
v -0.049408 0.120705 0.071897
v -0.003851 2.014253 0.206466
v -0.024920 0.907575 0.488592
v 0.021097 2.226775 0.003882
v -0.208010 0.832017 0.345144
v 0.077033 0.017704 0.024836
v 0.120538 2.019461 0.134304
v 0.021192 0.930682 -0.404872
v 0.034614 0.666459 -0.038848
v -0.341278 1.267584 0.040337
v -0.041363 0.470955 0.065549
v -0.100061 1.711648 0.107978
v -0.162800 1.351554 0.304971
v -0.080223 0.120711 -0.022941
v -0.031215 2.012002 -0.065966
v -0.131247 1.313377 -0.041291
v 0.040109 0.253381 -0.047154
v 0.055977 0.666543 0.026796
v -0.027009 1.388676 0.373438
v 0.146427 0.918091 -0.271777
v 0.311725 1.406227 0.207737
v 0.038927 2.228072 0.142172
v 0.320533 1.353063 0.045284
v 0.151632 1.268702 0.357530
v 0.456776 0.436459 -0.239463
v -0.076900 0.017704 0.024836
v 0.224847 1.679749 0.175427
v -0.217273 1.666336 -0.084886
v 0.217106 1.679100 -0.054633
v -0.214873 1.666983 0.163390
v -0.015605 1.667949 0.299077
v -0.025747 1.666653 -0.179259
v -0.265820 1.308985 -0.103768
v 0.250145 1.310227 0.210881
v -0.266438 1.309569 0.178894
v -0.004927 1.321554 -0.244038
v 0.249868 1.322209 -0.098600
v -0.005268 1.310157 0.348104
v -0.296254 0.875459 0.193886
v 0.264925 0.874660 -0.126088
v -0.289632 0.874938 -0.159776
v 0.262676 0.875174 0.210028
v -0.035180 0.875567 0.374228
v -0.026309 0.874533 -0.315551
v 0.059726 0.470804 0.027280
v -0.070184 0.120708 0.026222
v 0.044106 0.120717 -0.056814
v 0.000451 0.120706 0.077542
v -0.043204 0.120715 -0.056814
v 0.071087 0.120711 0.026222
v -0.036171 0.470848 -0.042379
v 0.000469 0.470912 0.070296
v 0.037081 0.470764 -0.042357
v -0.058799 0.470939 0.027244
vt 0.7997 0.9351
vt 0.7997 0.9519
vt 0.7935 0.9519
vt 0.7937 0.9351
vt 0.8365 0.9351
vt 0.8364 0.9521
vt 0.8303 0.9521
vt 0.8303 0.9350
vt 0.8119 0.9351
vt 0.8119 0.9520
vt 0.8058 0.9519
vt 0.8058 0.9351
vt 0.7875 0.9350
vt 0.7873 0.9519
vt 0.7812 0.9519
vt 0.7814 0.9349
vt 0.8244 0.9068
vt 0.8242 0.9180
vt 0.8180 0.9181
vt 0.8182 0.9070
vt 0.7874 0.9070
vt 0.7876 0.9181
vt 0.7815 0.9179
vt 0.7812 0.9068
vt 0.8120 0.9072
vt 0.8119 0.9182
vt 0.8058 0.9183
vt 0.8059 0.9073
vt 0.8367 0.9068
vt 0.8367 0.9180
vt 0.8304 0.9179
vt 0.8305 0.9067
vt 0.7997 0.9073
vt 0.7998 0.9182
vt 0.7938 0.9182
vt 0.7936 0.9073
vt 0.8242 0.9350
vt 0.8241 0.9520
vt 0.8180 0.9520
vt 0.8180 0.9351
vt 0.5879 0.3223
vt 0.5734 0.3175
vt 0.5756 0.3110
vt 0.5932 0.3104
vt 0.5420 0.3094
vt 0.5476 0.2973
vt 0.5562 0.3055
vt 0.5534 0.3113
vt 0.5615 0.2903
vt 0.5753 0.2832
vt 0.5684 0.3013
vt 0.5623 0.3034
vt 0.5673 0.3389
vt 0.5518 0.3435
vt 0.5590 0.3264
vt 0.5651 0.3252
vt 0.5842 0.2968
vt 0.5720 0.3061
vt 0.5441 0.3325
vt 0.5364 0.3214
vt 0.5507 0.3170
vt 0.5548 0.3217
vt 0.5460 0.3104
vt 0.5515 0.3000
vt 0.5643 0.3115
vt 0.5625 0.3133
vt 0.5831 0.2986
vt 0.5896 0.3104
vt 0.5716 0.3137
vt 0.5704 0.3117
vt 0.5852 0.3211
vt 0.5808 0.3318
vt 0.5698 0.3182
vt 0.5707 0.3159
vt 0.5472 0.3310
vt 0.5405 0.3207
vt 0.5607 0.3150
vt 0.5628 0.3173
vt 0.5641 0.2934
vt 0.5767 0.2868
vt 0.5691 0.3097
vt 0.5667 0.3106
vt 0.5673 0.3366
vt 0.5538 0.3413
vt 0.5650 0.3196
vt 0.5674 0.3189
vt 0.4461 0.3380
vt 0.4393 0.3253
vt 0.4447 0.3228
vt 0.4574 0.3318
vt 0.4245 0.2885
vt 0.4367 0.2831
vt 0.4354 0.2995
vt 0.4295 0.3022
vt 0.4424 0.3026
vt 0.4356 0.3066
vt 0.4339 0.3278
vt 0.4279 0.3238
vt 0.4348 0.3208
vt 0.4495 0.3058
vt 0.4471 0.3143
vt 0.4426 0.3098
vt 0.4218 0.3197
vt 0.4227 0.3124
vt 0.4288 0.3167
vt 0.4095 0.3104
vt 0.4123 0.2937
vt 0.4237 0.3050
vt 0.4618 0.3138
vt 0.4207 0.3356
vt 0.4067 0.3270
vt 0.4515 0.2894
vt 0.4663 0.2957
vt 0.4402 0.3183
vt 0.4358 0.3138
vt 0.4381 0.2668
vt 0.4606 0.2762
vt 0.4830 0.2856
vt 0.4348 0.3442
vt 0.4356 0.3605
vt 0.4136 0.3474
vt 0.3916 0.3343
vt 0.4765 0.3133
vt 0.4701 0.3409
vt 0.4297 0.3094
vt 0.3963 0.3084
vt 0.4009 0.2825
vt 0.4195 0.2746
vt 0.4528 0.3507
vt 0.5918 0.3454
vt 0.5672 0.3543
vt 0.5426 0.3631
vt 0.5386 0.2885
vt 0.5614 0.2762
vt 0.5842 0.2639
vt 0.5314 0.3448
vt 0.5203 0.3265
vt 0.6076 0.3071
vt 0.5997 0.3263
vt 0.5959 0.2855
vt 0.5294 0.3075
vt 0.5446 0.3606
vt 0.5333 0.3432
vt 0.5221 0.3259
vt 0.5822 0.2651
vt 0.5964 0.2874
vt 0.6107 0.3097
vt 0.5827 0.3342
vt 0.5711 0.3240
vt 0.5944 0.3444
vt 0.5695 0.3525
vt 0.5390 0.2891
vt 0.5606 0.2771
vt 0.5306 0.3075
vt 0.6026 0.3271
vt 0.7997 0.8964
vt 0.7934 0.8963
vt 0.8060 0.8964
vt 0.8368 0.8957
vt 0.8307 0.8954
vt 0.8430 0.8959
vt 0.8429 0.9070
vt 0.8429 0.9181
vt 0.8122 0.8961
vt 0.8184 0.8959
vt 0.7872 0.8960
vt 0.7810 0.8956
vt 0.8246 0.8957
vt 0.8427 0.9351
vt 0.8426 0.9521
vn -0.9508 0.0188 0.3092
vn -0.9507 0.0195 0.3095
vn -0.9513 0.0242 -0.3073
vn -0.9508 0.0241 -0.3087
vn 0.5876 0.0261 -0.8088
vn 0.5875 0.0260 -0.8088
vn 0.9510 0.0279 -0.3080
vn 0.9508 0.0275 -0.3087
vn -0.0002 0.0177 0.9998
vn -0.0007 0.0193 0.9998
vn -0.5877 0.0216 0.8088
vn -0.5875 0.0204 0.8090
vn -0.5873 0.0239 -0.8090
vn -0.5875 0.0236 -0.8088
vn -0.0010 0.0283 -0.9996
vn 0.0003 0.0287 -0.9996
vn 0.9501 0.0421 0.3092
vn 0.9503 0.0328 0.3096
vn 0.5861 0.0304 0.8096
vn 0.5871 0.0352 0.8088
vn -0.5860 0.0809 -0.8062
vn -0.5872 0.0519 -0.8078
vn 0.0007 0.0606 -0.9982
vn 0.0002 0.0921 -0.9957
vn 0.0001 0.0241 0.9997
vn 0.0001 0.0221 0.9998
vn -0.5853 0.0310 0.8102
vn -0.5868 0.0390 0.8088
vn 0.5863 0.0772 -0.8064
vn 0.5875 0.0513 -0.8076
vn 0.9511 0.0485 -0.3051
vn 0.9492 0.0681 -0.3072
vn -0.9498 0.0481 0.3091
vn -0.9502 0.0338 0.3097
vn -0.9509 0.0496 -0.3054
vn -0.9488 0.0741 -0.3071
vn 0.9508 0.0220 0.3090
vn 0.9506 0.0231 0.3095
vn 0.5858 0.0237 0.8101
vn 0.5873 0.0224 0.8091
vn 0.0281 0.4528 -0.8911
vn 0.0804 0.4599 -0.8843
vn 0.4859 0.4979 -0.7184
vn 0.4689 0.4939 -0.7323
vn -0.1413 0.3507 0.9258
vn 0.4302 0.3829 0.8175
vn 0.4669 0.4002 0.7886
vn -0.1677 0.3558 0.9194
vn 0.8292 0.3772 0.4124
vn 0.8967 0.4426 0.0015
vn 0.8912 0.4481 -0.0703
vn 0.8610 0.3800 0.3381
vn -0.7948 0.4052 -0.4519
vn -0.8925 0.4510 0.0063
vn -0.8894 0.4543 0.0517
vn -0.8232 0.4118 -0.3909
vn 0.7941 0.4478 -0.4110
vn 0.7819 0.4531 -0.4282
vn -0.7866 0.4110 0.4607
vn -0.5155 0.3969 0.7594
vn -0.5449 0.4043 0.7346
vn -0.7926 0.4161 0.4458
vn -0.0787 0.3299 0.9407
vn 0.4174 0.3485 0.8392
vn 0.4570 0.3671 0.8102
vn -0.1253 0.3383 0.9326
vn 0.7214 0.4263 -0.5458
vn 0.4438 0.4192 -0.7920
vn 0.4640 0.4238 -0.7779
vn 0.7158 0.4302 -0.5500
vn 0.1002 0.3786 -0.9201
vn -0.4393 0.3910 -0.8088
vn -0.4401 0.4070 -0.8004
vn 0.1459 0.3823 -0.9125
vn -0.8120 0.4023 0.4229
vn -0.5117 0.3952 0.7628
vn -0.5375 0.4020 0.7413
vn -0.8160 0.4057 0.4118
vn 0.7846 0.3709 0.4968
vn 0.8849 0.4650 -0.0272
vn 0.8776 0.4688 -0.1004
vn 0.8293 0.3836 0.4062
vn -0.8299 0.3662 -0.4209
vn -0.9089 0.4170 -0.0024
vn -0.9061 0.4208 0.0447
vn -0.8542 0.3694 -0.3659
vn 0.1009 0.3135 -0.9442
vn 0.1613 0.2793 -0.9466
vn 0.4185 0.3011 -0.8569
vn 0.4129 0.3385 -0.8455
vn -0.1204 0.2542 0.9596
vn 0.4025 0.2880 0.8689
vn 0.4243 0.3157 0.8487
vn -0.1461 0.2780 0.9494
vn 0.8447 0.3081 0.4377
vn 0.4400 0.4009 0.8035
vn -0.4342 0.3293 -0.8384
vn -0.8674 0.2966 -0.3996
vn -0.4376 0.3877 -0.8112
vn 0.9201 0.3660 -0.1393
vn 0.6641 0.2934 -0.6877
vn 0.9113 0.3760 -0.1679
vn -0.9528 0.3011 0.0397
vn -0.8438 0.2718 0.4627
vn -0.9342 0.3527 0.0533
vn -0.8414 0.2712 0.4674
vn -0.5416 0.2782 0.7933
vn -0.5542 0.2855 0.7819
vn 0.6898 0.3391 -0.6397
vn -0.8400 0.2796 -0.4650
vn -0.9539 0.3000 0.0083
vn 0.7973 0.3048 0.5210
vn 0.9215 0.3822 -0.0685
vn 0.4375 0.3008 -0.8474
vn 0.0004 0.9999 -0.0153
vn 0.3850 0.2747 0.8811
vn 0.7860 0.3035 0.5386
vn 0.9238 0.3811 -0.0377
vn -0.4316 0.3183 -0.8441
vn -0.4217 0.3139 -0.8507
vn -0.8104 0.2759 -0.5169
vn -0.9551 0.2960 -0.0157
vn 0.7216 0.3432 -0.6013
vn 0.4095 0.3431 -0.8453
vn -0.5344 0.3445 0.7718
vn -0.8299 0.2682 0.4892
vn -0.5387 0.2749 0.7964
vn -0.1334 0.2504 0.9589
vn 0.0495 0.3129 -0.9485
vn -0.4433 0.3744 -0.8144
vn -0.8158 0.3636 -0.4498
vn -0.9097 0.4148 -0.0212
vn 0.4053 0.3380 0.8494
vn 0.7276 0.3595 0.5843
vn 0.8872 0.4602 0.0322
vn -0.8213 0.4000 0.4068
vn -0.4934 0.3877 0.7786
vn 0.4421 0.4167 -0.7943
vn 0.0812 0.3762 -0.9230
vn 0.7194 0.4221 -0.5517
vn -0.0216 0.3214 0.9467
vn -0.8943 0.4471 -0.0196
vn -0.7707 0.4058 0.4912
vn -0.5090 0.3931 0.7658
vn 0.8978 0.4398 0.0247
vn 0.8108 0.4429 -0.3826
vn 0.4524 0.4895 -0.7455
vn -0.4475 0.4431 -0.7768
vn -0.4573 0.4576 -0.7625
vn -0.4405 0.4355 -0.7851
vn -0.7589 0.4018 -0.5125
vn 0.4083 0.3648 0.8368
vn 0.8076 0.3755 0.4548
vn -0.1390 0.3471 0.9275
vn -0.0377 0.4463 -0.8941
vn -0.9509 0.0468 0.3060
vn -0.9456 0.0742 -0.3167
vn -0.5929 0.0355 0.8045
vn 0.5844 0.0782 -0.8077
vn 0.9459 0.0672 -0.3175
vn -0.0011 0.0933 -0.9956
vn -0.0003 0.0201 0.9998
vn 0.5915 0.0311 0.8057
vn -0.5846 0.0825 -0.8071
vn 0.9511 0.0397 0.3063
usemtl None
s 1
f 165/1/1 86/2/2 3/3/3 56/4/4
f 164/5/5 120/6/6 7/7/7 89/8/8
f 163/9/9 74/10/10 2/11/11 122/12/12
f 162/13/13 109/14/14 6/15/15 73/16/16
f 161/17/17 103/18/18 9/19/19 77/20/20
f 160/21/21 68/22/22 5/23/23 60/24/24
f 159/25/25 110/26/26 1/27/27 112/28/28
f 158/29/29 128/30/30 8/31/31 91/32/32
f 157/33/33 92/34/34 4/35/35 125/36/36
f 156/37/37 129/38/38 10/39/39 99/40/40
f 155/41/41 80/42/42 18/43/43 131/44/44
f 154/45/45 111/46/46 22/47/47 79/48/48
f 153/49/49 63/50/50 25/51/51 94/52/52
f 152/53/53 54/54/54 27/55/55 127/56/56
f 151/57/57 131/44/44 18/43/43 90/58/58
f 150/59/59 116/60/60 23/61/61 76/62/62
f 149/63/63 135/64/64 30/65/65 98/66/66
f 148/67/67 62/68/68 34/69/69 87/70/70
f 147/71/71 70/72/72 37/73/73 107/74/74
f 146/75/75 124/76/76 31/77/77 123/78/78
f 145/79/79 134/80/80 35/81/81 97/82/82
f 144/83/83 121/84/84 39/85/85 59/86/86
f 143/87/87 126/88/88 42/89/89 72/90/90
f 142/91/91 84/92/92 46/93/93 113/94/94
f 46/93/93 118/95/95 133/96/96
f 41/97/97 65/98/98 88/99/99
f 48/100/100 102/101/101 96/102/102
f 50/103/103 101/104/104 78/105/105
f 141/106/106 57/107/107 47/108/108 101/104/104
f 46/93/93 133/96/96 113/94/94
f 140/109/109 72/90/90 42/89/89 102/101/101
f 139/110/110 100/111/111 50/103/103 65/98/98
f 138/112/112 69/113/113 48/100/100 118/95/95
f 42/89/89 126/88/88 115/114/114
f 115/114/114 88/99/99 49/115/115
f 115/114/114 126/88/88 88/99/99
f 126/88/88 41/97/97 88/99/99
f 84/92/92 138/112/112 118/95/95 46/93/93
f 45/116/116 132/117/117 138/112/112 84/92/92
f 132/117/117 52/118/118 69/113/113 138/112/112
f 104/119/119 139/110/110 65/98/98 41/97/97
f 40/120/120 58/121/121 139/110/110 104/119/119
f 58/121/121 51/122/122 100/111/111 139/110/110
f 69/113/113 140/109/109 102/101/101 48/100/100
f 52/118/118 106/123/123 140/109/109 69/113/113
f 106/123/123 43/124/124 72/90/90 140/109/109
f 113/94/94 75/125/125 47/108/108
f 113/94/94 133/96/96 75/125/125
f 133/96/96 49/115/115 75/125/125
f 100/111/111 141/106/106 101/104/104 50/103/103
f 51/122/122 71/126/126 141/106/106 100/111/111
f 71/126/126 44/127/127 57/107/107 141/106/106
f 78/105/105 75/125/125 49/115/115
f 78/105/105 101/104/104 75/125/125
f 101/104/104 47/108/108 75/125/125
f 96/102/102 115/114/114 49/115/115
f 96/102/102 102/101/101 115/114/114
f 102/101/101 42/89/89 115/114/114
f 88/99/99 78/105/105 49/115/115
f 88/99/99 65/98/98 78/105/105
f 65/98/98 50/103/103 78/105/105
f 133/96/96 96/102/102 49/115/115
f 133/96/96 118/95/95 96/102/102
f 118/95/95 48/100/100 96/102/102
f 57/107/107 142/91/91 113/94/94 47/108/108
f 44/127/127 130/128/128 142/91/91 57/107/107
f 130/128/128 45/116/116 84/92/92 142/91/91
f 93/129/129 143/87/87 72/90/90 43/124/124
f 40/120/120 104/119/119 143/87/87 93/129/129
f 104/119/119 41/97/97 126/88/88 143/87/87
f 70/72/72 144/83/83 59/86/86 37/73/73
f 36/130/130 61/131/131 144/83/83 70/72/72
f 61/131/131 38/132/132 121/84/84 144/83/83
f 135/64/64 145/79/79 97/82/82 30/65/65
f 29/133/133 105/134/134 145/79/79 135/64/64
f 105/134/134 32/135/135 134/80/80 145/79/79
f 121/84/84 146/75/75 123/78/78 39/85/85
f 38/132/132 66/136/136 146/75/75 121/84/84
f 66/136/136 28/137/137 124/76/76 146/75/75
f 62/68/68 147/71/71 107/74/74 34/69/69
f 33/138/138 119/139/139 147/71/71 62/68/68
f 119/139/139 36/130/130 70/72/72 147/71/71
f 134/80/80 148/67/67 87/70/70 35/81/81
f 32/135/135 81/140/140 148/67/67 134/80/80
f 81/140/140 33/138/138 62/68/68 148/67/67
f 124/76/76 149/63/63 98/66/66 31/77/77
f 28/137/137 114/141/141 149/63/63 124/76/76
f 114/141/141 29/133/133 135/64/64 149/63/63
f 54/54/54 150/59/59 76/62/62 27/55/55
f 26/142/142 67/143/143 150/59/59 54/54/54
f 67/143/143 20/144/144 116/60/60 150/59/59
f 63/50/50 151/57/57 90/58/58 25/51/51
f 24/145/145 136/146/146 151/57/57 63/50/50
f 136/146/146 19/147/147 131/44/44 151/57/57
f 95/148/148 152/53/53 127/56/56 17/149/149
f 16/150/150 82/151/151 152/53/53 95/148/148
f 82/151/151 26/142/142 54/54/54 152/53/53
f 111/46/46 153/49/49 94/52/52 22/47/47
f 21/152/152 83/153/153 153/49/49 111/46/46
f 83/153/153 24/145/145 63/50/50 153/49/49
f 116/60/60 154/45/45 79/48/48 23/61/61
f 20/144/144 108/154/154 154/45/45 116/60/60
f 108/154/154 21/152/152 111/46/46 154/45/45
f 53/155/155 155/41/41 131/44/44 19/147/147
f 16/150/150 95/148/148 155/41/41 53/155/155
f 95/148/148 17/149/149 80/42/42 155/41/41
f 103/18/18 156/37/37 99/40/40 9/19/19
f 8/31/31 89/8/8 156/37/37 103/18/18
f 89/8/8 7/7/7 129/38/38 156/37/37
f 137/156/156 157/33/33 125/36/36 13/157/157
f 15/158/158 112/28/28 157/33/33 137/156/156
f 112/28/28 1/27/27 92/34/34 157/33/33
f 85/159/159 158/29/29 91/32/32 11/160/160
f 14/161/161 60/162/24 158/29/29 85/159/159
f 60/162/24 5/163/23 128/30/30 158/29/29
f 55/164/162 159/25/25 112/28/28 15/158/158
f 12/165/163 77/20/20 159/25/25 55/164/162
f 77/20/20 9/19/19 110/26/26 159/25/25
f 64/166/164 160/21/21 60/24/24 14/167/161
f 13/157/157 125/36/36 160/21/21 64/166/164
f 125/36/36 4/35/35 68/22/22 160/21/21
f 117/168/165 161/17/17 77/20/20 12/165/163
f 11/160/160 91/32/32 161/17/17 117/168/165
f 91/32/32 8/31/31 103/18/18 161/17/17
f 68/22/22 162/13/13 73/16/16 5/23/23
f 4/35/35 56/4/4 162/13/13 68/22/22
f 56/4/4 3/3/3 109/14/14 162/13/13
f 110/26/26 163/9/9 122/12/12 1/27/27
f 9/19/19 99/40/40 163/9/9 110/26/26
f 99/40/40 10/39/39 74/10/10 163/9/9
f 128/30/30 164/5/5 89/8/8 8/31/31
f 5/163/23 73/169/16 164/5/5 128/30/30
f 73/169/16 6/170/15 120/6/6 164/5/5
f 92/34/34 165/1/1 56/4/4 4/35/35
f 1/27/27 122/12/12 165/1/1 92/34/34
f 122/12/12 2/11/11 86/2/2 165/1/1
