# Blender v2.78 (sub 0) OBJ File: ''
# www.blender.org
mtllib Pine_Tree_OneSided_s_10.mtl
o Pine_Tree_OneSided_s_10
v -0.161625 0.289666 0.239523
v 0.122414 0.272369 0.243744
v 0.160737 0.859296 0.052956
v 0.086741 0.872903 0.052157
v 0.338908 0.327322 0.023250
v 0.191639 0.314056 -0.239983
v 0.185844 0.854008 -0.070419
v 0.216961 0.854111 -0.006059
v -0.104750 0.309808 -0.229265
v 0.103424 0.866883 -0.069512
v -0.287366 0.369387 -0.008897
v 0.055860 0.883827 -0.014880
v 0.173547 0.726702 0.137590
v 0.320159 0.642848 -0.000644
v 0.290105 1.234981 -0.027707
v 0.038375 0.795178 -0.136910
v 0.240508 0.754392 -0.135591
v -0.003935 0.762163 0.136507
v -0.124849 0.720125 -0.012008
v -0.016687 0.208103 0.050826
v 0.022367 0.589658 0.040391
v 0.007554 0.592310 -0.003646
v -0.036725 0.210711 -0.009479
v 0.049465 0.200020 0.024831
v 0.071563 0.581152 0.016438
v 0.050983 0.585181 -0.021409
v 0.020655 0.203913 -0.035484
v -0.047183 0.022766 -0.017206
v 0.017451 0.022141 -0.047770
v 0.050290 0.021867 0.025892
v -0.023998 0.022513 0.051371
v -0.002205 0.587370 -0.152077
v -0.022384 0.100688 0.052566
v 0.190768 0.583785 -0.158997
v 0.282980 0.591571 0.009239
v 0.065503 0.582429 -0.004407
v 0.061364 0.399917 0.020544
v 0.324322 0.935308 -0.013880
v 0.122956 0.866542 0.056501
v 0.027660 0.589060 -0.016213
v 0.044746 0.307409 -0.257131
v 0.015826 0.022195 0.045450
v 0.018353 0.098467 -0.043560
v 0.048574 0.585091 0.032100
v 0.299223 0.722701 -0.072997
v 0.095507 0.780307 0.142626
v -0.245855 0.333790 0.125251
v 0.050482 0.096442 0.026327
v -0.041060 0.784832 -0.079652
v 0.239923 0.977594 0.068089
v -0.119964 0.628741 -0.012434
v 0.191855 0.856055 0.025306
v -0.042224 0.022631 0.019748
v -0.014374 0.411498 -0.006532
v 0.289231 0.324331 -0.119148
v -0.030881 0.209944 0.022430
v 0.063439 0.981160 -0.020154
v 0.262673 0.708528 0.070002
v 0.142296 0.564880 0.151313
v -0.039482 0.580471 0.149263
v -0.017546 0.022448 -0.039307
v 0.039235 0.201430 -0.007083
v 0.278542 0.994293 -0.094207
v 0.145271 0.860076 -0.073396
v 0.040505 0.022012 -0.013605
v 0.003101 0.408742 0.046201
v 0.250718 0.300105 0.146065
v 0.129850 0.998965 0.066958
v 0.205734 0.852849 -0.040067
v -0.009686 0.207547 -0.026564
v 0.156144 1.018327 -0.095457
v -0.044594 0.102094 -0.014048
v 0.036421 0.404148 -0.028346
v 0.010730 0.591721 0.020295
v -0.061715 0.767225 0.063501
v 0.152712 0.812086 -0.143526
v 0.076093 0.876122 -0.044313
v -0.215521 0.343463 -0.129896
v -0.024100 0.273511 0.263230
v 0.018040 0.203827 0.041911
v 0.067658 0.879382 0.020211
v 0.038993 0.097189 -0.010494
v -0.038064 0.101656 0.021137
v 0.015880 0.098449 0.044045
v -0.014952 0.100396 -0.033402
v 0.052567 0.401488 -0.005500
v 0.009595 0.408058 -0.020862
v 0.033662 0.404094 0.036796
v -0.009310 0.410665 0.021434
v -0.069714 0.609792 -0.087105
v 0.221286 0.578080 0.085686
v -0.089099 0.606586 0.072731
v 0.095009 0.583743 -0.165263
v 0.247483 0.588590 -0.079608
v 0.049428 0.570027 0.159866
vt 0.5357 0.3066
vt 0.5410 0.2940
vt 0.5558 0.3086
vt 0.5548 0.3113
vt 0.5774 0.2917
vt 0.5856 0.3000
vt 0.5640 0.3103
vt 0.5626 0.3088
vt 0.5795 0.3152
vt 0.5733 0.3304
vt 0.5621 0.3163
vt 0.5631 0.3133
vt 0.5398 0.3290
vt 0.5304 0.3193
vt 0.5539 0.3140
vt 0.5556 0.3157
vt 0.5550 0.2887
vt 0.5691 0.2835
vt 0.5612 0.3072
vt 0.5585 0.3079
vt 0.5612 0.3346
vt 0.5491 0.3388
vt 0.5574 0.3174
vt 0.5597 0.3169
vt 0.4413 0.2687
vt 0.4653 0.2799
vt 0.4389 0.2921
vt 0.4361 0.3556
vt 0.4363 0.3355
vt 0.4627 0.3440
vt 0.4181 0.2772
vt 0.4150 0.3459
vt 0.4892 0.2911
vt 0.4892 0.3117
vt 0.4629 0.3033
vt 0.9302 0.9425
vt 0.9301 0.9695
vt 0.9232 0.9695
vt 0.9234 0.9425
vt 0.9439 0.9426
vt 0.9439 0.9696
vt 0.9370 0.9695
vt 0.9370 0.9426
vt 0.9165 0.9424
vt 0.9163 0.9696
vt 0.9094 0.9696
vt 0.9096 0.9424
vt 0.9645 0.9426
vt 0.9646 0.9154
vt 0.9785 0.9154
vt 0.9783 0.9427
vt 0.9165 0.9030
vt 0.9168 0.9153
vt 0.9099 0.9152
vt 0.9096 0.9027
vt 0.9441 0.9032
vt 0.9439 0.9155
vt 0.9371 0.9156
vt 0.9372 0.9034
vt 0.9303 0.9033
vt 0.9304 0.9155
vt 0.9236 0.9155
vt 0.9234 0.9032
vt 0.3939 0.3362
vt 0.3944 0.3109
vt 0.4152 0.3258
vt 0.9648 0.9030
vt 0.9507 0.9154
vt 0.9510 0.9030
vt 0.9649 0.8906
vt 0.9512 0.8906
vt 0.9786 0.8905
vt 0.9786 0.9030
vt 0.4157 0.3005
vt 0.4365 0.3154
vt 0.3949 0.2857
vt 0.9302 0.8911
vt 0.9232 0.8910
vt 0.9372 0.8912
vt 0.9442 0.8909
vt 0.9162 0.8906
vt 0.9093 0.8902
vt 0.9645 0.9698
vt 0.9781 0.9699
vt 0.9508 0.9697
vt 0.9507 0.9426
vt 0.4629 0.3239
vt 0.4892 0.3324
vt 0.5846 0.3445
vt 0.5627 0.3523
vt 0.5408 0.3601
vt 0.5262 0.2793
vt 0.5516 0.2695
vt 0.5769 0.2597
vt 0.5239 0.3424
vt 0.5070 0.3246
vt 0.6073 0.2896
vt 0.5960 0.3171
vt 0.5921 0.2747
vt 0.5166 0.3020
vn 0.0175 0.3225 0.9464
vn 0.3673 0.2696 0.8902
vn 0.3889 0.2719 0.8803
vn 0.0283 0.3239 0.9457
vn 0.8590 0.2000 -0.4713
vn 0.4699 0.2733 -0.8394
vn 0.4911 0.2795 -0.8250
vn 0.8646 0.2055 -0.4585
vn -0.0184 0.3131 -0.9495
vn -0.3456 0.3802 -0.8579
vn -0.3300 0.3828 -0.8629
vn -0.0058 0.3151 -0.9490
vn -0.7133 0.4991 0.4920
vn -0.3888 0.4335 0.8130
vn -0.3944 0.4427 0.8053
vn -0.7202 0.5056 0.4750
vn 0.6821 0.2171 0.6983
vn 0.9598 0.2334 0.1559
vn 0.9554 0.2438 0.1665
vn 0.6872 0.2213 0.6920
vn -0.6220 0.4401 -0.6476
vn -0.8269 0.5538 -0.0976
vn -0.8199 0.5597 -0.1205
vn -0.6149 0.4422 -0.6530
vn 0.4289 0.1340 0.8933
vn 0.7136 0.0388 0.6995
vn 0.4181 0.2158 0.8824
vn -0.4237 0.3766 -0.8238
vn -0.3360 0.4315 -0.8372
vn 0.0402 0.1936 -0.9802
vn 0.0303 0.2907 0.9563
vn -0.6953 0.5035 -0.5128
vn 0.9650 -0.0019 0.2623
vn 0.8929 -0.0122 -0.4500
vn 0.9878 0.0711 0.1387
vn -0.9411 0.1065 0.3210
vn -0.9411 0.1101 0.3197
vn -0.9046 0.1134 -0.4110
vn -0.9036 0.1106 -0.4139
vn 0.4001 -0.0076 0.9164
vn 0.4126 -0.0080 0.9109
vn -0.3997 0.0694 0.9140
vn -0.3863 0.0650 0.9201
vn -0.3873 0.0639 -0.9197
vn -0.3843 0.0646 -0.9209
vn 0.3035 0.0061 -0.9528
vn 0.3346 0.0039 -0.9423
vn 0.8891 -0.0555 -0.4543
vn 0.9010 -0.0209 -0.4333
vn 0.3405 0.0328 -0.9397
vn -0.4177 0.0731 -0.9056
vn -0.4061 0.0707 -0.9111
vn 0.3520 0.0607 -0.9340
vn 0.3415 0.0066 0.9398
vn 0.3656 0.0020 0.9308
vn -0.4169 0.0516 0.9075
vn -0.4290 0.0275 0.9029
vn -0.9465 0.0454 0.3194
vn -0.9443 0.0812 0.3189
vn -0.9131 0.0961 -0.3962
vn -0.9171 0.0725 -0.3920
vn -0.8111 0.5848 -0.0080
vn -0.7291 0.5586 0.3955
vn -0.7716 0.6317 -0.0748
vn 0.9088 0.0177 -0.4169
vn 0.9260 -0.0169 0.3770
vn 0.9215 0.0125 0.3881
vn 0.9103 0.0226 -0.4134
vn 0.9213 0.0126 0.3886
vn 0.3488 0.0613 -0.9352
vn -0.3706 0.5240 0.7668
vn 0.3135 0.9492 -0.0280
vn -0.4832 0.4867 0.7277
vn -0.9479 0.0316 0.3171
vn -0.9150 0.0613 -0.3987
vn -0.4386 0.0149 0.8986
vn 0.3326 0.0022 0.9430
vn -0.4204 0.0685 -0.9047
vn 0.8802 -0.0553 -0.4713
vn 0.9365 -0.0502 0.3471
vn 0.9344 -0.0495 0.3527
vn 0.5439 0.1631 -0.8232
vn 0.5321 0.0613 -0.8444
vn -0.3667 0.3802 -0.8491
vn -0.6294 0.4383 -0.6417
vn -0.8339 0.5491 -0.0553
vn 0.3167 0.2731 0.9084
vn 0.6592 0.2153 0.7204
vn 0.9561 0.2241 0.1887
vn -0.6994 0.4913 0.5190
vn -0.3816 0.4261 0.8203
vn 0.4158 0.2729 -0.8675
vn -0.0455 0.3137 -0.9484
vn 0.8500 0.1952 -0.4893
vn -0.0036 0.3236 0.9462
usemtl None
s 1
f 95/1/1 59/2/2 3/3/3 39/4/4
f 94/5/5 34/6/6 7/7/7 69/8/8
f 93/9/9 32/10/10 10/11/11 64/12/12
f 92/13/13 60/14/14 4/15/15 81/16/16
f 91/17/17 35/18/18 8/19/19 52/20/20
f 90/21/21 51/22/22 12/23/23 77/24/24
f 13/25/25 58/26/26 50/27/27
f 16/28/28 71/29/29 76/30/30
f 13/25/25 50/27/27 46/31/31
f 16/28/28 49/32/32 71/29/29
f 14/33/33 45/34/34 38/35/35
f 89/36/36 74/37/37 22/38/38 54/39/39
f 88/40/40 44/41/41 21/42/42 66/43/43
f 87/44/44 40/45/45 26/46/46 73/47/47
f 86/48/48 62/49/49 27/50/50 73/51/47
f 85/52/51 70/53/52 27/54/50 43/55/53
f 84/56/54 80/57/55 20/58/56 33/59/57
f 83/60/58 56/61/59 23/62/60 72/63/61
f 19/64/62 75/65/63 57/66/64
f 82/67/65 62/49/49 24/68/66 48/69/67
f 65/70/68 82/67/65 48/69/67 30/71/69
f 29/72/70 43/73/53 82/67/65 65/70/68
f 43/73/53 27/50/50 62/49/49 82/67/65
f 57/66/64 68/74/71 15/75/72
f 57/66/64 75/65/63 68/74/71
f 75/65/63 18/76/73 68/74/71
f 53/77/74 83/60/58 72/63/61 28/78/75
f 31/79/76 33/59/57 83/60/58 53/77/74
f 33/59/57 20/58/56 56/61/59 83/60/58
f 42/80/77 84/56/54 33/59/57 31/79/76
f 30/71/69 48/69/67 84/56/54 42/80/77
f 48/69/67 24/68/66 80/57/55 84/56/54
f 61/81/78 85/52/51 43/55/53 29/82/70
f 28/78/75 72/63/61 85/52/51 61/81/78
f 72/63/61 23/62/60 70/53/52 85/52/51
f 36/83/79 86/48/48 73/51/47 26/84/46
f 25/85/80 37/86/81 86/48/48 36/83/79
f 37/86/81 24/68/66 62/49/49 86/48/48
f 70/53/52 87/44/44 73/47/47 27/54/50
f 23/62/60 54/39/39 87/44/44 70/53/52
f 54/39/39 22/38/38 40/45/45 87/44/44
f 80/57/55 88/40/40 66/43/43 20/58/56
f 24/68/66 37/86/81 88/40/40 80/57/55
f 37/86/81 25/85/80 44/41/41 88/40/40
f 56/61/59 89/36/36 54/39/39 23/62/60
f 20/58/56 66/43/43 89/36/36 56/61/59
f 66/43/43 21/42/42 74/37/37 89/36/36
f 38/35/35 63/87/82 15/75/72
f 38/35/35 45/34/34 63/87/82
f 45/34/34 17/88/83 63/87/82
f 71/29/29 57/66/64 15/75/72
f 71/29/29 49/32/32 57/66/64
f 49/32/32 19/64/62 57/66/64
f 46/31/31 68/74/71 18/76/73
f 46/31/31 50/27/27 68/74/71
f 50/27/27 15/75/72 68/74/71
f 76/30/30 63/87/82 17/88/83
f 76/30/30 71/29/29 63/87/82
f 71/29/29 15/75/72 63/87/82
f 50/27/27 38/35/35 15/75/72
f 50/27/27 58/26/26 38/35/35
f 58/26/26 14/33/33 38/35/35
f 32/10/10 90/21/21 77/24/24 10/11/11
f 9/89/84 78/90/85 90/21/21 32/10/10
f 78/90/85 11/91/86 51/22/22 90/21/21
f 59/2/2 91/17/17 52/20/20 3/3/3
f 2/92/87 67/93/88 91/17/17 59/2/2
f 67/93/88 5/94/89 35/18/18 91/17/17
f 51/22/22 92/13/13 81/16/16 12/23/23
f 11/91/86 47/95/90 92/13/13 51/22/22
f 47/95/90 1/96/91 60/14/14 92/13/13
f 34/6/6 93/9/9 64/12/12 7/7/7
f 6/97/92 41/98/93 93/9/9 34/6/6
f 41/98/93 9/89/84 32/10/10 93/9/9
f 35/18/18 94/5/5 69/8/8 8/19/19
f 5/94/89 55/99/94 94/5/5 35/18/18
f 55/99/94 6/97/92 34/6/6 94/5/5
f 60/14/14 95/1/1 39/4/4 4/15/15
f 1/96/91 79/100/95 95/1/1 60/14/14
f 79/100/95 2/92/87 59/2/2 95/1/1
