# Blender v2.78 (sub 0) OBJ File: ''
# www.blender.org
mtllib Dead_Tree_crk_s_01.mtl
o Dead_Tree_crk_s_01
v 0.222486 0.018482 0.298291
v 0.239615 0.080065 0.347194
v 0.356157 0.063393 0.449692
v 0.367040 0.005034 0.428155
v 0.732786 0.181594 0.662230
v 0.748193 0.153532 0.654355
v 0.166262 0.039246 0.360125
v 0.322024 0.016856 0.484601
v 1.043624 0.035868 0.927150
v 0.728814 0.156802 0.686970
v -0.059919 0.051572 -0.068854
v -0.085304 0.684787 0.099977
v 0.032177 0.727486 0.140005
v 0.096380 0.054866 0.001986
v -0.041088 0.678702 0.218372
v -0.042122 0.050134 0.101655
v -0.260293 1.307343 0.127940
v -0.178325 1.275483 0.154783
v -0.038837 0.815437 0.195900
v -0.246304 1.315665 0.223411
v -0.291240 2.038126 0.011274
v -0.228936 2.039339 0.021874
v -0.269908 2.037335 0.076106
v -0.268956 2.552201 0.243539
v 0.113324 0.833364 0.272368
v 0.044604 0.767976 0.311091
v 0.051544 0.866438 0.304970
v -0.269484 2.321476 0.155531
v -0.072710 0.988993 0.149763
v 0.051939 0.820303 0.310677
v -0.257929 1.312622 0.177290
v -0.072553 0.675260 0.156858
v 0.910179 0.098522 0.800944
v 0.190796 0.030776 0.325539
v 0.364255 0.035461 0.435713
v 0.035731 0.052500 0.064106
v 0.079548 0.787103 0.212362
v 0.072006 0.362763 0.064292
v -0.148672 0.993771 0.226768
v -0.065961 0.050853 0.017708
v 0.756875 0.149289 0.685148
v 0.758818 0.163546 0.670773
v -0.044046 0.767843 0.215577
v 0.084408 0.851400 0.293048
v -0.214956 1.309780 0.193319
v 0.010682 0.829495 0.252855
v -0.247435 2.068881 0.059270
v -0.220639 1.302777 0.134144
v -0.172339 0.994510 0.124123
v 0.550866 0.083655 0.535097
v -0.279506 2.322224 0.127154
v -0.211839 1.667104 0.078523
v -0.040412 0.336542 0.157906
v 0.080936 0.804990 0.295534
v 0.024569 0.053219 -0.047027
v 0.287173 0.069204 0.392092
v 0.337104 0.042551 0.469764
v 0.228988 0.023322 0.416500
v 0.747781 0.165355 0.689615
v 0.282793 0.005808 0.354154
v -0.283915 2.068001 0.053227
v 0.902249 0.099732 0.814934
v 0.518576 0.090899 0.580418
v -0.251604 2.323177 0.131505
v 0.008564 0.724867 0.269790
v 0.343862 0.007271 0.456971
v -0.260119 2.069507 0.021581
v 0.903104 0.110207 0.804122
v -0.264510 1.676095 0.143212
v -0.069334 0.344510 0.009713
v 0.199399 0.059882 0.349126
v -0.010696 0.814069 0.169041
v 0.226127 0.049920 0.319853
v -0.281961 1.671478 0.061060
v 0.535978 0.127581 0.548840
v -0.029015 0.702510 0.109509
v -0.101001 1.009861 0.174740
v 0.011420 0.666364 0.180823
v 0.047588 0.813945 0.230092
v 0.004891 0.776510 0.264635
v 0.046315 0.751010 0.240279
v -0.131319 1.015329 0.206350
v -0.277390 1.674238 0.103734
v -0.235212 1.671608 0.114238
v -0.245708 1.668830 0.064823
v -0.164584 0.992332 0.176282
v -0.125341 1.001482 0.131334
v -0.063459 0.339021 0.085130
v 0.021557 0.350000 0.117960
v 0.004161 0.354793 0.028821
v 0.534636 0.084549 0.558361
v 0.525681 0.110971 0.566628
v 0.253774 0.010867 0.384869
v 0.256408 0.049001 0.407689
v 0.545103 0.106614 0.539367
v 0.288773 0.038466 0.370188
vt 0.5962 0.6435
vt 0.5957 0.6450
vt 0.5931 0.6449
vt 0.5933 0.6435
vt 0.5847 0.6432
vt 0.5847 0.6443
vt 0.5763 0.6436
vt 0.5762 0.6430
vt 0.5961 0.6465
vt 0.5965 0.6481
vt 0.5931 0.6478
vt 0.5931 0.6464
vt 0.5968 0.6403
vt 0.5968 0.6421
vt 0.5934 0.6421
vt 0.5933 0.6406
vt 0.5760 0.6424
vt 0.5655 0.6427
vt 0.5846 0.6453
vt 0.5844 0.6464
vt 0.5757 0.6449
vt 0.5760 0.6443
vt 0.5846 0.6410
vt 0.5847 0.6423
vt 0.5759 0.6416
vt 0.5657 0.6432
vt 0.5757 0.6407
vt 0.5654 0.6418
vt 0.7091 0.8246
vt 0.7011 0.8246
vt 0.7056 0.8178
vt 0.5436 0.6517
vt 0.5429 0.6651
vt 0.5403 0.6653
vt 0.5404 0.6518
vt 0.5372 0.6519
vt 0.5379 0.6646
vt 0.5355 0.6640
vt 0.5339 0.6520
vt 0.5498 0.6523
vt 0.5481 0.6649
vt 0.5455 0.6648
vt 0.5467 0.6515
vt 0.5423 0.6773
vt 0.5444 0.6775
vt 0.5433 0.6902
vt 0.5417 0.6895
vt 0.5376 0.6685
vt 0.5389 0.6669
vt 0.5388 0.6787
vt 0.5467 0.6776
vt 0.5490 0.6778
vt 0.5473 0.6906
vt 0.5453 0.6904
vt 0.5410 0.7021
vt 0.5424 0.7025
vt 0.5416 0.7148
vt 0.5403 0.7147
vt 0.5379 0.7021
vt 0.5396 0.7017
vt 0.5391 0.7147
vt 0.5378 0.7148
vt 0.5441 0.7027
vt 0.5458 0.7030
vt 0.5443 0.7153
vt 0.5430 0.7150
vt 0.5391 0.7265
vt 0.5365 0.7149
vt 0.5379 0.7266
vt 0.5404 0.7266
vt 0.5373 0.6779
vt 0.5401 0.6888
vt 0.5380 0.6895
vt 0.5579 0.6516
vt 0.5602 0.6520
vt 0.5604 0.6556
vt 0.5582 0.6547
vt 0.5661 0.6519
vt 0.5682 0.6511
vt 0.5678 0.6538
vt 0.5658 0.6549
vt 0.5621 0.6524
vt 0.5640 0.6528
vt 0.5638 0.6560
vt 0.5621 0.6558
vt 0.7061 0.8065
vt 0.6996 0.8088
vt 0.6996 0.7997
vt 0.6931 0.8020
vt 0.6931 0.7930
vt 0.6931 0.8111
vt 0.5600 0.6484
vt 0.5620 0.6489
vt 0.5641 0.6495
vt 0.5663 0.6489
vt 0.5686 0.6484
vt 0.5555 0.6511
vt 0.5560 0.6538
vt 0.5551 0.6485
vt 0.5576 0.6485
vt 0.5357 0.6770
vt 0.5359 0.6901
vt 0.5365 0.6662
vt 0.5418 0.7269
vt 0.5392 0.7384
vt 0.5362 0.7025
vt 0.5507 0.6650
vt 0.5402 0.6770
vt 0.5515 0.6396
vt 0.5480 0.6383
vt 0.5550 0.6410
vt 0.5529 0.6530
vt 0.5364 0.6391
vt 0.5323 0.6399
vt 0.5405 0.6383
vt 0.5443 0.6383
vt 0.6975 0.8178
vt 0.7020 0.8111
vt 0.6931 0.8246
vt 0.5551 0.6429
vt 0.5654 0.6439
vt 0.5845 0.6399
vt 0.5933 0.6390
vt 0.5968 0.6387
vt 0.6002 0.6383
vt 0.6002 0.6402
vt 0.6002 0.6420
vt 0.5983 0.6451
vt 0.5992 0.6467
vt 0.6000 0.6484
vt 0.5992 0.6436
vn 0.6370 0.3511 -0.6863
vn 0.2117 0.9707 -0.1138
vn -0.0115 0.9766 -0.2147
vn 0.4902 0.3697 -0.7893
vn 0.3560 0.4072 -0.8411
vn -0.1187 0.9494 -0.2906
vn 0.0132 0.9778 -0.2090
vn 0.6157 0.5184 -0.5935
vn -0.3708 0.7438 0.5561
vn -0.6529 -0.2793 0.7041
vn -0.4406 -0.3612 0.8218
vn -0.4465 0.7120 0.5420
vn -0.2201 -0.9721 0.0814
vn 0.4285 -0.6734 -0.6024
vn 0.5201 -0.7000 -0.4893
vn 0.0273 -0.9720 0.2332
vn 0.5620 -0.3382 -0.7549
vn 0.4994 -0.4904 -0.7142
vn -0.4969 0.6955 0.5189
vn -0.3826 -0.2074 0.9003
vn -0.4817 -0.1030 0.8703
vn -0.2850 0.7184 0.6346
vn 0.1802 -0.9386 0.2941
vn 0.5742 -0.5026 -0.6463
vn -0.1689 -0.9856 0.0084
vn 0.3344 0.9338 0.1269
vn -0.6411 -0.2765 0.7159
vn -0.0385 -0.4106 -0.9110
vn -0.7483 -0.2962 -0.5936
vn 0.1017 0.5948 -0.7974
vn 0.3227 0.2437 -0.9146
vn 0.2759 0.1979 -0.9406
vn 0.8357 0.0766 -0.5438
vn 0.9733 0.1288 -0.1901
vn 0.6582 -0.1110 0.7446
vn 0.7503 -0.3199 0.5786
vn -0.3752 -0.3921 0.8400
vn -0.3261 -0.1740 0.9292
vn -0.9779 -0.0562 0.2014
vn -0.9455 -0.1800 0.2714
vn -0.7010 0.0109 -0.7131
vn -0.6566 0.1779 -0.7329
vn 0.2797 0.1296 -0.9513
vn -0.6837 -0.1653 -0.7108
vn -0.7260 -0.1954 -0.6593
vn 0.2542 -0.0538 -0.9657
vn 0.3781 0.6142 0.6926
vn 0.7470 0.6609 0.0722
vn 0.7261 0.2734 0.6309
vn -0.9311 -0.2824 0.2308
vn -0.3304 -0.0962 0.9389
vn -0.3004 0.0490 0.9526
vn -0.9712 -0.1431 0.1905
vn 0.2100 -0.1401 -0.9676
vn -0.6770 -0.1346 -0.7236
vn -0.6487 -0.0005 -0.7611
vn 0.1604 0.2545 -0.9537
vn 0.7631 0.1526 0.6281
vn 0.9256 -0.0020 -0.3786
vn 0.8604 0.0373 -0.5082
vn 0.8028 -0.0836 0.5903
vn -0.9736 0.0034 0.2282
vn -0.2588 0.1699 0.9509
vn -0.2447 0.0496 0.9683
vn -0.9582 -0.0499 0.2818
vn 0.9098 0.2426 -0.3367
vn -0.1543 -0.3069 0.9391
vn -0.7692 0.3089 -0.5594
vn 0.6597 0.2286 0.7159
vn 0.9451 0.2435 -0.2179
vn 0.7382 0.2019 0.6437
vn 0.7409 -0.6472 0.1795
vn 0.8970 0.0570 -0.4383
vn 0.9539 0.2932 -0.0635
vn 0.6963 -0.3744 0.6124
vn -0.7503 0.1178 0.6505
vn -0.1129 -0.5506 0.8271
vn 0.0364 -0.4887 0.8717
vn -0.1890 0.0835 0.9784
vn 0.2308 0.8029 -0.5496
vn -0.5350 0.8254 0.1802
vn -0.1841 0.8724 0.4529
vn 0.5725 0.7627 0.3007
vn -0.1676 0.1902 0.9673
vn -0.0084 0.9092 0.4162
vn 0.8897 0.3802 -0.2526
vn -0.9919 -0.0303 0.1233
vn -0.5509 0.2106 -0.8076
vn -0.4153 -0.1612 0.8953
vn 0.6235 -0.1171 0.7730
vn 0.9661 0.1335 -0.2211
vn 0.3571 0.2442 -0.9016
vn -0.5107 0.8569 -0.0702
vn 0.0894 0.9604 -0.2639
vn -0.9841 -0.0382 0.1736
vn 0.7090 -0.3427 0.6164
usemtl None
s 1
f 96/1/1 56/2/2 3/3/3 35/4/4
f 95/5/5 75/6/6 5/7/7 42/8/8
f 94/9/9 58/10/10 8/11/11 57/12/12
f 93/13/13 60/14/14 4/15/15 66/16/16
f 6/17/17 42/8/8 33/18/18
f 92/19/19 63/20/20 10/21/21 59/22/22
f 91/23/23 50/24/24 6/17/17 41/25/25
f 5/7/7 59/22/22 68/26/26
f 10/27/21 41/25/25 62/28/27
f 1/29/28 34/30/29 73/31/30
f 90/32/31 76/33/32 13/34/33 38/35/34
f 89/36/35 78/37/36 15/38/37 53/39/38
f 88/40/39 32/41/40 12/42/41 70/43/42
f 87/44/43 49/45/44 17/46/45 48/47/46
f 19/48/47 72/49/48 77/50/49
f 86/51/50 39/52/51 20/53/52 31/54/53
f 85/55/54 74/56/55 21/57/56 67/58/57
f 84/59/58 52/60/59 22/61/60 47/62/61
f 83/63/62 69/64/63 23/65/64 61/66/65
f 22/61/60 67/58/57 64/67/66
f 23/68/64 47/62/61 28/69/67
f 21/57/56 61/66/65 51/70/68
f 82/71/69 77/50/49 18/72/70 45/73/71
f 81/74/72 37/75/73 25/76/74 54/77/75
f 80/78/76 65/79/77 26/80/78 30/81/79
f 79/82/80 46/83/81 27/84/82 44/85/83
f 25/86/74 44/87/83 54/88/75
f 54/88/75 30/89/79 26/90/78
f 54/88/75 44/87/83 30/89/79
f 44/87/83 27/91/82 30/89/79
f 37/75/73 79/82/80 44/85/83 25/76/74
f 13/92/33 72/93/48 79/82/80 37/75/73
f 72/93/48 19/94/47 46/83/81 79/82/80
f 46/83/81 80/78/76 30/81/79 27/84/82
f 19/94/47 43/95/84 80/78/76 46/83/81
f 43/95/84 15/96/37 65/79/77 80/78/76
f 65/97/77 81/74/72 54/77/75 26/98/78
f 15/99/37 78/100/36 81/74/72 65/97/77
f 78/100/36 13/92/33 37/75/73 81/74/72
f 39/101/51 82/71/69 45/73/71 20/102/52
f 15/38/37 43/103/84 82/71/69 39/101/51
f 43/103/84 19/48/47 77/50/49 82/71/69
f 51/70/68 28/104/67 24/105/85
f 51/70/68 61/66/65 28/104/67
f 61/66/65 23/65/64 28/104/67
f 28/69/67 64/67/66 24/105/85
f 28/69/67 47/62/61 64/67/66
f 47/62/61 22/61/60 64/67/66
f 64/67/66 51/70/68 24/105/85
f 64/67/66 67/58/57 51/70/68
f 67/58/57 21/57/56 51/70/68
f 74/56/55 83/63/62 61/66/65 21/57/56
f 17/46/45 31/54/53 83/63/62 74/56/55
f 31/54/53 20/53/52 69/64/63 83/63/62
f 69/106/63 84/59/58 47/62/61 23/68/64
f 20/102/52 45/73/71 84/59/58 69/106/63
f 45/73/71 18/72/70 52/60/59 84/59/58
f 52/60/59 85/55/54 67/58/57 22/61/60
f 18/72/70 48/47/46 85/55/54 52/60/59
f 48/47/46 17/46/45 74/56/55 85/55/54
f 49/45/44 86/51/50 31/54/53 17/46/45
f 12/42/41 32/41/40 86/51/50 49/45/44
f 32/41/40 15/107/37 39/52/51 86/51/50
f 77/50/49 29/108/86 18/72/70
f 77/50/49 72/49/48 29/108/86
f 72/49/48 13/34/33 29/108/86
f 29/108/86 87/44/43 48/47/46 18/72/70
f 13/34/33 76/33/32 87/44/43 29/108/86
f 76/33/32 12/42/41 49/45/44 87/44/43
f 40/109/87 88/40/39 70/43/42 11/110/88
f 16/111/89 53/112/38 88/40/39 40/109/87
f 53/112/38 15/107/37 32/41/40 88/40/39
f 36/113/90 89/36/35 53/39/38 16/114/89
f 14/115/91 38/35/34 89/36/35 36/113/90
f 38/35/34 13/34/33 78/37/36 89/36/35
f 55/116/92 90/32/31 38/35/34 14/115/91
f 11/110/88 70/43/42 90/32/31 55/116/92
f 70/43/42 12/42/41 76/33/32 90/32/31
f 73/31/30 71/117/93 2/118/94
f 73/31/30 34/30/29 71/117/93
f 34/30/29 7/119/95 71/117/93
f 62/28/27 33/18/18 9/120/96
f 62/28/27 41/25/25 33/18/18
f 41/25/25 6/17/17 33/18/18
f 68/26/26 62/121/27 9/120/96
f 68/26/26 59/22/22 62/121/27
f 59/22/22 10/21/21 62/121/27
f 63/122/20 91/23/23 41/25/25 10/27/21
f 8/123/11 66/16/16 91/23/23 63/122/20
f 66/16/16 4/15/15 50/24/24 91/23/23
f 75/6/6 92/19/19 59/22/22 5/7/7
f 3/3/3 57/12/12 92/19/19 75/6/6
f 57/12/12 8/11/11 63/20/20 92/19/19
f 33/18/18 68/26/26 9/120/96
f 33/18/18 42/8/8 68/26/26
f 42/8/8 5/7/7 68/26/26
f 58/124/10 93/13/13 66/16/16 8/123/11
f 7/125/95 34/126/29 93/13/13 58/124/10
f 34/126/29 1/127/28 60/14/14 93/13/13
f 56/2/2 94/9/9 57/12/12 3/3/3
f 2/128/94 71/129/93 94/9/9 56/2/2
f 71/129/93 7/130/95 58/10/10 94/9/9
f 50/24/24 95/5/5 42/8/8 6/17/17
f 4/15/15 35/4/4 95/5/5 50/24/24
f 35/4/4 3/3/3 75/6/6 95/5/5
f 60/14/14 96/1/1 35/4/4 4/15/15
f 1/127/28 73/131/30 96/1/1 60/14/14
f 73/131/30 2/128/94 56/2/2 96/1/1
