%YAML 1.1
%TAG !u! tag:unity3d.com,2011:
--- !u!114 &11400000
MonoBehaviour:
  m_ObjectHideFlags: 0
  m_PrefabParentObject: {fileID: 0}
  m_PrefabInternal: {fileID: 0}
  m_GameObject: {fileID: 0}
  m_Enabled: 1
  m_EditorHideFlags: 0
  m_Script: {fileID: 11500000, guid: 34a7c8ca992f915438a96c2077353778, type: 3}
  m_Name: AllyGoTo
  m_EditorClassIdentifier: 
  brickName: Assets/BehaviorTree/Commands/AllyGoTo.asset
  xml: "\uFEFF<?xml version=\"1.0\" encoding=\"utf-8\"?>\r\n<BehaviorBricks xmlns:ref=\"urn:padaone\"
    version=\"1.0\">\r\n  <BehaviorTree id=\"0\" />\r\n  <runtimeInfo>\r\n    <BehaviorTree
    id=\"0\" guid=\"ffceea6a87924ae4294177c007f8d4ab\" nextId=\"89\">\r\n      <root>\r\n
    \       <SelectorNode id=\"19\" />\r\n      </root>\r\n      <inputParams />\r\n
    \     <outputParams />\r\n      <localParams />\r\n    </BehaviorTree>\r\n    <SelectorNode
    id=\"19\">\r\n      <children>\r\n        <elem>\r\n          <DecoratorGuard
    id=\"87\" />\r\n        </elem>\r\n        <elem>\r\n          <SequenceNode id=\"55\"
    />\r\n        </elem>\r\n      </children>\r\n      <inputParams />\r\n      <outputParams
    />\r\n      <localParams />\r\n    </SelectorNode>\r\n    <DecoratorGuard id=\"87\">\r\n
    \     <guard>\r\n        <ConditionEvalNode id=\"88\" />\r\n      </guard>\r\n
    \     <child>\r\n        <SequenceNode id=\"52\" />\r\n      </child>\r\n      <inputParams
    />\r\n      <outputParams />\r\n      <localParams />\r\n    </DecoratorGuard>\r\n
    \   <SequenceNode id=\"55\">\r\n      <children>\r\n        <elem>\r\n          <ActionNode
    id=\"56\" />\r\n        </elem>\r\n        <elem>\r\n          <ActionNode id=\"41\"
    />\r\n        </elem>\r\n      </children>\r\n      <inputParams />\r\n      <outputParams
    />\r\n      <localParams />\r\n    </SequenceNode>\r\n    <ConditionEvalNode id=\"88\"
    policy=\"WAIT_UNTIL_FALSE_AND_FAIL\" name=\"Custom/AllySpecific/NotNearWaitPos\">\r\n
    \     <inputParams />\r\n      <outputParams />\r\n      <localParams />\r\n    </ConditionEvalNode>\r\n
    \   <SequenceNode id=\"52\">\r\n      <children>\r\n        <elem>\r\n          <ActionNode
    id=\"44\" />\r\n        </elem>\r\n        <elem>\r\n          <DecoratorGuard
    id=\"78\" />\r\n        </elem>\r\n        <elem>\r\n          <ActionNode id=\"48\"
    />\r\n        </elem>\r\n      </children>\r\n      <inputParams />\r\n      <outputParams
    />\r\n      <localParams />\r\n    </SequenceNode>\r\n    <ActionNode id=\"56\"
    action=\"Custom/Movement/LookAtWaitPos\">\r\n      <inputParams />\r\n      <outputParams
    />\r\n      <localParams />\r\n    </ActionNode>\r\n    <ActionNode id=\"41\"
    action=\"Custom/Other/SwitchTreeWait\">\r\n      <inputParams />\r\n      <outputParams
    />\r\n      <localParams />\r\n    </ActionNode>\r\n    <ActionNode id=\"44\"
    action=\"Custom/Movement/MoveToGoToPos\">\r\n      <inputParams />\r\n      <outputParams
    />\r\n      <localParams />\r\n    </ActionNode>\r\n    <DecoratorGuard id=\"78\">\r\n
    \     <guard>\r\n        <ConditionEvalNode id=\"79\" />\r\n      </guard>\r\n
    \     <child>\r\n        <ActionNode id=\"75\" />\r\n      </child>\r\n      <inputParams
    />\r\n      <outputParams />\r\n      <localParams />\r\n    </DecoratorGuard>\r\n
    \   <ActionNode id=\"48\" action=\"Custom/Movement/LookAtWaitPos\">\r\n      <inputParams
    />\r\n      <outputParams />\r\n      <localParams />\r\n    </ActionNode>\r\n
    \   <ConditionEvalNode id=\"79\" policy=\"WAIT_UNTIL_FALSE_AND_FAIL\" name=\"Custom/AllySpecific/NoPathToDestination\">\r\n
    \     <inputParams />\r\n      <outputParams />\r\n      <localParams />\r\n    </ConditionEvalNode>\r\n
    \   <ActionNode id=\"75\" action=\"Custom/Movement/TeleportToGoToPos\">\r\n      <inputParams
    />\r\n      <outputParams />\r\n      <localParams />\r\n    </ActionNode>\r\n
    \ </runtimeInfo>\r\n  <editorInfo>\r\n    <BehaviorTree id=\"0\" _name=\"AllyGoTo\"
    _removeIfClosed=\"False\">\r\n      <_rootList>\r\n        <elem>\r\n          <SelectorNode
    id=\"19\" />\r\n        </elem>\r\n      </_rootList>\r\n      <_nodes>\r\n        <nodes>\r\n
    \         <SelectorNode id=\"19\" />\r\n          <ActionNode id=\"44\" />\r\n
    \         <SequenceNode id=\"52\" />\r\n          <ActionNode id=\"41\" />\r\n
    \         <SequenceNode id=\"55\" />\r\n          <ActionNode id=\"48\" />\r\n
    \         <ActionNode id=\"56\" />\r\n          <ActionNode id=\"75\" />\r\n          <DecoratorGuard
    id=\"87\" />\r\n          <DecoratorGuard id=\"78\" />\r\n        </nodes>\r\n
    \     </_nodes>\r\n      <_selectedNode>\r\n        <ActionNode id=\"48\" />\r\n
    \     </_selectedNode>\r\n    </BehaviorTree>\r\n    <SelectorNode id=\"19\">\r\n
    \     <_data>\r\n        <data selected=\"False\" position=\"425 24\" name=\"Selector\"
    description=\"Executes all its children until one of them is successful\" cardinality=\"-1\"
    hasParent=\"False\">\r\n          <BehaviorTree id=\"0\" />\r\n          <SelectorNode
    id=\"19\" />\r\n        </data>\r\n      </_data>\r\n    </SelectorNode>\r\n    <DecoratorGuard
    id=\"87\">\r\n      <_data>\r\n        <data selected=\"False\" position=\"319.9776
    138.5307\" name=\"Custom/AllySpecific/NotNearWaitPos\" description=\"Checks if
    the monster is notwithin IndividualFollowRadius of their waitPos\" cardinality=\"1\"
    hasParent=\"True\">\r\n          <BehaviorTree id=\"0\" />\r\n          <DecoratorGuard
    id=\"87\" />\r\n          <SelectorNode id=\"19\" />\r\n        </data>\r\n      </_data>\r\n
    \   </DecoratorGuard>\r\n    <SequenceNode id=\"55\">\r\n      <_data>\r\n        <data
    selected=\"False\" position=\"683.8856 126.6572\" name=\"Sequence\" description=\"Executes
    all its children in sequence until all of them are successful\" cardinality=\"-1\"
    hasParent=\"True\">\r\n          <BehaviorTree id=\"0\" />\r\n          <SequenceNode
    id=\"55\" />\r\n          <SelectorNode id=\"19\" />\r\n        </data>\r\n      </_data>\r\n
    \   </SequenceNode>\r\n    <ConditionEvalNode id=\"88\">\r\n      <_data>\r\n
    \       <data selected=\"False\" position=\"0 0\" name=\"DecoratorGuard\" description=\"Description\"
    cardinality=\"1\" hasParent=\"False\">\r\n          <BehaviorTree id=\"24\" />\r\n
    \         <ConditionEvalNode id=\"88\" />\r\n        </data>\r\n      </_data>\r\n
    \   </ConditionEvalNode>\r\n    <SequenceNode id=\"52\">\r\n      <_data>\r\n
    \       <data selected=\"False\" position=\"315.9811 305.5174\" name=\"Sequence\"
    description=\"Executes all its children in sequence until all of them are successful\"
    cardinality=\"-1\" hasParent=\"True\">\r\n          <BehaviorTree id=\"0\" />\r\n
    \         <SequenceNode id=\"52\" />\r\n          <DecoratorGuard id=\"87\" />\r\n
    \       </data>\r\n      </_data>\r\n    </SequenceNode>\r\n    <ActionNode id=\"56\">\r\n
    \     <_data>\r\n        <data selected=\"False\" position=\"644.8286 268.7429\"
    name=\"Custom/Movement/LookAtWaitPos\" description=\"rotate to look towards the
    monster's wait position\" cardinality=\"0\" hasParent=\"True\">\r\n          <BehaviorTree
    id=\"0\" />\r\n          <ActionNode id=\"56\" />\r\n          <SequenceNode id=\"55\"
    />\r\n        </data>\r\n      </_data>\r\n    </ActionNode>\r\n    <ActionNode
    id=\"41\">\r\n      <_data>\r\n        <data selected=\"False\" position=\"828.9428
    240.8\" name=\"Custom/Other/SwitchTreeWait\" description=\"switches to the wait
    treee\" cardinality=\"0\" hasParent=\"True\">\r\n          <BehaviorTree id=\"0\"
    />\r\n          <ActionNode id=\"41\" />\r\n          <SequenceNode id=\"55\"
    />\r\n        </data>\r\n      </_data>\r\n    </ActionNode>\r\n    <ActionNode
    id=\"44\">\r\n      <_data>\r\n        <data selected=\"False\" position=\"201.3946
    567.6776\" name=\"Custom/Movement/MoveToGoToPos\" description=\"Moves the monster
    to a their myGoToPos\" cardinality=\"0\" hasParent=\"True\">\r\n          <BehaviorTree
    id=\"0\" />\r\n          <ActionNode id=\"44\" />\r\n          <SequenceNode id=\"52\"
    />\r\n        </data>\r\n      </_data>\r\n    </ActionNode>\r\n    <DecoratorGuard
    id=\"78\">\r\n      <_data>\r\n        <data selected=\"False\" position=\"351.6329
    471.3923\" name=\"Custom/AllySpecific/NoPathToDestination\" description=\"Checks
    if the minion does not have a path to its destination\" cardinality=\"1\" hasParent=\"True\">\r\n
    \         <BehaviorTree id=\"0\" />\r\n          <DecoratorGuard id=\"78\" />\r\n
    \         <SequenceNode id=\"52\" />\r\n        </data>\r\n      </_data>\r\n
    \   </DecoratorGuard>\r\n    <ActionNode id=\"48\">\r\n      <_data>\r\n        <data
    selected=\"True\" position=\"522.0848 578.2816\" name=\"Custom/Movement/LookAtWaitPos\"
    description=\"rotate to look towards the monster's wait position\" cardinality=\"0\"
    hasParent=\"True\">\r\n          <BehaviorTree id=\"0\" />\r\n          <ActionNode
    id=\"48\" />\r\n          <SequenceNode id=\"52\" />\r\n        </data>\r\n      </_data>\r\n
    \   </ActionNode>\r\n    <ConditionEvalNode id=\"79\">\r\n      <_data>\r\n        <data
    selected=\"False\" position=\"0 0\" name=\"DecoratorGuard\" description=\"Description\"
    cardinality=\"1\" hasParent=\"False\">\r\n          <ConditionEvalNode id=\"79\"
    />\r\n        </data>\r\n      </_data>\r\n    </ConditionEvalNode>\r\n    <ActionNode
    id=\"75\">\r\n      <_data>\r\n        <data selected=\"False\" position=\"347.8227
    576.4809\" name=\"Custom/Movement/TeleportToGoToPos\" description=\"teleports
    the monster to a their myGoToPos\" cardinality=\"0\" hasParent=\"True\">\r\n          <BehaviorTree
    id=\"0\" />\r\n          <ActionNode id=\"75\" />\r\n          <DecoratorGuard
    id=\"78\" />\r\n        </data>\r\n      </_data>\r\n    </ActionNode>\r\n  </editorInfo>\r\n
    \ <runtimeInfo>\r\n    <BehaviorTree id=\"24\" nextId=\"1\">\r\n      <inputParams
    />\r\n      <outputParams />\r\n      <localParams />\r\n    </BehaviorTree>\r\n
    \ </runtimeInfo>\r\n  <editorInfo>\r\n    <BehaviorTree id=\"24\" _removeIfClosed=\"False\">\r\n
    \     <_rootList />\r\n      <_nodes>\r\n        <nodes />\r\n      </_nodes>\r\n
    \   </BehaviorTree>\r\n  </editorInfo>\r\n</BehaviorBricks>"
  subslist: []
  _guid: ffceea6a87924ae4294177c007f8d4ab
