%YAML 1.1
%TAG !u! tag:unity3d.com,2011:
--- !u!114 &11400000
MonoBehaviour:
  m_ObjectHideFlags: 0
  m_PrefabParentObject: {fileID: 0}
  m_PrefabInternal: {fileID: 0}
  m_GameObject: {fileID: 0}
  m_Enabled: 1
  m_EditorHideFlags: 0
  m_Script: {fileID: 11500000, guid: 34a7c8ca992f915438a96c2077353778, type: 3}
  m_Name: EnemyConfusionAttackTree
  m_EditorClassIdentifier: 
  brickName: Assets/BehaviorTree/SpringQuarter/EnemyConfusionAttackTree.asset
  xml: "\uFEFF<?xml version=\"1.0\" encoding=\"utf-8\"?>\r\n<BehaviorBricks xmlns:ref=\"urn:padaone\"
    version=\"1.0\">\r\n  <BehaviorTree id=\"0\" />\r\n  <runtimeInfo>\r\n    <BehaviorTree
    id=\"0\" guid=\"0808a8dcbe51c094aa03b027d69f0044\" nextId=\"22\">\r\n      <root>\r\n
    \       <SelectorNode id=\"2\" />\r\n      </root>\r\n      <inputParams />\r\n
    \     <outputParams />\r\n      <localParams />\r\n    </BehaviorTree>\r\n    <SelectorNode
    id=\"2\">\r\n      <children>\r\n        <elem>\r\n          <DecoratorGuard id=\"20\"
    />\r\n        </elem>\r\n        <elem>\r\n          <DecoratorGuard id=\"6\"
    />\r\n        </elem>\r\n        <elem>\r\n          <DecoratorGuard id=\"14\"
    />\r\n        </elem>\r\n        <elem>\r\n          <ActionNode id=\"16\" />\r\n
    \       </elem>\r\n      </children>\r\n      <inputParams />\r\n      <outputParams
    />\r\n      <localParams />\r\n    </SelectorNode>\r\n    <DecoratorGuard id=\"20\">\r\n
    \     <guard>\r\n        <ConditionEvalNode id=\"21\" />\r\n      </guard>\r\n
    \     <child>\r\n        <ActionNode id=\"19\" />\r\n      </child>\r\n      <inputParams
    />\r\n      <outputParams />\r\n      <localParams />\r\n    </DecoratorGuard>\r\n
    \   <DecoratorGuard id=\"6\">\r\n      <guard>\r\n        <ConditionEvalNode id=\"7\"
    />\r\n      </guard>\r\n      <child>\r\n        <SequenceNode id=\"5\" />\r\n
    \     </child>\r\n      <inputParams />\r\n      <outputParams />\r\n      <localParams
    />\r\n    </DecoratorGuard>\r\n    <DecoratorGuard id=\"14\">\r\n      <guard>\r\n
    \       <ConditionEvalNode id=\"15\" />\r\n      </guard>\r\n      <child>\r\n
    \       <ActionNode id=\"13\" />\r\n      </child>\r\n      <inputParams />\r\n
    \     <outputParams />\r\n      <localParams />\r\n    </DecoratorGuard>\r\n    <ActionNode
    id=\"16\" action=\"Custom/Other/SwitchTreeSearch\">\r\n      <inputParams />\r\n
    \     <outputParams />\r\n      <localParams />\r\n    </ActionNode>\r\n    <ConditionEvalNode
    id=\"21\" policy=\"WAIT_UNTIL_FALSE_AND_FAIL\" name=\"Custom/DistanceAndLOS/ShouldUseConfusion\">\r\n
    \     <inputParams />\r\n      <outputParams />\r\n      <localParams />\r\n    </ConditionEvalNode>\r\n
    \   <ActionNode id=\"19\" action=\"Custom/Attack/EnemyConfusionAbility\">\r\n
    \     <inputParams />\r\n      <outputParams />\r\n      <localParams />\r\n    </ActionNode>\r\n
    \   <ConditionEvalNode id=\"7\" policy=\"WAIT_UNTIL_FALSE_AND_FAIL\" name=\"Custom/DistanceAndLOS/AllyInAttackRangeAndVisible\">\r\n
    \     <inputParams />\r\n      <outputParams />\r\n      <localParams />\r\n    </ConditionEvalNode>\r\n
    \   <SequenceNode id=\"5\">\r\n      <children>\r\n        <elem>\r\n          <ActionNode
    id=\"8\" />\r\n        </elem>\r\n        <elem>\r\n          <ActionNode id=\"9\"
    />\r\n        </elem>\r\n        <elem>\r\n          <ActionNode id=\"10\" />\r\n
    \       </elem>\r\n      </children>\r\n      <inputParams />\r\n      <outputParams
    />\r\n      <localParams />\r\n    </SequenceNode>\r\n    <ConditionEvalNode id=\"15\"
    policy=\"WAIT_UNTIL_FALSE_AND_FAIL\" name=\"Custom/DistanceAndLOS/AllyVisibleInThreatRange\">\r\n
    \     <inputParams />\r\n      <outputParams />\r\n      <localParams />\r\n    </ConditionEvalNode>\r\n
    \   <ActionNode id=\"13\" action=\"Custom/Movement/MoveToNearestVisibleAlly\">\r\n
    \     <inputParams />\r\n      <outputParams />\r\n      <localParams />\r\n    </ActionNode>\r\n
    \   <ActionNode id=\"8\" action=\"Custom/Movement/DontMove\">\r\n      <inputParams
    />\r\n      <outputParams />\r\n      <localParams />\r\n    </ActionNode>\r\n
    \   <ActionNode id=\"9\" action=\"Custom/Movement/rotateTowardsNearestAlly\">\r\n
    \     <inputParams />\r\n      <outputParams />\r\n      <localParams />\r\n    </ActionNode>\r\n
    \   <ActionNode id=\"10\" action=\"Custom/Attack/EnemyAttack\">\r\n      <inputParams
    />\r\n      <outputParams />\r\n      <localParams />\r\n    </ActionNode>\r\n
    \ </runtimeInfo>\r\n  <editorInfo>\r\n    <BehaviorTree id=\"0\" _name=\"EnemyConfusionAttackTree\"
    _removeIfClosed=\"False\">\r\n      <_rootList>\r\n        <elem>\r\n          <SelectorNode
    id=\"2\" />\r\n        </elem>\r\n      </_rootList>\r\n      <_nodes>\r\n        <nodes>\r\n
    \         <SelectorNode id=\"2\" />\r\n          <ActionNode id=\"8\" />\r\n          <SequenceNode
    id=\"5\" />\r\n          <DecoratorGuard id=\"6\" />\r\n          <ActionNode
    id=\"9\" />\r\n          <ActionNode id=\"10\" />\r\n          <ActionNode id=\"16\"
    />\r\n          <ActionNode id=\"13\" />\r\n          <DecoratorGuard id=\"14\"
    />\r\n          <ActionNode id=\"19\" />\r\n          <DecoratorGuard id=\"20\"
    />\r\n        </nodes>\r\n      </_nodes>\r\n      <_selectedNode>\r\n        <SelectorNode
    id=\"2\" />\r\n      </_selectedNode>\r\n    </BehaviorTree>\r\n    <SelectorNode
    id=\"2\">\r\n      <_data>\r\n        <data selected=\"True\" position=\"356 43\"
    name=\"Selector\" description=\"Executes all its children until one of them is
    successful\" cardinality=\"-1\" hasParent=\"False\">\r\n          <BehaviorTree
    id=\"0\" />\r\n          <SelectorNode id=\"2\" />\r\n        </data>\r\n      </_data>\r\n
    \   </SelectorNode>\r\n    <DecoratorGuard id=\"20\">\r\n      <_data>\r\n        <data
    selected=\"False\" position=\"183 227\" name=\"Custom/DistanceAndLOS/ShouldUseConfusion\"
    description=\"checks if this confusion enemy's ability is ready and if it is in
    range of at least 3 enemies\" cardinality=\"1\" hasParent=\"True\">\r\n          <BehaviorTree
    id=\"0\" />\r\n          <DecoratorGuard id=\"20\" />\r\n          <SelectorNode
    id=\"2\" />\r\n        </data>\r\n      </_data>\r\n    </DecoratorGuard>\r\n
    \   <DecoratorGuard id=\"6\">\r\n      <_data>\r\n        <data selected=\"False\"
    position=\"313 235\" name=\"Custom/DistanceAndLOS/AllyInAttackRangeAndVisible\"
    description=\"checks if an ally is within the minions attackRange and LOS\" cardinality=\"1\"
    hasParent=\"True\">\r\n          <BehaviorTree id=\"0\" />\r\n          <DecoratorGuard
    id=\"6\" />\r\n          <SelectorNode id=\"2\" />\r\n        </data>\r\n      </_data>\r\n
    \   </DecoratorGuard>\r\n    <DecoratorGuard id=\"14\">\r\n      <_data>\r\n        <data
    selected=\"False\" position=\"507 256\" name=\"Custom/DistanceAndLOS/AllyVisibleInThreatRange\"
    description=\"checks if any allies (including twig) are visible and within the
    minions threatRange\" cardinality=\"1\" hasParent=\"True\">\r\n          <BehaviorTree
    id=\"0\" />\r\n          <DecoratorGuard id=\"14\" />\r\n          <SelectorNode
    id=\"2\" />\r\n        </data>\r\n      </_data>\r\n    </DecoratorGuard>\r\n
    \   <ActionNode id=\"16\">\r\n      <_data>\r\n        <data selected=\"False\"
    position=\"661 268\" name=\"Custom/Other/SwitchTreeSearch\" description=\"switches
    to the monster search tree\" cardinality=\"0\" hasParent=\"True\">\r\n          <BehaviorTree
    id=\"0\" />\r\n          <ActionNode id=\"16\" />\r\n          <SelectorNode id=\"2\"
    />\r\n        </data>\r\n      </_data>\r\n    </ActionNode>\r\n    <ConditionEvalNode
    id=\"21\">\r\n      <_data>\r\n        <data selected=\"False\" position=\"0 0\"
    name=\"DecoratorGuard\" description=\"Description\" cardinality=\"1\" hasParent=\"False\">\r\n
    \         <BehaviorTree id=\"21\" />\r\n        </data>\r\n      </_data>\r\n
    \   </ConditionEvalNode>\r\n    <ActionNode id=\"19\">\r\n      <_data>\r\n        <data
    selected=\"False\" position=\"146 395\" name=\"Custom/Attack/EnemyConfusionAbility\"
    description=\"activates the confusion ability on a confuion minion that is an
    enemy\" cardinality=\"0\" hasParent=\"True\">\r\n          <BehaviorTree id=\"0\"
    />\r\n          <ActionNode id=\"19\" />\r\n          <DecoratorGuard id=\"20\"
    />\r\n        </data>\r\n      </_data>\r\n    </ActionNode>\r\n    <ConditionEvalNode
    id=\"7\">\r\n      <_data>\r\n        <data selected=\"False\" position=\"0 0\"
    name=\"DecoratorGuard\" description=\"Description\" cardinality=\"1\" hasParent=\"False\">\r\n
    \         <BehaviorTree id=\"7\" />\r\n        </data>\r\n      </_data>\r\n    </ConditionEvalNode>\r\n
    \   <SequenceNode id=\"5\">\r\n      <_data>\r\n        <data selected=\"False\"
    position=\"274 398\" name=\"Sequence\" description=\"Executes all its children
    in sequence until all of them are successful\" cardinality=\"-1\" hasParent=\"True\">\r\n
    \         <BehaviorTree id=\"0\" />\r\n          <SequenceNode id=\"5\" />\r\n
    \         <DecoratorGuard id=\"6\" />\r\n        </data>\r\n      </_data>\r\n
    \   </SequenceNode>\r\n    <ConditionEvalNode id=\"15\">\r\n      <_data>\r\n
    \       <data selected=\"False\" position=\"0 0\" name=\"DecoratorGuard\" description=\"Description\"
    cardinality=\"1\" hasParent=\"False\">\r\n          <BehaviorTree id=\"15\" />\r\n
    \       </data>\r\n      </_data>\r\n    </ConditionEvalNode>\r\n    <ActionNode
    id=\"13\">\r\n      <_data>\r\n        <data selected=\"False\" position=\"517
    422\" name=\"Custom/Movement/MoveToNearestVisibleAlly\" description=\"Moves the
    monster towards the nearest allied position\" cardinality=\"0\" hasParent=\"True\">\r\n
    \         <BehaviorTree id=\"0\" />\r\n          <ActionNode id=\"13\" />\r\n
    \         <DecoratorGuard id=\"14\" />\r\n        </data>\r\n      </_data>\r\n
    \   </ActionNode>\r\n    <ActionNode id=\"8\">\r\n      <_data>\r\n        <data
    selected=\"False\" position=\"210 600\" name=\"Custom/Movement/DontMove\" description=\"Tells
    the character not to move until DoMove node is reached.\" cardinality=\"0\" hasParent=\"True\">\r\n
    \         <BehaviorTree id=\"0\" />\r\n          <ActionNode id=\"8\" />\r\n          <SequenceNode
    id=\"5\" />\r\n        </data>\r\n      </_data>\r\n    </ActionNode>\r\n    <ActionNode
    id=\"9\">\r\n      <_data>\r\n        <data selected=\"False\" position=\"360
    585\" name=\"Custom/Movement/rotateTowardsNearestAlly\" description=\"Tells the
    character to rotate towards the nearest enemy\" cardinality=\"0\" hasParent=\"True\">\r\n
    \         <BehaviorTree id=\"0\" />\r\n          <ActionNode id=\"9\" />\r\n          <SequenceNode
    id=\"5\" />\r\n        </data>\r\n      </_data>\r\n    </ActionNode>\r\n    <ActionNode
    id=\"10\">\r\n      <_data>\r\n        <data selected=\"False\" position=\"500
    580\" name=\"Custom/Attack/EnemyAttack\" description=\"attack action for enemy
    monsters. attacks nearest ally, assumes it is within attackRange\" cardinality=\"0\"
    hasParent=\"True\">\r\n          <BehaviorTree id=\"0\" />\r\n          <ActionNode
    id=\"10\" />\r\n          <SequenceNode id=\"5\" />\r\n        </data>\r\n      </_data>\r\n
    \   </ActionNode>\r\n  </editorInfo>\r\n  <runtimeInfo>\r\n    <BehaviorTree id=\"21\"
    nextId=\"1\">\r\n      <inputParams />\r\n      <outputParams />\r\n      <localParams
    />\r\n    </BehaviorTree>\r\n    <BehaviorTree id=\"7\" nextId=\"1\">\r\n      <inputParams
    />\r\n      <outputParams />\r\n      <localParams />\r\n    </BehaviorTree>\r\n
    \   <BehaviorTree id=\"15\" nextId=\"1\">\r\n      <inputParams />\r\n      <outputParams
    />\r\n      <localParams />\r\n    </BehaviorTree>\r\n  </runtimeInfo>\r\n  <editorInfo>\r\n
    \   <BehaviorTree id=\"21\" _removeIfClosed=\"False\">\r\n      <_rootList />\r\n
    \     <_nodes>\r\n        <nodes />\r\n      </_nodes>\r\n    </BehaviorTree>\r\n
    \   <BehaviorTree id=\"7\" _removeIfClosed=\"False\">\r\n      <_rootList />\r\n
    \     <_nodes>\r\n        <nodes />\r\n      </_nodes>\r\n    </BehaviorTree>\r\n
    \   <BehaviorTree id=\"15\" _removeIfClosed=\"False\">\r\n      <_rootList />\r\n
    \     <_nodes>\r\n        <nodes />\r\n      </_nodes>\r\n    </BehaviorTree>\r\n
    \ </editorInfo>\r\n</BehaviorBricks>"
  subslist: []
  _guid: 0808a8dcbe51c094aa03b027d69f0044
