# Blender v2.78 (sub 0) OBJ File: ''
# www.blender.org
mtllib Thuja_BushTree_s_05.mtl
o Thuja_BushTree_s_05
v 0.000000 1.642127 0.000000
v -0.099370 1.514137 0.305835
v 0.260160 1.514137 0.189015
v 0.531774 1.198601 0.386352
v 0.620788 1.250356 0.000000
v -0.321576 1.514133 0.000000
v -0.099370 1.514137 -0.305835
v 0.260160 1.514137 -0.189015
v 0.785402 0.871141 0.254734
v -0.203116 1.198601 0.625135
v 0.000434 0.871140 0.825677
v 0.191836 1.250356 0.590402
v -0.657308 1.198599 0.000000
v -0.785132 0.871140 0.255558
v -0.502227 1.250355 0.364889
v -0.203116 1.198601 -0.625135
v -0.485671 0.871140 -0.667731
v -0.502227 1.250355 -0.364888
v 0.531774 1.198601 -0.386352
v 0.484971 0.871140 -0.668240
v 0.191836 1.250356 -0.590401
v 0.484971 0.871140 0.668241
v -0.485671 0.871140 0.667731
v -0.785132 0.871140 -0.255558
v 0.000434 0.871140 -0.825677
v 0.785402 0.871141 -0.254733
v 0.246967 0.420626 0.760096
v 0.136555 -0.049447 0.420277
v 0.607913 0.329711 0.441673
v -0.646577 0.420626 0.469761
v -0.357510 -0.049447 0.259744
v -0.232204 0.329709 0.714642
v -0.646577 0.420627 -0.469761
v -0.357510 -0.049447 -0.259744
v -0.751421 0.329711 0.000000
v 0.246967 0.420626 -0.760096
v 0.136555 -0.049447 -0.420277
v -0.232204 0.329709 -0.714642
v 0.799214 0.420630 0.000000
v 0.441908 -0.049445 -0.000000
v 0.607913 0.329711 -0.441673
v -0.000000 -0.152634 -0.000000
v 0.230250 1.409181 -0.394609
v 0.254913 0.881376 0.784541
v 0.308618 -0.084849 -0.224223
v -0.745603 1.060746 0.117361
v 0.230250 1.409180 0.394609
v -0.168276 -0.145586 0.122259
v 0.824918 0.881377 0.000000
v 0.381222 1.236603 0.499821
v -0.746349 0.636530 0.382906
v 0.593165 1.236603 -0.208105
v -0.168276 -0.145586 -0.122259
v -0.054881 0.093331 -0.592422
v -0.534933 0.174209 0.388648
v -0.157402 1.357850 0.484441
v 0.828879 0.636532 0.128912
v 0.308618 -0.084849 0.224223
v 0.045674 1.409180 0.454582
v 0.446449 1.409180 -0.097036
v -0.127020 0.609340 -0.818120
v 0.022649 0.356899 -0.765286
v 0.661215 0.174213 0.000000
v -0.667371 0.881376 -0.484871
v 0.583640 0.609341 -0.587212
v -0.668672 1.074499 -0.338959
v 0.133532 0.636529 -0.828145
v -0.357555 1.236603 0.517015
v -0.468151 0.356899 -0.605813
v -0.378120 0.609340 0.736532
v -0.594803 0.636529 0.591492
v -0.303822 0.093332 -0.511534
v 0.085476 1.543940 -0.263063
v 0.116890 1.611823 -0.084924
v -0.014621 1.236603 -0.628439
v 0.534223 1.060746 -0.533199
v -0.223776 1.543938 0.162583
v -0.667371 0.881376 0.484871
v -0.157402 1.357851 -0.484440
v 0.064275 -0.145586 0.197820
v -0.144484 1.611820 0.000000
v -0.594803 0.636529 -0.591492
v 0.412092 1.357850 0.299399
v 0.276603 1.543941 0.000000
v -0.529002 1.074499 0.531199
v -0.534933 0.174209 -0.388648
v -0.118784 1.060746 0.745376
v -0.580386 0.093333 0.130875
v 0.133532 0.636529 0.828145
v -0.342020 1.060746 0.672843
v -0.529002 1.074499 -0.531199
v -0.118784 1.060746 -0.745376
v 0.738830 0.609342 0.373613
v 0.392615 0.093333 -0.447023
v 0.204324 0.174209 0.628850
v -0.304146 1.409179 0.340920
v -0.668672 1.074498 0.338960
v 0.734832 0.356902 0.214943
v 0.022649 0.356899 0.765286
v -0.720832 0.356900 0.258027
v -0.044647 1.611822 0.137412
v -0.254045 0.860904 0.781872
v -0.602203 1.236602 0.180289
v -0.054881 0.093331 0.592422
v -0.304146 1.409179 -0.340920
v 0.115743 1.074499 -0.740688
v 0.378740 0.636530 -0.748472
v 0.828879 0.636532 -0.128912
v 0.734832 0.356902 -0.214943
v -0.418222 1.409177 -0.183910
v 0.738830 0.609342 -0.373613
v -0.342020 1.060746 -0.672842
v 0.740205 1.074500 0.118809
v -0.378120 0.609340 -0.736531
v 0.546471 0.093334 -0.235260
v -0.468151 0.356899 0.605813
v -0.254045 0.860905 -0.781872
v -0.223776 1.543938 -0.162582
v 0.378740 0.636529 0.748472
v 0.583640 0.609341 0.587212
v -0.418222 1.409177 0.183910
v 0.740205 1.074500 -0.118809
v -0.357555 1.236603 -0.517015
v 0.204324 0.174209 -0.628850
v -0.303822 0.093332 0.511534
v 0.534223 1.060746 0.533199
v 0.381222 1.236603 -0.499820
v -0.509373 1.357847 0.000000
v -0.381472 -0.084850 -0.000000
v 0.431498 0.356899 -0.632443
v -0.746349 0.636530 -0.382906
v -0.580386 0.093333 -0.130875
v -0.117883 -0.084851 -0.362800
v -0.745603 1.060745 -0.117361
v -0.720832 0.356900 -0.258027
v 0.341732 1.074499 -0.667259
v -0.044647 1.611822 -0.137411
v -0.822110 0.860905 0.000000
v 0.115743 1.074499 0.740689
v 0.446449 1.409181 0.097037
v 0.254913 0.881376 -0.784541
v -0.817330 0.609341 -0.132009
v 0.064275 -0.145586 -0.197820
v 0.593165 1.236603 0.208106
v -0.602203 1.236602 -0.180289
v -0.014621 1.236603 0.628440
v 0.672190 1.060746 0.343304
v 0.431498 0.356899 0.632444
v 0.085476 1.543940 0.263063
v -0.117883 -0.084851 0.362800
v 0.208001 -0.145585 -0.000000
v 0.665102 0.860905 -0.483221
v 0.546471 0.093334 0.235260
v 0.116890 1.611823 0.084925
v 0.412092 1.357850 -0.299399
v -0.127020 0.609340 0.818120
v 0.045674 1.409181 -0.454582
v 0.341732 1.074499 0.667260
v 0.392615 0.093332 0.447023
v 0.665102 0.860905 0.483222
v 0.672190 1.060746 -0.343303
v -0.817330 0.609341 0.132010
vt 0.7170 0.6145
vt 0.7129 0.6119
vt 0.7168 0.6103
vt 0.7143 0.5703
vt 0.7181 0.5736
vt 0.7154 0.5882
vt 0.6553 0.6207
vt 0.6575 0.6168
vt 0.6608 0.6198
vt 0.6540 0.6163
vt 0.6503 0.6184
vt 0.7159 0.5563
vt 0.6991 0.5722
vt 0.6997 0.5569
vt 0.7033 0.5750
vt 0.6684 0.5788
vt 0.6727 0.5655
vt 0.6712 0.5830
vt 0.6532 0.5762
vt 0.6575 0.5627
vt 0.6565 0.5801
vt 0.7293 0.5705
vt 0.7320 0.5559
vt 0.7325 0.5742
vt 0.7117 0.5562
vt 0.6834 0.5829
vt 0.6844 0.5677
vt 0.6892 0.5674
vt 0.6689 0.5650
vt 0.6535 0.5613
vt 0.7276 0.5563
vt 0.7063 0.5302
vt 0.7086 0.5252
vt 0.7103 0.5301
vt 0.6804 0.5428
vt 0.6796 0.5389
vt 0.6835 0.5411
vt 0.6684 0.5414
vt 0.6701 0.5378
vt 0.6715 0.5415
vt 0.6556 0.5330
vt 0.6612 0.5294
vt 0.6594 0.5350
vt 0.7212 0.5320
vt 0.7209 0.5269
vt 0.7246 0.5307
vt 0.6768 0.5191
vt 0.6763 0.5238
vt 0.6718 0.5225
vt 0.7206 0.5218
vt 0.7253 0.5204
vt 0.7243 0.5256
vt 0.7279 0.5293
vt 0.7289 0.5242
vt 0.7318 0.5289
vt 0.6668 0.5259
vt 0.6713 0.5272
vt 0.6693 0.5300
vt 0.6651 0.5314
vt 0.6633 0.5369
vt 0.6675 0.5355
vt 0.6658 0.5391
vt 0.6717 0.5341
vt 0.6738 0.5312
vt 0.6752 0.5345
vt 0.6731 0.5378
vt 0.6745 0.5415
vt 0.6766 0.5382
vt 0.6775 0.5422
vt 0.6788 0.5349
vt 0.6773 0.5317
vt 0.6820 0.5314
vt 0.6827 0.5372
vt 0.6866 0.5394
vt 0.6859 0.5336
vt 0.6908 0.5381
vt 0.6852 0.5278
vt 0.6805 0.5281
vt 0.6810 0.5235
vt 0.7110 0.5201
vt 0.7158 0.5209
vt 0.7126 0.5251
vt 0.7142 0.5301
vt 0.7174 0.5259
vt 0.7177 0.5310
vt 0.7259 0.5421
vt 0.7235 0.5371
vt 0.7269 0.5357
vt 0.7303 0.5417
vt 0.7347 0.5413
vt 0.7313 0.5353
vt 0.7352 0.5349
vt 0.6538 0.5465
vt 0.6547 0.5397
vt 0.6586 0.5417
vt 0.6579 0.5479
vt 0.6619 0.5492
vt 0.6626 0.5430
vt 0.6651 0.5453
vt 0.6695 0.5512
vt 0.6689 0.5463
vt 0.6720 0.5464
vt 0.6732 0.5517
vt 0.6770 0.5523
vt 0.6758 0.5469
vt 0.6787 0.5475
vt 0.6853 0.5525
vt 0.6829 0.5476
vt 0.6860 0.5459
vt 0.6902 0.5522
vt 0.6950 0.5519
vt 0.6908 0.5457
vt 0.6949 0.5444
vt 0.7091 0.5421
vt 0.7077 0.5361
vt 0.7117 0.5361
vt 0.7133 0.5422
vt 0.7175 0.5423
vt 0.7158 0.5362
vt 0.7193 0.5372
vt 0.6449 0.5434
vt 0.6503 0.5382
vt 0.6494 0.5450
vt 0.6449 0.5631
vt 0.6449 0.5828
vt 0.6494 0.5646
vt 0.6490 0.5795
vt 0.6657 0.5502
vt 0.6609 0.5666
vt 0.6599 0.5840
vt 0.6647 0.5676
vt 0.6641 0.5814
vt 0.6811 0.5524
vt 0.6755 0.5697
vt 0.6740 0.5872
vt 0.6797 0.5698
vt 0.6787 0.5850
vt 0.7003 0.5417
vt 0.7033 0.5360
vt 0.7047 0.5419
vt 0.7039 0.5597
vt 0.7074 0.5778
vt 0.7083 0.5599
vt 0.7109 0.5740
vt 0.7217 0.5422
vt 0.7197 0.5596
vt 0.7218 0.5769
vt 0.7239 0.5595
vt 0.7256 0.5737
vt 0.7245 0.6084
vt 0.7269 0.5895
vt 0.7301 0.5932
vt 0.6452 0.6162
vt 0.6451 0.5995
vt 0.6490 0.6140
vt 0.6528 0.6119
vt 0.6489 0.5974
vt 0.6530 0.5940
vt 0.6564 0.5979
vt 0.6563 0.6123
vt 0.6598 0.6128
vt 0.6599 0.5984
vt 0.6641 0.5958
vt 0.6669 0.6000
vt 0.6630 0.6158
vt 0.6663 0.6188
vt 0.6702 0.6030
vt 0.6748 0.6008
vt 0.7232 0.5926
vt 0.7192 0.5915
vt 0.7165 0.6061
vt 0.7205 0.6072
vt 0.7088 0.6093
vt 0.7040 0.5907
vt 0.7081 0.5935
vt 0.7127 0.6077
vt 0.7120 0.5919
vt 0.7207 0.6114
vt 0.7357 0.5779
vt 0.6949 0.5368
vt 0.7357 0.5285
vt 0.6758 0.5284
vt 0.6901 0.5323
vt 0.7328 0.5238
vt 0.7299 0.5191
vt 0.7352 0.5596
vn -0.0000 1.0000 0.0000
vn -0.1058 0.9395 0.3257
vn 0.2770 0.9395 0.2013
vn 0.6324 0.6237 0.4594
vn 0.7143 0.6501 0.2592
vn 0.5534 0.7295 0.4020
vn -0.3425 0.9395 0.0000
vn -0.1058 0.9395 -0.3257
vn 0.2770 0.9395 -0.2013
vn 0.7902 0.4549 0.4107
vn -0.2415 0.6237 0.7434
vn -0.1464 0.4549 0.8784
vn -0.0257 0.6501 0.7594
vn -0.7817 0.6237 -0.0000
vn -0.8807 0.4549 0.1322
vn -0.7302 0.6501 0.2102
vn -0.2415 0.6237 -0.7434
vn -0.3979 0.4549 -0.7967
vn -0.4255 0.6501 -0.6295
vn 0.6324 0.6237 -0.4594
vn 0.6348 0.4549 -0.6246
vn 0.4672 0.6501 -0.5992
vn 0.6348 0.4549 0.6246
vn -0.3979 0.4549 0.7967
vn -0.8807 0.4549 -0.1322
vn -0.1464 0.4549 -0.8784
vn 0.7902 0.4549 -0.4107
vn 0.2917 -0.3300 0.8978
vn 0.2482 -0.5957 0.7639
vn 0.5406 -0.3981 0.7411
vn -0.7637 -0.3300 0.5549
vn -0.6498 -0.5957 0.4721
vn -0.5378 -0.3981 0.7431
vn -0.7637 -0.3300 -0.5549
vn -0.6498 -0.5957 -0.4721
vn -0.8730 -0.3981 -0.2819
vn 0.2917 -0.3300 -0.8978
vn 0.2482 -0.5957 -0.7639
vn -0.0017 -0.3981 -0.9173
vn 0.9440 -0.3300 -0.0000
vn 0.8032 -0.5957 -0.0000
vn 0.8719 -0.3981 -0.2851
vn 0.5660 -0.8244 -0.0000
vn 0.2236 -0.9747 -0.0000
vn 0.3926 -0.8744 -0.2852
vn 0.6852 -0.6640 -0.2993
vn 0.7350 -0.4178 -0.5340
vn 0.4964 -0.6640 -0.5592
vn 0.5406 -0.3981 -0.7411
vn 0.1749 -0.8244 -0.5383
vn 0.0691 -0.9747 -0.2127
vn -0.1500 -0.8744 -0.4615
vn -0.0730 -0.6640 -0.7442
vn -0.2808 -0.4178 -0.8641
vn -0.3784 -0.6640 -0.6449
vn -0.5378 -0.3981 -0.7431
vn -0.4579 -0.8244 -0.3327
vn -0.1809 -0.9747 -0.1314
vn -0.4852 -0.8744 -0.0000
vn -0.7303 -0.6640 -0.1606
vn -0.9085 -0.4178 -0.0000
vn -0.7303 -0.6640 0.1606
vn -0.8730 -0.3981 0.2819
vn -0.4579 -0.8244 0.3327
vn -0.1809 -0.9747 0.1314
vn -0.1500 -0.8744 0.4615
vn -0.3784 -0.6640 0.6449
vn -0.2808 -0.4178 0.8641
vn -0.0730 -0.6640 0.7442
vn -0.0017 -0.3981 0.9173
vn 0.1749 -0.8244 0.5383
vn 0.0691 -0.9747 0.2127
vn 0.3926 -0.8744 0.2852
vn 0.4964 -0.6640 0.5592
vn 0.7350 -0.4178 0.5340
vn 0.6852 -0.6640 0.2993
vn 0.8719 -0.3981 0.2851
vn 0.9286 0.1910 -0.3181
vn 0.9811 -0.0797 -0.1763
vn 0.8780 -0.1216 -0.4629
vn 0.7973 0.1698 -0.5792
vn 0.5895 0.1910 -0.7849
vn 0.7115 -0.1216 -0.6920
vn 0.4708 -0.0798 -0.8786
vn -0.0156 0.1910 -0.9815
vn 0.1355 -0.0797 -0.9876
vn -0.1689 -0.1216 -0.9781
vn -0.3045 0.1698 -0.9372
vn -0.5643 0.1910 -0.8032
vn -0.4383 -0.1216 -0.8906
vn -0.6901 -0.0797 -0.7193
vn -0.9382 0.1910 -0.2885
vn -0.8973 -0.0797 -0.4341
vn -0.9824 -0.1216 -0.1416
vn -0.9855 0.1698 -0.0000
vn -0.9382 0.1910 0.2885
vn -0.9824 -0.1216 0.1416
vn -0.8973 -0.0797 0.4341
vn -0.5643 0.1910 0.8032
vn -0.6901 -0.0797 0.7193
vn -0.4383 -0.1216 0.8906
vn -0.3045 0.1698 0.9372
vn -0.0156 0.1910 0.9815
vn -0.1689 -0.1216 0.9781
vn 0.1355 -0.0797 0.9876
vn 0.5895 0.1910 0.7849
vn 0.4708 -0.0798 0.8786
vn 0.7115 -0.1216 0.6920
vn 0.7973 0.1698 0.5792
vn 0.9286 0.1910 0.3181
vn 0.8780 -0.1216 0.4629
vn 0.9811 -0.0797 0.1763
vn 0.3020 0.2121 -0.9294
vn 0.4057 0.4769 -0.7798
vn 0.2326 0.6583 -0.7159
vn 0.1302 0.4769 -0.8693
vn -0.0257 0.6501 -0.7594
vn -0.7906 0.2121 -0.5744
vn -0.6162 0.4769 -0.6268
vn -0.6090 0.6583 -0.4425
vn -0.7865 0.4769 -0.3924
vn -0.7302 0.6501 -0.2102
vn -0.7906 0.2121 0.5744
vn -0.7865 0.4769 0.3924
vn -0.6090 0.6583 0.4425
vn -0.6162 0.4769 0.6268
vn -0.4255 0.6501 0.6295
vn 0.3020 0.2121 0.9294
vn 0.1302 0.4769 0.8693
vn 0.2326 0.6583 0.7159
vn 0.4057 0.4769 0.7798
vn 0.4672 0.6501 0.5992
vn 0.9772 0.2121 -0.0000
vn 0.8670 0.4769 0.1448
vn 0.7528 0.6583 0.0000
vn 0.8670 0.4769 -0.1448
vn 0.7143 0.6501 -0.2592
vn 0.4517 0.8296 -0.3282
vn 0.5534 0.7295 -0.4020
vn 0.3357 0.7607 -0.5556
vn 0.1583 0.8587 -0.4873
vn -0.1725 0.8296 -0.5310
vn 0.0550 0.7607 -0.6468
vn -0.2114 0.7295 -0.6505
vn -0.4246 0.7607 -0.4910
vn -0.4145 0.8587 -0.3012
vn -0.5584 0.8296 -0.0000
vn -0.5982 0.7607 -0.2521
vn -0.6840 0.7295 -0.0000
vn -0.5982 0.7607 0.2521
vn -0.4145 0.8587 0.3012
vn -0.1725 0.8296 0.5310
vn -0.4246 0.7607 0.4910
vn -0.2114 0.7295 0.6505
vn 0.6321 0.7607 -0.1476
vn 0.6321 0.7607 0.1476
vn 0.4517 0.8296 0.3282
vn 0.5124 0.8587 0.0000
vn 0.0550 0.7607 0.6468
vn 0.1583 0.8587 0.4873
vn 0.3357 0.7607 0.5556
vn 0.0000 -1.0000 -0.0000
usemtl None
s 1
f 1/1/1 101/2/2 154/3/3
f 4/4/4 144/5/5 83/6/6
f 1/7/1 81/8/7 101/9/2
f 1/7/1 137/10/8 81/8/7
f 1/7/1 74/11/9 137/10/8
f 4/4/4 147/12/10 144/5/5
f 10/13/11 87/14/12 146/15/13
f 13/16/14 46/17/15 103/18/16
f 16/19/17 112/20/18 123/21/19
f 19/22/20 76/23/21 127/24/22
f 4/4/4 126/25/23 147/12/10
f 10/26/11 90/27/24 87/28/12
f 13/16/14 134/29/25 46/17/15
f 16/19/17 92/30/26 112/20/18
f 19/22/20 161/31/27 76/23/21
f 27/32/28 95/33/29 148/34/30
f 30/35/31 55/36/32 116/37/33
f 33/38/34 86/39/35 135/40/36
f 36/41/37 124/42/38 62/43/39
f 39/44/40 63/45/41 109/46/42
f 40/47/43 151/48/44 45/49/45
f 40/50/43 45/51/45 115/52/46
f 41/53/47 94/54/48 130/55/49
f 37/56/50 143/57/51 133/58/52
f 37/56/50 133/58/52 54/59/53
f 38/60/54 72/61/55 69/62/56
f 34/63/57 53/64/58 129/65/59
f 34/63/57 129/65/59 132/66/60
f 35/67/61 88/68/62 100/69/63
f 31/70/64 48/71/65 150/72/66
f 31/70/64 150/72/66 125/73/67
f 32/74/68 104/75/69 99/76/70
f 28/77/71 80/78/72 58/79/73
f 28/80/71 58/81/73 159/82/74
f 29/83/75 153/84/76 98/85/77
f 26/86/78 108/87/79 111/88/80
f 26/86/78 111/88/80 152/89/81
f 20/90/82 65/91/83 107/92/84
f 25/93/85 67/94/86 61/95/87
f 25/93/85 61/95/87 117/96/88
f 17/97/89 114/98/90 82/99/91
f 24/100/92 131/101/93 142/102/94
f 24/100/92 142/102/94 138/103/95
f 14/104/96 162/105/97 51/106/98
f 23/107/99 71/108/100 70/109/101
f 23/107/99 70/109/101 102/110/102
f 11/111/103 156/112/104 89/113/105
f 22/114/106 119/115/107 120/116/108
f 22/114/106 120/116/108 160/117/109
f 9/118/110 93/119/111 57/120/112
f 20/121/82 107/122/84 141/123/113
f 20/121/82 141/123/113 136/124/114
f 21/125/115 106/126/116 75/127/117
f 17/97/89 82/99/91 64/128/118
f 17/97/89 64/128/118 91/129/119
f 18/130/120 66/131/121 145/132/122
f 14/104/96 51/106/98 78/133/123
f 14/104/96 78/133/123 97/134/124
f 15/135/125 85/136/126 68/137/127
f 11/138/103 89/139/105 44/140/128
f 11/138/103 44/140/128 139/141/129
f 12/142/130 158/143/131 50/144/132
f 9/118/110 57/120/112 49/145/133
f 9/118/110 49/145/133 113/146/134
f 5/147/135 122/148/136 52/149/137
f 8/150/138 155/151/139 43/152/140
f 8/153/138 43/154/140 73/155/141
f 7/156/142 157/157/143 79/158/144
f 7/156/142 79/158/144 105/159/145
f 7/156/142 105/159/145 118/160/146
f 6/161/147 110/162/148 128/163/149
f 6/161/147 128/163/149 121/164/150
f 6/161/147 121/164/150 77/165/151
f 2/166/152 96/167/153 56/168/154
f 5/147/135 52/149/137 60/169/155
f 5/147/135 60/169/155 140/170/156
f 3/171/157 84/172/158 154/3/3
f 2/173/152 56/174/154 59/175/159
f 2/173/152 59/175/159 149/176/160
f 3/171/157 47/177/161 83/6/6
f 83/6/6 50/144/132 4/4/4
f 83/6/6 47/177/161 50/144/132
f 47/177/161 12/142/130 50/144/132
f 149/176/160 47/177/161 3/171/157
f 149/176/160 59/175/159 47/177/161
f 59/175/159 12/142/130 47/177/161
f 59/175/159 146/15/13 12/142/130
f 59/175/159 56/174/154 146/15/13
f 56/174/154 10/13/11 146/15/13
f 154/3/3 74/178/9 1/1/1
f 154/3/3 84/172/158 74/178/9
f 84/172/158 8/150/138 74/178/9
f 140/170/156 84/172/158 3/171/157
f 140/170/156 60/169/155 84/172/158
f 60/169/155 8/150/138 84/172/158
f 60/169/155 155/151/139 8/150/138
f 60/169/155 52/149/137 155/151/139
f 52/149/137 19/22/20 155/151/139
f 56/168/154 68/137/127 10/26/11
f 56/168/154 96/167/153 68/137/127
f 96/167/153 15/135/125 68/137/127
f 77/165/151 96/167/153 2/166/152
f 77/165/151 121/164/150 96/167/153
f 121/164/150 15/135/125 96/167/153
f 121/164/150 103/18/16 15/135/125
f 121/164/150 128/163/149 103/18/16
f 128/163/149 13/16/14 103/18/16
f 128/163/149 145/132/122 13/16/14
f 128/163/149 110/162/148 145/132/122
f 110/162/148 18/130/120 145/132/122
f 118/160/146 110/162/148 6/161/147
f 118/160/146 105/159/145 110/162/148
f 105/159/145 18/130/120 110/162/148
f 105/159/145 123/21/19 18/130/120
f 105/159/145 79/158/144 123/21/19
f 79/158/144 16/19/17 123/21/19
f 79/158/144 75/127/117 16/19/17
f 79/158/144 157/157/143 75/127/117
f 157/157/143 21/125/115 75/127/117
f 73/155/141 157/157/143 7/156/142
f 73/155/141 43/154/140 157/157/143
f 43/154/140 21/125/115 157/157/143
f 43/152/140 127/24/22 21/179/115
f 43/152/140 155/151/139 127/24/22
f 155/151/139 19/22/20 127/24/22
f 52/149/137 161/31/27 19/22/20
f 52/149/137 122/148/136 161/31/27
f 122/148/136 26/86/78 161/31/27
f 113/146/134 122/148/136 5/147/135
f 113/146/134 49/145/133 122/148/136
f 49/145/133 26/86/78 122/148/136
f 49/145/133 108/87/79 26/86/78
f 49/145/133 57/120/112 108/87/79
f 57/120/112 39/44/40 108/87/79
f 50/144/132 126/25/23 4/4/4
f 50/144/132 158/143/131 126/25/23
f 158/143/131 22/114/106 126/25/23
f 139/141/129 158/143/131 12/142/130
f 139/141/129 44/140/128 158/143/131
f 44/140/128 22/114/106 158/143/131
f 44/140/128 119/115/107 22/114/106
f 44/140/128 89/139/105 119/115/107
f 89/139/105 27/32/28 119/115/107
f 68/137/127 90/27/24 10/26/11
f 68/137/127 85/136/126 90/27/24
f 85/136/126 23/107/99 90/27/24
f 97/134/124 85/136/126 15/135/125
f 97/134/124 78/133/123 85/136/126
f 78/133/123 23/107/99 85/136/126
f 78/133/123 71/108/100 23/107/99
f 78/133/123 51/106/98 71/108/100
f 51/106/98 30/35/31 71/108/100
f 145/132/122 134/29/25 13/16/14
f 145/132/122 66/131/121 134/29/25
f 66/131/121 24/100/92 134/29/25
f 91/129/119 66/131/121 18/130/120
f 91/129/119 64/128/118 66/131/121
f 64/128/118 24/100/92 66/131/121
f 64/128/118 131/101/93 24/100/92
f 64/128/118 82/99/91 131/101/93
f 82/99/91 33/38/34 131/101/93
f 75/127/117 92/30/26 16/19/17
f 75/127/117 106/126/116 92/30/26
f 106/126/116 25/93/85 92/30/26
f 136/124/114 106/126/116 21/125/115
f 136/124/114 141/123/113 106/126/116
f 141/123/113 25/93/85 106/126/116
f 141/123/113 67/94/86 25/93/85
f 141/123/113 107/122/84 67/94/86
f 107/122/84 36/41/37 67/94/86
f 57/120/112 98/85/77 39/44/40
f 57/120/112 93/119/111 98/85/77
f 93/119/111 29/83/75 98/85/77
f 160/117/109 93/119/111 9/118/110
f 160/117/109 120/116/108 93/119/111
f 120/116/108 29/83/75 93/119/111
f 120/116/108 148/34/30 29/83/75
f 120/116/108 119/115/107 148/34/30
f 119/115/107 27/32/28 148/34/30
f 89/113/105 99/76/70 27/180/28
f 89/113/105 156/112/104 99/76/70
f 156/112/104 32/74/68 99/76/70
f 102/110/102 156/112/104 11/111/103
f 102/110/102 70/109/101 156/112/104
f 70/109/101 32/74/68 156/112/104
f 70/109/101 116/37/33 32/74/68
f 70/109/101 71/108/100 116/37/33
f 71/108/100 30/35/31 116/37/33
f 51/106/98 100/69/63 30/35/31
f 51/106/98 162/105/97 100/69/63
f 162/105/97 35/67/61 100/69/63
f 138/103/95 162/105/97 14/104/96
f 138/103/95 142/102/94 162/105/97
f 142/102/94 35/67/61 162/105/97
f 142/102/94 135/40/36 35/67/61
f 142/102/94 131/101/93 135/40/36
f 131/101/93 33/38/34 135/40/36
f 82/99/91 69/62/56 33/38/34
f 82/99/91 114/98/90 69/62/56
f 114/98/90 38/60/54 69/62/56
f 117/96/88 114/98/90 17/97/89
f 117/96/88 61/95/87 114/98/90
f 61/95/87 38/60/54 114/98/90
f 61/95/87 62/43/39 38/60/54
f 61/95/87 67/94/86 62/43/39
f 67/94/86 36/41/37 62/43/39
f 107/92/84 130/55/49 36/181/37
f 107/92/84 65/91/83 130/55/49
f 65/91/83 41/53/47 130/55/49
f 152/89/81 65/91/83 20/90/82
f 152/89/81 111/88/80 65/91/83
f 111/88/80 41/53/47 65/91/83
f 111/88/80 109/46/42 41/53/47
f 111/88/80 108/87/79 109/46/42
f 108/87/79 39/44/40 109/46/42
f 98/85/77 63/45/41 39/44/40
f 98/85/77 153/84/76 63/45/41
f 153/84/76 40/50/43 63/45/41
f 159/82/74 153/84/76 29/83/75
f 159/82/74 58/81/73 153/84/76
f 58/81/73 40/50/43 153/84/76
f 58/79/73 151/48/44 40/47/43
f 58/79/73 80/78/72 151/48/44
f 80/78/72 42/182/162 151/48/44
f 99/76/70 95/183/29 27/180/28
f 99/76/70 104/75/69 95/183/29
f 104/75/69 28/77/71 95/183/29
f 125/73/67 104/75/69 32/74/68
f 125/73/67 150/72/66 104/75/69
f 150/72/66 28/77/71 104/75/69
f 150/72/66 80/78/72 28/77/71
f 150/72/66 48/71/65 80/78/72
f 48/71/65 42/182/162 80/78/72
f 100/69/63 55/36/32 30/35/31
f 100/69/63 88/68/62 55/36/32
f 88/68/62 31/70/64 55/36/32
f 132/66/60 88/68/62 35/67/61
f 132/66/60 129/65/59 88/68/62
f 129/65/59 31/70/64 88/68/62
f 129/65/59 48/71/65 31/70/64
f 129/65/59 53/64/58 48/71/65
f 53/64/58 42/182/162 48/71/65
f 69/62/56 86/39/35 33/38/34
f 69/62/56 72/61/55 86/39/35
f 72/61/55 34/63/57 86/39/35
f 54/59/53 72/61/55 38/60/54
f 54/59/53 133/58/52 72/61/55
f 133/58/52 34/63/57 72/61/55
f 133/58/52 53/64/58 34/63/57
f 133/58/52 143/57/51 53/64/58
f 143/57/51 42/182/162 53/64/58
f 130/55/49 124/184/38 36/181/37
f 130/55/49 94/54/48 124/184/38
f 94/54/48 37/185/50 124/184/38
f 115/52/46 94/54/48 41/53/47
f 115/52/46 45/51/45 94/54/48
f 45/51/45 37/185/50 94/54/48
f 45/49/45 143/57/51 37/56/50
f 45/49/45 151/48/44 143/57/51
f 151/48/44 42/182/162 143/57/51
f 109/46/42 115/52/46 41/53/47
f 109/46/42 63/45/41 115/52/46
f 63/45/41 40/50/43 115/52/46
f 62/43/39 54/59/53 38/60/54
f 62/43/39 124/42/38 54/59/53
f 124/42/38 37/56/50 54/59/53
f 135/40/36 132/66/60 35/67/61
f 135/40/36 86/39/35 132/66/60
f 86/39/35 34/63/57 132/66/60
f 116/37/33 125/73/67 32/74/68
f 116/37/33 55/36/32 125/73/67
f 55/36/32 31/70/64 125/73/67
f 148/34/30 159/82/74 29/83/75
f 148/34/30 95/33/29 159/82/74
f 95/33/29 28/80/71 159/82/74
f 76/23/21 152/89/81 20/90/82
f 76/23/21 161/31/27 152/89/81
f 161/31/27 26/86/78 152/89/81
f 112/20/18 117/96/88 17/97/89
f 112/20/18 92/30/26 117/96/88
f 92/30/26 25/93/85 117/96/88
f 46/17/15 138/103/95 14/104/96
f 46/17/15 134/29/25 138/103/95
f 134/29/25 24/100/92 138/103/95
f 87/28/12 102/110/102 11/111/103
f 87/28/12 90/27/24 102/110/102
f 90/27/24 23/107/99 102/110/102
f 147/12/10 160/117/109 9/118/110
f 147/12/10 126/25/23 160/117/109
f 126/25/23 22/114/106 160/117/109
f 127/24/22 136/186/114 21/179/115
f 127/24/22 76/23/21 136/186/114
f 76/23/21 20/90/82 136/186/114
f 123/21/19 91/129/119 18/130/120
f 123/21/19 112/20/18 91/129/119
f 112/20/18 17/97/89 91/129/119
f 103/18/16 97/134/124 15/135/125
f 103/18/16 46/17/15 97/134/124
f 46/17/15 14/104/96 97/134/124
f 146/15/13 139/141/129 12/142/130
f 146/15/13 87/14/12 139/141/129
f 87/14/12 11/138/103 139/141/129
f 144/5/5 113/146/134 5/147/135
f 144/5/5 147/12/10 113/146/134
f 147/12/10 9/118/110 113/146/134
f 137/10/8 73/155/141 7/156/142
f 137/10/8 74/11/9 73/155/141
f 74/11/9 8/153/138 73/155/141
f 81/8/7 118/160/146 6/161/147
f 81/8/7 137/10/8 118/160/146
f 137/10/8 7/156/142 118/160/146
f 101/9/2 77/165/151 2/166/152
f 101/9/2 81/8/7 77/165/151
f 81/8/7 6/161/147 77/165/151
f 83/6/6 140/170/156 3/171/157
f 83/6/6 144/5/5 140/170/156
f 144/5/5 5/147/135 140/170/156
f 154/3/3 149/176/160 3/171/157
f 154/3/3 101/2/2 149/176/160
f 101/2/2 2/173/152 149/176/160
