# Blender v2.78 (sub 0) OBJ File: ''
# www.blender.org
mtllib Thuja_BushTree_s_04.mtl
o Thuja_BushTree_s_04
v 0.334140 0.839580 0.630971
v 0.525207 1.326372 0.401331
v 0.124393 1.713309 0.389258
v -0.195870 1.287456 0.637108
v -0.303778 1.641468 0.364231
v -0.628021 0.999749 0.395205
v -0.241503 0.367091 0.564979
v 0.165144 0.251516 0.501775
v -0.553855 1.485221 0.064364
v -0.178967 1.931306 -0.019881
v -0.496190 1.197321 -0.412793
v -0.698759 0.744707 -0.147012
v -0.236568 0.098435 -0.406510
v -0.471172 0.126882 0.043501
v -0.279150 0.876618 -0.687905
v 0.029473 1.357404 -0.617302
v 0.171295 1.949490 -0.201425
v 0.584791 1.074363 -0.385713
v 0.137733 0.334442 -0.633420
v 0.371358 1.809871 0.033279
v 0.638518 1.374015 0.020459
v 0.588425 0.415376 0.169576
v 0.362223 0.097935 -0.168772
v 0.030730 -0.016184 0.148851
v 0.128889 2.038149 0.067876
v -0.093001 1.811226 -0.321156
v -0.021550 2.005134 0.183005
v 0.216262 0.001814 -0.017797
v 0.109653 0.843699 -0.666499
v -0.141789 1.872314 -0.194560
v 0.265896 0.186074 -0.420475
v 0.296505 1.889025 -0.103533
v -0.619698 1.270856 0.230933
v 0.042299 0.600425 0.648880
v -0.028895 1.497074 0.544689
v 0.026597 1.908408 -0.271123
v 0.593763 1.349224 0.207445
v 0.232996 1.963549 0.056919
v 0.321509 1.223827 -0.541602
v 0.109054 0.113506 0.357325
v -0.371255 0.057341 -0.180191
v -0.605339 0.403391 -0.066940
v 0.642473 1.239046 -0.162033
v 0.448277 1.618650 0.235892
v -0.271401 1.482449 0.517913
v 0.029273 1.900211 0.275733
v -0.366766 1.615312 -0.209238
v 0.146077 2.035305 -0.050123
v -0.254607 1.322716 -0.554605
v -0.489103 1.359712 0.411889
v -0.094117 -0.042367 -0.131241
v -0.092031 0.594297 -0.685256
v -0.665173 1.139678 -0.041513
v 0.049506 2.030791 0.132207
v 0.502173 1.535630 -0.190427
v -0.383923 0.997998 -0.586638
v -0.228639 0.843265 0.638676
v 0.515640 0.494168 -0.288565
v 0.594646 0.889914 0.319229
v 0.498181 0.226160 -0.015890
v 0.001047 2.037389 0.018340
v 0.383906 1.580111 -0.323215
v -0.427388 1.149661 0.555616
v -0.052907 1.637190 -0.462227
v 0.083881 0.003766 -0.288777
v 0.643668 0.702711 -0.129405
v -0.157526 1.087980 -0.679825
v 0.263082 1.800616 0.223795
v -0.698698 0.865363 0.117292
v -0.554090 1.370833 -0.168852
v 0.348050 1.519328 0.417061
v -0.240959 0.001484 0.085353
v -0.012171 0.276307 0.550905
v 0.061483 1.078267 0.656031
v -0.258357 1.817974 0.176691
v 0.144670 1.679447 -0.424072
v -0.381848 0.216139 0.314718
v 0.496795 0.605456 0.442024
v -0.389669 1.704997 0.019323
v -0.434414 0.628825 -0.451798
v 0.331905 0.113219 0.169510
v 0.535566 1.585807 0.015006
v 0.244720 1.303913 0.552366
v 0.140878 1.927163 0.207321
v 0.655012 0.946743 0.070591
v -0.276113 1.564556 -0.374705
v -0.445748 1.582663 0.229941
v -0.138327 1.858354 0.265203
v 0.004392 2.009284 -0.106700
v -0.621546 0.926640 -0.288426
v -0.588065 0.521995 0.228296
v 0.368524 0.281381 0.366021
v -0.466653 0.663531 0.499045
v -0.029726 0.155823 -0.546309
v 0.462994 1.079287 0.519529
v 0.259271 0.477335 0.573062
v -0.102073 1.704630 0.403622
v -0.135800 0.108352 0.368457
v -0.092518 1.995129 0.107633
v -0.512118 0.401212 -0.296650
v 0.377096 0.654012 -0.540859
v -0.270681 0.502388 -0.590467
vt 0.8024 0.5354
vt 0.8032 0.5426
vt 0.7965 0.5635
vt 0.7912 0.5481
vt 0.7875 0.5631
vt 0.7879 0.5425
vt 0.7906 0.5916
vt 0.7872 0.5849
vt 0.7909 0.5698
vt 0.7930 0.5358
vt 0.7947 0.5236
vt 0.7979 0.5231
vt 0.7986 0.5295
vt 0.7846 0.5370
vt 0.7842 0.5576
vt 0.7805 0.5522
vt 0.7764 0.5673
vt 0.7801 0.5727
vt 0.7782 0.5866
vt 0.8515 0.5726
vt 0.8455 0.5933
vt 0.8486 0.5617
vt 0.8499 0.5372
vt 0.8428 0.5302
vt 0.8461 0.5270
vt 0.7764 0.5292
vt 0.7824 0.5208
vt 0.7805 0.5331
vt 0.8379 0.5426
vt 0.8418 0.5467
vt 0.8358 0.5516
vt 0.8337 0.5606
vt 0.8320 0.5854
vt 0.8278 0.5531
vt 0.8323 0.5447
vt 0.8309 0.5289
vt 0.8334 0.5260
vt 0.8344 0.5358
vt 0.8368 0.5329
vt 0.8220 0.5456
vt 0.8261 0.5779
vt 0.8227 0.5761
vt 0.8102 0.5579
vt 0.8031 0.5799
vt 0.8072 0.5538
vt 0.8041 0.5498
vt 0.8082 0.5368
vt 0.8164 0.5249
vt 0.8206 0.5237
vt 0.8192 0.5353
vt 0.8248 0.5225
vt 0.8265 0.5173
vt 0.8007 0.5122
vt 0.7977 0.5179
vt 0.7945 0.5123
vt 0.8358 0.5232
vt 0.8303 0.5228
vt 0.8289 0.6172
vt 0.8262 0.6119
vt 0.8296 0.6137
vt 0.8302 0.6102
vt 0.8328 0.6056
vt 0.8349 0.6121
vt 0.7853 0.6057
vt 0.7846 0.5919
vt 0.7880 0.5986
vt 0.7865 0.6077
vt 0.7877 0.6097
vt 0.7891 0.6007
vt 0.7918 0.6058
vt 0.7968 0.5417
vt 0.7764 0.5483
vt 0.8507 0.5549
vt 0.8478 0.5440
vt 0.8457 0.5509
vt 0.8426 0.5825
vt 0.8405 0.5760
vt 0.7865 0.5247
vt 0.7897 0.5303
vt 0.8397 0.5558
vt 0.8345 0.5808
vt 0.8164 0.5592
vt 0.8192 0.5524
vt 0.8199 0.5828
vt 0.8001 0.5759
vt 0.7973 0.5707
vt 0.8112 0.5409
vt 0.8123 0.5238
vt 0.8074 0.5296
vt 0.8067 0.5232
vt 0.8164 0.5421
vt 0.8234 0.5340
vt 0.8264 0.5373
vt 0.8065 0.5180
vt 0.8009 0.5174
vt 0.8282 0.5122
vt 0.8353 0.5145
vt 0.8320 0.5177
vt 0.8342 0.6156
vt 0.7838 0.6078
vt 0.7826 0.6058
vt 0.7819 0.5920
vt 0.7838 0.5781
vt 0.7800 0.6059
vt 0.8395 0.6140
vt 0.8390 0.5200
vt 0.8423 0.5168
vt 0.8011 0.5226
vt 0.8278 0.5257
vt 0.8018 0.5290
vt 0.7933 0.5968
vt 0.7960 0.6019
vt 0.8235 0.6065
vt 0.8353 0.6010
vt 0.7915 0.5180
vt 0.7883 0.5124
vt 0.8407 0.5371
vt 0.8374 0.6075
vt 0.8268 0.6084
vt 0.8223 0.5186
vn 0.4201 -0.0311 0.9069
vn 0.6418 0.1259 0.7564
vn 0.3112 0.3113 0.8979
vn -0.1750 0.2506 0.9521
vn -0.3809 0.4837 0.7880
vn -0.5471 0.1394 0.8254
vn 0.2531 0.5460 0.7987
vn -0.1538 0.5835 0.7974
vn 0.0753 0.4461 0.8918
vn -0.2642 -0.0548 0.9629
vn -0.3779 -0.4019 0.8341
vn 0.0050 -0.5324 0.8465
vn 0.0312 -0.1684 0.9852
vn -0.8537 0.0331 0.5196
vn -0.7171 0.3965 0.5732
vn -0.9196 0.3110 0.2401
vn -0.8731 0.4875 -0.0038
vn -0.7567 0.5670 0.3253
vn -0.7720 0.6305 -0.0805
vn -0.8453 0.4066 -0.3465
vn -0.9578 -0.1177 -0.2623
vn -0.7705 -0.3337 -0.5431
vn -0.9253 -0.3692 -0.0865
vn -0.9882 -0.0469 0.1457
vn -0.4337 -0.0185 -0.9008
vn -0.7003 0.0943 -0.7076
vn -0.1514 0.2007 -0.9679
vn 0.0887 0.3393 -0.9365
vn 0.2927 0.5091 -0.8094
vn 0.4751 0.2253 -0.8506
vn 0.2644 0.0337 -0.9638
vn 0.3069 -0.3576 -0.8820
vn -0.0565 -0.6393 -0.7669
vn -0.1022 -0.1657 -0.9809
vn -0.5573 -0.2979 -0.7750
vn 0.8054 0.0871 -0.5863
vn 0.6316 0.4497 -0.6316
vn 0.8061 0.4495 -0.3849
vn 0.9567 0.2903 0.0225
vn 0.8590 0.5119 -0.0115
vn 0.9210 0.2506 0.2982
vn 0.7381 0.2830 0.6125
vn 0.9195 -0.0253 0.3922
vn 0.9012 -0.3665 0.2312
vn 0.8221 -0.5672 -0.0486
vn 0.9664 -0.1643 -0.1978
vn 0.6527 -0.7170 -0.2447
vn 0.3814 -0.9230 0.0513
vn 0.0980 -0.9494 0.2983
vn -0.2049 -0.7887 0.5796
vn -0.3305 -0.9140 0.2352
vn -0.4323 -0.6805 -0.5916
vn 0.1924 -0.9065 -0.3758
vn 0.3275 0.9144 0.2379
vn 0.6655 0.7078 0.2369
vn 0.3178 0.9256 -0.2055
vn 0.3682 0.7409 -0.5617
vn -0.0974 0.7338 -0.6724
vn -0.2480 0.8885 -0.3862
vn -0.1874 0.8323 0.5217
vn -0.4108 0.6643 0.6245
vn 0.0675 0.6333 0.7710
vn 0.0721 0.9162 0.3941
vn 0.4233 0.6563 0.6246
vn 0.1028 0.1248 0.9868
vn -0.9655 0.2208 -0.1378
vn -0.8426 0.0530 -0.5359
vn -0.7653 0.2675 -0.5854
vn -0.7154 0.5549 -0.4246
vn -0.5867 0.5102 -0.6288
vn -0.8799 -0.3135 0.3570
vn -0.6563 -0.2106 0.7245
vn -0.4470 0.3977 -0.8013
vn -0.1955 0.5202 -0.8314
vn 0.9497 0.1924 -0.2469
vn 0.7139 0.5485 0.4354
vn 0.4463 0.4715 0.7606
vn 0.9939 -0.0081 0.1104
vn 0.7554 -0.2306 0.6133
vn 0.6085 -0.5633 0.5590
vn 0.8315 -0.3154 -0.4573
vn 0.6276 -0.1360 -0.7666
vn 0.5549 -0.7663 0.3239
vn 0.2328 -0.8011 0.5514
vn -0.0962 -0.9870 -0.1289
vn -0.2513 0.9660 -0.0610
vn -0.5158 0.8381 0.1776
vn -0.6674 0.6809 0.3018
vn -0.5350 0.5998 0.5950
vn -0.6413 0.7519 -0.1528
vn -0.5960 -0.7576 -0.2662
vn -0.7466 -0.6496 0.1432
vn 0.3171 -0.5933 0.7399
vn 0.5768 -0.5801 -0.5751
vn 0.3985 -0.3299 0.8558
vn 0.5636 0.6064 0.5609
vn 0.7803 0.6150 0.1136
vn -0.4048 0.6297 -0.6630
vn -0.6230 -0.5829 0.5216
vn -0.7357 -0.1786 -0.6533
vn -0.5591 0.6932 -0.4549
vn 0.7263 0.6335 -0.2667
usemtl None
s 1
f 1/1/1 95/2/2 83/3/3
f 4/4/4 45/5/5 63/6/6
f 3/7/7 97/8/8 35/9/9
f 4/4/4 63/6/6 57/10/10
f 7/11/11 73/12/12 34/13/13
f 6/14/14 50/15/15 33/16/16
f 9/17/17 87/18/18 79/19/19
f 9/20/17 79/21/19 70/22/20
f 12/23/21 100/24/22 42/25/23
f 12/26/21 42/27/23 69/28/24
f 15/29/25 56/30/26 67/31/27
f 16/32/28 76/33/29 39/34/30
f 16/32/28 39/34/30 29/35/31
f 19/36/32 94/37/33 52/38/34
f 15/29/25 102/39/35 56/30/26
f 18/40/36 62/41/37 55/42/38
f 21/43/39 82/44/40 37/45/41
f 2/46/42 95/2/2 59/47/43
f 22/48/44 60/49/45 66/50/46
f 23/51/47 60/49/45 28/52/48
f 24/53/49 98/54/50 72/55/51
f 13/56/52 94/37/33 65/57/53
f 25/58/54 38/59/55 48/60/56
f 17/61/57 36/62/58 89/63/59
f 27/64/60 88/65/61 46/66/62
f 27/64/60 46/66/62 54/67/63
f 25/68/54 84/69/64 38/70/55
f 4/4/4 74/71/65 35/9/9
f 4/4/4 57/10/10 74/71/65
f 12/26/21 69/28/24 53/72/66
f 12/23/21 53/73/66 90/74/67
f 11/75/68 47/76/69 86/77/70
f 12/23/21 90/74/67 100/24/22
f 6/14/14 91/78/71 93/79/72
f 16/32/28 49/80/73 64/81/74
f 16/32/28 64/81/74 76/33/29
f 16/32/28 29/35/31 67/31/27
f 21/82/39 43/83/75 82/84/40
f 2/46/42 44/85/76 71/86/77
f 21/43/39 37/45/41 85/87/78
f 22/88/44 78/89/79 92/90/80
f 21/82/39 85/91/78 43/83/75
f 18/40/36 58/92/81 101/93/82
f 24/53/49 81/94/83 40/95/84
f 24/53/49 40/95/84 98/54/50
f 24/96/49 72/97/51 51/98/85
f 24/96/49 51/98/85 28/52/48
f 25/58/54 48/60/56 61/99/86
f 25/68/54 61/100/86 54/67/63
f 27/64/60 99/101/87 88/65/61
f 88/65/61 75/102/88 5/103/89
f 88/65/61 99/101/87 75/102/88
f 99/101/87 10/104/90 75/102/88
f 54/67/63 99/101/87 27/64/60
f 54/67/63 61/100/86 99/101/87
f 61/100/86 10/104/90 99/101/87
f 61/99/86 89/63/59 10/105/90
f 61/99/86 48/60/56 89/63/59
f 48/60/56 17/61/57 89/63/59
f 28/52/48 65/57/53 23/51/47
f 28/52/48 51/98/85 65/57/53
f 51/98/85 13/56/52 65/57/53
f 51/98/85 41/106/91 13/56/52
f 51/98/85 72/97/51 41/106/91
f 72/97/51 14/107/92 41/106/91
f 98/54/50 73/12/12 7/11/11
f 98/54/50 40/95/84 73/12/12
f 40/95/84 8/108/93 73/12/12
f 40/95/84 92/90/80 8/108/93
f 40/95/84 81/94/83 92/90/80
f 81/94/83 22/88/44 92/90/80
f 101/93/82 31/109/94 19/36/32
f 101/93/82 58/92/81 31/109/94
f 58/92/81 23/51/47 31/109/94
f 43/83/75 66/50/46 18/40/36
f 43/83/75 85/91/78 66/50/46
f 85/91/78 22/48/44 66/50/46
f 92/90/80 96/110/95 8/108/93
f 92/90/80 78/89/79 96/110/95
f 78/89/79 1/1/1 96/110/95
f 85/87/78 59/47/43 22/88/44
f 85/87/78 37/45/41 59/47/43
f 37/45/41 2/46/42 59/47/43
f 71/86/77 68/111/96 3/7/7
f 71/86/77 44/85/76 68/111/96
f 44/85/76 20/112/97 68/111/96
f 82/84/40 55/42/38 20/113/97
f 82/84/40 43/83/75 55/42/38
f 43/83/75 18/40/36 55/42/38
f 67/31/27 52/38/34 15/29/25
f 67/31/27 29/35/31 52/38/34
f 29/35/31 19/36/32 52/38/34
f 76/33/29 36/62/58 17/61/57
f 76/33/29 64/81/74 36/62/58
f 64/81/74 26/114/98 36/62/58
f 64/81/74 86/77/70 26/114/98
f 64/81/74 49/80/73 86/77/70
f 49/80/73 11/75/68 86/77/70
f 93/79/72 77/115/99 7/11/11
f 93/79/72 91/78/71 77/115/99
f 91/78/71 14/116/92 77/115/99
f 100/24/22 80/117/100 13/56/52
f 100/24/22 90/74/67 80/117/100
f 90/74/67 11/75/68 80/117/100
f 86/77/70 30/118/101 26/114/98
f 86/77/70 47/76/69 30/118/101
f 47/76/69 10/105/90 30/118/101
f 90/74/67 70/22/20 11/75/68
f 90/74/67 53/73/66 70/22/20
f 53/73/66 9/20/17 70/22/20
f 53/72/66 33/16/16 9/17/17
f 53/72/66 69/28/24 33/16/16
f 69/28/24 6/14/14 33/16/16
f 74/71/65 34/13/13 1/1/1
f 74/71/65 57/10/10 34/13/13
f 57/10/10 7/11/11 34/13/13
f 35/9/9 83/3/3 3/7/7
f 35/9/9 74/71/65 83/3/3
f 74/71/65 1/1/1 83/3/3
f 38/70/55 68/111/96 20/112/97
f 38/70/55 84/69/64 68/111/96
f 84/69/64 3/7/7 68/111/96
f 54/67/63 84/69/64 25/68/54
f 54/67/63 46/66/62 84/69/64
f 46/66/62 3/7/7 84/69/64
f 46/66/62 97/8/8 3/7/7
f 46/66/62 88/65/61 97/8/8
f 88/65/61 5/103/89 97/8/8
f 89/63/59 30/118/101 10/105/90
f 89/63/59 36/62/58 30/118/101
f 36/62/58 26/114/98 30/118/101
f 48/60/56 32/119/102 17/61/57
f 48/60/56 38/59/55 32/119/102
f 38/59/55 20/113/97 32/119/102
f 65/57/53 31/109/94 23/51/47
f 65/57/53 94/37/33 31/109/94
f 94/37/33 19/36/32 31/109/94
f 72/55/51 77/115/99 14/116/92
f 72/55/51 98/54/50 77/115/99
f 98/54/50 7/11/11 77/115/99
f 28/52/48 81/120/83 24/96/49
f 28/52/48 60/49/45 81/120/83
f 60/49/45 22/48/44 81/120/83
f 66/50/46 58/92/81 18/40/36
f 66/50/46 60/49/45 58/92/81
f 60/49/45 23/51/47 58/92/81
f 59/47/43 78/89/79 22/88/44
f 59/47/43 95/2/2 78/89/79
f 95/2/2 1/1/1 78/89/79
f 37/45/41 44/85/76 2/46/42
f 37/45/41 82/44/40 44/85/76
f 82/44/40 20/112/97 44/85/76
f 55/42/38 32/119/102 20/113/97
f 55/42/38 62/41/37 32/119/102
f 62/41/37 17/61/57 32/119/102
f 56/30/26 80/117/100 11/75/68
f 56/30/26 102/39/35 80/117/100
f 102/39/35 13/56/52 80/117/100
f 52/38/34 102/39/35 15/29/25
f 52/38/34 94/37/33 102/39/35
f 94/37/33 13/56/52 102/39/35
f 29/35/31 101/93/82 19/36/32
f 29/35/31 39/34/30 101/93/82
f 39/34/30 18/40/36 101/93/82
f 39/34/30 62/41/37 18/40/36
f 39/34/30 76/33/29 62/41/37
f 76/33/29 17/61/57 62/41/37
f 67/31/27 49/80/73 16/32/28
f 67/31/27 56/30/26 49/80/73
f 56/30/26 11/75/68 49/80/73
f 69/28/24 91/78/71 6/14/14
f 69/28/24 42/27/23 91/78/71
f 42/27/23 14/116/92 91/78/71
f 42/25/23 41/106/91 14/107/92
f 42/25/23 100/24/22 41/106/91
f 100/24/22 13/56/52 41/106/91
f 70/22/20 47/76/69 11/75/68
f 70/22/20 79/21/19 47/76/69
f 79/21/19 10/105/90 47/76/69
f 79/19/19 75/102/88 10/104/90
f 79/19/19 87/18/18 75/102/88
f 87/18/18 5/103/89 75/102/88
f 33/16/16 87/18/18 9/17/17
f 33/16/16 50/15/15 87/18/18
f 50/15/15 5/103/89 87/18/18
f 34/13/13 96/110/95 1/1/1
f 34/13/13 73/12/12 96/110/95
f 73/12/12 8/108/93 96/110/95
f 57/10/10 93/79/72 7/11/11
f 57/10/10 63/6/6 93/79/72
f 63/6/6 6/14/14 93/79/72
f 35/9/9 45/5/5 4/4/4
f 35/9/9 97/8/8 45/5/5
f 97/8/8 5/103/89 45/5/5
f 63/6/6 50/15/15 6/14/14
f 63/6/6 45/5/5 50/15/15
f 45/5/5 5/103/89 50/15/15
f 83/3/3 71/86/77 3/7/7
f 83/3/3 95/2/2 71/86/77
f 95/2/2 2/46/42 71/86/77
