# Blender v2.78 (sub 0) OBJ File: ''
# www.blender.org
mtllib Apple_Tree_m_04.mtl
o Apple_Tree_m_04
v 0.922555 3.443706 0.810475
v 0.182615 3.266367 0.044680
v 1.429333 3.478851 -0.229083
v 2.258240 4.172335 0.163178
v 1.817895 3.874439 1.065791
v 2.356070 4.314873 1.418718
v 0.944640 3.970487 1.707527
v 1.021794 4.571004 2.477485
v 0.024701 4.314907 1.891636
v 1.853805 4.662850 2.237803
v -0.633572 3.668172 0.759054
v -0.606853 3.419791 -0.276724
v 2.907341 5.739916 1.317254
v 2.677665 4.948029 0.169249
v 2.896188 5.829478 -0.039272
v 2.747415 4.877746 1.486673
v 2.842149 6.694877 1.089395
v 1.978333 6.900918 -0.651160
v 2.176959 7.273600 0.726425
v 2.300075 6.323718 2.276674
v 1.534871 6.780324 2.545759
v 1.784839 5.783202 2.719564
v 1.309475 7.746290 1.493272
v 2.385915 5.260706 2.389409
v 0.173400 8.154497 -0.543971
v 0.572274 7.259584 -1.522058
v -0.800639 8.028720 -0.819119
v -0.717588 6.762443 -1.679223
v -1.297344 7.715596 -0.994752
v -0.662199 8.205270 0.602273
v -1.243247 7.306125 1.301353
v -0.164815 7.797448 1.655664
v -1.631321 7.380568 -0.150590
v 1.386787 7.697761 0.142265
v -1.597054 5.766580 -1.109684
v -0.551364 5.093370 -1.579762
v -1.200547 4.160926 -0.714743
v 0.509498 4.051908 -1.052780
v -1.988951 5.065782 0.115149
v -1.536399 4.679234 0.993276
v -1.995517 6.101299 0.799679
v -1.574674 7.063548 -1.173835
v -1.175154 5.225852 1.636369
v -0.178573 5.507334 2.336015
v 0.971168 5.744714 2.647524
v 0.033390 7.085846 2.332292
v 0.337018 5.810068 -1.772901
v 1.530683 5.795685 -1.597955
v 2.359474 5.684590 -0.796755
v 1.940459 4.508062 -0.836708
v -0.075696 0.051600 0.266580
v 0.100403 0.563450 0.492035
v -0.031495 0.578103 0.315715
v -0.234147 0.053394 0.033548
v -0.061077 0.054165 -0.189224
v 0.096924 0.584284 0.136242
v 0.308399 0.573432 0.201831
v 0.204605 0.052845 -0.093609
v 0.195326 0.051261 0.188182
v 0.310354 0.560562 0.421801
v 0.418361 1.579427 0.735280
v 0.272543 1.588487 0.798198
v 0.169529 1.597248 0.681579
v 0.251208 1.599566 0.546201
v 0.405347 1.592248 0.579270
v 0.276582 2.964091 0.606507
v 0.217233 2.977846 0.703907
v -0.047303 4.560175 0.218727
v -0.004691 4.548847 0.149128
v 0.425614 2.987100 0.657983
v 0.416867 3.210017 0.729687
v 0.918919 3.368407 0.981297
v 0.954579 3.275737 0.937607
v 0.332014 3.009785 0.810992
v 0.465620 2.833491 0.799592
v 0.968016 3.255442 1.024598
v 0.881954 3.299416 1.060903
v 0.005616 4.581212 0.276708
v 0.074910 4.562959 0.164141
v 1.411886 3.968773 1.216370
v 1.334323 3.985409 1.235120
v 0.078995 4.593182 0.239751
v 1.344539 4.016131 1.154896
v 1.401071 3.954254 1.147007
v 0.020658 0.570615 0.414045
v 2.594193 5.069439 1.997288
v 1.596917 7.422390 -0.256377
v 1.435978 5.769704 2.695169
v -0.358103 8.008858 1.236301
v 0.366054 7.792559 -1.093395
v 2.381143 4.754809 1.949915
v 0.368736 1.039627 0.586488
v 0.247553 2.990948 0.750418
v 1.105658 4.926317 -1.425092
v -0.181419 3.617290 -0.625661
v 0.478946 6.399364 2.562059
v -1.643152 7.217755 -0.765321
v 2.571763 4.528780 0.797888
v -1.587185 6.552856 -1.165203
v 2.762652 4.902888 0.828427
v 0.414211 2.255549 0.639433
v 2.121667 4.253654 -0.377039
v -0.251813 3.335686 -0.118283
v 1.442268 4.260694 1.994984
v 0.330940 1.596446 0.550842
v 0.082590 0.053505 -0.171030
v -1.219798 4.236519 0.917333
v 1.331048 4.005133 1.196206
v 0.213328 2.259545 0.729268
v 2.866783 5.331407 0.742999
v 1.373317 3.976712 1.234838
v 0.210843 0.560740 0.473069
v -0.432960 4.023429 -0.947865
v 2.531057 4.553633 1.455565
v 1.446214 7.252246 2.166195
v 1.014967 7.613284 -0.742433
v -0.080511 4.829006 2.167810
v 2.244200 7.200036 1.430471
v 1.841952 4.207994 1.683521
v 0.895227 3.339895 1.024650
v 1.909714 7.505888 1.092869
v 2.131589 4.126084 1.264023
v 1.912253 6.634978 2.441900
v 0.178991 1.062381 0.351887
v -0.181067 0.052497 0.167659
v 2.475367 7.067420 0.881143
v 0.609571 3.120677 0.947393
v -0.775392 6.411621 1.898680
v 0.425933 2.233121 0.770994
v -0.148676 0.271109 0.155915
v -0.100782 7.539477 1.957840
v -1.067250 7.376873 -1.332254
v 0.526753 3.309199 0.420667
v -1.252787 6.908765 -1.440300
v -0.368244 8.170215 -0.717605
v 0.351759 3.501602 -0.473899
v -1.199747 7.924527 0.247868
v 0.937671 3.326109 0.952252
v -0.093785 5.407973 -1.702361
v 0.924063 3.273392 1.049951
v -1.393898 4.878755 1.277530
v 2.183860 5.144836 -0.864869
v 0.045525 4.589434 0.265693
v 0.037088 4.554193 0.148537
v 0.690613 3.097419 0.811208
v 1.372592 3.985571 1.141859
v -0.033215 4.552598 0.179956
v 0.255713 0.268603 0.032179
v 0.472856 4.978242 -1.522267
v 1.241144 7.138082 -1.202154
v -0.282451 4.003432 1.421698
v 0.132972 3.828028 0.372924
v -1.894762 6.734775 0.400439
v 0.222538 3.739228 1.290438
v 0.350280 1.583085 0.777785
v 1.735688 5.081218 -1.271510
v -1.092456 3.847623 -0.017049
v 2.971081 5.776646 0.609886
v -2.061271 5.667366 0.460020
v 0.236522 3.465430 0.840210
v -1.487643 4.905571 -0.943397
v 0.422668 7.839636 1.638934
v -1.712466 6.747030 0.986987
v 2.044114 6.045038 2.592414
v 1.428323 3.919243 1.454287
v 0.486324 6.541718 -1.744799
v -1.185685 6.206847 -1.494843
v 0.908160 3.673001 1.237680
v -0.137171 6.280692 -1.796883
v 1.204312 3.633624 1.053791
v 0.144427 3.870373 0.523503
v 2.596877 6.573649 1.722235
v 0.549864 4.419853 2.215477
v -0.172449 0.053779 -0.097246
v 2.637724 5.774735 -0.455765
v 2.672540 6.025964 1.858865
v 2.671904 5.503659 1.935596
v 2.050933 3.950210 0.557531
v 0.698557 3.062971 0.905121
v 0.966507 3.259605 0.977553
v -0.171569 6.360581 2.349809
v -0.701340 7.500003 -1.324703
v 1.190566 3.394024 0.331085
v 0.360484 1.051608 0.400057
v 1.790208 5.258186 2.569330
v 1.205520 6.342967 2.648803
v 1.328988 4.263747 -1.016620
v -0.027277 4.571213 0.253332
v 1.800093 7.479704 0.448623
v -0.721085 5.428577 1.990539
v 1.336631 7.811333 0.693142
v 0.881852 7.910496 -0.161869
v 1.155533 3.712749 1.077419
v -0.700117 7.686485 1.507023
v 0.424036 1.585299 0.655936
v 0.231485 0.052053 0.048427
v 0.334294 2.970666 0.608626
v 2.481470 4.534883 0.138682
v -0.679306 3.445215 0.127677
v 0.664169 3.199577 0.869694
v 0.211880 1.592867 0.748047
v 1.403295 4.607337 2.404478
v 0.192656 1.042990 0.653177
v 0.906670 5.791480 -1.720575
v 2.855026 5.283585 1.427200
v 0.082259 3.841518 0.455779
v 1.670831 3.920314 -0.606264
v -0.087783 4.562700 -1.373437
v 2.189668 4.437858 1.787725
v 1.142983 6.560279 -1.618665
v 1.414861 3.957150 1.180491
v -1.769066 4.783319 0.626926
v 0.617557 8.096948 0.430314
v 1.967429 7.037586 1.973977
v -1.437100 7.414219 -1.085009
v 1.773317 6.414385 -1.261844
v 0.472924 4.955278 2.467346
v -0.637962 5.875050 -1.703350
v -1.102489 5.375278 -1.406946
v 2.348571 4.240792 0.866649
v 1.039185 4.257064 2.158832
v 0.018707 0.582361 0.216112
v 2.170000 7.116944 0.143350
v -1.228830 7.903714 -0.426497
v 1.887942 3.813329 -0.107605
v -1.115892 7.840748 -0.927211
v -0.636146 7.200785 1.901611
v 1.030662 3.663144 -0.656148
v 1.133464 3.662146 1.160531
v 0.469248 2.846508 0.742955
v 0.008377 0.274629 -0.052317
v -1.457615 7.685863 -0.657274
v -0.162197 7.728721 -1.235916
v 0.669136 7.496274 2.051280
v 0.001361 0.262920 0.368853
v -1.038405 7.880084 0.927224
v 0.399550 5.631425 2.554235
v 0.415269 2.859245 0.831346
v -1.519249 7.475677 0.595574
v 0.226927 3.848645 0.389500
v -1.656782 5.759201 1.249136
v 0.848758 6.979477 2.454638
v 0.429260 3.165357 0.687364
v 0.251139 0.261370 0.292549
v 0.326561 0.566375 0.311637
v 0.085406 4.578938 0.200940
v 2.948551 6.207547 1.230660
v 2.007373 5.765124 -1.216022
v -1.429684 4.251490 0.389497
v -1.648782 4.537130 -0.302762
v 2.826123 5.402146 0.057957
v -0.194368 3.335281 0.396933
v 0.199852 1.599279 0.607918
v 0.068453 0.051431 0.257668
v -0.919530 4.364073 1.304183
v -1.934760 6.202003 -0.043668
v 2.083517 5.479508 2.602154
v 2.927422 6.258074 0.471750
v 0.282546 2.253505 0.613528
v -1.858190 5.435682 -0.516750
v -0.837166 3.691486 -0.459439
v -1.817177 5.309095 0.924879
v 0.247692 8.109783 1.003006
v 1.691983 6.271947 2.677456
v 1.421876 5.175879 2.541377
v -0.575924 4.674186 1.782532
v -0.866758 4.594498 -1.212141
v 0.239365 2.968969 0.651056
v 0.452187 4.071693 1.801625
v 2.543323 5.264087 -0.374908
v -1.737660 6.512105 -0.642386
v 2.367415 5.747478 2.378484
v 0.075532 1.057048 0.508416
v 2.568225 6.317286 -0.333286
v 2.242365 6.224241 -0.835205
v 1.006291 5.095787 2.587410
v 1.671778 3.622985 0.391778
v 1.395202 3.623909 0.925274
v -1.293513 6.254310 1.528701
v -0.257785 8.274688 0.050887
v 2.346137 4.715930 -0.381669
v -0.817880 8.191277 -0.158845
v 2.569808 6.757146 0.231724
v 0.225742 3.912817 0.470006
v 0.797452 3.333575 -0.126199
v 0.301592 2.265263 0.826612
v 0.207815 0.579741 0.152762
v 2.171307 4.982679 2.369657
v 0.377755 3.179079 0.771389
v 1.217577 3.634276 1.132744
v -0.078875 7.062163 -1.645234
v 1.216693 3.629322 1.091044
v 1.180304 3.675347 1.058595
v 0.631877 3.167042 0.912901
v 0.699578 3.073280 0.853807
v 1.138750 3.692075 1.121199
v 0.187566 3.895511 0.502809
v 0.233512 3.883418 0.428206
v 1.175139 3.646050 1.153648
v 0.238907 2.255961 0.666336
v 0.249514 2.264170 0.784977
v 0.430587 2.243024 0.703994
v 0.367865 2.248430 0.808201
v 0.182133 3.834894 0.374588
v 0.107978 3.854503 0.495323
v 0.350737 2.255398 0.616327
v 0.652047 3.086921 0.933680
v 0.679409 3.153401 0.833028
v 0.101137 3.833056 0.410787
v 0.273646 1.057705 0.361888
v 0.122618 1.049938 0.589961
v 0.379293 1.045037 0.492513
v 0.114999 1.060734 0.422232
v 0.285841 1.040240 0.633431
v 0.273838 0.264675 0.162702
v -0.086467 0.273453 0.039587
v 0.132221 0.261512 0.350135
v 0.138682 0.272058 -0.029311
v -0.090360 0.266933 0.274067
vt 0.4646 0.1872
vt 0.4668 0.1859
vt 0.4673 0.1894
vt 0.4700 0.1916
vt 0.4690 0.1940
vt 0.4666 0.1919
vt 0.4632 0.1921
vt 0.4656 0.1943
vt 0.4619 0.1937
vt 0.4595 0.1859
vt 0.4570 0.1859
vt 0.4586 0.1832
vt 0.4592 0.1919
vt 0.4614 0.1890
vt 0.4574 0.1887
vt 0.4647 0.1829
vt 0.4691 0.1846
vt 0.4670 0.1815
vt 0.4706 0.1827
vt 0.4622 0.1822
vt 0.4564 0.2072
vt 0.4615 0.2045
vt 0.4623 0.2085
vt 0.4588 0.1997
vt 0.4634 0.1980
vt 0.4627 0.2007
vt 0.4246 0.1669
vt 0.4302 0.1693
vt 0.4244 0.1708
vt 0.4242 0.1748
vt 0.4281 0.1784
vt 0.4243 0.1773
vt 0.4127 0.1732
vt 0.4123 0.1769
vt 0.4083 0.1752
vt 0.4216 0.1789
vt 0.4184 0.1740
vt 0.4158 0.1781
vt 0.4543 0.2014
vt 0.4576 0.2034
vt 0.4570 0.1956
vt 0.4597 0.1975
vt 0.4447 0.2012
vt 0.4448 0.1966
vt 0.4485 0.1984
vt 0.4266 0.1883
vt 0.4293 0.1851
vt 0.4300 0.1886
vt 0.4267 0.1905
vt 0.4268 0.1928
vt 0.4309 0.1952
vt 0.4269 0.1948
vt 0.4205 0.1911
vt 0.4179 0.1929
vt 0.4183 0.1900
vt 0.4240 0.1960
vt 0.4237 0.1919
vt 0.4209 0.1952
vt 0.4227 0.1857
vt 0.4260 0.1860
vt 0.4254 0.1838
vt 0.4222 0.1834
vt 0.4248 0.1819
vt 0.4197 0.1871
vt 0.4297 0.2071
vt 0.4323 0.2024
vt 0.4353 0.2063
vt 0.4302 0.2113
vt 0.4770 0.1766
vt 0.4767 0.1834
vt 0.4745 0.1787
vt 0.4178 0.2109
vt 0.4134 0.2105
vt 0.4160 0.2069
vt 0.4710 0.1775
vt 0.4727 0.1717
vt 0.4684 0.1669
vt 0.4667 0.1727
vt 0.4649 0.1686
vt 0.4254 0.2032
vt 0.4288 0.2040
vt 0.4280 0.2008
vt 0.4246 0.2000
vt 0.4275 0.1988
vt 0.4195 0.2050
vt 0.4540 0.1693
vt 0.4595 0.1739
vt 0.4558 0.1749
vt 0.4480 0.1765
vt 0.4513 0.1812
vt 0.4464 0.1808
vt 0.4447 0.1851
vt 0.4499 0.1883
vt 0.4448 0.1885
vt 0.4008 0.1846
vt 0.4064 0.1826
vt 0.4061 0.1867
vt 0.4115 0.1888
vt 0.4152 0.1860
vt 0.4138 0.1889
vt 0.4008 0.1943
vt 0.4080 0.1945
vt 0.4032 0.1981
vt 0.4152 0.1947
vt 0.4182 0.1970
vt 0.4147 0.1988
vt 0.4428 0.1956
vt 0.4389 0.1966
vt 0.4381 0.1922
vt 0.4433 0.1862
vt 0.4377 0.1840
vt 0.4419 0.1819
vt 0.4405 0.1776
vt 0.4363 0.1797
vt 0.4382 0.1747
vt 0.4734 0.1975
vt 0.4707 0.1970
vt 0.4717 0.1946
vt 0.4756 0.2084
vt 0.4711 0.2051
vt 0.4745 0.2030
vt 0.4833 0.2033
vt 0.4798 0.1968
vt 0.4852 0.1995
vt 0.4696 0.1881
vt 0.4732 0.1909
vt 0.4728 0.1874
vt 0.4639 0.1896
vt 0.4621 0.1865
vt 0.4301 0.1733
vt 0.4187 0.1700
vt 0.4506 0.2042
vt 0.4556 0.1977
vt 0.4523 0.1956
vt 0.4487 0.1938
vt 0.4538 0.1936
vt 0.4287 0.1829
vt 0.4301 0.1908
vt 0.4236 0.1897
vt 0.4315 0.1992
vt 0.4809 0.1818
vt 0.4237 0.2090
vt 0.4510 0.1729
vt 0.4528 0.1785
vt 0.4056 0.2019
vt 0.4099 0.2024
vt 0.4073 0.2060
vt 0.4577 0.1698
vt 0.4496 0.1855
vt 0.4008 0.1894
vt 0.4061 0.1916
vt 0.4023 0.1810
vt 0.4117 0.1847
vt 0.4104 0.1983
vt 0.4133 0.1918
vt 0.4430 0.1909
vt 0.4384 0.1875
vt 0.4419 0.2006
vt 0.4794 0.2059
vt 0.4783 0.2004
vt 0.4719 0.2091
vt 0.4700 0.1997
vt 0.4871 0.1956
vt 0.4818 0.1929
vt 0.4859 0.1913
vt 0.4749 0.1939
vt 0.5648 0.7681
vt 0.5646 0.7720
vt 0.5632 0.7713
vt 0.5633 0.7672
vt 0.5584 0.7672
vt 0.5587 0.7712
vt 0.5573 0.7717
vt 0.5569 0.7679
vt 0.5679 0.7694
vt 0.5675 0.7729
vt 0.5660 0.7726
vt 0.5662 0.7689
vt 0.5617 0.7669
vt 0.5617 0.7710
vt 0.5602 0.7707
vt 0.5600 0.7665
vt 0.5555 0.7688
vt 0.5560 0.7724
vt 0.5547 0.7730
vt 0.5540 0.7697
vt 0.5668 0.7795
vt 0.5655 0.7793
vt 0.5618 0.7783
vt 0.5605 0.7781
vt 0.5568 0.7792
vt 0.5556 0.7796
vt 0.5643 0.7789
vt 0.5641 0.7859
vt 0.5630 0.7858
vt 0.5631 0.7786
vt 0.5592 0.7785
vt 0.5597 0.7857
vt 0.5586 0.7858
vt 0.5580 0.7788
vt 0.5606 0.8154
vt 0.5612 0.8155
vt 0.5598 0.8273
vt 0.5593 0.8273
vt 0.5743 0.7807
vt 0.5750 0.7812
vt 0.5747 0.7852
vt 0.5740 0.7846
vt 0.5775 0.7807
vt 0.5782 0.7810
vt 0.5778 0.7850
vt 0.5771 0.7847
vt 0.5599 0.7945
vt 0.5609 0.7945
vt 0.5610 0.8034
vt 0.5602 0.8034
vt 0.5619 0.8156
vt 0.5625 0.8156
vt 0.5609 0.8274
vt 0.5604 0.8274
vt 0.5592 0.8153
vt 0.5599 0.8153
vt 0.5588 0.8272
vt 0.5583 0.8271
vt 0.5656 0.7948
vt 0.5666 0.7946
vt 0.5660 0.8030
vt 0.5651 0.8034
vt 0.5581 0.7946
vt 0.5590 0.7946
vt 0.5594 0.8034
vt 0.5587 0.8032
vt 0.5638 0.7948
vt 0.5646 0.7950
vt 0.5642 0.8039
vt 0.5634 0.8038
vt 0.5619 0.7946
vt 0.5628 0.7947
vt 0.5627 0.8036
vt 0.5618 0.8035
vt 0.5766 0.7909
vt 0.5772 0.7911
vt 0.5766 0.7973
vt 0.5761 0.7971
vt 0.5579 0.8155
vt 0.5586 0.8152
vt 0.5578 0.8271
vt 0.5572 0.8270
vt 0.5631 0.8161
vt 0.5615 0.8275
vt 0.5752 0.7910
vt 0.5760 0.7907
vt 0.5756 0.7969
vt 0.5749 0.7972
vt 0.5728 0.7803
vt 0.5735 0.7801
vt 0.5733 0.7841
vt 0.5727 0.7843
vt 0.5759 0.7808
vt 0.5767 0.7804
vt 0.5764 0.7844
vt 0.5755 0.7848
vt 0.5738 0.7909
vt 0.5745 0.7913
vt 0.5743 0.7974
vt 0.5737 0.7972
vt 0.5726 0.7907
vt 0.5732 0.7905
vt 0.5730 0.7969
vt 0.5725 0.7972
vt 0.5720 0.7910
vt 0.5720 0.7974
vt 0.5720 0.7845
vt 0.5754 0.7773
vt 0.5762 0.7768
vt 0.5771 0.7764
vt 0.5721 0.7805
vt 0.5723 0.7765
vt 0.5731 0.7764
vt 0.5738 0.7762
vt 0.5648 0.8047
vt 0.5655 0.8054
vt 0.5638 0.8165
vt 0.5620 0.8276
vt 0.5572 0.8158
vt 0.5566 0.8270
vt 0.5578 0.8046
vt 0.5586 0.8040
vt 0.5608 0.7856
vt 0.5619 0.7857
vt 0.5651 0.7861
vt 0.5572 0.7946
vt 0.5579 0.8030
vt 0.5565 0.7863
vt 0.5576 0.7860
vt 0.5662 0.7862
vt 0.5672 0.7863
vt 0.5779 0.7767
vt 0.5787 0.7770
vt 0.5746 0.7767
vt 0.5681 0.7797
vt 0.5690 0.7732
vt 0.5549 0.7653
vt 0.5534 0.7664
vt 0.5565 0.7642
vt 0.5616 0.7628
vt 0.5598 0.7624
vt 0.5634 0.7631
vt 0.5683 0.7658
vt 0.5664 0.7653
vt 0.5703 0.7664
vt 0.5696 0.7698
vt 0.5582 0.7633
vt 0.5649 0.7642
vt 0.4764 0.1902
vt 0.4806 0.1886
vt 0.4848 0.1870
vt 0.4674 0.1991
vt 0.4680 0.1964
vt 0.4667 0.2018
vt 0.4674 0.2058
vt 0.4682 0.2098
vt 0.4327 0.1854
vt 0.4320 0.1819
vt 0.4334 0.1889
vt 0.4380 0.2016
vt 0.4350 0.1976
vt 0.4409 0.2055
vt 0.4157 0.1918
vt 0.4161 0.1889
vt 0.4142 0.2029
vt 0.4154 0.1819
vt 0.4189 0.1831
vt 0.4119 0.1806
vt 0.4079 0.1790
vt 0.4038 0.1773
vt 0.4548 0.1887
vt 0.4552 0.1916
vt 0.4545 0.1859
vt 0.4560 0.1832
vt 0.4576 0.1805
vt 0.4632 0.1744
vt 0.4649 0.1785
vt 0.4615 0.1703
vt 0.4116 0.2065
vt 0.4090 0.2101
vt 0.4212 0.1992
vt 0.4685 0.1797
vt 0.4720 0.1808
vt 0.4243 0.2131
vt 0.4307 0.2154
vt 0.4309 0.1972
vt 0.4269 0.1968
vt 0.4241 0.1980
vt 0.4342 0.1933
vt 0.4281 0.1809
vt 0.4243 0.1799
vt 0.4501 0.1918
vt 0.4450 0.1920
vt 0.4216 0.1815
vt 0.4340 0.1768
vt 0.4359 0.1718
vt 0.4643 0.1958
vt 0.4606 0.1953
vt 0.4579 0.1935
vt 0.4742 0.1855
vt 0.4177 0.2011
vt 0.4175 0.1860
vt 0.4613 0.1795
vt 0.4358 0.2104
vn 0.1342 -0.9263 0.3520
vn 0.0482 -0.9828 0.1785
vn 0.2782 -0.9552 0.1011
vn 0.3936 -0.8680 -0.3028
vn 0.6751 -0.7043 -0.2196
vn 0.5296 -0.8432 0.0926
vn 0.4617 -0.8366 0.2949
vn 0.6556 -0.7531 0.0550
vn 0.5009 -0.8205 0.2755
vn 0.0617 -0.8426 0.5351
vn 0.0578 -0.7776 0.6261
vn -0.1699 -0.7717 0.6129
vn 0.3430 -0.7957 0.4992
vn 0.2635 -0.8376 0.4784
vn 0.2748 -0.7742 0.5701
vn -0.1102 -0.8914 0.4396
vn -0.0208 -0.9918 -0.1261
vn -0.2086 -0.9441 0.2555
vn -0.1159 -0.9676 -0.2242
vn -0.1612 -0.8201 0.5490
vn 0.9745 -0.0578 0.2170
vn 0.9713 -0.2352 -0.0354
vn 0.9953 -0.0909 -0.0321
vn 0.8866 -0.4020 0.2286
vn 0.8466 -0.5315 -0.0302
vn 0.9352 -0.3489 -0.0606
vn 0.9659 0.1287 0.2249
vn 0.8644 0.4919 0.1039
vn 0.7630 0.5732 -0.2989
vn 0.6822 0.7276 -0.0724
vn 0.6939 0.3417 0.6338
vn 0.5135 0.4703 0.7177
vn 0.5010 0.1833 0.8458
vn 0.6140 0.7232 0.3161
vn 0.7637 0.4256 0.4854
vn 0.5480 0.6484 0.5285
vn 0.8928 -0.0086 0.4503
vn 0.9711 -0.1461 0.1889
vn 0.6067 -0.5867 0.5364
vn 0.7664 -0.5822 0.2714
vn 0.7265 0.1014 0.6796
vn 0.2614 0.9250 -0.2756
vn 0.4998 0.7665 -0.4034
vn 0.2832 0.7603 -0.5847
vn -0.0363 0.9140 -0.4040
vn -0.2691 0.8374 -0.4757
vn -0.1470 0.5590 -0.8161
vn -0.3492 0.7951 -0.4958
vn -0.2689 0.9398 0.2107
vn -0.5771 0.7209 0.3838
vn -0.1866 0.8812 0.4343
vn -0.6178 0.7821 -0.0820
vn -0.3524 0.9331 -0.0712
vn -0.6648 0.7413 0.0925
vn 0.2930 0.9561 0.0086
vn 0.4471 0.8684 -0.2143
vn 0.5179 0.8319 -0.1995
vn 0.4363 0.8994 -0.0256
vn 0.5605 0.8094 -0.1755
vn 0.1079 0.9638 0.2440
vn -0.7937 -0.0931 -0.6012
vn -0.5134 -0.0498 -0.8567
vn -0.5031 -0.2312 -0.8327
vn -0.7194 -0.3347 -0.6087
vn -0.6041 -0.6035 -0.5204
vn -0.1999 -0.6191 -0.7594
vn -0.5255 -0.7220 -0.4500
vn -0.9568 -0.2847 -0.0590
vn -0.8573 -0.4465 0.2564
vn -0.9953 -0.0584 0.0772
vn -0.7148 -0.6993 0.0019
vn -0.8373 -0.4985 -0.2246
vn -0.7488 -0.6476 0.1413
vn -0.9650 0.1054 -0.2400
vn -0.8421 0.0077 -0.5392
vn -0.8076 0.2135 -0.5498
vn -0.9512 0.2559 -0.1724
vn -0.6928 0.4404 -0.5711
vn -0.9738 0.1266 -0.1890
vn -0.6175 -0.2145 0.7568
vn -0.5178 -0.5552 0.6509
vn -0.4991 -0.4485 0.7414
vn -0.4509 -0.1199 0.8845
vn -0.2901 -0.2831 0.9142
vn -0.2504 -0.0658 0.9659
vn -0.1000 -0.0545 0.9935
vn 0.0914 -0.2635 0.9603
vn -0.0716 -0.1012 0.9923
vn -0.0726 0.1520 0.9857
vn -0.1953 0.1183 0.9736
vn -0.2740 0.3838 0.8818
vn 0.0574 0.7213 0.6902
vn -0.2220 0.6471 0.7294
vn -0.6045 0.0884 0.7916
vn -0.5488 -0.1253 0.8265
vn -0.6999 0.3917 0.5973
vn -0.8174 0.5272 0.2322
vn -0.8188 0.2847 0.4985
vn 0.0505 -0.1225 -0.9912
vn -0.0548 0.0395 -0.9977
vn 0.1083 0.1578 -0.9815
vn 0.4217 -0.0458 -0.9056
vn 0.6205 0.3405 -0.7064
vn 0.6928 -0.0017 -0.7211
vn 0.7795 -0.0537 -0.6240
vn 0.7423 0.2833 -0.6072
vn 0.8250 -0.0149 -0.5650
vn 0.6146 -0.4218 -0.6666
vn 0.7537 -0.5037 -0.4221
vn 0.5008 -0.6168 -0.6073
vn 0.8301 -0.2706 -0.4876
vn 0.7460 -0.2453 -0.6191
vn 0.2006 -0.3812 -0.9025
vn 0.1474 -0.1168 -0.9822
vn 0.1076 -0.9613 -0.2536
vn 0.1636 -0.7333 -0.6600
vn 0.0084 -0.8330 -0.5532
vn 0.3270 -0.8799 0.3447
vn 0.0831 -0.8612 0.5014
vn 0.9427 0.2805 -0.1810
vn 0.8646 0.1422 0.4820
vn 0.8067 -0.3344 0.4872
vn 0.6604 -0.2249 0.7164
vn 0.3686 -0.1572 0.9162
vn 0.3841 -0.5201 0.7628
vn 0.5685 0.7593 -0.3166
vn -0.0155 0.6582 -0.7527
vn 0.0310 0.9995 -0.0083
vn -0.4853 0.1788 -0.8559
vn -0.3730 -0.4690 -0.8006
vn -0.9321 -0.1046 -0.3468
vn -0.4320 -0.3838 0.8161
vn -0.7379 -0.0303 0.6742
vn -0.6540 -0.3611 0.6647
vn -0.0051 -0.1610 0.9869
vn -0.4631 0.0598 0.8843
vn -0.0228 0.4558 0.8898
vn -0.6469 0.1119 0.7543
vn -0.5567 0.3231 0.7653
vn 0.3587 0.2775 -0.8912
vn -0.0258 -0.2359 -0.9714
vn 0.4959 -0.3165 -0.8086
vn 0.8218 -0.3496 -0.4500
vn 0.0843 -0.3631 -0.9279
vn 0.2895 -0.5077 -0.8114
vn -0.8103 0.0266 0.5854
vn -0.7971 -0.0213 0.6035
vn -0.9625 0.2663 0.0528
vn -0.9330 0.3590 0.0234
vn 0.3074 0.4393 -0.8441
vn 0.2931 0.3937 -0.8713
vn 0.8155 0.1474 -0.5597
vn 0.8211 0.1505 -0.5506
vn 0.2621 -0.4462 0.8557
vn 0.2935 -0.3847 0.8752
vn -0.2904 -0.2704 0.9179
vn -0.3319 -0.2786 0.9012
vn -0.6802 0.5385 -0.4973
vn -0.7328 0.4532 -0.5075
vn -0.2604 0.5036 -0.8238
vn -0.2292 0.5680 -0.7904
vn 0.9795 -0.2012 0.0129
vn 0.9903 -0.1381 -0.0133
vn 0.7799 -0.3269 0.5337
vn 0.7452 -0.4036 0.5308
vn 0.3304 -0.3116 0.8909
vn -0.2632 -0.2363 0.9353
vn -0.7905 0.3400 -0.5095
vn -0.3181 0.4010 -0.8591
vn 0.9956 -0.0821 -0.0460
vn 0.8125 -0.2493 0.5270
vn -0.7767 -0.0599 0.6270
vn -0.7488 -0.0311 0.6621
vn -0.9886 0.0918 0.1192
vn -0.9832 0.1674 0.0730
vn 0.2628 0.3255 -0.9083
vn 0.2291 0.1961 -0.9534
vn 0.7789 0.0886 -0.6209
vn 0.7885 0.1443 -0.5979
vn -0.8381 -0.2838 -0.4658
vn -0.9842 -0.1289 0.1210
vn -0.9844 -0.1474 0.0964
vn -0.8323 -0.3028 -0.4642
vn 0.2795 0.4590 -0.8433
vn -0.1829 0.9405 -0.2863
vn -0.5266 0.6821 -0.5075
vn 0.0249 0.4037 -0.9145
vn -0.0107 -0.4824 0.8759
vn 0.4793 -0.7903 0.3818
vn 0.5745 -0.6978 0.4279
vn 0.1167 -0.4841 0.8672
vn 0.2236 0.0450 -0.9736
vn -0.4029 0.0519 -0.9138
vn -0.3952 -0.1551 -0.9054
vn 0.2639 -0.1051 -0.9588
vn -0.7424 0.0805 0.6652
vn -0.3121 0.2513 0.9162
vn -0.2336 0.2763 0.9323
vn -0.7581 0.0772 0.6475
vn 0.2450 -0.2298 -0.9419
vn -0.3795 -0.3209 -0.8678
vn -0.3830 -0.3414 -0.8584
vn 0.2141 -0.2518 -0.9438
vn 0.3332 -0.0486 0.9416
vn 0.8533 -0.0573 0.5182
vn 0.7548 -0.4142 0.5087
vn 0.0725 -0.1912 0.9789
vn 0.9917 -0.0238 -0.1261
vn 0.7361 0.0205 -0.6766
vn 0.5954 -0.0726 -0.8002
vn 0.9078 -0.2615 -0.3278
vn -0.7351 0.0183 0.6777
vn -0.2783 -0.0043 0.9605
vn -0.4472 0.0984 0.8890
vn -0.7246 0.0573 0.6868
vn -0.8578 0.0432 -0.5122
vn -0.9936 0.0327 0.1078
vn -0.9889 -0.0521 0.1390
vn -0.8592 -0.1379 -0.4927
vn 0.1746 -0.3505 0.9201
vn 0.6529 -0.5446 0.5264
vn 0.6181 -0.5141 0.5947
vn 0.1956 -0.3396 0.9200
vn 0.9704 0.1773 -0.1638
vn 0.7293 -0.0475 -0.6826
vn 0.7424 -0.0544 -0.6677
vn 0.9782 0.1720 -0.1161
vn 0.3080 0.3804 0.8720
vn 0.3795 0.3692 0.8483
vn -0.8442 0.5264 0.1015
vn -0.5323 0.1367 0.8355
vn -0.5260 0.1252 0.8412
vn -0.8554 0.5134 0.0686
vn 0.6802 -0.6342 -0.3675
vn 0.5574 -0.1317 -0.8197
vn 0.5680 -0.1830 -0.8024
vn 0.7422 -0.6258 -0.2400
vn -0.4986 0.6992 0.5124
vn -0.4125 0.0904 0.9065
vn -0.4218 0.0762 0.9035
vn -0.7332 0.6410 0.2272
vn -0.0112 0.2859 -0.9582
vn -0.5913 0.5442 -0.5952
vn -0.6092 0.5305 -0.5894
vn 0.0040 0.2582 -0.9661
vn 0.8531 -0.4991 -0.1519
vn 0.5875 -0.1435 -0.7964
vn 0.6482 -0.1889 -0.7377
vn 0.8617 -0.5068 -0.0246
vn 0.6078 0.7540 0.2492
vn -0.1215 0.5144 0.8489
vn 0.8233 0.3511 0.4460
vn 0.8331 0.3285 0.4451
vn 0.7747 0.2976 -0.5579
vn -0.3761 0.2447 -0.8937
vn -0.8396 0.1996 -0.5052
vn -0.2118 -0.1238 0.9694
vn 0.8347 -0.1328 0.5344
vn 0.9972 -0.0365 -0.0658
vn 0.3749 -0.1661 0.9121
vn 0.9800 -0.1957 -0.0353
vn 0.7551 -0.4252 0.4991
vn 0.7194 0.2327 -0.6545
vn -0.6495 0.5584 -0.5160
vn -0.2490 0.5801 -0.7755
vn -0.8934 0.4340 -0.1159
vn 0.2344 -0.4657 0.8533
vn -0.4451 -0.2354 0.8640
vn 0.2635 0.4630 -0.8463
vn -0.8550 0.0836 0.5119
vn 0.0564 -0.5894 -0.8059
vn -0.0507 -0.4803 -0.8756
vn -0.2278 -0.3272 -0.9171
vn 0.8580 -0.4559 -0.2365
vn 0.7781 -0.6104 -0.1482
vn 0.8999 -0.3597 -0.2466
vn 0.9160 -0.2845 -0.2829
vn 0.9339 0.0284 -0.3564
vn 0.5196 0.5912 -0.6169
vn 0.6574 0.5841 -0.4760
vn 0.2420 0.5093 -0.8258
vn -0.2661 -0.0999 -0.9588
vn -0.2289 0.1972 -0.9533
vn -0.4625 0.6449 0.6084
vn -0.1724 0.7914 0.5865
vn -0.9283 0.1005 0.3580
vn 0.2964 0.7152 0.6330
vn 0.3319 0.8790 0.3424
vn 0.1963 0.4665 0.8625
vn 0.1745 0.2096 0.9621
vn 0.1347 -0.0533 0.9894
vn 0.2807 -0.4802 0.8310
vn 0.3223 -0.5972 0.7345
vn -0.0069 -0.4768 0.8790
vn -0.2723 -0.5997 0.7525
vn -0.3625 -0.6059 0.7081
vn -0.6276 -0.6395 0.4441
vn -0.4661 -0.7737 0.4292
vn -0.7281 -0.4668 0.5019
vn -0.8511 -0.2171 0.4780
vn -0.9032 0.4288 -0.0167
vn -0.5285 -0.8405 0.1195
vn -0.3816 -0.8647 -0.3266
vn -0.2992 0.4714 -0.8297
vn -0.5202 0.6739 -0.5247
vn -0.7742 0.6184 -0.1347
vn -0.0269 0.3660 -0.9302
vn 0.6338 0.7226 -0.2761
vn 0.5929 0.7909 -0.1515
vn 0.0711 -0.3690 0.9267
vn 0.5319 0.8444 0.0636
vn 0.7976 0.3793 -0.4690
vn 0.7242 -0.6879 0.0484
vn 0.6317 -0.7150 0.2995
vn 0.4763 -0.6980 0.5346
vn -0.0920 -0.7582 -0.6455
vn -0.9543 0.2947 0.0489
vn 0.0616 0.8582 0.5096
vn -0.3685 -0.6922 0.6206
usemtl None
s 1
f 1/1/1 133/2/2 183/3/3
f 3/4/4 225/5/5 277/6/6
f 5/7/7 178/8/8 122/9/9
f 7/10/10 221/11/11 269/12/12
f 5/7/7 119/13/13 165/14/14
f 7/10/10 104/15/15 221/11/11
f 1/1/1 160/16/16 133/2/2
f 2/17/17 252/18/18 103/19/19
f 7/10/10 269/12/12 154/20/20
f 13/21/21 110/22/22 158/23/23
f 16/24/24 98/25/25 100/26/26
f 13/27/21 158/28/23 247/29/27
f 17/30/28 283/31/29 126/32/30
f 20/33/31 123/34/32 164/35/33
f 17/30/28 118/36/34 172/37/35
f 20/33/31 214/38/36 123/34/32
f 13/21/21 177/39/37 205/40/38
f 16/24/24 91/41/39 114/42/40
f 20/43/31 164/44/33 272/45/41
f 25/46/42 116/47/43 90/48/44
f 25/46/42 90/48/44 135/49/45
f 27/50/46 182/51/47 226/52/48
f 30/53/49 236/54/50 89/55/51
f 27/50/46 224/56/52 282/57/53
f 30/53/49 137/58/54 236/54/50
f 25/46/42 213/59/55 192/60/56
f 34/61/57 191/62/58 189/63/59
f 30/53/49 89/55/51 263/64/60
f 35/65/61 167/66/62 219/67/63
f 35/65/61 219/67/63 161/68/64
f 37/69/65 113/70/66 261/71/67
f 39/72/68 212/73/69 159/74/70
f 37/69/65 157/75/71 250/76/72
f 39/77/68 249/78/73 212/79/69
f 35/65/61 271/80/74 99/81/75
f 42/82/76 97/83/77 215/84/78
f 39/72/68 159/74/70 256/85/79
f 43/86/80 255/87/81 266/88/82
f 44/89/83 217/90/84 237/91/85
f 45/92/86 265/93/87 88/94/88
f 45/95/86 186/96/89 96/97/90
f 46/98/91 234/99/92 131/100/93
f 44/101/83 128/102/94 190/103/95
f 31/104/96 239/105/97 163/106/98
f 47/107/99 169/108/100 166/109/101
f 48/110/102 216/111/103 248/112/104
f 49/113/105 275/114/106 175/115/107
f 50/116/108 102/117/109 207/118/110
f 49/119/105 270/120/111 142/121/112
f 48/122/102 94/123/113 204/124/114
f 3/4/4 285/125/115 228/126/116
f 2/17/17 103/19/19 136/127/117
f 1/1/1 183/3/3 278/128/118
f 1/1/1 278/128/118 168/129/119
f 5/7/7 122/9/9 119/13/13
f 1/1/1 168/129/119 160/16/16
f 13/21/21 205/40/38 110/22/22
f 16/24/24 114/42/40 98/25/25
f 17/30/28 258/130/120 283/31/29
f 13/27/21 247/29/27 176/131/121
f 17/30/28 126/32/30 118/36/34
f 13/21/21 176/132/121 177/39/37
f 16/24/24 86/133/122 91/41/39
f 24/134/123 257/135/124 288/136/125
f 25/46/42 192/60/56 116/47/43
f 34/61/57 189/63/59 87/137/126
f 27/50/46 233/138/127 182/51/47
f 25/46/42 135/49/45 280/139/128
f 27/50/46 226/52/48 224/56/52
f 25/46/42 280/139/128 213/59/55
f 35/65/61 99/81/75 167/66/62
f 42/82/76 215/84/78 134/140/129
f 37/69/65 267/141/130 113/70/66
f 35/65/61 161/68/64 260/142/131
f 37/69/65 261/71/67 157/75/71
f 35/65/61 260/142/131 271/80/74
f 44/89/83 190/143/95 117/144/132
f 43/145/80 241/146/133 141/147/134
f 43/86/80 141/148/134 255/87/81
f 44/89/83 117/144/132 217/90/84
f 45/92/86 276/149/135 265/93/87
f 44/101/83 237/150/85 181/151/136
f 45/95/86 88/152/88 186/96/89
f 46/98/91 242/153/137 234/99/92
f 44/101/83 181/151/136 128/102/94
f 43/145/80 279/154/138 241/146/133
f 46/98/91 131/100/93 227/155/139
f 48/110/102 204/156/114 210/157/140
f 47/107/99 139/158/141 169/108/100
f 48/110/102 210/157/140 216/111/103
f 48/122/102 248/159/104 156/160/142
f 49/119/105 175/161/107 270/120/111
f 50/116/108 281/162/143 102/117/109
f 48/122/102 156/160/142 94/123/113
f 47/163/99 149/164/144 139/165/141
f 50/116/108 207/118/110 187/166/145
f 319/167/146 85/168/147 53/169/148 130/170/149
f 318/171/150 287/172/151 57/173/152 148/174/153
f 317/175/154 112/176/155 52/177/156 235/178/157
f 316/179/158 222/180/159 56/181/160 231/182/161
f 315/183/162 245/184/163 60/185/164 244/186/165
f 314/187/166 203/188/167 52/177/156 112/176/155
f 313/189/168 124/190/169 56/181/160 222/180/159
f 312/191/170 92/192/171 60/185/164 245/184/163
f 311/193/172 201/194/173 63/195/174 273/196/175
f 310/197/176 105/198/177 65/199/178 184/200/179
f 309/201/180 206/202/181 68/203/182 147/204/183
f 308/205/184 200/206/185 72/207/186 138/208/187
f 307/209/188 179/210/189 76/211/190 140/212/191
f 306/213/192 259/214/193 66/215/194 197/216/195
f 305/217/196 171/218/197 78/219/198 188/220/199
f 304/221/200 152/222/201 69/223/202 144/224/203
f 303/225/204 129/226/205 75/227/206 238/228/207
f 302/229/208 101/230/209 70/231/210 230/232/211
f 301/233/212 286/234/213 74/235/214 93/236/215
f 300/237/216 109/238/217 67/239/218 268/240/219
f 299/241/220 290/242/221 80/243/222 111/244/223
f 298/245/224 240/246/225 79/247/226 246/248/227
f 297/249/228 143/250/229 78/219/198 171/218/197
f 296/251/230 229/252/231 81/253/232 108/254/233
f 295/255/234 145/256/235 73/257/236 180/258/237
f 294/259/238 127/260/239 77/261/240 120/262/241
f 293/263/242 193/264/243 83/265/244 146/266/245
f 292/267/246 170/268/247 84/269/248 211/270/249
f 290/271/221 292/267/246 211/270/249 80/272/222
f 76/273/190 180/258/237 292/267/246 290/271/221
f 180/258/237 73/257/236 170/268/247 292/267/246
f 170/268/247 293/263/242 146/266/245 84/269/248
f 73/257/236 138/208/187 293/263/242 170/268/247
f 138/208/187 72/207/186 193/264/243 293/263/242
f 200/206/185 294/259/238 120/262/241 72/207/186
f 71/274/250 289/275/251 294/259/238 200/206/185
f 289/275/251 74/276/214 127/260/239 294/259/238
f 179/277/189 295/255/234 180/258/237 76/273/190
f 75/278/206 230/279/211 295/255/234 179/277/189
f 230/279/211 70/280/210 145/256/235 295/255/234
f 193/264/243 296/251/230 108/254/233 83/265/244
f 72/207/186 120/262/241 296/251/230 193/264/243
f 120/262/241 77/261/240 229/252/231 296/251/230
f 289/281/251 297/249/228 171/218/197 74/235/214
f 71/282/250 284/283/252 297/249/228 289/281/251
f 284/283/252 82/284/253 143/250/229 297/249/228
f 284/285/252 298/245/224 246/248/227 82/286/253
f 71/287/250 243/288/254 298/245/224 284/285/252
f 243/288/254 70/231/210 240/246/225 298/245/224
f 229/252/231 299/241/220 111/244/223 81/253/232
f 77/261/240 140/212/191 299/241/220 229/252/231
f 140/212/191 76/211/190 290/242/221 299/241/220
f 259/214/193 300/237/216 268/240/219 66/215/194
f 64/289/255 253/290/256 300/237/216 259/214/193
f 253/290/256 63/195/174 109/238/217 300/237/216
f 109/238/217 301/233/212 93/236/215 67/239/218
f 63/195/174 201/194/173 301/233/212 109/238/217
f 201/194/173 62/291/257 286/234/213 301/233/212
f 129/292/205 302/229/208 230/232/211 75/293/206
f 61/294/258 195/295/259 302/229/208 129/292/205
f 195/295/259 65/199/178 101/230/209 302/229/208
f 286/234/213 303/225/204 238/228/207 74/235/214
f 62/291/257 155/296/260 303/225/204 286/234/213
f 155/296/260 61/297/258 129/226/205 303/225/204
f 240/246/225 304/221/200 144/224/203 79/247/226
f 70/231/210 197/216/195 304/221/200 240/246/225
f 197/216/195 66/215/194 152/222/201 304/221/200
f 206/202/181 305/217/196 188/220/199 68/203/182
f 67/239/218 93/236/215 305/217/196 206/202/181
f 93/236/215 74/235/214 171/218/197 305/217/196
f 101/230/209 306/213/192 197/216/195 70/231/210
f 65/199/178 105/198/177 306/213/192 101/230/209
f 105/198/177 64/289/255 259/214/193 306/213/192
f 127/260/239 307/209/188 140/212/191 77/261/240
f 74/276/214 238/298/207 307/209/188 127/260/239
f 238/298/207 75/299/206 179/210/189 307/209/188
f 145/256/235 308/205/184 138/208/187 73/257/236
f 70/280/210 243/300/254 308/205/184 145/256/235
f 243/300/254 71/274/250 200/206/185 308/205/184
f 152/222/201 309/201/180 147/204/183 69/223/202
f 66/215/194 268/240/219 309/201/180 152/222/201
f 268/240/219 67/239/218 206/202/181 309/201/180
f 287/172/151 310/197/176 184/200/179 57/173/152
f 56/181/160 124/190/169 310/197/176 287/172/151
f 124/190/169 64/289/255 105/198/177 310/197/176
f 85/168/147 311/193/172 273/196/175 53/169/148
f 52/177/156 203/188/167 311/193/172 85/168/147
f 203/188/167 62/291/257 201/194/173 311/193/172
f 184/200/179 312/191/170 245/184/163 57/173/152
f 65/199/178 195/295/259 312/191/170 184/200/179
f 195/295/259 61/294/258 92/192/171 312/191/170
f 273/196/175 313/189/168 222/180/159 53/169/148
f 63/195/174 253/290/256 313/189/168 273/196/175
f 253/290/256 64/289/255 124/190/169 313/189/168
f 92/301/171 314/187/166 112/176/155 60/302/164
f 61/297/258 155/296/260 314/187/166 92/301/171
f 155/296/260 62/291/257 203/188/167 314/187/166
f 196/303/261 315/183/162 244/186/165 59/304/262
f 58/305/263 148/174/153 315/183/162 196/303/261
f 148/174/153 57/173/152 245/184/163 315/183/162
f 174/306/264 316/179/158 231/182/161 55/307/265
f 54/308/266 130/170/149 316/179/158 174/306/264
f 130/170/149 53/169/148 222/180/159 316/179/158
f 254/309/267 317/175/154 235/178/157 51/310/268
f 59/311/262 244/312/165 317/175/154 254/309/267
f 244/312/165 60/302/164 112/176/155 317/175/154
f 106/313/269 318/171/150 148/174/153 58/305/263
f 55/307/265 231/182/161 318/171/150 106/313/269
f 231/182/161 56/181/160 287/172/151 318/171/150
f 125/314/270 319/167/146 130/170/149 54/308/266
f 51/310/268 235/178/157 319/167/146 125/314/270
f 235/178/157 52/177/156 85/168/147 319/167/146
f 187/166/145 228/126/116 38/315/271
f 187/166/145 207/118/110 228/126/116
f 207/118/110 3/4/4 228/126/116
f 139/165/141 208/316/272 36/317/273
f 139/165/141 149/164/144 208/316/272
f 149/164/144 38/315/271 208/316/272
f 94/123/113 187/166/145 38/315/271
f 94/123/113 156/160/142 187/166/145
f 156/160/142 50/116/108 187/166/145
f 102/117/109 198/318/274 4/319/275
f 102/117/109 281/162/143 198/318/274
f 281/162/143 14/320/276 198/318/274
f 270/120/111 251/321/277 14/320/276
f 270/120/111 175/161/107 251/321/277
f 175/161/107 15/322/278 251/321/277
f 156/160/142 142/121/112 50/116/108
f 156/160/142 248/159/104 142/121/112
f 248/159/104 49/119/105 142/121/112
f 216/111/103 150/323/279 18/324/280
f 216/111/103 210/157/140 150/323/279
f 210/157/140 26/325/281 150/323/279
f 169/108/100 218/326/282 28/327/283
f 169/108/100 139/158/141 218/326/282
f 139/158/141 36/328/273 218/326/282
f 210/157/140 166/109/101 26/325/281
f 210/157/140 204/156/114 166/109/101
f 204/156/114 47/107/99 166/109/101
f 227/155/139 194/329/284 31/104/96
f 227/155/139 131/100/93 194/329/284
f 131/100/93 32/330/285 194/329/284
f 241/146/133 163/106/98 41/331/286
f 241/146/133 279/154/138 163/106/98
f 279/154/138 31/104/96 163/106/98
f 128/102/94 227/155/139 31/104/96
f 128/102/94 181/151/136 227/155/139
f 181/151/136 46/98/91 227/155/139
f 234/99/92 115/332/287 23/333/288
f 234/99/92 242/153/137 115/332/287
f 242/153/137 21/334/289 115/332/287
f 186/96/89 264/335/290 21/334/289
f 186/96/89 88/152/88 264/335/290
f 88/152/88 22/336/291 264/335/290
f 181/151/136 96/97/90 46/98/91
f 181/151/136 237/150/85 96/97/90
f 237/150/85 45/95/86 96/97/90
f 265/93/87 202/337/292 10/338/293
f 265/93/87 276/149/135 202/337/292
f 276/149/135 8/339/294 202/337/292
f 217/90/84 173/340/295 8/339/294
f 217/90/84 117/144/132 173/340/295
f 117/144/132 9/341/296 173/340/295
f 255/87/81 107/342/297 11/343/298
f 255/87/81 141/148/134 107/342/297
f 141/148/134 40/344/299 107/342/297
f 141/147/134 262/345/300 40/346/299
f 141/147/134 241/146/133 262/345/300
f 241/146/133 41/331/286 262/345/300
f 117/144/132 266/88/82 9/341/296
f 117/144/132 190/143/95 266/88/82
f 190/143/95 43/86/80 266/88/82
f 271/80/74 256/85/79 33/347/301
f 271/80/74 260/142/131 256/85/79
f 260/142/131 39/72/68 256/85/79
f 157/75/71 199/348/302 11/343/298
f 157/75/71 261/71/67 199/348/302
f 261/71/67 12/349/303 199/348/302
f 260/142/131 250/350/72 39/72/68
f 260/142/131 161/68/64 250/350/72
f 161/68/64 37/351/65 250/350/72
f 113/70/66 208/316/272 38/315/271
f 113/70/66 267/141/130 208/316/272
f 267/141/130 36/317/273 208/316/272
f 134/140/129 132/352/304 28/327/283
f 134/140/129 215/84/78 132/352/304
f 215/84/78 29/353/305 132/352/304
f 167/66/62 134/140/129 28/327/283
f 167/66/62 99/81/75 134/140/129
f 99/81/75 42/82/76 134/140/129
f 213/59/55 263/64/60 23/333/288
f 213/59/55 280/139/128 263/64/60
f 280/139/128 30/53/49 263/64/60
f 224/56/52 232/354/306 33/347/301
f 224/56/52 226/52/48 232/354/306
f 226/52/48 29/353/305 232/354/306
f 280/139/128 282/57/53 30/53/49
f 280/139/128 135/49/45 282/57/53
f 135/49/45 27/50/46 282/57/53
f 182/51/47 291/355/307 28/327/283
f 182/51/47 233/138/127 291/355/307
f 233/138/127 26/325/281 291/355/307
f 87/137/126 223/356/308 18/324/280
f 87/137/126 189/63/59 223/356/308
f 189/63/59 19/357/309 223/356/308
f 116/47/43 87/137/126 18/324/280
f 116/47/43 192/60/56 87/137/126
f 192/60/56 34/61/57 87/137/126
f 288/136/125 185/358/310 10/338/293
f 288/136/125 257/135/124 185/358/310
f 257/135/124 22/359/291 185/358/310
f 91/41/39 288/136/125 10/338/293
f 91/41/39 86/133/122 288/136/125
f 86/133/122 24/134/123 288/136/125
f 177/39/37 272/45/41 24/134/123
f 177/39/37 176/132/121 272/45/41
f 176/132/121 20/43/31 272/45/41
f 118/36/34 121/360/311 23/333/288
f 118/36/34 126/32/30 121/360/311
f 126/32/30 19/357/309 121/360/311
f 176/131/121 172/37/35 20/33/31
f 176/131/121 247/29/27 172/37/35
f 247/29/27 17/30/28 172/37/35
f 283/31/29 274/361/312 18/324/280
f 283/31/29 258/130/120 274/361/312
f 258/130/120 15/362/278 274/361/312
f 98/25/25 220/363/313 4/319/275
f 98/25/25 114/42/40 220/363/313
f 114/42/40 6/364/314 220/363/313
f 110/22/22 100/26/26 14/320/276
f 110/22/22 205/40/38 100/26/26
f 205/40/38 16/24/24 100/26/26
f 160/16/16 154/20/20 11/343/298
f 160/16/16 168/129/119 154/20/20
f 168/129/119 7/10/10 154/20/20
f 119/13/13 209/365/315 10/338/293
f 119/13/13 122/9/9 209/365/315
f 122/9/9 6/364/314 209/365/315
f 168/129/119 165/14/14 7/10/10
f 168/129/119 278/128/118 165/14/14
f 278/128/118 5/7/7 165/14/14
f 278/128/118 277/6/6 5/7/7
f 278/128/118 183/3/3 277/6/6
f 183/3/3 3/4/4 277/6/6
f 136/127/117 95/366/316 38/315/271
f 136/127/117 103/19/19 95/366/316
f 103/19/19 12/349/303 95/366/316
f 228/126/116 136/127/117 38/315/271
f 228/126/116 285/125/115 136/127/117
f 285/125/115 2/17/17 136/127/117
f 204/124/114 149/164/144 47/163/99
f 204/124/114 94/123/113 149/164/144
f 94/123/113 38/315/271 149/164/144
f 142/121/112 281/162/143 50/116/108
f 142/121/112 270/120/111 281/162/143
f 270/120/111 14/320/276 281/162/143
f 207/118/110 225/5/5 3/4/4
f 207/118/110 102/117/109 225/5/5
f 102/117/109 4/319/275 225/5/5
f 175/115/107 274/361/312 15/362/278
f 175/115/107 275/114/106 274/361/312
f 275/114/106 18/324/280 274/361/312
f 248/112/104 275/114/106 49/113/105
f 248/112/104 216/111/103 275/114/106
f 216/111/103 18/324/280 275/114/106
f 166/109/101 291/355/307 26/325/281
f 166/109/101 169/108/100 291/355/307
f 169/108/100 28/327/283 291/355/307
f 163/106/98 153/367/317 41/331/286
f 163/106/98 239/105/97 153/367/317
f 239/105/97 33/347/301 153/367/317
f 190/103/95 279/154/138 43/145/80
f 190/103/95 128/102/94 279/154/138
f 128/102/94 31/104/96 279/154/138
f 131/100/93 162/368/318 32/330/285
f 131/100/93 234/99/92 162/368/318
f 234/99/92 23/333/288 162/368/318
f 96/97/90 242/153/137 46/98/91
f 96/97/90 186/96/89 242/153/137
f 186/96/89 21/334/289 242/153/137
f 88/94/88 185/358/310 22/359/291
f 88/94/88 265/93/87 185/358/310
f 265/93/87 10/338/293 185/358/310
f 237/91/85 276/149/135 45/92/86
f 237/91/85 217/90/84 276/149/135
f 217/90/84 8/339/294 276/149/135
f 266/88/82 151/369/319 9/341/296
f 266/88/82 255/87/81 151/369/319
f 255/87/81 11/343/298 151/369/319
f 256/85/79 153/367/317 33/347/301
f 256/85/79 159/74/70 153/367/317
f 159/74/70 41/331/286 153/367/317
f 215/84/78 232/354/306 29/353/305
f 215/84/78 97/83/77 232/354/306
f 97/83/77 33/347/301 232/354/306
f 99/81/75 97/83/77 42/82/76
f 99/81/75 271/80/74 97/83/77
f 271/80/74 33/347/301 97/83/77
f 212/79/69 107/342/297 40/344/299
f 212/79/69 249/78/73 107/342/297
f 249/78/73 11/343/298 107/342/297
f 250/76/72 249/78/73 39/77/68
f 250/76/72 157/75/71 249/78/73
f 157/75/71 11/343/298 249/78/73
f 159/74/70 262/345/300 41/331/286
f 159/74/70 212/73/69 262/345/300
f 212/73/69 40/346/299 262/345/300
f 261/71/67 95/366/316 12/349/303
f 261/71/67 113/70/66 95/366/316
f 113/70/66 38/315/271 95/366/316
f 161/68/64 267/370/130 37/351/65
f 161/68/64 219/67/63 267/370/130
f 219/67/63 36/328/273 267/370/130
f 219/67/63 218/326/282 36/328/273
f 219/67/63 167/66/62 218/326/282
f 167/66/62 28/327/283 218/326/282
f 263/64/60 162/368/318 23/333/288
f 263/64/60 89/55/51 162/368/318
f 89/55/51 32/330/285 162/368/318
f 189/63/59 121/360/311 19/357/309
f 189/63/59 191/62/58 121/360/311
f 191/62/58 23/333/288 121/360/311
f 192/60/56 191/62/58 34/61/57
f 192/60/56 213/59/55 191/62/58
f 213/59/55 23/333/288 191/62/58
f 236/54/50 239/105/97 31/104/96
f 236/54/50 137/58/54 239/105/97
f 137/58/54 33/347/301 239/105/97
f 282/57/53 137/58/54 30/53/49
f 282/57/53 224/56/52 137/58/54
f 224/56/52 33/347/301 137/58/54
f 89/55/51 194/329/284 32/330/285
f 89/55/51 236/54/50 194/329/284
f 236/54/50 31/104/96 194/329/284
f 226/52/48 132/352/304 29/353/305
f 226/52/48 182/51/47 132/352/304
f 182/51/47 28/327/283 132/352/304
f 135/49/45 233/138/127 27/50/46
f 135/49/45 90/48/44 233/138/127
f 90/48/44 26/325/281 233/138/127
f 90/48/44 150/323/279 26/325/281
f 90/48/44 116/47/43 150/323/279
f 116/47/43 18/324/280 150/323/279
f 272/45/41 257/135/124 24/134/123
f 272/45/41 164/44/33 257/135/124
f 164/44/33 22/359/291 257/135/124
f 114/42/40 209/365/315 6/364/314
f 114/42/40 91/41/39 209/365/315
f 91/41/39 10/338/293 209/365/315
f 205/40/38 86/133/122 16/24/24
f 205/40/38 177/39/37 86/133/122
f 177/39/37 24/134/123 86/133/122
f 123/34/32 115/332/287 21/334/289
f 123/34/32 214/38/36 115/332/287
f 214/38/36 23/333/288 115/332/287
f 172/37/35 214/38/36 20/33/31
f 172/37/35 118/36/34 214/38/36
f 118/36/34 23/333/288 214/38/36
f 164/35/33 264/335/290 22/336/291
f 164/35/33 123/34/32 264/335/290
f 123/34/32 21/334/289 264/335/290
f 126/32/30 223/356/308 19/357/309
f 126/32/30 283/31/29 223/356/308
f 283/31/29 18/324/280 223/356/308
f 247/29/27 258/130/120 17/30/28
f 247/29/27 158/28/23 258/130/120
f 158/28/23 15/362/278 258/130/120
f 100/26/26 198/318/274 14/320/276
f 100/26/26 98/25/25 198/318/274
f 98/25/25 4/319/275 198/318/274
f 158/23/23 251/321/277 15/322/278
f 158/23/23 110/22/22 251/321/277
f 110/22/22 14/320/276 251/321/277
f 154/20/20 151/369/319 11/343/298
f 154/20/20 269/12/12 151/369/319
f 269/12/12 9/341/296 151/369/319
f 103/19/19 199/348/302 12/349/303
f 103/19/19 252/18/18 199/348/302
f 252/18/18 11/343/298 199/348/302
f 133/2/2 252/18/18 2/17/17
f 133/2/2 160/16/16 252/18/18
f 160/16/16 11/343/298 252/18/18
f 221/11/11 202/337/292 8/339/294
f 221/11/11 104/15/15 202/337/292
f 104/15/15 10/338/293 202/337/292
f 165/14/14 104/15/15 7/10/10
f 165/14/14 119/13/13 104/15/15
f 119/13/13 10/338/293 104/15/15
f 269/12/12 173/340/295 9/341/296
f 269/12/12 221/11/11 173/340/295
f 221/11/11 8/339/294 173/340/295
f 122/9/9 220/363/313 6/364/314
f 122/9/9 178/8/8 220/363/313
f 178/8/8 4/319/275 220/363/313
f 277/6/6 178/8/8 5/7/7
f 277/6/6 225/5/5 178/8/8
f 225/5/5 4/319/275 178/8/8
f 183/3/3 285/125/115 3/4/4
f 183/3/3 133/2/2 285/125/115
f 133/2/2 2/17/17 285/125/115
