# Blender v2.78 (sub 0) OBJ File: ''
# www.blender.org
mtllib Apple_Tree_NoLeaves_crk_m_01.mtl
o Apple_Tree_NoLeaves_crk_m_01
v 0.121548 0.038003 0.186436
v 0.154570 0.429480 0.183318
v -0.027062 0.420877 0.185014
v -0.109666 0.036607 0.187218
v -0.181116 0.036176 -0.032715
v -0.083057 0.416622 0.012334
v 0.063539 0.427762 -0.095691
v 0.005941 0.037305 -0.169544
v 0.192997 0.038434 -0.034038
v 0.210135 0.438903 0.010291
v 0.171858 0.775076 0.062402
v 0.136040 0.682075 0.198829
v -0.020227 0.757452 0.204414
v -0.080911 0.757688 0.056628
v 0.049754 0.769114 -0.040590
v -0.098758 1.165954 0.098105
v 0.019944 1.174597 0.003152
v -0.067182 1.275640 -0.172999
v -0.046522 1.149329 -0.119444
v -0.487018 0.654267 -0.728129
v -0.512244 0.736554 -0.791080
v -0.230432 1.238181 -0.043516
v -0.197834 1.319404 -0.153677
v -0.644197 0.754698 -0.757828
v -0.648705 0.753295 -0.584869
v -0.156536 1.123877 -0.034164
v -0.603460 0.623764 -0.657471
v -0.770265 0.266349 -1.588086
v -0.724422 0.281377 -1.615134
v -0.734356 0.307224 -1.641853
v -0.786529 0.308945 -1.631808
v -0.722272 0.597003 -0.803115
v -0.809792 0.278505 -1.604652
v -1.041472 0.516691 -0.859590
v -1.047452 0.594012 -0.852574
v -0.734760 0.030798 -2.547986
v -0.740671 0.027021 -2.539685
v -0.732920 0.023095 -2.540446
v -0.723955 0.040848 -2.508414
v -1.018185 0.526070 -0.779277
v -1.071836 0.573433 -0.778942
v -1.792615 0.346178 -0.800081
v -1.755475 0.322586 -0.793249
v -1.759618 0.314248 -0.844066
v -1.772486 0.358177 -0.841099
v -2.194024 0.038471 -1.045713
v -2.210034 0.026755 -1.041642
v -2.198107 0.021064 -1.050014
v -2.190315 0.030659 -1.030791
v 0.009569 1.585768 0.145401
v 0.084851 1.503999 0.065510
v -0.065792 1.466936 0.181473
v 0.126567 1.168294 0.107007
v -0.037906 1.152054 0.229897
v -0.141888 1.371091 0.082108
v -0.409070 1.049982 -0.436801
v -0.064607 1.159984 0.173676
v 0.150021 0.989961 0.082416
v -0.848946 0.653966 -0.700574
v -0.360650 0.889155 -0.316602
v -0.071168 0.213609 0.188157
v -0.683264 0.586268 -0.756145
v -0.528285 0.637263 -0.689596
v -0.084439 0.968939 0.084814
v -2.003036 0.166629 -0.914410
v -1.755636 0.315903 -0.818487
v -0.801287 0.294184 -1.618305
v -0.705309 0.656519 -0.810410
v -0.735852 0.165020 -2.082491
v -0.645383 0.776130 -0.643820
v -0.066338 0.758886 0.137548
v -0.757150 0.130441 -2.105973
v -0.765073 0.151745 -2.129047
v -0.289580 1.011812 -0.472176
v -0.166323 0.036392 0.084131
v -0.003428 1.195190 -0.046627
v -0.736045 0.022928 -2.565710
v -0.792401 0.271035 -1.594392
v 0.197352 0.608057 0.032253
v -2.003095 0.161112 -0.945746
v -1.396102 0.422501 -0.848376
v -1.774684 0.334259 -0.793232
v -0.136540 0.211320 -0.013192
v 0.036948 0.977273 -0.008845
v 0.193695 0.435138 0.100423
v -0.077054 1.477475 0.019595
v -2.210528 0.020562 -1.042827
v -0.621968 0.700760 -0.586243
v 0.121693 0.775856 -0.001775
v -0.728034 0.024008 -2.572350
v -0.133672 1.303350 -0.179843
v 0.079068 1.171371 0.063282
v -1.062078 0.588149 -0.815523
v -0.230627 1.280690 -0.102537
v -0.018074 1.237522 -0.076932
v -0.834647 0.676573 -0.799648
v -0.034882 0.972158 0.219711
v -0.732090 0.155692 -2.072119
v -0.778257 0.138858 -2.110317
v -0.759180 0.449621 -1.166331
v -0.621973 0.459190 -1.158469
v -0.125092 1.284817 -0.075340
v 0.020043 1.410930 -0.042545
v -0.120773 1.176619 0.046054
v -0.564996 0.756741 -0.780536
v 0.059745 0.598640 -0.067132
v -2.012825 0.186990 -0.944736
v -1.784462 0.354691 -0.820761
v 0.063754 0.425179 0.196143
v -1.044195 0.555736 -0.861718
v -0.096730 1.129224 -0.072750
v 0.147571 0.571085 0.192429
v 0.015324 1.495312 0.132474
v 0.034607 0.217312 -0.138762
v -0.735289 0.019342 -2.562279
v 0.005941 0.037305 0.208861
v -1.384756 0.432240 -0.782057
v -0.853263 0.574278 -0.805778
v -0.440111 0.990912 -0.320048
v -0.259920 0.913064 -0.398107
v -0.039135 1.173393 0.052371
v -2.205086 0.018049 -1.046541
v -2.026372 0.179411 -0.920387
v -0.760000 0.309756 -1.638851
v -0.024952 0.588640 0.196344
v -1.408019 0.482629 -0.842994
v -0.639614 0.513069 -1.203522
v 0.205753 0.223305 -0.014908
v 0.051171 1.551647 0.116755
v -0.691274 0.437497 -1.112385
v 0.083344 0.779783 0.146364
v 0.112406 0.037870 -0.119665
v -1.045278 0.549368 -0.773474
v 0.045591 1.169661 0.172077
v -0.019007 1.534382 0.170778
v -0.720297 0.525865 -1.185705
v -0.492520 0.695132 -0.763391
v -0.066402 0.417803 0.102460
v -2.231828 0.002539 -1.062346
v 0.178205 0.038219 0.082948
v -0.198984 1.171277 -0.027232
v -0.021985 0.762814 -0.000846
v -0.157634 1.213488 0.032848
v -2.212183 0.024063 -1.050029
v -0.745690 0.272565 -1.600325
v -0.799574 0.577512 -0.713019
v -0.077646 0.586640 0.034311
v 0.149993 0.720554 0.139528
v -2.206741 0.021550 -1.053742
v -0.016769 0.421607 -0.051317
v -0.726945 0.019605 -2.568006
v 0.140381 0.221016 0.187123
v -1.027395 0.516955 -0.819669
v -1.431632 0.466030 -0.786574
v -0.100524 0.036741 -0.118917
v 0.068914 0.713183 0.199452
v 0.143847 0.433918 -0.052443
v -1.765414 0.336335 -0.846016
v -0.045114 1.205530 -0.148512
v -0.728127 0.278817 -1.680334
v 0.005799 1.193548 0.122019
v -0.090138 1.232798 -0.020159
v 0.063577 0.981647 0.159419
v -0.070976 0.969583 0.160795
v 0.104800 0.984583 0.028253
v 0.061417 0.578570 0.205765
v -0.015659 0.592054 -0.025662
v -0.059635 1.384112 0.019796
v -0.119804 1.425348 0.058303
v -0.019460 1.450036 -0.018942
v -0.052868 1.175488 0.011325
v -2.015202 0.172943 -0.915341
v -2.001844 0.162442 -0.929895
v -1.421998 0.477799 -0.814752
v -1.401608 0.452819 -0.850219
v -2.007462 0.174127 -0.947298
v -2.020820 0.184629 -0.932745
v -0.825282 0.569291 -0.760085
v -0.842933 0.671873 -0.749424
v -1.388257 0.423901 -0.815248
v -0.822805 0.615023 -0.699709
v -0.745003 0.488574 -1.177364
v -1.408648 0.448882 -0.779781
v -0.727539 0.003717 -2.633370
v -0.769098 0.133855 -2.106870
v -0.750026 0.152536 -2.133760
v -0.743080 0.134433 -2.113957
v -0.773453 0.145613 -2.119589
v -0.845410 0.626141 -0.809800
v -0.625536 0.486270 -1.183473
v -0.729061 0.440041 -1.137112
v -0.679170 0.524202 -1.196711
v -0.653568 0.446155 -1.131752
v -0.405011 0.937129 -0.311281
v -0.349337 1.036389 -0.461328
v -0.306492 0.893946 -0.354715
v -0.431597 1.025425 -0.377260
v -0.266894 0.962034 -0.439149
v -0.029754 0.972519 0.029629
v 0.135149 0.605226 -0.026670
v -0.062261 0.587984 0.119063
v 0.183423 0.589227 0.115709
v 0.128536 0.220601 -0.088409
v -0.117375 0.211991 0.091956
v 0.186588 0.222634 0.090448
v -0.059323 0.214023 -0.087466
v 0.034607 0.217312 0.201892
vt 0.3161 0.7810
vt 0.3167 0.7846
vt 0.3151 0.7846
vt 0.3143 0.7810
vt 0.3270 0.7814
vt 0.3260 0.7846
vt 0.3245 0.7845
vt 0.3252 0.7811
vt 0.3198 0.7811
vt 0.3198 0.7846
vt 0.3183 0.7846
vt 0.3179 0.7810
vt 0.3124 0.7814
vt 0.3135 0.7849
vt 0.3119 0.7851
vt 0.3106 0.7818
vt 0.3234 0.7811
vt 0.3230 0.7846
vt 0.3214 0.7846
vt 0.3216 0.7811
vt 0.3198 0.7869
vt 0.3184 0.7866
vt 0.3138 0.7875
vt 0.3123 0.7876
vt 0.3228 0.7871
vt 0.3213 0.7872
vt 0.6875 0.7856
vt 0.6798 0.7856
vt 0.6838 0.7823
vt 0.3252 0.7933
vt 0.3248 0.7967
vt 0.3236 0.7965
vt 0.3238 0.7931
vt 0.3201 0.8045
vt 0.3212 0.8044
vt 0.3213 0.8123
vt 0.3202 0.8124
vt 0.3154 0.8044
vt 0.3166 0.8046
vt 0.3169 0.8124
vt 0.3158 0.8118
vt 0.3224 0.8044
vt 0.3235 0.8043
vt 0.3235 0.8121
vt 0.3224 0.8122
vt 0.3178 0.8046
vt 0.3189 0.8045
vt 0.3191 0.8124
vt 0.3180 0.8124
vt 0.3247 0.8041
vt 0.3259 0.8040
vt 0.3257 0.8111
vt 0.3246 0.8116
vt 0.3224 0.8211
vt 0.3232 0.8210
vt 0.3230 0.8299
vt 0.3225 0.8300
vt 0.3193 0.8212
vt 0.3201 0.8212
vt 0.3210 0.8301
vt 0.3205 0.8301
vt 0.3240 0.8214
vt 0.3248 0.8218
vt 0.3240 0.8298
vt 0.3235 0.8299
vt 0.3209 0.8212
vt 0.3216 0.8212
vt 0.3220 0.8301
vt 0.3215 0.8301
vt 0.3317 0.8005
vt 0.3327 0.8009
vt 0.3327 0.8038
vt 0.3320 0.8037
vt 0.3209 0.8402
vt 0.3212 0.8401
vt 0.3225 0.8502
vt 0.3223 0.8502
vt 0.3228 0.8402
vt 0.3231 0.8401
vt 0.3232 0.8504
vt 0.3230 0.8504
vt 0.3216 0.8402
vt 0.3220 0.8403
vt 0.3229 0.8505
vt 0.3227 0.8504
vt 0.3234 0.8401
vt 0.3238 0.8400
vt 0.3236 0.8502
vt 0.3234 0.8503
vt 0.3276 0.8182
vt 0.3276 0.8181
vt 0.3277 0.8180
vt 0.3277 0.8182
vt 0.3347 0.8098
vt 0.3352 0.8102
vt 0.3351 0.8166
vt 0.3347 0.8163
vt 0.3178 0.8219
vt 0.3185 0.8212
vt 0.3200 0.8301
vt 0.3195 0.8302
vt 0.3349 0.7996
vt 0.3357 0.8000
vt 0.3353 0.8038
vt 0.3347 0.8033
vt 0.3336 0.8098
vt 0.3343 0.8095
vt 0.3344 0.8161
vt 0.3339 0.8163
vt 0.3297 0.8002
vt 0.3307 0.8001
vt 0.3312 0.8035
vt 0.3306 0.8038
vt 0.3334 0.8001
vt 0.3340 0.7994
vt 0.3341 0.8029
vt 0.3334 0.8033
vt 0.3326 0.8218
vt 0.3329 0.8216
vt 0.3334 0.8269
vt 0.3333 0.8270
vt 0.3332 0.8217
vt 0.3335 0.8218
vt 0.3336 0.8270
vt 0.3335 0.8270
vt 0.3324 0.8100
vt 0.3331 0.8102
vt 0.3334 0.8165
vt 0.3329 0.8164
vt 0.3313 0.8102
vt 0.3318 0.8099
vt 0.3323 0.8163
vt 0.3320 0.8166
vt 0.3285 0.8219
vt 0.3284 0.8219
vt 0.3284 0.8218
vt 0.3283 0.8217
vt 0.3284 0.8217
vt 0.3338 0.8216
vt 0.3341 0.8215
vt 0.3338 0.8269
vt 0.3337 0.8270
vt 0.3343 0.8217
vt 0.3345 0.8219
vt 0.3340 0.8271
vt 0.3339 0.8270
vt 0.3305 0.7899
vt 0.3311 0.7918
vt 0.3296 0.7917
vt 0.3292 0.7897
vt 0.3292 0.7937
vt 0.3357 0.7899
vt 0.3350 0.7918
vt 0.3350 0.7889
vt 0.3196 0.7924
vt 0.3185 0.7921
vt 0.3183 0.7886
vt 0.3195 0.7894
vt 0.3173 0.7926
vt 0.3162 0.7931
vt 0.3160 0.7905
vt 0.3171 0.7896
vt 0.6722 0.8326
vt 0.6763 0.8292
vt 0.6759 0.8361
vt 0.6896 0.8328
vt 0.6901 0.8260
vt 0.6997 0.8262
vt 0.6991 0.8329
vt 0.3257 0.7872
vt 0.3255 0.7898
vt 0.3241 0.7897
vt 0.3243 0.7871
vt 0.3169 0.7869
vt 0.3170 0.7893
vt 0.3156 0.7899
vt 0.3153 0.7873
vt 0.3225 0.7931
vt 0.3212 0.7931
vt 0.3213 0.7897
vt 0.3227 0.7897
vt 0.3146 0.7935
vt 0.3133 0.7936
vt 0.3127 0.7902
vt 0.3142 0.7901
vt 0.6794 0.7971
vt 0.6722 0.7970
vt 0.6722 0.7856
vt 0.7047 0.8324
vt 0.7103 0.8320
vt 0.7101 0.8361
vt 0.7043 0.8378
vt 0.6789 0.8125
vt 0.6735 0.8124
vt 0.6722 0.8085
vt 0.6789 0.8086
vt 0.6844 0.8126
vt 0.6856 0.8086
vt 0.6831 0.8165
vt 0.6789 0.8164
vt 0.6748 0.8164
vt 0.6986 0.8396
vt 0.7051 0.8270
vt 0.7105 0.8279
vt 0.6866 0.7971
vt 0.3160 0.7934
vt 0.3163 0.7969
vt 0.3151 0.7969
vt 0.3138 0.7970
vt 0.3223 0.7965
vt 0.3211 0.7965
vt 0.3184 0.7886
vt 0.3275 0.7848
vt 0.3272 0.7874
vt 0.3269 0.7900
vt 0.6890 0.8396
vt 0.6795 0.8396
vt 0.6800 0.8327
vt 0.6805 0.8258
vt 0.3186 0.7956
vt 0.3174 0.7957
vt 0.3163 0.7958
vt 0.3207 0.7927
vt 0.3207 0.7901
vt 0.3208 0.7953
vt 0.3197 0.7954
vt 0.3342 0.7907
vt 0.3342 0.7878
vt 0.3342 0.7936
vt 0.3306 0.7937
vt 0.3287 0.7956
vt 0.3325 0.7919
vt 0.3300 0.7880
vt 0.3287 0.7878
vt 0.3313 0.7881
vt 0.3319 0.7900
vt 0.3285 0.8218
vt 0.3285 0.8217
vt 0.3283 0.8218
vt 0.3283 0.8219
vt 0.3307 0.8104
vt 0.3316 0.8168
vt 0.3299 0.8041
vt 0.3324 0.8219
vt 0.3332 0.8271
vt 0.3327 0.7981
vt 0.3333 0.7969
vt 0.3339 0.7958
vt 0.3288 0.8003
vt 0.3276 0.7966
vt 0.3289 0.7966
vt 0.3302 0.7966
vt 0.3350 0.7959
vt 0.3362 0.7961
vt 0.3171 0.8225
vt 0.3190 0.8302
vt 0.3151 0.8147
vt 0.3160 0.8135
vt 0.3276 0.8184
vt 0.3277 0.8184
vt 0.3275 0.8183
vt 0.3275 0.8182
vt 0.3275 0.8181
vt 0.3224 0.8403
vt 0.3206 0.8402
vt 0.3221 0.8502
vt 0.3314 0.7973
vt 0.3245 0.8130
vt 0.3255 0.8138
vt 0.3236 0.7965
vt 0.3248 0.7967
vt 0.3261 0.7968
vt 0.3163 0.7969
vt 0.3175 0.7968
vt 0.3187 0.7967
vt 0.3211 0.7965
vt 0.3223 0.7965
vt 0.3142 0.8041
vt 0.3147 0.8112
vt 0.3138 0.7970
vt 0.3151 0.7969
vt 0.3199 0.7966
vt 0.3265 0.7934
vt 0.3261 0.7968
vt 0.6761 0.7823
vt 0.6800 0.7789
vt 0.3198 0.7891
vt 0.3239 0.7776
vt 0.3218 0.7776
vt 0.3260 0.7777
vt 0.3114 0.7780
vt 0.3093 0.7786
vt 0.3135 0.7775
vt 0.3196 0.7775
vt 0.3175 0.7775
vt 0.3281 0.7781
vt 0.3302 0.7784
vt 0.3288 0.7816
vt 0.3155 0.7775
vn 0.0073 0.0231 0.9997
vn 0.0165 -0.0191 0.9997
vn -0.5690 0.0421 0.8213
vn -0.5774 0.1385 0.8046
vn -0.5763 0.2536 -0.7769
vn -0.5850 0.1899 -0.7884
vn 0.0118 0.1801 -0.9836
vn -0.0016 0.1939 -0.9810
vn 0.9503 -0.0596 0.3057
vn 0.9532 -0.0059 0.3024
vn 0.6109 -0.0249 0.7913
vn 0.5917 -0.0351 0.8054
vn -0.9278 0.2207 0.3009
vn -0.9460 0.1062 0.3064
vn -0.9345 0.1812 -0.3065
vn -0.9148 0.2787 -0.2925
vn 0.5844 0.0817 -0.8074
vn 0.5802 0.1214 -0.8054
vn 0.9491 0.0639 -0.3086
vn 0.9502 0.0015 -0.3118
vn 0.9459 0.0823 0.3139
vn 0.5977 0.0200 0.8015
vn -0.9456 -0.0239 0.3244
vn -0.9516 0.0439 -0.3042
vn 0.5857 0.1639 -0.7938
vn 0.9514 0.1510 -0.2683
vn 0.9716 0.2338 -0.0359
vn 0.5582 0.2632 0.7868
vn 0.7702 0.3903 0.5045
vn -0.6138 0.0618 -0.7870
vn -0.6204 0.0308 -0.7837
vn 0.0015 0.5677 -0.8233
vn -0.0013 0.1392 -0.9903
vn 0.8477 -0.1206 -0.5165
vn 0.8011 -0.5901 -0.1005
vn 0.8069 -0.5891 -0.0439
vn 0.9104 -0.0454 -0.4113
vn -0.8086 0.5835 0.0756
vn -0.4763 0.7934 -0.3790
vn -0.3548 0.8457 -0.3987
vn -0.6603 0.7491 0.0542
vn 0.4560 -0.8234 0.3378
vn -0.0127 -0.7705 0.6373
vn 0.0831 -0.8390 0.5377
vn 0.4297 -0.8502 0.3041
vn 0.0357 0.7266 -0.6861
vn 0.5613 0.3724 -0.7391
vn 0.5937 0.5057 -0.6259
vn 0.0038 0.8144 -0.5802
vn -0.5229 -0.4175 0.7431
vn -0.8428 0.1249 0.5235
vn -0.7474 0.2100 0.6303
vn -0.3702 -0.4713 0.8005
vn 0.4264 -0.8698 0.2481
vn 0.0763 -0.9352 0.3457
vn 0.0179 -0.9530 0.3025
vn 0.4409 -0.8664 0.2346
vn 0.0170 0.8858 -0.4638
vn 0.5683 0.6693 -0.4787
vn 0.5240 0.7543 -0.3956
vn -0.0015 0.9290 -0.3700
vn -0.4249 -0.8264 0.3694
vn -0.9458 -0.2553 0.2008
vn -0.9482 -0.2952 0.1170
vn -0.4214 -0.8563 0.2987
vn 0.9564 0.0626 -0.2854
vn 0.8322 -0.5545 0.0058
vn 0.8260 -0.5607 0.0580
vn 0.9613 0.2518 -0.1122
vn 0.1180 0.0934 -0.9886
vn 0.2777 -0.6340 -0.7217
vn 0.2497 -0.6351 -0.7310
vn 0.0919 0.0672 -0.9935
vn -0.8237 0.5274 -0.2081
vn -0.4627 0.8405 -0.2819
vn -0.4452 0.8506 -0.2798
vn -0.8825 0.4016 -0.2449
vn 0.5486 -0.8057 0.2233
vn 0.0496 -0.9676 0.2477
vn 0.0741 -0.9680 0.2398
vn 0.8165 -0.5686 0.1003
vn 0.0274 0.9580 -0.2853
vn 0.6398 0.7361 -0.2209
vn 0.9589 0.2728 -0.0786
vn 0.4739 0.8272 -0.3019
vn -0.4004 -0.8923 0.2085
vn -0.9530 -0.3029 0.0111
vn -0.9634 -0.2676 -0.0183
vn -0.5337 -0.8393 0.1032
vn -0.0480 -0.3630 -0.9306
vn -0.0442 0.0584 0.9973
vn -0.2351 0.6679 0.7061
vn -0.5018 0.5372 0.6779
vn -0.2010 -0.0392 0.9788
vn -0.8882 0.4497 -0.0946
vn -0.5129 0.7948 -0.3245
vn -0.5119 0.8058 -0.2978
vn -0.8695 0.4725 -0.1439
vn -0.2500 -0.3708 0.8944
vn -0.5192 0.4146 0.7473
vn -0.2946 0.6108 0.7349
vn -0.1276 -0.1443 0.9813
vn 0.2645 -0.9604 0.0874
vn 0.1678 -0.6587 0.7334
vn 0.1248 -0.6090 0.7833
vn 0.3745 -0.9180 0.1304
vn -0.4304 0.8977 0.0944
vn -0.2043 0.7726 -0.6011
vn -0.1655 0.7283 -0.6650
vn -0.3408 0.9298 0.1388
vn 0.1948 -0.9799 -0.0434
vn 0.0085 -0.8311 0.5560
vn 0.0777 -0.7928 0.6045
vn 0.2703 -0.9627 -0.0117
vn -0.5884 0.8060 -0.0650
vn -0.1995 0.6987 -0.6870
vn -0.1786 0.6788 -0.7122
vn -0.5392 0.7342 -0.4126
vn 0.3334 0.1532 -0.9302
vn 0.6314 -0.5306 -0.5655
vn 0.6373 -0.5437 -0.5461
vn 0.1109 0.2845 -0.9522
vn -0.0454 0.0773 -0.9960
vn 0.1812 -0.6950 -0.6958
vn 0.4366 -0.6304 -0.6418
vn 0.1241 0.1224 -0.9847
vn -0.3053 0.9413 0.1440
vn -0.2511 0.7525 -0.6088
vn -0.2554 0.7671 -0.5885
vn -0.4511 0.8907 0.0558
vn -0.7425 0.4023 0.5355
vn -0.7092 -0.5642 -0.4227
vn 0.2968 -0.8802 0.3703
vn 0.4950 -0.8570 0.1435
vn 0.0973 -0.7113 0.6961
vn 0.0760 -0.7157 0.6943
vn -0.3649 -0.2135 0.9062
vn -0.6868 0.4280 0.5875
vn -0.3137 -0.4880 0.8146
vn 0.1663 -0.9853 0.0387
vn -0.3693 -0.8779 0.3049
vn -0.0819 -0.7861 0.6126
vn 0.4375 -0.8418 0.3163
vn -0.6224 -0.3648 0.6925
vn 0.8060 -0.5782 -0.1266
vn 0.8799 -0.0515 -0.4724
vn 0.8350 -0.4702 -0.2859
vn 0.0938 0.7258 -0.6815
vn -0.4681 0.8086 -0.3563
vn 0.0536 0.9466 0.3179
vn 0.7882 0.6002 0.1361
vn -0.8272 0.5506 0.1122
vn -0.4887 -0.3735 0.7884
vn -0.3456 -0.2036 0.9160
vn -0.1663 0.3849 0.9078
vn 0.5053 -0.7575 0.4134
vn -0.7325 0.1982 0.6512
vn 0.6547 -0.0161 0.7557
vn -0.5958 0.1092 -0.7957
vn -0.6017 0.0930 -0.7933
vn -0.0205 0.1523 -0.9881
vn -0.0118 0.1589 -0.9872
vn 0.0190 -0.0321 0.9993
vn 0.2162 0.3112 0.9254
vn -0.3384 0.0400 0.9402
vn -0.5450 -0.0353 0.8377
vn 0.6438 0.1694 -0.7462
vn 0.9900 0.1281 0.0583
vn 0.6128 0.1686 -0.7721
vn -0.9229 -0.0492 0.3818
vn -0.9602 0.0067 -0.2791
vn -0.9540 0.0213 -0.2989
vn -0.9331 -0.0490 0.3562
vn 0.5963 -0.0083 0.8027
vn -0.2458 -0.0535 0.9678
vn 0.2118 0.8609 0.4626
vn 0.2677 0.8358 0.4793
vn 0.8749 -0.3408 0.3442
vn 0.7971 0.6038 0.0115
vn -0.0280 0.9963 0.0816
vn -0.6958 0.6046 0.3877
vn -0.2104 0.4109 0.8871
vn 0.4230 0.6358 0.6456
vn 0.4869 0.7359 -0.4705
vn 0.8295 0.5458 0.1182
vn -0.1112 0.9921 -0.0579
vn -0.8519 0.4922 -0.1792
vn 0.7364 0.4110 -0.5374
vn -0.4193 0.3852 0.8221
vn -0.0428 -0.3220 0.9458
vn 0.5452 0.2913 0.7861
vn 0.9016 -0.1104 -0.4183
vn 0.9798 0.0772 -0.1845
vn 0.6012 -0.5037 0.6204
vn -0.4825 0.7871 -0.3843
vn -0.8375 0.5362 0.1051
vn 0.0856 0.6969 -0.7120
vn -0.0326 -0.9858 -0.1646
vn -0.5791 -0.7213 -0.3799
vn -0.0558 -0.9691 0.2401
vn -0.5836 0.4659 -0.6651
vn 0.9463 -0.3133 0.0792
vn 0.5694 0.0733 -0.8188
vn 0.9392 -0.0107 -0.3431
vn -0.0483 0.1948 -0.9797
vn -0.9299 0.2290 0.2879
vn -0.9113 0.2826 -0.2995
vn -0.6193 0.1503 0.7706
vn 0.9497 -0.0725 0.3046
vn 0.5697 -0.0431 0.8207
vn -0.5809 0.2552 -0.7729
vn -0.0133 0.0239 0.9996
usemtl None
s 1
f 207/1/1 109/2/2 3/3/3 61/4/4
f 206/5/5 150/6/6 7/7/7 114/8/8
f 205/9/9 85/10/10 2/11/11 152/12/12
f 204/13/13 138/14/14 6/15/15 83/16/16
f 203/17/17 157/18/18 10/19/19 128/20/20
f 202/21/21 112/22/22 2/11/11 85/10/10
f 201/23/23 147/24/24 6/15/15 138/14/14
f 200/25/25 79/26/26 10/19/19 157/18/18
f 11/27/27 131/28/28 148/29/29
f 199/30/30 121/31/31 17/32/32 84/33/33
f 198/34/34 120/35/35 20/36/36 137/37/37
f 197/38/38 56/39/39 24/40/40 70/41/41
f 196/42/42 60/43/43 27/44/44 63/45/45
f 195/46/46 74/47/47 21/48/48 105/49/49
f 194/50/50 119/51/51 25/52/52 88/53/53
f 193/54/54 130/55/55 28/56/56 145/57/57
f 192/58/58 127/59/59 30/60/60 124/61/61
f 191/62/62 100/63/63 33/64/64 78/65/65
f 190/66/66 101/67/67 29/68/68 160/69/69
f 189/70/70 118/71/71 34/72/72 110/73/73
f 188/74/74 73/75/75 36/76/76 77/77/77
f 187/78/78 72/79/79 38/80/80 151/81/81
f 186/82/82 69/83/83 39/84/84 90/85/85
f 185/86/86 99/87/87 37/88/88 115/89/89
f 30/60/60 160/69/69 69/83/83
f 184/90/90 90/91/85 39/92/84 151/93/81
f 183/94/91 154/95/92 42/96/93 82/97/94
f 182/98/95 136/99/96 31/100/97 67/101/98
f 181/102/99 59/103/100 41/104/101 133/105/102
f 180/106/103 117/107/104 43/108/105 66/109/106
f 179/110/107 96/111/108 35/112/109 93/113/110
f 178/114/111 146/115/112 40/116/113 153/117/114
f 177/118/115 107/119/116 46/120/117 144/121/118
f 176/122/119 80/123/120 48/124/121 149/125/122
f 175/126/123 81/127/124 44/128/125 158/129/126
f 174/130/127 126/131/128 45/132/129 108/133/130
f 47/134/131 144/135/118 139/136/132
f 48/137/121 122/138/133 139/136/132
f 173/139/134 65/140/135 49/141/136 122/142/133
f 172/143/137 123/144/138 47/145/131 87/146/139
f 171/147/140 104/148/141 26/149/142 111/150/143
f 26/149/142 104/148/141 141/151/144
f 19/152/145 159/153/146 76/154/147
f 170/155/148 86/156/149 50/157/150 129/158/151
f 169/159/152 55/160/153 52/161/154 135/162/155
f 50/163/150 135/164/155 129/165/151
f 168/166/156 55/167/153 22/168/157 102/169/158
f 167/170/159 142/171/160 15/172/161 106/173/162
f 166/174/163 156/175/164 13/176/165 125/177/166
f 165/178/167 58/179/168 11/180/27 89/181/169
f 164/182/170 64/183/171 14/184/172 71/185/173
f 163/186/174 97/187/175 13/188/165 131/28/28
f 162/189/176 121/190/177 17/191/178 95/192/179
f 161/193/180 57/194/181 54/195/182 134/196/183
f 92/197/184 161/193/180 134/196/183 53/198/185
f 17/199/32 121/200/186 161/193/180 92/197/184
f 121/200/186 16/201/187 57/194/181 161/193/180
f 102/169/158 162/189/176 95/192/179 18/202/188
f 22/168/157 143/203/189 162/189/176 102/169/158
f 143/203/189 16/204/190 121/190/177 162/189/176
f 58/205/168 163/186/174 131/28/28 11/27/27
f 53/198/185 134/196/183 163/186/174 58/205/168
f 134/196/183 54/195/182 97/187/175 163/186/174
f 97/206/175 164/182/170 71/185/173 13/176/165
f 54/207/182 57/208/181 164/182/170 97/206/175
f 57/208/181 16/209/187 64/183/171 164/182/170
f 84/33/33 165/178/167 89/181/169 15/172/161
f 17/32/32 92/210/184 165/178/167 84/33/33
f 92/210/184 53/211/185 58/179/168 165/178/167
f 109/2/2 166/174/163 125/177/166 3/3/3
f 2/11/11 112/22/22 166/174/163 109/2/2
f 112/22/22 12/212/191 156/175/164 166/174/163
f 150/6/6 167/170/159 106/173/162 7/7/7
f 6/213/15 147/214/24 167/170/159 150/6/6
f 147/214/24 14/215/172 142/171/160 167/170/159
f 103/216/192 168/166/156 102/169/158 18/202/188
f 51/217/193 113/218/194 168/166/156 103/216/192
f 113/218/194 52/219/154 55/167/153 168/166/156
f 129/165/151 113/218/194 51/217/193
f 129/165/151 135/164/155 113/218/194
f 135/164/155 52/219/154 113/218/194
f 86/156/149 169/159/152 135/162/155 50/157/150
f 23/220/195 94/221/196 169/159/152 86/156/149
f 94/221/196 22/222/157 55/160/153 169/159/152
f 103/223/192 170/155/148 129/158/151 51/224/193
f 18/225/188 91/226/197 170/155/148 103/223/192
f 91/226/197 23/220/195 86/156/149 170/155/148
f 76/154/147 95/227/179 17/228/178
f 76/154/147 159/153/146 95/227/179
f 159/153/146 18/229/188 95/227/179
f 141/151/144 143/230/189 22/231/157
f 141/151/144 104/148/141 143/230/189
f 104/148/141 16/232/190 143/230/189
f 76/233/147 171/147/140 111/150/143 19/234/145
f 17/235/178 121/236/198 171/147/140 76/233/147
f 121/236/198 16/232/190 104/148/141 171/147/140
f 65/140/135 172/143/137 87/146/139 49/141/136
f 43/108/105 82/97/94 172/143/137 65/140/135
f 82/97/94 42/96/93 123/144/138 172/143/137
f 80/123/120 173/139/134 122/142/133 48/124/121
f 44/128/125 66/109/106 173/139/134 80/123/120
f 66/109/106 43/108/105 65/140/135 173/139/134
f 139/136/132 87/237/139 47/134/131
f 139/136/132 122/138/133 87/237/139
f 122/138/133 49/238/136 87/237/139
f 139/136/132 149/239/122 48/137/121
f 139/136/132 144/135/118 149/239/122
f 144/135/118 46/240/117 149/239/122
f 154/241/92 174/130/127 108/133/130 42/242/93
f 41/243/101 93/113/110 174/130/127 154/241/92
f 93/113/110 35/112/109 126/131/128 174/130/127
f 126/131/128 175/126/123 158/129/126 45/132/129
f 35/112/109 110/73/73 175/126/123 126/131/128
f 110/73/73 34/72/72 81/127/124 175/126/123
f 107/119/116 176/122/119 149/125/122 46/120/117
f 45/132/129 158/129/126 176/122/119 107/119/116
f 158/129/126 44/128/125 80/123/120 176/122/119
f 123/244/138 177/118/115 144/121/118 47/245/131
f 42/242/93 108/133/130 177/118/115 123/244/138
f 108/133/130 45/132/129 107/119/116 177/118/115
f 118/71/71 178/114/111 153/117/114 34/72/72
f 32/246/199 62/247/200 178/114/111 118/71/71
f 62/247/200 27/248/44 146/115/112 178/114/111
f 59/249/100 179/110/107 93/113/110 41/243/101
f 25/250/52 70/251/41 179/110/107 59/249/100
f 70/251/41 24/252/40 96/111/108 179/110/107
f 81/127/124 180/106/103 66/109/106 44/128/125
f 34/72/72 153/117/114 180/106/103 81/127/124
f 153/117/114 40/116/113 117/107/104 180/106/103
f 146/115/112 181/102/99 133/105/102 40/116/113
f 27/248/44 88/253/53 181/102/99 146/115/112
f 88/253/53 25/254/52 59/103/100 181/102/99
f 100/255/63 182/98/95 67/101/98 33/256/64
f 32/257/199 68/258/201 182/98/95 100/255/63
f 68/258/201 24/40/40 136/99/96 182/98/95
f 117/107/104 183/94/91 82/97/94 43/108/105
f 40/116/113 133/105/102 183/94/91 117/107/104
f 133/105/102 41/104/101 154/95/92 183/94/91
f 115/259/89 184/90/90 151/93/81 38/260/80
f 37/261/88 77/262/77 184/90/90 115/259/89
f 77/262/77 36/263/76 90/91/85 184/90/90
f 69/83/83 98/264/202 39/84/84
f 69/83/83 160/69/69 98/264/202
f 160/69/69 29/68/68 98/264/202
f 72/79/79 185/86/86 115/89/89 38/80/80
f 28/56/56 78/65/65 185/86/86 72/79/79
f 78/65/65 33/64/64 99/87/87 185/86/86
f 73/75/75 186/82/82 90/85/85 36/76/76
f 31/100/97 124/61/61 186/82/82 73/75/75
f 124/61/61 30/60/60 69/83/83 186/82/82
f 98/264/202 187/78/78 151/81/81 39/84/84
f 29/68/68 145/57/57 187/78/78 98/264/202
f 145/57/57 28/56/56 72/79/79 187/78/78
f 99/265/87 188/74/74 77/77/77 37/266/88
f 33/256/64 67/101/98 188/74/74 99/265/87
f 67/101/98 31/100/97 73/75/75 188/74/74
f 96/111/108 189/70/70 110/73/73 35/112/109
f 24/252/40 68/267/201 189/70/70 96/111/108
f 68/267/201 32/246/199 118/71/71 189/70/70
f 127/59/59 190/66/66 160/69/69 30/60/60
f 21/48/48 137/37/37 190/66/66 127/59/59
f 137/37/37 20/36/36 101/67/67 190/66/66
f 130/55/55 191/62/62 78/65/65 28/56/56
f 27/44/44 62/268/200 191/62/62 130/55/55
f 62/268/200 32/269/199 100/63/63 191/62/62
f 136/99/96 192/58/58 124/61/61 31/100/97
f 24/40/40 105/49/49 192/58/58 136/99/96
f 105/49/49 21/48/48 127/59/59 192/58/58
f 101/67/67 193/54/54 145/57/57 29/68/68
f 20/36/36 63/45/45 193/54/54 101/67/67
f 63/45/45 27/44/44 130/55/55 193/54/54
f 60/43/43 194/50/50 88/53/53 27/44/44
f 26/270/142 141/271/144 194/50/50 60/43/43
f 141/271/144 22/272/157 119/51/51 194/50/50
f 56/39/39 195/46/46 105/49/49 24/40/40
f 23/273/195 91/274/197 195/46/46 56/39/39
f 91/274/197 18/275/188 74/47/47 195/46/46
f 120/35/35 196/42/42 63/45/45 20/36/36
f 19/276/145 111/277/143 196/42/42 120/35/35
f 111/277/143 26/270/142 60/43/43 196/42/42
f 119/278/51 197/38/38 70/41/41 25/279/52
f 22/280/157 94/281/196 197/38/38 119/278/51
f 94/281/196 23/273/195 56/39/39 197/38/38
f 74/47/47 198/34/34 137/37/37 21/48/48
f 18/275/188 159/282/146 198/34/34 74/47/47
f 159/282/146 19/276/145 120/35/35 198/34/34
f 142/171/160 199/30/30 84/33/33 15/172/161
f 14/215/172 64/283/171 199/30/30 142/171/160
f 64/283/171 16/284/187 121/31/31 199/30/30
f 148/29/29 156/285/164 12/286/191
f 148/29/29 131/28/28 156/285/164
f 131/28/28 13/188/165 156/285/164
f 106/173/162 200/25/25 157/18/18 7/7/7
f 15/172/161 89/181/169 200/25/25 106/173/162
f 89/181/169 11/180/27 79/26/26 200/25/25
f 125/177/166 201/23/23 138/14/14 3/3/3
f 13/176/165 71/185/173 201/23/23 125/177/166
f 71/185/173 14/184/172 147/24/24 201/23/23
f 79/26/26 202/21/21 85/10/10 10/19/19
f 11/180/27 148/287/29 202/21/21 79/26/26
f 148/287/29 12/212/191 112/22/22 202/21/21
f 132/288/203 203/17/17 128/20/20 9/289/204
f 8/290/205 114/8/8 203/17/17 132/288/203
f 114/8/8 7/7/7 157/18/18 203/17/17
f 75/291/206 204/13/13 83/16/16 5/292/207
f 4/293/208 61/4/4 204/13/13 75/291/206
f 61/4/4 3/3/3 138/14/14 204/13/13
f 140/294/209 205/9/9 152/12/12 1/295/210
f 9/289/204 128/20/20 205/9/9 140/294/209
f 128/20/20 10/19/19 85/10/10 205/9/9
f 155/296/211 206/5/5 114/8/8 8/290/205
f 5/297/207 83/298/16 206/5/5 155/296/211
f 83/298/16 6/213/15 150/6/6 206/5/5
f 116/299/212 207/1/1 61/4/4 4/293/208
f 1/295/210 152/12/12 207/1/1 116/299/212
f 152/12/12 2/11/11 109/2/2 207/1/1
