# Blender v2.78 (sub 0) OBJ File: ''
# www.blender.org
mtllib Apple_Tree_Apples_s_04.mtl
o Apple_Tree_Apples_s_04
v 0.202093 2.456004 0.362201
v 0.307578 2.149299 0.154855
v 0.116073 2.472948 -0.215398
v -0.219340 2.697532 -0.255086
v -0.083272 2.721329 0.226102
v -0.334818 2.903746 0.218724
v 0.021454 2.497897 0.751968
v -0.259149 2.465696 0.984107
v -0.026353 2.137801 0.987496
v -0.423748 2.738449 0.687751
v 0.295669 1.890307 0.673084
v 0.329932 1.841793 0.147615
v -0.929803 2.796486 0.031862
v -0.553532 2.739137 -0.390696
v -0.875652 2.582674 -0.477085
v -0.610900 2.872014 0.146002
v -1.177986 2.508520 -0.048338
v -1.062512 2.110102 -0.594418
v -1.350967 2.240515 -0.141964
v -1.079046 2.604157 0.558297
v -1.097546 2.301533 0.819419
v -0.823535 2.585700 0.901522
v -1.370376 1.985080 0.361384
v -0.735470 2.785101 0.585165
v -1.206672 1.563124 -0.283294
v -0.831945 1.646083 -0.701557
v -0.948383 1.212222 -0.238671
v -0.408436 1.330050 -0.580188
v -0.673672 1.049266 -0.174501
v -1.194144 1.288326 0.332892
v -0.810015 1.315656 0.798607
v -1.221262 1.529076 0.735956
v -0.597778 1.009357 0.302949
v -1.314457 1.935273 -0.217318
v -0.023406 1.176124 -0.138564
v 0.035684 1.545311 -0.593240
v 0.236098 1.528361 0.021249
v 0.133189 2.041102 -0.501245
v 0.014359 1.211933 0.439333
v 0.019712 1.447399 0.817849
v -0.304883 1.194877 0.743540
v -0.375534 1.012710 -0.167266
v -0.218161 1.606778 0.985600
v -0.437763 1.941908 1.108890
v -0.663066 2.306291 1.042529
v -0.972518 1.793047 0.943712
v -0.308890 1.719854 -0.776968
v -0.522416 2.038786 -0.833703
v -0.693068 2.374547 -0.697675
v -0.224373 2.422576 -0.605201
v 0.049902 0.033577 -0.006407
v 0.063748 0.289821 0.005938
v 0.038701 0.289032 0.045280
v 0.015075 0.033808 0.044823
v -0.035049 0.033969 0.008572
v 0.001649 0.287811 0.016919
v 0.026618 0.288668 -0.022409
v -0.000332 0.033754 -0.042638
v -0.011416 0.578925 0.024383
v -0.042220 0.573864 0.002698
v 0.009607 0.584499 -0.006732
v -0.021184 0.579465 -0.028420
v -0.109429 0.882780 0.017400
v -0.130894 0.851614 0.064709
v -0.175239 0.854485 0.034642
v -0.150403 0.849730 -0.015034
v -0.154740 0.930771 0.041342
v -0.263601 1.002586 -0.024905
v -0.281206 0.982173 -0.031355
v -0.266953 0.979120 -0.053953
v -0.247363 0.995016 -0.045657
v -0.155472 0.951254 0.211479
v -0.419750 1.071056 -0.168297
v -0.406235 1.088165 -0.177864
v -0.411325 1.096702 -0.157309
v -0.424140 1.077836 -0.151628
v -0.129268 0.973829 0.217694
v -0.130839 1.163872 0.407681
v -0.149823 1.153521 0.415807
v -0.154055 0.981010 0.210872
v -0.149137 1.163073 0.404525
v -0.110642 0.916150 0.070254
v -0.012513 1.158499 0.090128
v -0.032840 1.166843 0.070215
v -0.007480 1.154102 0.064577
v 0.010791 2.621140 0.517961
v 0.008317 2.606111 0.578156
v 0.043505 2.636584 0.577805
v 0.054993 2.655184 0.532952
v 0.072114 2.636007 0.489165
v 0.044147 2.605389 0.467146
v 0.111984 2.636695 0.551030
v 0.082621 2.617732 0.602724
v 0.116033 2.576473 0.600078
v 0.146245 2.579556 0.560975
v 0.144642 2.575897 0.511438
v 0.118616 2.617007 0.491202
v 0.134555 2.518566 0.555968
v 0.099149 2.530830 0.606050
v 0.134978 2.530109 0.495041
v 0.097083 2.569361 0.461337
v 0.048263 2.570344 0.612593
v 0.069693 1.806285 -0.552769
v 0.093364 1.852199 -0.516845
v 0.129430 1.834918 -0.544486
v 0.117712 1.796197 -0.574446
v 0.104335 1.745537 -0.573738
v 0.061792 1.739745 -0.553649
v 0.135083 1.843365 -0.474751
v 0.072314 1.839755 -0.480119
v 0.089326 1.823106 -0.442109
v 0.123010 1.788670 -0.425682
v 0.165554 1.794463 -0.445771
v 0.186808 1.789029 -0.487994
v 0.169593 1.823556 -0.520507
v 0.162628 1.727951 -0.451512
v 0.109634 1.738011 -0.424974
v 0.097916 1.699290 -0.454934
v 0.133982 1.682009 -0.482575
v 0.161713 1.699648 -0.517247
v 0.189901 1.738461 -0.503372
v 0.092262 1.690844 -0.524669
v 0.057753 1.710652 -0.478913
v 0.043306 1.736433 -0.513934
v 0.138020 1.711102 -0.557311
v 0.168106 1.767409 -0.552876
v 0.063715 1.763220 -0.442139
v -0.932808 1.240691 -0.284662
v -0.974092 1.186176 -0.267521
v -0.985048 1.224206 -0.227215
v -0.961393 1.270005 -0.229241
v -0.879750 1.263389 -0.277112
v -0.854940 1.218511 -0.284964
v -0.892245 1.182593 -0.303849
v -0.933493 1.151353 -0.286537
v -0.870902 1.147294 -0.146623
v -0.831484 1.195508 -0.159401
v -0.868440 1.226904 -0.140813
v -0.911464 1.205392 -0.127436
v -0.948769 1.169474 -0.146321
v -0.928448 1.117314 -0.165744
v -0.897214 1.096620 -0.205643
v -0.846601 1.113732 -0.202072
v -0.818662 1.163779 -0.204069
v -0.968876 1.136693 -0.216985
v -0.983702 1.197575 -0.179314
v -0.918838 1.105915 -0.253950
v -0.857868 1.131834 -0.266256
v -0.821036 1.183114 -0.255303
v -0.951968 1.250914 -0.165151
v -1.165330 2.368726 -0.458131
v -1.208654 2.311300 -0.441769
v -1.220040 2.350825 -0.399879
v -1.191003 2.402840 -0.401955
v -1.138400 2.420622 -0.398243
v -1.105938 2.399115 -0.439711
v -1.084264 2.345930 -0.457961
v -1.120282 2.313678 -0.467992
v -1.165903 2.276133 -0.459596
v -1.063921 2.378976 -0.386456
v -1.115926 2.410964 -0.348037
v -1.100695 2.363740 -0.314169
v -1.059717 2.343988 -0.335021
v -1.051081 2.319003 -0.430291
v -1.203232 2.259872 -0.389247
v -1.167547 2.238695 -0.340209
v -1.182335 2.293941 -0.315805
v -1.218641 2.323148 -0.350095
v -1.151228 2.227885 -0.427665
v -1.138681 2.217952 -0.378461
v -1.090246 2.260283 -0.445075
v -1.179293 2.384026 -0.335248
v -1.148356 2.338220 -0.296922
v -0.937101 1.592975 0.872691
v -0.985691 1.567641 0.903068
v -0.992941 1.621582 0.914937
v -0.958704 1.654312 0.895821
v -0.910023 1.662817 0.899306
v -0.881369 1.619521 0.883403
v -0.870005 1.566276 0.895196
v -0.908355 1.532850 0.890650
v -0.952923 1.525042 0.910826
v -0.852759 1.630463 0.937560
v -0.896519 1.681952 0.943649
v -0.894089 1.665520 0.990965
v -0.861321 1.622921 0.998724
v -0.854071 1.568979 0.986856
v -0.846169 1.560490 0.938478
v -0.909911 1.597587 1.029101
v -0.938656 1.657712 1.011142
v -0.977007 1.624285 1.006597
v -0.965644 1.571041 1.018390
v -0.936989 1.527745 1.002486
v -0.888308 1.536250 1.005971
v -0.994252 1.560099 0.964232
v -1.000842 1.630072 0.963315
v -0.950493 1.508610 0.958143
v -0.889362 1.512912 0.947390
v -0.957650 1.677650 0.954403
v -1.121122 2.240185 -0.441955
v -0.754074 2.469586 0.970948
v 0.101271 2.596516 0.602973
v -1.087785 2.399168 -0.365981
v -0.883378 1.611163 1.017182
v -0.129803 1.075131 0.321845
v -0.683522 2.842174 0.384580
v -0.978344 1.637879 0.904898
v -0.275885 0.978975 -0.043541
v -0.894506 1.675144 0.969379
v -0.945915 1.117265 -0.236686
v 0.083780 1.742226 -0.566014
v -1.159807 2.251818 -0.446493
v 0.198042 1.510567 0.557818
v -1.216787 2.332741 -0.420190
v -0.847313 1.173727 -0.152008
v -0.960048 1.669693 0.923485
v -0.952506 1.515418 0.932413
v 0.047967 1.722848 -0.499703
v -1.330066 1.590002 0.338420
v 0.116857 1.765020 -0.423473
v -0.403717 1.870849 -0.813129
v -0.424733 2.813135 -0.088258
v -0.072547 0.721310 0.036857
v 0.041019 1.347514 0.671701
v 0.328620 1.980793 0.158336
v -0.226490 2.759290 0.474078
v -0.017347 0.144960 0.013770
v -1.082779 1.209770 0.039968
v -0.900434 2.722831 0.590784
v -0.993516 1.562209 0.932472
v 0.061550 2.629436 0.590775
v -0.538891 2.541540 0.920942
v -0.113723 0.852670 0.039550
v -0.635000 1.481783 -0.666197
v -0.090912 1.884522 1.005842
v -0.951015 1.546717 1.011386
v -1.102301 2.283175 -0.456815
v -0.139660 0.965687 0.222328
v -0.853496 1.628353 0.969320
v -1.137877 2.358223 -0.350305
v -1.047183 1.590582 -0.521953
v 0.114083 1.852162 -0.495759
v 0.094410 2.628775 0.488966
v -0.986508 1.212250 -0.204629
v 0.029075 2.638824 0.524234
v 0.274283 2.295326 0.272232
v -0.021196 1.160885 0.063717
v 0.151612 1.703414 -0.536826
v -0.914631 1.663566 1.001615
v 0.098722 2.630587 0.579313
v -0.138375 1.165004 0.404464
v 0.083068 1.751496 -0.432228
v -0.350525 1.030849 -0.114321
v -0.908240 1.606946 0.874168
v -1.184672 2.245971 -0.361044
v -0.924442 1.629637 1.023776
v -0.273835 0.992785 -0.025980
v -0.932380 1.526996 0.900177
v 0.190134 1.765432 -0.495043
v 0.107826 2.552550 0.604214
v -0.194485 2.576222 -0.449647
v 0.111939 1.836714 -0.456074
v 0.020744 0.434124 0.033052
v -0.829903 1.139112 -0.202823
v 0.119403 2.548142 0.474159
v -0.124843 0.882803 0.066466
v -0.362822 1.135021 -0.358301
v -1.190054 2.340870 -0.453260
v 0.137124 1.731185 -0.434825
v -0.007251 1.160996 0.156420
v -0.868668 1.552683 0.996894
v 0.144285 1.605633 0.783170
v -0.295579 1.366351 0.884527
v -0.907425 1.098598 -0.228463
v 0.047578 0.289279 -0.012088
v -0.630148 2.213151 -0.780588
v -0.106245 0.714677 0.013163
v -0.258498 1.047288 0.108509
v -0.119562 1.315582 0.794227
v -1.386827 2.162265 0.063072
v 0.010553 0.288152 -0.005544
v -0.897609 1.519064 0.917073
v 0.276995 2.232023 0.541987
v -0.209930 2.054242 1.072574
v 0.259425 2.122564 -0.159067
v -0.152358 0.850850 0.066823
v -0.836659 1.198999 -0.273966
v -0.133928 0.927540 0.022808
v -1.288957 2.339680 -0.104132
v -0.359148 1.036658 -0.095240
v -1.102308 1.363149 -0.272082
v -1.187972 2.397494 -0.367837
v -0.156860 0.936996 0.120143
v 0.130952 2.035929 0.881805
v 0.090221 1.803024 -0.564596
v 0.113262 1.682047 -0.503661
v -0.133402 2.319597 0.998327
v 0.172439 2.486750 0.089774
v -1.187234 2.291658 -0.453229
v 0.084052 2.650473 0.542264
v 0.024522 2.621591 0.578632
v -1.015393 2.727889 0.306815
v -0.902727 2.280386 0.963138
v -0.856332 1.126958 -0.172350
v -0.423752 1.071800 -0.158484
v 0.147327 2.577967 0.534488
v -0.541505 1.216465 0.766298
v -1.076106 2.353099 -0.324850
v 0.142239 2.545036 0.558986
v -0.895996 1.643845 0.890406
v -1.127788 2.418567 -0.374527
v -0.025315 0.033909 -0.022492
v -0.360646 1.541613 -0.729007
v -0.855778 1.594078 0.993433
v 0.139281 2.521197 0.524358
v -0.231512 1.073591 -0.159975
v 0.182610 1.752055 -0.529452
v -1.163646 2.414687 -0.400279
v 0.030088 0.033620 -0.032261
v 0.103114 1.716070 -0.439493
v 0.063338 2.592380 0.610761
v -0.885690 1.216848 -0.132144
v 0.155062 1.737527 -0.558094
v -0.956004 1.852535 -0.686646
v -0.375564 2.721685 -0.341352
v -0.973807 1.248873 -0.228461
v -0.808803 2.047994 1.032596
v -1.304311 1.695042 0.605768
v -0.953390 1.257469 -0.259677
v 0.010252 0.434174 -0.024738
v 0.224373 1.761968 -0.264120
v -0.374422 2.860235 0.408624
v -0.954759 2.608046 0.773222
v -0.982423 1.656822 0.959324
v -0.927028 1.684369 0.948881
v 0.024442 2.616374 0.489091
v 0.028810 0.145242 0.048041
v -0.943779 1.516899 0.982611
v -1.150328 2.224316 -0.360056
v -1.209862 2.283974 -0.417211
v -0.003769 0.582568 -0.020517
v -1.159629 2.560074 0.262724
v -0.794530 2.478447 -0.610944
v -0.286143 2.826439 0.005657
v -0.130211 0.854943 -0.006632
v -0.152315 1.063319 0.330612
v -0.845451 1.595202 0.937329
v -1.072224 1.406429 0.769803
v -1.180889 2.389092 -0.432846
v 0.132506 2.610316 0.557144
v -0.124279 2.514412 0.887412
v -0.151449 0.898551 0.126529
v -1.215165 2.290265 -0.368533
v 0.078335 1.703003 -0.465255
v -0.253677 1.000472 -0.034394
v -0.057811 1.042647 0.076389
v 0.057383 2.620929 0.476822
v -1.371781 1.941475 0.006857
v -0.152520 1.157240 0.410617
v -0.227947 0.921746 0.000761
v -0.114121 1.646690 -0.713831
v -0.938773 1.583616 1.027624
v -0.406974 1.095080 -0.169066
v -0.848542 1.564260 0.964658
v 0.150053 1.701448 -0.465411
v -1.340077 2.091008 -0.177007
v -0.874080 1.590974 0.888156
v -1.059753 2.059651 0.871220
v -0.864588 1.533740 0.942469
v 0.107976 2.591481 0.472460
v -0.018842 2.444282 -0.449822
v 0.110488 1.769188 -0.575948
v -0.124695 0.926495 0.136038
v -1.100034 2.331540 -0.463874
v -0.106716 0.901482 0.045151
v 0.119879 2.521588 0.584472
v -0.912014 1.104043 -0.186334
v -0.817157 1.169578 -0.230481
v -0.871572 1.201976 -0.295736
v 0.180434 1.806074 -0.503227
v -1.221557 2.338400 -0.376405
v 0.072785 1.697255 -0.501716
v -0.164809 1.159706 0.604378
v -1.249611 2.346993 0.472327
v -0.927293 1.128573 -0.272765
v 0.144278 1.782712 -0.567192
v -0.850128 1.076140 0.057598
v 0.341928 2.052858 0.420472
v 0.074929 1.712704 -0.541401
v -1.328974 1.709780 0.035927
v -0.914079 1.530100 1.005455
v -1.244773 2.207076 -0.344185
v -0.746589 1.118997 0.576270
v -0.906277 1.413948 -0.501982
v -0.157957 0.970143 0.216742
v -0.989743 1.627782 0.987332
v 0.075903 2.601667 0.287605
v -1.029372 2.557782 -0.296453
v 0.035118 2.314560 0.892652
v -0.045851 2.257788 -0.600854
v -0.949304 1.625420 0.880762
v 0.233835 2.313130 -0.050143
v -1.162783 2.359492 -0.311669
v -0.602698 2.778595 0.647751
v -0.970479 2.381163 -0.550774
v -0.856703 2.254917 -0.701794
v -0.899791 1.128861 -0.153059
v 0.064023 2.647008 0.508906
v -0.412517 1.078415 -0.175725
v -1.059795 2.360533 -0.353863
v -0.501028 1.448541 0.931287
v -0.886970 1.549578 0.891617
v -0.166273 0.845272 0.000297
v 0.107158 1.805663 -0.431656
v -0.707328 1.830779 1.052137
v -1.093465 2.371825 -0.451351
v -0.953683 1.166907 -0.279247
v 0.081087 1.833766 -0.538744
v -0.835396 1.159590 -0.261396
v -0.969317 1.543613 0.906108
v -0.940249 1.143942 -0.153845
v 0.149682 1.689519 -0.501131
v 0.166818 1.761160 -0.445868
v 0.154560 1.836953 -0.497704
v 0.098026 1.765450 -0.570498
v -0.053195 1.033623 0.044696
v -0.849517 1.118875 -0.234900
v 0.149011 1.831205 -0.534165
v -0.034647 0.576142 -0.014896
v -0.443464 2.402140 1.022252
v -0.956396 1.214258 -0.279276
v -0.344482 1.754061 1.058215
v -0.868472 1.245210 -0.281779
v 0.302324 1.726544 0.099618
v -0.182174 2.648338 0.719818
v -0.966639 1.182276 -0.160327
v 0.017781 0.288388 0.034952
v 0.033154 1.358911 -0.390509
v -1.202648 2.355179 -0.340299
v -0.451777 2.889148 0.191996
v 0.060535 0.145220 0.000038
v 0.064382 1.757787 0.895823
v -0.766404 2.700784 0.768414
v -0.532626 2.848317 0.431661
v -0.028838 0.575808 0.016482
v -1.238471 1.417258 0.024204
v -0.603538 2.564606 -0.575832
v 0.075569 1.794014 -0.436624
v -1.236645 1.429643 0.576208
v -0.963962 2.462523 0.884936
v -0.083292 0.722049 -0.020884
v -0.589928 2.827637 -0.138008
v -0.857269 1.562780 0.914460
v -0.385284 2.591071 -0.527493
v -0.753779 2.800325 -0.198074
v -0.903233 1.673663 0.919181
v -0.229276 2.830629 0.216803
v -1.135513 2.387499 -0.452168
v 0.117836 2.630202 0.520096
v -1.146022 2.219209 -0.399579
v -0.151666 1.077614 0.317787
v 0.048355 2.647324 0.557450
v -1.107138 2.387415 -0.328483
v -0.968314 1.228395 -0.169889
v -0.932933 1.660462 0.896337
v -0.822690 1.176141 -0.179695
v -0.877695 1.646949 0.995684
v -1.053334 2.352868 -0.413169
v 0.058550 1.733398 -0.456463
v -0.180081 0.898578 0.041402
v -1.229727 1.986286 -0.400400
v 0.179746 1.731424 -0.476454
v 0.112603 1.844885 -0.532416
v -0.625904 1.614191 0.994279
v -1.123018 2.412908 -0.418312
v -1.127962 1.628337 0.824696
v 0.276554 1.917908 -0.129893
v -0.897708 1.565142 1.021030
v -0.887874 1.114724 -0.262447
v -0.932137 1.186009 -0.135549
v 0.115406 1.697495 -0.543346
v 0.070217 2.588908 0.459054
v 0.134131 2.595854 0.501164
v 0.042697 0.437182 -0.000717
v 0.143566 1.791982 -0.433406
v -0.255114 1.068180 0.377853
v 0.176391 1.716481 -0.511064
v -0.551345 2.127173 1.100579
v 0.191794 2.240886 0.748317
v 0.165054 1.363058 0.251208
v -0.900441 1.255151 -0.283178
v 0.157870 1.537572 -0.329022
v -1.143660 1.800726 -0.494705
v -0.886964 1.520869 0.978307
v -1.168968 2.317723 -0.303990
v -1.305641 2.317777 0.184071
v -0.086226 1.053975 0.053243
v 0.054805 0.289515 0.028408
v -0.049609 0.728672 0.002813
v -0.998470 1.626302 0.937134
v -1.239644 2.166975 0.648791
v -1.065756 2.287521 -0.440846
v -1.001561 1.595360 0.964463
v 0.049708 1.735391 -0.531924
v -0.936752 1.117115 0.336160
v -1.124424 2.443069 0.706629
v 0.136334 2.473635 0.559416
v -0.579952 1.154701 -0.369383
v -0.906370 2.711325 -0.252205
v -0.179899 0.936518 -0.011363
v -0.036716 2.640287 0.511055
v 0.171826 1.797239 -0.538551
v -1.179369 2.239681 -0.409722
v -0.975255 1.159882 -0.243892
v -0.890773 1.175629 -0.132718
v -0.126110 2.721448 -0.046249
v -0.963634 1.579398 0.884610
v -0.025099 1.163730 0.082596
v -0.166309 0.896955 0.116565
v -1.179130 2.265018 -0.326913
v -0.207000 0.922090 -0.028062
v -0.638573 2.653475 0.845200
v -0.140281 0.979191 0.213097
v -0.163739 1.243730 -0.408922
v -0.418208 1.088464 -0.151825
v -0.847698 2.809507 0.335758
v 0.074104 2.549054 0.614509
v -0.960042 1.640984 1.010175
v -0.208197 0.952783 0.007208
v -0.011673 0.431062 0.009026
v -0.189840 2.060051 -0.734921
v -0.561325 1.681666 -0.780456
v 0.124231 1.818138 -0.559927
v -0.951018 1.123317 -0.189848
v -1.144745 2.293315 -0.464770
v -0.453455 0.982913 0.034324
v -0.872923 1.102332 -0.203685
v -0.914592 1.165196 -0.296597
v 0.178506 1.792179 -0.467532
v 0.140686 2.551888 0.502405
v 0.040113 0.033645 0.024667
v -0.949403 1.671498 0.984720
v 0.295115 1.646906 0.369120
v -0.326479 2.597469 0.875654
v -0.935700 1.228552 -0.141354
v 0.024917 2.589820 0.599404
v -0.475714 2.400299 -0.680129
v -0.960304 1.265670 -0.196215
v 0.014262 0.144983 -0.034213
v -0.974826 1.530864 0.961717
v -0.873754 1.155440 -0.288943
v 0.120188 1.728546 -0.567764
v -1.148107 2.401808 -0.339206
v -0.716235 1.274383 -0.458402
v -0.982871 1.564015 0.993708
v -0.770463 2.853476 0.087396
v -0.343705 1.055488 -0.094883
v 0.351420 1.847179 0.378540
v -0.806483 2.054456 -0.773929
v -0.046861 2.589511 -0.274396
v 0.005039 2.616765 0.549205
v -0.006538 1.154830 0.078607
v -1.143024 2.342328 -0.466816
v -1.200908 2.307247 -0.330362
v -1.275362 1.786258 -0.248668
v 0.131658 2.578283 0.583032
v -0.922570 1.560924 0.878016
v -0.151979 1.437164 -0.624794
v -0.138904 1.158223 0.412933
v -0.701015 1.854297 -0.807062
v -0.063904 1.520249 0.901091
v -1.212186 1.880237 0.715663
v 0.152416 1.821504 -0.458019
v -0.255727 0.986663 -0.051955
v -0.991234 1.596484 0.908359
v -1.082482 2.392876 -0.414659
v -0.872186 1.659698 0.940075
v -0.527916 1.025127 -0.166973
v 0.079635 1.835641 -0.462788
v -0.980357 1.165936 -0.197054
v -0.897949 1.549675 0.918158
v -0.097364 1.874146 -0.712716
v -1.208357 2.376462 -0.401175
v 0.114743 1.689323 -0.467004
v -0.447295 1.082777 0.574575
v -1.066038 2.331985 -0.444615
v -0.850404 1.215304 -0.147806
v -0.326997 2.236367 1.076441
v -0.981918 1.206806 -0.246758
v 0.133437 1.323319 -0.071038
v -0.344117 2.228406 -0.745408
v -0.015290 0.033934 0.034436
v -0.912936 1.212355 -0.298566
v -0.126972 0.933202 0.063903
v 0.002040 0.582234 0.010860
v 0.148333 2.288127 -0.373635
v -0.670586 1.002593 0.023242
v -0.972932 1.599588 1.013637
v -0.334555 1.048357 -0.116888
v -0.778901 1.108568 -0.200168
v -0.919984 1.506192 0.952911
v -1.125082 2.355243 -0.303111
v -1.061188 2.680941 -0.003432
v -1.030410 1.238947 0.578595
v -0.730000 2.677289 -0.447499
v -0.864141 1.626547 0.908085
v 0.081376 1.848184 -0.495009
v 0.030752 2.616501 -0.012952
v 0.064069 1.773151 -0.558583
v -0.982017 1.650599 0.930712
v -0.931614 1.675664 0.921211
v -0.921928 1.677307 0.976927
v -0.972330 1.652242 0.986429
v -0.915398 1.514898 0.980582
v -0.864995 1.539963 0.971080
v -0.874681 1.538320 0.915364
v -0.925084 1.513254 0.924865
v -0.965482 1.537429 0.988624
v -0.975168 1.535786 0.932907
v -0.999494 1.594469 0.935405
v -0.989808 1.596112 0.991122
v -0.874807 1.580394 1.010097
v -0.925210 1.555329 1.019598
v -0.949535 1.614013 1.022096
v -0.899133 1.639078 1.012595
v -0.857204 1.594449 0.910670
v -0.847518 1.596092 0.966387
v -0.871844 1.654776 0.968885
v -0.881530 1.653133 0.913169
v -0.947879 1.551484 0.889197
v -0.897477 1.576549 0.879696
v -0.921802 1.635233 0.882194
v -0.972205 1.610167 0.891695
v -1.207963 2.369359 -0.370045
v -1.158337 2.411786 -0.369051
v -1.135418 2.377209 -0.317945
v -1.185044 2.334781 -0.318939
v -1.080867 2.306361 -0.452428
v -1.130492 2.263933 -0.453422
v -1.163905 2.229473 -0.382201
v -1.186824 2.264051 -0.433306
v -1.219394 2.310077 -0.395829
v -1.196475 2.275499 -0.344723
v -1.070679 2.363349 -0.430979
v -1.080329 2.374797 -0.342397
v -1.103249 2.409374 -0.393502
v -1.167682 2.317954 -0.462556
v -1.118056 2.360382 -0.461561
v -1.151869 2.404113 -0.428420
v -1.201495 2.361686 -0.429414
v -0.973428 1.242038 -0.198509
v -0.951375 1.208769 -0.149337
v -0.878031 1.105123 -0.233732
v -0.830282 1.145946 -0.232775
v -0.852334 1.179216 -0.281948
v -0.900083 1.138393 -0.282905
v -0.931036 1.107443 -0.210205
v -0.953088 1.140713 -0.259378
v -0.984427 1.184998 -0.223318
v -0.962374 1.151728 -0.174145
v -0.836505 1.153329 -0.175651
v -0.884254 1.112506 -0.176608
v -0.915592 1.156790 -0.140548
v -0.867843 1.197614 -0.139592
v -0.935866 1.190371 -0.291693
v -0.888117 1.231194 -0.290736
v -0.967205 1.234656 -0.255633
v 0.093357 1.780068 -0.429325
v 0.078103 1.725737 -0.447107
v 0.168866 1.726246 -0.535756
v 0.184120 1.780577 -0.517975
v 0.149242 1.808471 -0.552314
v 0.133988 1.754140 -0.570095
v 0.132652 1.689687 -0.522288
v 0.097774 1.717581 -0.556627
v 0.058993 1.717363 -0.518749
v 0.093871 1.689469 -0.484410
v 0.181505 1.761736 -0.469574
v 0.166251 1.707405 -0.487356
v 0.127470 1.707187 -0.449478
v 0.142724 1.761518 -0.431697
v 0.133474 1.844739 -0.515010
v 0.168353 1.816845 -0.480671
v 0.129572 1.816627 -0.442794
v 0.094694 1.844522 -0.477132
v 0.084621 1.772690 -0.567724
v 0.099875 1.827021 -0.549942
v 0.041736 2.608014 0.597347
v 0.085824 2.571475 0.610886
v 0.126525 2.570655 0.484782
v 0.082438 2.607194 0.471243
v 0.144417 2.546402 0.529967
v 0.127027 2.546751 0.583848
v 0.091442 2.642556 0.514746
v 0.135529 2.606017 0.528285
v 0.118138 2.606368 0.582166
v 0.074051 2.642907 0.568627
v 0.041235 2.631918 0.498280
v 0.023844 2.632268 0.552161
v 0.028682 0.435989 -0.016124
v -0.071041 1.043928 0.045902
v -0.052066 1.036363 0.061359
v -0.139028 0.934528 0.127567
v -0.154472 1.069945 0.324463
v -0.074124 1.049953 0.067066
v -0.133656 0.915487 0.139620
v -0.139439 1.077833 0.318608
v -0.165298 0.920348 0.121760
v -0.191691 0.946937 -0.000913
v -0.139873 1.068287 0.327173
v -0.352321 1.046724 -0.092995
v -0.356417 1.031926 -0.104669
v -0.337550 1.053750 -0.105997
v -0.341646 1.038952 -0.117671
v -0.219830 0.919631 -0.014815
v -0.190972 0.928504 -0.022096
v -0.220549 0.938065 0.006369
v -0.064142 0.726101 -0.012461
v -0.091705 0.717252 0.028435
v -0.098158 0.717696 -0.006244
v -0.057689 0.725658 0.022219
v -0.003973 0.432313 -0.010273
v 0.034983 0.435959 0.018584
v 0.002329 0.432283 0.024436
v 0.040584 0.145102 -0.021916
v 0.002546 0.145101 0.035734
v -0.006192 0.144946 -0.013668
v 0.049322 0.145257 0.027486
vt 0.5866 0.1872
vt 0.5889 0.1859
vt 0.5893 0.1894
vt 0.5920 0.1916
vt 0.5910 0.1940
vt 0.5886 0.1919
vt 0.5852 0.1921
vt 0.5876 0.1943
vt 0.5840 0.1937
vt 0.5815 0.1859
vt 0.5791 0.1859
vt 0.5806 0.1832
vt 0.5812 0.1919
vt 0.5834 0.1890
vt 0.5793 0.1887
vt 0.5868 0.1829
vt 0.5912 0.1846
vt 0.5890 0.1815
vt 0.5926 0.1827
vt 0.5842 0.1822
vt 0.5784 0.2072
vt 0.5835 0.2045
vt 0.5843 0.2085
vt 0.5809 0.1997
vt 0.5854 0.1980
vt 0.5848 0.2007
vt 0.5467 0.1669
vt 0.5524 0.1693
vt 0.5465 0.1708
vt 0.5462 0.1748
vt 0.5501 0.1784
vt 0.5463 0.1773
vt 0.5347 0.1732
vt 0.5343 0.1769
vt 0.5302 0.1752
vt 0.5436 0.1789
vt 0.5404 0.1740
vt 0.5378 0.1781
vt 0.5763 0.2014
vt 0.5797 0.2034
vt 0.5791 0.1956
vt 0.5818 0.1975
vt 0.5667 0.2012
vt 0.5669 0.1966
vt 0.5705 0.1984
vt 0.5486 0.1883
vt 0.5513 0.1851
vt 0.5520 0.1886
vt 0.5488 0.1905
vt 0.5489 0.1928
vt 0.5530 0.1952
vt 0.5489 0.1948
vt 0.5425 0.1911
vt 0.5399 0.1929
vt 0.5403 0.1900
vt 0.5461 0.1960
vt 0.5457 0.1919
vt 0.5429 0.1952
vt 0.5447 0.1857
vt 0.5480 0.1860
vt 0.5474 0.1838
vt 0.5441 0.1834
vt 0.5469 0.1819
vt 0.5417 0.1871
vt 0.5517 0.2071
vt 0.5544 0.2024
vt 0.5574 0.2063
vt 0.5522 0.2113
vt 0.5991 0.1766
vt 0.5988 0.1834
vt 0.5965 0.1787
vt 0.5399 0.2109
vt 0.5354 0.2105
vt 0.5381 0.2069
vt 0.5930 0.1775
vt 0.5947 0.1717
vt 0.5904 0.1669
vt 0.5886 0.1727
vt 0.5870 0.1686
vt 0.5475 0.2032
vt 0.5509 0.2040
vt 0.5501 0.2008
vt 0.5467 0.2000
vt 0.5495 0.1988
vt 0.5416 0.2050
vt 0.5760 0.1693
vt 0.5814 0.1739
vt 0.5778 0.1749
vt 0.5700 0.1765
vt 0.5733 0.1812
vt 0.5683 0.1808
vt 0.5667 0.1851
vt 0.5719 0.1883
vt 0.5669 0.1885
vt 0.5228 0.1846
vt 0.5283 0.1826
vt 0.5282 0.1867
vt 0.5335 0.1888
vt 0.5372 0.1860
vt 0.5358 0.1889
vt 0.5228 0.1943
vt 0.5301 0.1945
vt 0.5252 0.1981
vt 0.5373 0.1947
vt 0.5403 0.1970
vt 0.5368 0.1988
vt 0.5649 0.1956
vt 0.5609 0.1966
vt 0.5602 0.1922
vt 0.5654 0.1862
vt 0.5597 0.1840
vt 0.5640 0.1819
vt 0.5626 0.1776
vt 0.5583 0.1797
vt 0.5603 0.1747
vt 0.5954 0.1975
vt 0.5927 0.1970
vt 0.5937 0.1946
vt 0.5976 0.2084
vt 0.5932 0.2051
vt 0.5965 0.2030
vt 0.6054 0.2033
vt 0.6020 0.1968
vt 0.6072 0.1995
vt 0.5916 0.1881
vt 0.5953 0.1909
vt 0.5949 0.1874
vt 0.5859 0.1896
vt 0.5840 0.1865
vt 0.5521 0.1733
vt 0.5407 0.1700
vt 0.5725 0.2042
vt 0.5776 0.1977
vt 0.5743 0.1956
vt 0.5707 0.1938
vt 0.5757 0.1936
vt 0.5507 0.1829
vt 0.5522 0.1908
vt 0.5455 0.1897
vt 0.5536 0.1992
vt 0.6029 0.1818
vt 0.5458 0.2090
vt 0.5730 0.1729
vt 0.5748 0.1785
vt 0.5276 0.2019
vt 0.5319 0.2024
vt 0.5293 0.2060
vt 0.5798 0.1698
vt 0.5717 0.1855
vt 0.5228 0.1894
vt 0.5282 0.1916
vt 0.5243 0.1810
vt 0.5337 0.1847
vt 0.5324 0.1983
vt 0.5354 0.1918
vt 0.5652 0.1909
vt 0.5604 0.1875
vt 0.5640 0.2006
vt 0.6015 0.2059
vt 0.6004 0.2004
vt 0.5940 0.2091
vt 0.5920 0.1997
vt 0.6091 0.1956
vt 0.6038 0.1929
vt 0.6079 0.1913
vt 0.5969 0.1939
vt 0.4270 0.7821
vt 0.4247 0.8005
vt 0.4220 0.8002
vt 0.4236 0.7817
vt 0.4132 0.7814
vt 0.4139 0.8002
vt 0.4111 0.8003
vt 0.4098 0.7814
vt 0.4201 0.7815
vt 0.4193 0.8002
vt 0.4166 0.8002
vt 0.4167 0.7814
vt 0.4064 0.7818
vt 0.4084 0.8004
vt 0.4057 0.8006
vt 0.4029 0.7822
vt 0.4185 0.8250
vt 0.4177 0.8498
vt 0.4161 0.8499
vt 0.4164 0.8250
vt 0.4228 0.8252
vt 0.4209 0.8499
vt 0.4193 0.8498
vt 0.4207 0.8250
vt 0.4141 0.8251
vt 0.4144 0.8500
vt 0.4128 0.8500
vt 0.4119 0.8252
vt 0.4205 0.8577
vt 0.4220 0.8577
vt 0.4215 0.8655
vt 0.4201 0.8655
vt 0.4148 0.8579
vt 0.4165 0.8578
vt 0.4170 0.8657
vt 0.4153 0.8658
vt 0.4178 0.8577
vt 0.4190 0.8576
vt 0.4188 0.8654
vt 0.4179 0.8656
vt 0.4114 0.8579
vt 0.4132 0.8579
vt 0.4135 0.8659
vt 0.4117 0.8659
vt 0.4391 0.7694
vt 0.4405 0.7701
vt 0.4403 0.7747
vt 0.4392 0.7748
vt 0.4451 0.7697
vt 0.4464 0.7706
vt 0.4446 0.7758
vt 0.4435 0.7755
vt 0.4182 0.8658
vt 0.4362 0.7693
vt 0.4377 0.7687
vt 0.4381 0.7749
vt 0.4370 0.7751
vt 0.4430 0.7842
vt 0.4441 0.7844
vt 0.4437 0.7931
vt 0.4426 0.7929
vt 0.4408 0.7839
vt 0.4419 0.7839
vt 0.4414 0.7927
vt 0.4403 0.7928
vt 0.4365 0.7838
vt 0.4374 0.7839
vt 0.4368 0.7928
vt 0.4360 0.7926
vt 0.4386 0.7838
vt 0.4398 0.7838
vt 0.4392 0.7929
vt 0.4380 0.7929
vt 0.4194 0.8659
vt 0.4194 0.8659
vt 0.4195 0.8660
vt 0.4195 0.8660
vt 0.4421 0.7695
vt 0.4437 0.7689
vt 0.4425 0.7752
vt 0.4414 0.7750
vt 0.4185 0.8659
vt 0.4195 0.8658
vt 0.4194 0.8658
vt 0.4194 0.8659
vt 0.4194 0.8659
vt 0.4195 0.8660
vt 0.4195 0.8660
vt 0.4191 0.8659
vt 0.4192 0.8662
vt 0.4194 0.8659
vt 0.4194 0.8659
vt 0.4554 0.7760
vt 0.4574 0.7763
vt 0.4568 0.7883
vt 0.4552 0.7882
vt 0.4195 0.8659
vt 0.4195 0.8659
vt 0.4195 0.8660
vt 0.4195 0.8660
vt 0.4190 0.8664
vt 0.4189 0.8659
vt 0.4202 0.8659
vt 0.4190 0.8661
vt 0.4187 0.8661
vt 0.4194 0.8658
vt 0.4194 0.8658
vt 0.4590 0.7757
vt 0.4606 0.7752
vt 0.4596 0.7879
vt 0.4582 0.7881
vt 0.4515 0.7755
vt 0.4534 0.7758
vt 0.4536 0.7881
vt 0.4521 0.7880
vt 0.4098 0.8252
vt 0.4112 0.8500
vt 0.4095 0.8499
vt 0.4076 0.8253
vt 0.2864 0.2158
vt 0.2862 0.2116
vt 0.2901 0.2120
vt 0.2905 0.2159
vt 0.2864 0.2240
vt 0.2905 0.2238
vt 0.2901 0.2277
vt 0.2862 0.2280
vt 0.2957 0.2140
vt 0.2940 0.2081
vt 0.2957 0.2257
vt 0.2940 0.2316
vt 0.2901 0.2277
vt 0.2905 0.2238
vt 0.2957 0.2140
vt 0.2905 0.2159
vt 0.2901 0.2120
vt 0.2940 0.2081
vt 0.2957 0.2257
vt 0.2940 0.2316
vt 0.2864 0.2240
vt 0.2862 0.2280
vt 0.2864 0.2158
vt 0.2862 0.2116
vt 0.2882 0.2333
vt 0.2881 0.2064
vt 0.2882 0.2333
vt 0.2881 0.2064
vt 0.2869 0.1606
vt 0.2910 0.1604
vt 0.2906 0.1643
vt 0.2867 0.1646
vt 0.2787 0.1606
vt 0.2788 0.1646
vt 0.2749 0.1643
vt 0.2745 0.1604
vt 0.2962 0.1506
vt 0.2910 0.1525
vt 0.2906 0.1486
vt 0.2945 0.1447
vt 0.2962 0.1623
vt 0.2945 0.1682
vt 0.2906 0.1643
vt 0.2910 0.1604
vt 0.2962 0.1506
vt 0.2910 0.1525
vt 0.2906 0.1486
vt 0.2945 0.1447
vt 0.2962 0.1623
vt 0.2945 0.1682
vt 0.2869 0.1606
vt 0.2867 0.1646
vt 0.2787 0.1606
vt 0.2788 0.1646
vt 0.2749 0.1643
vt 0.2745 0.1604
vt 0.2787 0.1524
vt 0.2745 0.1525
vt 0.2749 0.1486
vt 0.2788 0.1482
vt 0.2869 0.1524
vt 0.2867 0.1482
vt 0.2693 0.1623
vt 0.2710 0.1682
vt 0.2693 0.1506
vt 0.2710 0.1447
vt 0.2749 0.1486
vt 0.2745 0.1525
vt 0.2693 0.1623
vt 0.2710 0.1682
vt 0.2693 0.1506
vt 0.2710 0.1447
vt 0.2769 0.1699
vt 0.2886 0.1699
vt 0.2887 0.1430
vt 0.2769 0.1430
vt 0.2769 0.1699
vt 0.2886 0.1699
vt 0.3380 0.2173
vt 0.3340 0.2174
vt 0.3343 0.2135
vt 0.3382 0.2132
vt 0.3462 0.2255
vt 0.3503 0.2253
vt 0.3500 0.2292
vt 0.3460 0.2296
vt 0.3380 0.2255
vt 0.3382 0.2296
vt 0.3343 0.2293
vt 0.3340 0.2253
vt 0.3462 0.2255
vt 0.3503 0.2253
vt 0.3500 0.2292
vt 0.3460 0.2296
vt 0.3380 0.2255
vt 0.3382 0.2296
vt 0.3343 0.2293
vt 0.3340 0.2253
vt 0.3380 0.2173
vt 0.3340 0.2174
vt 0.3343 0.2135
vt 0.3382 0.2132
vt 0.3462 0.2173
vt 0.3460 0.2132
vt 0.3500 0.2135
vt 0.3503 0.2174
vt 0.3287 0.2273
vt 0.3304 0.2332
vt 0.3287 0.2155
vt 0.3304 0.2096
vt 0.3287 0.2273
vt 0.3304 0.2332
vt 0.3287 0.2155
vt 0.3304 0.2096
vt 0.3363 0.2349
vt 0.3480 0.2348
vt 0.3539 0.2331
vt 0.3480 0.2079
vt 0.3539 0.2096
vt 0.3363 0.2079
vt 0.3363 0.2349
vt 0.3363 0.2079
vt 0.2792 0.2193
vt 0.2751 0.2195
vt 0.2754 0.2156
vt 0.2794 0.2153
vt 0.2874 0.2193
vt 0.2872 0.2153
vt 0.2911 0.2156
vt 0.2914 0.2195
vt 0.2867 0.2274
vt 0.2915 0.2273
vt 0.2912 0.2313
vt 0.2858 0.2315
vt 0.2785 0.2274
vt 0.2779 0.2315
vt 0.2754 0.2313
vt 0.2751 0.2273
vt 0.2967 0.2175
vt 0.2950 0.2117
vt 0.2968 0.2293
vt 0.2951 0.2351
vt 0.2912 0.2313
vt 0.2915 0.2273
vt 0.2968 0.2293
vt 0.2951 0.2351
vt 0.2699 0.2293
vt 0.2751 0.2273
vt 0.2754 0.2313
vt 0.2715 0.2351
vt 0.2698 0.2176
vt 0.2715 0.2117
vt 0.2699 0.2293
vt 0.2715 0.2351
vt 0.2698 0.2176
vt 0.2715 0.2117
vt 0.2754 0.2156
vt 0.2751 0.2195
vt 0.2767 0.2368
vt 0.2884 0.2368
vt 0.2774 0.2369
vt 0.2794 0.2316
vt 0.2892 0.2369
vt 0.2873 0.2316
vt 0.2891 0.2100
vt 0.2774 0.2100
vt 0.2782 0.2158
vt 0.2740 0.2159
vt 0.2744 0.2120
vt 0.2783 0.2116
vt 0.2864 0.2158
vt 0.2862 0.2116
vt 0.2901 0.2120
vt 0.2905 0.2159
vt 0.2864 0.2240
vt 0.2905 0.2238
vt 0.2901 0.2277
vt 0.2862 0.2280
vt 0.2782 0.2240
vt 0.2783 0.2280
vt 0.2744 0.2277
vt 0.2740 0.2238
vt 0.2957 0.2140
vt 0.2940 0.2081
vt 0.2957 0.2257
vt 0.2940 0.2316
vt 0.2901 0.2277
vt 0.2905 0.2238
vt 0.2957 0.2140
vt 0.2905 0.2159
vt 0.2901 0.2120
vt 0.2940 0.2081
vt 0.2957 0.2257
vt 0.2940 0.2316
vt 0.2864 0.2240
vt 0.2862 0.2280
vt 0.2782 0.2240
vt 0.2783 0.2280
vt 0.2744 0.2277
vt 0.2740 0.2238
vt 0.2782 0.2158
vt 0.2740 0.2159
vt 0.2744 0.2120
vt 0.2783 0.2116
vt 0.2864 0.2158
vt 0.2862 0.2116
vt 0.2688 0.2257
vt 0.2706 0.2316
vt 0.2688 0.2140
vt 0.2706 0.2081
vt 0.2688 0.2257
vt 0.2706 0.2316
vt 0.2688 0.2140
vt 0.2706 0.2081
vt 0.2764 0.2333
vt 0.2882 0.2333
vt 0.2881 0.2064
vt 0.2764 0.2064
vt 0.2764 0.2333
vt 0.2882 0.2333
vt 0.2881 0.2064
vt 0.2764 0.2064
vt 0.2745 0.2012
vt 0.2667 0.2043
vt 0.2823 0.1980
vt 0.2823 0.2046
vt 0.2823 0.2113
vt 0.2901 0.2012
vt 0.2979 0.2043
vt 0.2901 0.2386
vt 0.2979 0.2355
vt 0.2823 0.2417
vt 0.2823 0.2350
vt 0.2823 0.2284
vt 0.2745 0.2386
vt 0.2667 0.2355
vt 0.2745 0.2012
vt 0.2667 0.2043
vt 0.2823 0.1980
vt 0.2823 0.2046
vt 0.2823 0.2113
vt 0.2901 0.2012
vt 0.2979 0.2043
vt 0.2901 0.2386
vt 0.2979 0.2355
vt 0.2823 0.2417
vt 0.2823 0.2350
vt 0.2823 0.2284
vt 0.2745 0.2386
vt 0.2667 0.2355
vt 0.2671 0.2199
vt 0.2737 0.2199
vt 0.2605 0.2199
vt 0.2636 0.2121
vt 0.2636 0.2277
vt 0.2671 0.2199
vt 0.2737 0.2199
vt 0.2636 0.2121
vt 0.2636 0.2277
vt 0.2865 0.2199
vt 0.2908 0.2199
vt 0.2823 0.2199
vt 0.2823 0.2156
vt 0.2780 0.2199
vt 0.2823 0.2242
vt 0.2975 0.2199
vt 0.2908 0.2199
vt 0.3041 0.2199
vt 0.3010 0.2277
vt 0.3010 0.2121
vt 0.2975 0.2199
vt 0.3010 0.2277
vt 0.3010 0.2121
vt 0.2780 0.2199
vt 0.2823 0.2199
vt 0.2823 0.2242
vt 0.2865 0.2199
vt 0.2823 0.2156
vt 0.2755 0.2047
vt 0.2677 0.2078
vt 0.2833 0.2016
vt 0.2833 0.2083
vt 0.2833 0.2149
vt 0.2911 0.2047
vt 0.2989 0.2078
vt 0.2911 0.2421
vt 0.2989 0.2390
vt 0.2833 0.2452
vt 0.2833 0.2386
vt 0.2833 0.2320
vt 0.2755 0.2421
vt 0.2677 0.2390
vt 0.2911 0.2421
vt 0.2989 0.2390
vt 0.2833 0.2452
vt 0.2818 0.2384
vt 0.2803 0.2317
vt 0.2755 0.2421
vt 0.2677 0.2390
vt 0.2682 0.2234
vt 0.2748 0.2234
vt 0.2615 0.2234
vt 0.2646 0.2156
vt 0.2677 0.2078
vt 0.2646 0.2312
vt 0.2682 0.2234
vt 0.2748 0.2234
vt 0.2646 0.2156
vt 0.2646 0.2312
vt 0.2984 0.2234
vt 0.2918 0.2234
vt 0.3051 0.2234
vt 0.3020 0.2312
vt 0.2984 0.2234
vt 0.2918 0.2234
vt 0.3020 0.2312
vt 0.3020 0.2156
vt 0.2790 0.2234
vt 0.2833 0.2234
vt 0.2818 0.2275
vt 0.2876 0.2234
vt 0.2833 0.2192
vt 0.3343 0.2027
vt 0.3265 0.2058
vt 0.3421 0.1996
vt 0.3421 0.2062
vt 0.3421 0.2129
vt 0.3421 0.2366
vt 0.3421 0.2299
vt 0.3421 0.2432
vt 0.3343 0.2401
vt 0.3265 0.2370
vt 0.3343 0.2027
vt 0.3265 0.2058
vt 0.3421 0.1996
vt 0.3421 0.2062
vt 0.3421 0.2129
vt 0.3499 0.2027
vt 0.3577 0.2058
vt 0.3499 0.2401
vt 0.3577 0.2370
vt 0.3421 0.2432
vt 0.3421 0.2366
vt 0.3421 0.2299
vt 0.3343 0.2401
vt 0.3265 0.2370
vt 0.3270 0.2214
vt 0.3336 0.2214
vt 0.3203 0.2214
vt 0.3234 0.2136
vt 0.3234 0.2292
vt 0.3270 0.2214
vt 0.3336 0.2214
vt 0.3234 0.2136
vt 0.3234 0.2292
vt 0.3464 0.2214
vt 0.3507 0.2214
vt 0.3421 0.2214
vt 0.3421 0.2172
vt 0.3379 0.2214
vt 0.3421 0.2256
vt 0.3379 0.2214
vt 0.3421 0.2214
vt 0.3421 0.2256
vt 0.3464 0.2214
vt 0.3507 0.2214
vt 0.3421 0.2172
vt 0.2906 0.1752
vt 0.2984 0.1721
vt 0.2828 0.1783
vt 0.2828 0.1716
vt 0.2828 0.1650
vt 0.2750 0.1752
vt 0.2672 0.1721
vt 0.2750 0.1378
vt 0.2672 0.1409
vt 0.2828 0.1347
vt 0.2828 0.1413
vt 0.2828 0.1479
vt 0.2906 0.1378
vt 0.2984 0.1409
vt 0.2906 0.1752
vt 0.2984 0.1721
vt 0.2828 0.1783
vt 0.2828 0.1716
vt 0.2828 0.1650
vt 0.2750 0.1752
vt 0.2672 0.1721
vt 0.2676 0.1565
vt 0.2742 0.1565
vt 0.2610 0.1565
vt 0.2641 0.1487
vt 0.2641 0.1643
vt 0.2676 0.1565
vt 0.2742 0.1565
vt 0.2641 0.1487
vt 0.2672 0.1409
vt 0.2641 0.1643
vt 0.2871 0.1565
vt 0.2913 0.1565
vt 0.2828 0.1565
vt 0.2828 0.1522
vt 0.2785 0.1565
vt 0.2828 0.1608
vt 0.2979 0.1565
vt 0.2913 0.1565
vt 0.3046 0.1565
vt 0.3015 0.1643
vt 0.3015 0.1487
vt 0.2979 0.1565
vt 0.3015 0.1643
vt 0.3015 0.1487
vt 0.2984 0.1409
vt 0.2785 0.1565
vt 0.2828 0.1565
vt 0.2828 0.1608
vt 0.2871 0.1565
vt 0.2823 0.2046
vt 0.2823 0.2113
vt 0.2823 0.1980
vt 0.2901 0.2012
vt 0.2979 0.2043
vt 0.2901 0.2386
vt 0.2979 0.2355
vt 0.2823 0.2417
vt 0.2823 0.2350
vt 0.2823 0.2284
vt 0.2823 0.2046
vt 0.2823 0.2113
vt 0.2823 0.1980
vt 0.2901 0.2012
vt 0.2979 0.2043
vt 0.2901 0.2386
vt 0.2979 0.2355
vt 0.2823 0.2417
vt 0.2823 0.2350
vt 0.2823 0.2284
vt 0.2865 0.2199
vt 0.2908 0.2199
vt 0.2823 0.2199
vt 0.2823 0.2156
vt 0.2823 0.2242
vt 0.2975 0.2199
vt 0.2908 0.2199
vt 0.3041 0.2199
vt 0.3010 0.2277
vt 0.3010 0.2121
vt 0.2975 0.2199
vt 0.3010 0.2277
vt 0.3010 0.2121
vt 0.2823 0.2242
vt 0.2823 0.2199
vt 0.2865 0.2199
vt 0.2823 0.2156
vt 0.4495 0.7752
vt 0.4507 0.7878
vt 0.4483 0.7625
vt 0.4508 0.7630
vt 0.4533 0.7635
vt 0.4580 0.7642
vt 0.4597 0.7634
vt 0.4615 0.7625
vt 0.4185 0.8663
vt 0.4180 0.8663
vt 0.4557 0.7638
vt 0.4191 0.8656
vt 0.4194 0.8659
vt 0.4175 0.8660
vt 0.4408 0.7655
vt 0.4429 0.7641
vt 0.4450 0.7626
vt 0.4194 0.8659
vt 0.4356 0.7838
vt 0.4352 0.7924
vt 0.4359 0.7752
vt 0.4347 0.7698
vt 0.4334 0.7644
vt 0.4353 0.7635
vt 0.4372 0.7625
vt 0.4466 0.7639
vt 0.4483 0.7653
vt 0.4390 0.7640
vt 0.4097 0.8579
vt 0.4099 0.8659
vt 0.4226 0.8500
vt 0.4273 0.8008
vt 0.4250 0.8254
vt 0.4043 0.7631
vt 0.4002 0.7637
vt 0.4085 0.7625
vt 0.4209 0.7628
vt 0.4168 0.7625
vt 0.4251 0.7632
vt 0.4126 0.7625
vt 0.4293 0.7636
vt 0.4334 0.7640
vt 0.4304 0.7824
vt 0.5985 0.1902
vt 0.6027 0.1886
vt 0.6068 0.1870
vt 0.5893 0.1991
vt 0.5900 0.1964
vt 0.5887 0.2018
vt 0.5895 0.2058
vt 0.5903 0.2098
vt 0.5547 0.1854
vt 0.5540 0.1819
vt 0.5555 0.1889
vt 0.5600 0.2016
vt 0.5570 0.1976
vt 0.5630 0.2055
vt 0.5377 0.1918
vt 0.5381 0.1889
vt 0.5363 0.2029
vt 0.5374 0.1819
vt 0.5409 0.1831
vt 0.5339 0.1806
vt 0.5299 0.1790
vt 0.5258 0.1773
vt 0.5769 0.1887
vt 0.5772 0.1916
vt 0.5766 0.1859
vt 0.5782 0.1832
vt 0.5797 0.1805
vt 0.5853 0.1744
vt 0.5869 0.1785
vt 0.5836 0.1703
vt 0.5337 0.2065
vt 0.5310 0.2101
vt 0.5432 0.1992
vt 0.5904 0.1797
vt 0.5940 0.1808
vt 0.5463 0.2131
vt 0.5527 0.2154
vt 0.5530 0.1972
vt 0.5489 0.1968
vt 0.5461 0.1980
vt 0.5562 0.1933
vt 0.5502 0.1809
vt 0.5464 0.1799
vt 0.5721 0.1918
vt 0.5671 0.1920
vt 0.5437 0.1815
vt 0.5560 0.1768
vt 0.5580 0.1718
vt 0.5863 0.1958
vt 0.5827 0.1953
vt 0.5799 0.1935
vt 0.5962 0.1855
vt 0.5397 0.2011
vt 0.5395 0.1860
vt 0.5833 0.1795
vt 0.5579 0.2104
vn 0.8325 0.5461 0.0938
vn 0.9388 0.3439 -0.0192
vn 0.8197 0.5643 -0.0981
vn 0.7603 0.5729 -0.3061
vn 0.5518 0.7445 -0.3759
vn 0.6414 0.7517 -0.1536
vn 0.5816 0.8126 0.0388
vn 0.5281 0.8227 -0.2101
vn 0.5640 0.8243 0.0488
vn 0.6367 0.6311 0.4431
vn 0.4414 0.6290 0.6399
vn 0.6291 0.3560 0.6910
vn 0.4437 0.8489 0.2873
vn 0.5572 0.7958 0.2373
vn 0.3835 0.8264 0.4122
vn 0.9159 0.3223 0.2394
vn 0.9733 0.2031 -0.1074
vn 0.9852 0.1451 0.0909
vn 0.9895 0.0681 -0.1279
vn 0.8130 0.3156 0.4894
vn -0.4800 0.8697 -0.1151
vn -0.2199 0.9215 -0.3202
vn -0.5140 0.7642 -0.3895
vn -0.0722 0.9962 -0.0479
vn 0.1468 0.9485 -0.2807
vn 0.0441 0.9698 -0.2400
vn -0.7191 0.6748 -0.1657
vn -0.7991 0.5694 -0.1928
vn -0.7206 0.4861 -0.4943
vn -0.8010 0.5624 -0.2055
vn -0.7241 0.6393 0.2588
vn -0.7961 0.4136 0.4418
vn -0.5587 0.6692 0.4899
vn -0.9004 0.4267 0.0849
vn -0.8219 0.5667 0.0578
vn -0.9016 0.3692 0.2253
vn -0.3481 0.9259 0.1465
vn -0.2096 0.9763 -0.0543
vn -0.0529 0.9679 0.2457
vn -0.0730 0.9948 -0.0705
vn -0.4447 0.8449 0.2972
vn -0.8529 -0.3317 -0.4031
vn -0.7742 -0.1573 -0.6131
vn -0.6451 -0.3777 -0.6642
vn -0.6910 -0.5740 -0.4394
vn -0.4854 -0.7621 -0.4285
vn -0.2713 -0.6999 -0.6607
vn -0.3874 -0.8299 -0.4014
vn -0.7551 -0.6517 0.0723
vn -0.4805 -0.7792 0.4025
vn -0.8140 -0.5054 0.2864
vn -0.4205 -0.9032 -0.0866
vn -0.6344 -0.7568 -0.1576
vn -0.4248 -0.8955 0.1328
vn -0.9660 -0.2183 -0.1384
vn -0.9132 -0.1978 -0.3564
vn -0.9317 -0.1226 -0.3419
vn -0.9852 -0.1269 -0.1150
vn -0.9429 -0.0132 -0.3329
vn -0.9664 -0.2544 0.0361
vn 0.5698 -0.7880 -0.2333
vn 0.3598 -0.7521 -0.5521
vn 0.6544 -0.6116 -0.4446
vn 0.8196 -0.5516 -0.1549
vn 0.9336 -0.3351 -0.1270
vn 0.9440 -0.1193 -0.3076
vn 0.9646 -0.2198 -0.1456
vn 0.6321 -0.7484 0.2010
vn 0.6683 -0.6262 0.4015
vn 0.3829 -0.8445 0.3745
vn 0.9361 -0.3405 0.0887
vn 0.8388 -0.5415 0.0576
vn 0.8531 -0.4497 0.2647
vn 0.3313 -0.9431 0.0305
vn 0.4027 -0.8792 -0.2545
vn 0.1792 -0.9378 -0.2973
vn 0.1112 -0.9938 0.0056
vn -0.0935 -0.9278 -0.3613
vn 0.2829 -0.9461 0.1580
vn 0.2281 -0.3295 0.9162
vn 0.5780 -0.1786 0.7963
vn 0.4132 -0.1469 0.8987
vn 0.0212 -0.1086 0.9939
vn 0.1309 0.2170 0.9674
vn -0.1162 0.1093 0.9872
vn -0.1786 0.2788 0.9436
vn 0.0185 0.6060 0.7953
vn -0.1558 0.3874 0.9087
vn -0.4593 0.1464 0.8761
vn -0.3846 0.0310 0.9226
vn -0.5056 -0.0799 0.8591
vn -0.8002 0.0594 0.5967
vn -0.6016 -0.1075 0.7916
vn -0.1152 -0.3721 0.9210
vn 0.1161 -0.2723 0.9552
vn -0.2278 -0.6392 0.7345
vn -0.2379 -0.8707 0.4303
vn -0.0869 -0.7159 0.6928
vn 0.1873 -0.1718 -0.9672
vn 0.0671 -0.4442 -0.8934
vn -0.0834 -0.3182 -0.9444
vn 0.0377 0.1133 -0.9928
vn -0.3811 0.1035 -0.9187
vn -0.0916 0.3302 -0.9394
vn -0.1353 0.4702 -0.8721
vn -0.4385 0.3184 -0.8405
vn -0.3177 0.5470 -0.7745
vn 0.3460 0.5221 -0.7795
vn 0.4072 0.7117 -0.5724
vn 0.5875 0.5623 -0.5820
vn -0.0198 0.6425 -0.7660
vn 0.1060 0.5068 -0.8555
vn 0.4104 0.1657 -0.8967
vn 0.1581 -0.0659 -0.9852
vn 0.9222 0.3414 -0.1816
vn 0.8217 0.3369 -0.4597
vn 0.9534 0.1421 -0.2661
vn 0.6644 0.7449 0.0611
vn 0.7462 0.6045 0.2786
vn -0.7041 0.5737 -0.4184
vn -0.6198 0.7772 0.1090
vn -0.1563 0.9736 0.1661
vn -0.2102 0.9313 0.2974
vn -0.2101 0.8430 0.4951
vn -0.0001 0.9141 0.4055
vn -0.8399 -0.0234 -0.5422
vn -0.4382 -0.5922 -0.6762
vn -0.8758 -0.4480 -0.1794
vn 0.1364 -0.8041 -0.5786
vn 0.8927 -0.3140 -0.3232
vn 0.5867 -0.8096 0.0173
vn 0.2889 0.0043 0.9573
vn 0.1144 -0.5322 0.8388
vn 0.3906 -0.3545 0.8495
vn -0.0332 0.4470 0.8939
vn -0.2264 -0.1789 0.9575
vn -0.6559 0.0357 0.7540
vn -0.0579 -0.4729 0.8792
vn -0.2926 -0.3690 0.8822
vn -0.2300 -0.1368 -0.9635
vn 0.3900 -0.2090 -0.8968
vn 0.2426 0.3453 -0.9066
vn 0.2062 0.6861 -0.6977
vn 0.4810 0.0593 -0.8747
vn 0.5548 0.3258 -0.7655
vn 0.8319 -0.0654 0.5510
vn 0.8363 0.0564 0.5453
vn 0.2030 0.0547 0.9777
vn 0.1789 -0.0129 0.9838
vn -0.8239 0.1494 -0.5467
vn -0.8364 0.0136 -0.5480
vn -0.1418 0.0315 -0.9894
vn -0.1649 0.1050 -0.9807
vn -0.5883 0.0682 0.8058
vn -0.5891 0.0314 0.8075
vn -0.9805 0.0247 0.1948
vn -0.9736 0.1430 0.1781
vn 0.5973 0.0146 -0.8019
vn 0.6067 0.0402 -0.7939
vn 0.9859 0.0582 -0.1568
vn 0.9844 -0.0433 -0.1708
vn -0.5850 -0.0419 0.8099
vn -0.5440 -0.1878 0.8178
vn -0.9359 -0.3147 0.1581
vn -0.9742 -0.1382 0.1786
vn 0.8169 0.1790 0.5483
vn 0.7932 0.2451 0.5574
vn 0.2045 0.0575 0.9772
vn 0.1812 0.1008 0.9783
vn -0.8184 -0.1463 -0.5558
vn -0.7780 -0.2463 -0.5780
vn -0.1358 -0.0279 -0.9903
vn -0.1530 -0.0467 -0.9871
vn 0.7797 0.2658 0.5669
vn 0.9059 0.3846 -0.1775
vn 0.8633 0.1659 -0.4767
vn 0.8570 0.1062 0.5042
vn -0.7690 -0.3398 -0.5415
vn -0.8774 -0.4523 0.1597
vn -0.8604 -0.4577 0.2239
vn -0.7455 -0.4911 -0.4506
vn -0.4803 -0.3496 0.8044
vn 0.2824 -0.0216 0.9591
vn 0.4687 -0.3553 0.8088
vn -0.4239 -0.6256 0.6549
vn 0.4939 0.2672 -0.8274
vn -0.1613 -0.0279 -0.9865
vn -0.1255 -0.1411 -0.9820
vn 0.4664 0.2432 -0.8505
vn -0.5051 0.0993 0.8573
vn 0.0154 0.6755 0.7372
vn 0.0552 0.7178 0.6941
vn -0.4707 0.2011 0.8591
vn 0.4571 0.1336 -0.8793
vn -0.0938 -0.3735 -0.9229
vn -0.0647 -0.6626 -0.7462
vn 0.4597 -0.1275 -0.8789
vn -0.7660 -0.4903 0.4157
vn -0.6404 -0.6706 -0.3744
vn -0.8099 -0.4529 0.3729
vn -0.7533 -0.4117 0.5129
vn -0.5539 -0.8046 -0.2139
vn 0.3890 -0.4361 -0.8115
vn -0.0930 -0.8393 -0.5356
vn -0.0934 -0.8585 -0.5042
vn 0.3378 -0.5309 -0.7772
vn 0.5485 0.8351 -0.0426
vn 0.7090 0.3005 -0.6380
vn 0.6928 0.1628 -0.7025
vn 0.5928 0.7920 -0.1459
vn -0.5414 -0.8407 0.0081
vn -0.7276 -0.3274 0.6028
vn -0.7163 -0.2563 0.6490
vn -0.5560 -0.8282 0.0708
vn -0.4695 0.3607 0.8059
vn 0.0525 0.8387 0.5421
vn 0.1564 0.8916 0.4249
vn -0.4235 0.4490 0.7868
vn 0.5230 -0.6022 0.6032
vn 0.9918 0.0957 -0.0847
vn 0.9956 0.0694 -0.0625
vn 0.5632 -0.5726 0.5958
vn 0.5229 0.8523 -0.0131
vn 0.6049 0.4561 -0.6527
vn 0.7041 0.5186 -0.4850
vn 0.5525 0.8247 0.1213
vn -0.9783 0.2027 0.0439
vn -0.4695 -0.6922 0.5481
vn -0.9976 0.0655 0.0221
vn 0.2426 0.6948 -0.6770
vn -0.5781 0.5972 -0.5560
vn -0.5816 0.5826 -0.5677
vn 0.2004 0.6884 -0.6970
vn 0.6504 -0.6286 0.4264
vn 0.9859 0.1106 0.1257
vn 0.9984 0.0559 0.0086
vn 0.5105 -0.6571 0.5547
vn -0.5690 0.1864 0.8010
vn 0.2821 -0.1929 0.9398
vn 0.1745 -0.1844 0.9672
vn -0.6114 0.1622 0.7745
vn -0.9997 0.0215 0.0098
vn -0.4391 -0.6284 0.6421
vn -0.3047 -0.6519 0.6944
vn -0.9997 0.0094 0.0205
vn 0.8448 -0.1063 0.5245
vn 0.8129 -0.3702 0.4497
vn 0.9086 -0.3260 0.2611
vn 0.4032 0.8902 -0.2121
vn -0.4938 0.8514 -0.1771
vn -0.5199 0.7176 -0.4634
vn 0.3717 0.7569 -0.5376
vn 0.8960 -0.3773 0.2343
vn 0.7170 -0.1583 -0.6788
vn 0.7168 -0.1671 -0.6769
vn 0.8843 -0.3766 0.2760
vn -0.1640 0.2419 -0.9563
vn -0.8626 0.4761 -0.1710
vn -0.8921 0.4286 -0.1430
vn -0.1350 0.2121 -0.9679
vn 0.5885 0.0796 -0.8046
vn 0.5546 0.1865 -0.8110
vn 0.9379 0.2942 -0.1839
vn 0.9697 0.1713 -0.1744
vn -0.6147 0.7680 0.1800
vn -0.5326 0.6425 0.5509
vn -0.3384 0.7710 0.5395
vn -0.2861 0.9096 0.3013
vn -0.3855 0.7712 -0.5065
vn -0.0520 0.9087 -0.4143
vn 0.0420 0.7772 -0.6279
vn -0.1047 0.6545 -0.7488
vn 0.1238 0.8946 0.4294
vn -0.1127 0.7006 0.7046
vn 0.6629 0.4738 0.5798
vn 0.4350 0.3014 0.8485
vn 0.5852 0.1125 0.8030
vn 0.7782 0.1375 0.6128
vn 0.8716 0.4824 -0.0873
vn 0.9880 0.1486 -0.0434
vn 0.9423 0.1305 -0.3084
vn 0.8420 0.3223 -0.4326
vn 0.3497 0.8939 -0.2806
vn 0.3164 0.7098 -0.6293
vn 0.7753 -0.1737 0.6073
vn 0.5184 -0.0685 0.8524
vn 0.9861 -0.1617 -0.0369
vn 0.9208 -0.0443 -0.3875
vn 0.2112 0.4744 -0.8546
vn 0.7343 0.1175 -0.6685
vn 0.2047 0.0855 0.9751
vn -0.3347 0.4502 0.8278
vn -0.1712 0.6537 -0.7372
vn 0.0701 0.8755 -0.4781
vn 0.2430 0.7512 -0.6137
vn 0.1696 0.5715 -0.8029
vn -0.3790 0.0657 -0.9231
vn -0.0472 -0.0000 -0.9989
vn -0.1243 -0.2268 -0.9660
vn -0.3634 -0.2847 -0.8871
vn -0.1216 0.9276 0.3532
vn -0.1605 0.9555 0.2477
vn -0.2391 0.9091 0.3410
vn -0.1722 0.8784 0.4457
vn 0.2560 0.5872 0.7679
vn -0.0262 0.3946 0.9185
vn 0.1243 0.2268 0.9660
vn 0.3796 0.2729 0.8840
vn 0.7503 0.6018 0.2738
vn 0.8694 0.2906 0.3997
vn 0.9554 0.2562 0.1466
vn 0.9040 0.4265 -0.0284
vn 0.3368 0.9246 -0.1778
vn 0.4917 0.7250 -0.4823
vn 0.4128 -0.0755 0.9077
vn 0.0472 0.0000 0.9989
vn 0.2108 -0.6563 0.7245
vn -0.1696 -0.5715 0.8029
vn -0.2430 -0.7512 0.6137
vn -0.0457 -0.8753 0.4815
vn 0.7313 -0.6441 0.2245
vn 0.4946 -0.8681 -0.0429
vn 0.6362 -0.7322 -0.2432
vn 0.8241 -0.5431 -0.1610
vn 0.8993 -0.0566 0.4337
vn 0.9969 0.0376 0.0688
vn -0.3368 -0.9246 0.1778
vn -0.4764 -0.7372 0.4791
vn -0.7077 -0.6448 -0.2886
vn -0.7427 -0.6428 -0.1878
vn -0.7765 -0.5719 -0.2646
vn -0.7244 -0.5824 -0.3689
vn -0.2560 -0.5872 -0.7679
vn 0.0500 -0.3931 -0.9181
vn 0.1936 -0.9183 -0.3454
vn 0.5077 -0.7019 -0.4996
vn 0.3103 -0.1164 -0.9435
vn 0.5290 0.4345 -0.7290
vn 0.9425 0.1664 -0.2898
vn 0.7542 -0.3906 -0.5278
vn -0.4985 -0.4531 0.7391
vn -0.2750 0.1063 0.9555
vn -0.7736 0.3504 -0.5280
vn -0.9316 0.1019 -0.3488
vn -0.9571 0.2548 -0.1379
vn -0.8856 0.4391 -0.1517
vn 0.1200 0.3111 -0.9428
vn 0.2031 0.3198 -0.9255
vn 0.3985 0.1354 -0.9071
vn 0.3507 0.0865 -0.9325
vn -0.4062 -0.0103 -0.9137
vn -0.1778 -0.2879 -0.9410
vn -0.3853 -0.4149 -0.8243
vn -0.5963 -0.2858 -0.7501
vn 0.3873 -0.0509 0.9205
vn 0.4465 -0.0100 0.8947
vn 0.4069 0.0463 0.9123
vn 0.3198 -0.0092 0.9475
vn -0.1381 -0.3738 0.9172
vn -0.3714 -0.1193 0.9208
vn -0.5470 -0.2507 0.7987
vn -0.4813 -0.4679 0.7412
vn 0.2080 -0.8109 0.5470
vn -0.1540 -0.9220 0.3552
vn 0.0169 -0.9917 0.1276
vn 0.3066 -0.9397 0.1513
vn 0.7404 -0.4112 0.5317
vn 0.8507 -0.5019 0.1562
vn 0.8871 -0.4348 0.1548
vn 0.7771 -0.3582 0.5175
vn -0.7636 -0.4488 0.4642
vn -0.7386 -0.1452 0.6583
vn -0.9836 -0.1583 -0.0868
vn -0.9828 0.1487 0.1094
vn -0.6719 -0.5486 -0.4976
vn -0.3387 -0.6213 -0.7066
vn -0.4590 -0.8861 0.0640
vn -0.1016 -0.9845 -0.1430
vn 0.0418 -0.5567 -0.8296
vn 0.5588 -0.1803 -0.8095
vn 0.5941 -0.1247 -0.7947
vn 0.8325 -0.4945 -0.2499
vn 0.8670 -0.4378 -0.2381
vn 0.3000 -0.9119 -0.2800
vn -0.6042 0.1263 0.7867
vn -0.8724 0.4250 0.2414
vn -0.7532 0.3781 -0.5382
vn -0.9304 0.1024 -0.3519
vn -0.8632 0.4807 -0.1545
vn -0.2083 0.8083 -0.5507
vn -0.3066 0.9397 -0.1513
vn -0.0169 0.9917 -0.1276
vn 0.1538 0.9218 -0.3559
vn 0.1179 0.2914 -0.9493
vn 0.4633 0.4401 -0.7692
vn 0.5013 0.2111 -0.8391
vn 0.2895 0.0372 -0.9564
vn -0.2803 -0.0098 -0.9598
vn -0.0586 -0.2054 -0.9769
vn -0.2859 -0.3572 -0.8892
vn -0.5342 -0.2690 -0.8014
vn 0.4590 0.8861 -0.0641
vn 0.1016 0.9845 0.1429
vn 0.6311 0.6027 0.4883
vn 0.3336 0.6401 0.6921
vn 0.3540 0.5807 0.7331
vn 0.6087 0.5623 0.5597
vn 0.7412 0.4610 -0.4880
vn 0.6760 0.1459 -0.7223
vn -0.7877 -0.4300 0.4412
vn -0.7469 -0.4509 0.4887
vn -0.7101 -0.1740 0.6823
vn -0.7554 -0.1355 0.6411
vn -0.6607 -0.5442 -0.5171
vn -0.3146 -0.5663 -0.7618
vn -0.5196 -0.8537 0.0353
vn -0.4706 -0.8814 -0.0407
vn -0.4231 -0.9033 0.0707
vn -0.4882 -0.8657 0.1105
vn 0.0573 -0.4141 -0.9084
vn 0.4702 -0.1300 -0.8729
vn -0.6139 0.1737 0.7700
vn -0.5812 0.1262 0.8039
vn -0.0489 0.5860 0.8088
vn -0.0187 0.5376 0.8430
vn -0.3000 0.9119 0.2800
vn -0.8500 0.4620 0.2532
vn -0.5907 0.1176 -0.7983
vn -0.8480 0.0016 -0.5300
vn -0.8588 0.2308 -0.4574
vn -0.7065 0.4012 -0.5830
vn 0.0236 0.3833 -0.9233
vn -0.0695 0.6922 -0.7184
vn 0.2083 0.7091 -0.6736
vn 0.3627 0.5240 -0.7706
vn 0.2881 -0.1689 -0.9426
vn 0.6196 -0.0403 -0.7839
vn 0.6565 -0.2651 -0.7062
vn 0.4725 -0.4409 -0.7631
vn -0.3297 -0.4352 -0.8378
vn -0.1700 -0.7328 -0.6589
vn -0.4162 -0.7444 -0.5222
vn -0.5960 -0.5636 -0.5719
vn 0.6218 0.6175 -0.4818
vn 0.2959 0.8419 -0.4512
vn 0.7416 0.6378 0.2078
vn 0.4223 0.8634 0.2761
vn 0.4162 0.7444 0.5222
vn 0.5960 0.5636 0.5719
vn 0.9825 0.0732 0.1714
vn 0.8480 -0.0016 0.5300
vn 0.8588 -0.2308 0.4574
vn 0.9374 -0.2831 0.2027
vn 0.8664 0.0535 -0.4966
vn 0.8169 -0.3035 -0.4904
vn 0.3297 0.4352 0.8378
vn 0.1700 0.7328 0.6589
vn -0.2881 0.1689 0.9426
vn -0.4725 0.4409 0.7631
vn -0.6565 0.2651 0.7062
vn -0.6196 0.0403 0.7839
vn -0.0236 -0.3833 0.9233
vn -0.3627 -0.5240 0.7706
vn -0.2083 -0.7091 0.6736
vn 0.0695 -0.6922 0.7184
vn 0.5907 -0.1176 0.7983
vn 0.7065 -0.4012 0.5830
vn -0.8664 -0.0535 0.4965
vn -0.8169 0.3035 0.4904
vn -0.9825 -0.0732 -0.1714
vn -0.9374 0.2831 -0.2027
vn -0.7416 -0.6378 -0.2078
vn -0.4223 -0.8634 -0.2761
vn -0.6217 -0.6175 0.4818
vn -0.2959 -0.8419 0.4512
vn -0.0218 -0.9369 -0.3490
vn 0.6300 -0.6271 -0.4580
vn 0.7538 -0.6061 0.2539
vn 0.1065 -0.9151 0.3889
vn -0.6300 0.6271 0.4580
vn 0.0218 0.9369 0.3490
vn -0.1065 0.9151 -0.3889
vn -0.7538 0.6061 -0.2538
vn -0.7336 0.6709 0.1078
vn -0.9356 0.3179 0.1533
vn -0.4320 0.9006 0.0485
vn -0.4649 0.8204 -0.3328
vn -0.4177 0.5883 -0.6924
vn -0.0575 0.9982 -0.0194
vn 0.3812 0.9198 -0.0934
vn -0.3336 0.8427 0.4226
vn -0.1656 0.6311 0.7579
vn 0.0575 -0.9982 0.0194
vn -0.3812 -0.9198 0.0934
vn 0.4320 -0.9006 -0.0485
vn 0.4649 -0.8204 0.3328
vn 0.4177 -0.5883 0.6924
vn 0.7336 -0.6709 -0.1078
vn 0.9356 -0.3179 -0.1533
vn 0.3336 -0.8427 -0.4226
vn 0.1656 -0.6311 -0.7579
vn -0.7882 -0.3522 0.5047
vn -0.5172 -0.2536 0.8175
vn -0.9063 -0.3874 0.1690
vn -0.7329 -0.6643 0.1470
vn -0.9087 -0.3727 -0.1883
vn -0.7600 -0.2948 -0.5793
vn -0.9820 -0.0760 0.1730
vn 0.4758 0.1613 0.8646
vn 0.7600 0.2948 0.5793
vn 0.1712 0.0290 0.9848
vn 0.3006 -0.2584 0.9181
vn -0.1547 -0.1069 0.9822
vn 0.0240 0.3135 0.9493
vn 0.7882 0.3522 -0.5047
vn 0.5172 0.2536 -0.8175
vn 0.9063 0.3874 -0.1690
vn 0.9820 0.0760 -0.1730
vn 0.9087 0.3727 0.1883
vn 0.7329 0.6643 -0.1470
vn -0.4758 -0.1613 -0.8646
vn -0.1712 -0.0290 -0.9848
vn -0.0240 -0.3135 -0.9493
vn 0.1547 0.1069 -0.9822
vn -0.3006 0.2584 -0.9181
vn -0.7561 0.3374 0.5608
vn -0.9128 0.0026 0.4085
vn -0.5114 0.5936 0.6214
vn -0.6184 0.7284 0.2949
vn -0.6295 0.7598 -0.1626
vn -0.1898 0.7772 0.6000
vn 0.2351 0.8575 0.4576
vn -0.3714 0.4210 0.8275
vn -0.3472 0.3690 0.8622
vn 0.5052 -0.1549 -0.8490
vn 0.7080 0.1198 -0.6960
vn 0.2697 -0.3175 -0.9091
vn 0.2592 -0.2682 -0.9278
vn 0.1143 -0.0886 -0.9895
vn 0.0287 -0.4839 -0.8747
vn -0.4168 -0.7435 -0.5230
vn -0.6915 -0.6850 0.2293
vn -0.6489 -0.7079 0.2790
vn -0.8184 -0.5745 -0.0162
vn -0.6259 -0.7422 -0.2394
vn -0.8734 -0.3800 -0.3044
vn -0.7884 -0.0967 -0.6075
vn -0.9238 -0.3298 0.1943
vn 0.6470 0.7099 -0.2782
vn 0.3358 0.7281 -0.5976
vn 0.7309 0.6824 -0.0078
vn 0.7842 0.4464 -0.4310
vn 0.6874 0.5924 0.4201
vn 0.6532 0.5592 0.5105
vn 0.6007 0.7663 0.2279
vn -0.5589 0.1894 -0.8073
vn -0.3189 0.3972 -0.8605
vn -0.0804 0.1308 -0.9881
vn -0.0429 0.5866 -0.8087
vn -0.5143 0.6231 -0.5893
vn -0.7791 0.3036 0.5485
vn -0.7387 0.3703 0.5632
vn -0.8442 0.4770 0.2446
vn -0.8646 0.4794 -0.1506
vn -0.5600 0.1723 0.8104
vn -0.1258 -0.0748 0.9892
vn 0.1898 -0.7772 -0.6000
vn -0.2351 -0.8575 -0.4576
vn 0.5114 -0.5936 -0.6214
vn 0.6184 -0.7284 -0.2949
vn 0.6295 -0.7598 0.1626
vn 0.7242 -0.3795 -0.5757
vn 0.7566 -0.3201 -0.5701
vn 0.3417 -0.3864 -0.8567
vn 0.1034 -0.0998 -0.9896
vn -0.6575 -0.7010 0.2763
vn -0.3391 -0.7368 0.5849
vn -0.6110 -0.7573 -0.2306
vn -0.8749 -0.3800 -0.3003
vn -0.8078 -0.0972 -0.5814
vn 0.5716 -0.2402 0.7846
vn 0.6049 -0.1828 0.7750
vn 0.3507 -0.4364 0.8286
vn 0.5166 -0.6272 0.5828
vn 0.0426 -0.6198 0.7836
vn 0.1449 -0.2181 0.9651
vn -0.6082 0.1883 -0.7711
vn -0.3794 0.2977 -0.8760
vn -0.1516 0.1870 -0.9706
vn 0.0471 0.3535 -0.9342
vn 0.1499 0.3520 -0.9239
vn -0.7328 0.4010 -0.5498
vn -0.3149 0.1585 0.9358
vn -0.0756 0.6121 0.7871
vn -0.4786 -0.1349 0.8676
vn -0.4141 -0.1760 0.8931
vn -0.0630 -0.3005 0.9517
vn -0.5587 -0.4361 0.7054
vn -0.6203 -0.7444 0.2472
vn 0.5665 -0.2596 -0.7821
vn 0.2929 -0.5847 -0.7565
vn 0.7131 0.0275 -0.7005
vn 0.8922 -0.1103 -0.4380
vn 0.9630 -0.2654 -0.0468
vn 0.7808 0.3095 -0.5428
vn 0.7429 0.6136 -0.2677
vn 0.4500 0.1614 -0.8783
vn 0.0630 0.3005 -0.9517
vn -0.0855 -0.9917 -0.0964
vn 0.2399 -0.9418 0.2354
vn -0.3363 -0.8735 -0.3519
vn -0.0465 -0.8048 -0.5917
vn -0.5149 -0.6536 -0.5547
vn -0.5281 -0.4165 -0.7400
vn -0.5595 -0.8262 -0.0657
vn 0.6971 -0.0801 0.7125
vn 0.6649 0.3020 0.6832
vn 0.6414 -0.4028 0.6530
vn 0.8579 -0.3671 0.3594
vn 0.5080 -0.6912 0.5140
vn 0.3407 -0.3841 0.8581
vn 0.1103 0.9893 0.0957
vn -0.0152 0.9750 -0.2215
vn 0.3363 0.8735 0.3519
vn 0.5758 0.8151 0.0639
vn 0.5320 0.6436 0.5502
vn 0.0709 0.8020 0.5931
vn -0.4437 0.0583 -0.8943
vn -0.3757 0.3917 -0.8399
vn -0.3008 0.3779 -0.8756
vn -0.2226 0.6853 -0.6934
vn -0.3744 0.4017 0.8357
vn -0.5675 0.6062 0.5571
vn -0.1144 0.2032 0.9724
vn -0.0729 0.2709 0.9598
vn 0.1762 0.5346 0.8266
vn 0.1828 0.0339 0.9826
vn 0.5127 -0.1133 0.8511
vn 0.7221 0.0673 -0.6885
vn 0.9151 -0.0871 -0.3937
vn 0.4744 0.2362 -0.8480
vn 0.4987 0.3012 -0.8127
vn 0.6185 0.5497 -0.5615
vn 0.1861 0.4272 -0.8848
vn -0.1250 0.6182 -0.7760
vn 0.9338 -0.1919 0.3020
vn 0.9404 0.1544 0.3030
vn 0.9186 -0.2638 0.2944
vn 0.9754 -0.2154 -0.0470
vn 0.7623 -0.2289 0.6054
vn 0.2650 0.9608 0.0816
vn -0.1796 0.9818 -0.0608
vn 0.5846 0.7898 0.1855
vn 0.6538 0.7341 -0.1831
vn 0.8132 0.5204 0.2604
vn 0.4305 0.7304 0.5302
vn -0.4281 0.7311 -0.5313
vn -0.6124 0.7637 -0.2043
vn -0.5467 0.8177 -0.1804
vn -0.6648 0.7270 0.1719
vn 0.1643 0.5546 -0.8157
vn -0.4668 0.8704 0.1564
vn -0.1907 0.7675 0.6121
vn 0.1893 -0.7934 0.5785
vn -0.8415 0.1261 0.5254
vn 0.5720 0.0085 -0.8202
vn 0.9780 -0.0685 -0.1972
vn -0.2074 0.1182 -0.9711
vn -0.6037 0.0741 0.7937
vn -0.9754 0.1616 0.1500
vn 0.1349 -0.0277 0.9905
vn -0.8198 0.1711 -0.5465
vn 0.8234 -0.0956 0.5593
vn 0.8032 0.1204 -0.5834
vn 0.7845 -0.0514 -0.6180
vn 0.6624 -0.3689 -0.6521
vn 0.2667 0.8666 -0.4218
vn 0.3894 0.8456 -0.3651
vn 0.0510 0.8617 -0.5049
vn -0.2199 0.7753 -0.5921
vn -0.4995 0.6322 -0.5923
vn -0.5728 -0.1154 -0.8115
vn -0.6809 0.1622 -0.7142
vn -0.3905 -0.3760 -0.8403
vn 0.3046 -0.5917 -0.7464
vn 0.0180 -0.6760 -0.7367
vn -0.4637 -0.5693 0.6789
vn -0.7519 -0.2808 0.5964
vn 0.1503 -0.7695 0.6208
vn -0.8761 0.1429 0.4604
vn -0.9809 0.0553 0.1867
vn -0.7227 0.1742 0.6689
vn -0.5616 0.3517 0.7489
vn -0.2664 0.5904 0.7619
vn 0.1102 0.7504 0.6517
vn 0.1629 0.8602 0.4832
vn 0.1841 0.5173 0.8357
vn 0.3948 0.3011 0.8680
vn 0.5043 0.1022 0.8575
vn 0.7481 -0.3213 0.5807
vn 0.9021 -0.0778 0.4244
vn 0.5733 -0.4829 0.6619
vn 0.3775 -0.6473 0.6622
vn -0.0893 -0.9822 0.1651
vn 0.9906 -0.1226 0.0609
vn 0.9863 -0.0858 -0.1409
vn -0.1547 -0.7820 -0.6037
vn -0.2757 -0.8873 -0.3698
vn -0.2576 -0.9636 -0.0714
vn -0.1930 -0.5528 -0.8107
vn -0.7913 0.2944 -0.5359
vn -0.9013 0.3371 -0.2720
vn 0.0592 0.7221 0.6893
vn -0.9804 0.1970 0.0072
vn -0.6319 0.4308 -0.6443
vn 0.3068 0.9130 -0.2691
vn 0.2327 0.9725 0.0075
vn 0.2001 0.9335 0.2976
vn 0.9653 -0.0243 -0.2602
vn 0.0428 -0.9212 0.3868
vn -0.9224 -0.0510 0.3828
vn 0.6901 0.0317 0.7230
usemtl None
s 1
f 1/1/1 246/2/2 298/3/3
f 3/4/4 560/5/5 608/6/6
f 5/7/7 516/8/8 457/9/9
f 7/10/10 351/11/11 399/12/12
f 5/7/7 226/13/13 511/14/14
f 7/10/10 435/15/15 351/11/11
f 1/1/1 283/16/16 246/2/2
f 2/17/17 388/18/18 225/19/19
f 7/10/10 399/12/12 489/20/20
f 13/21/21 455/22/22 509/23/23
f 16/24/24 222/25/25 452/26/26
f 13/27/21 509/28/23 603/29/27
f 17/30/28 240/31/29 289/32/30
f 20/33/31 506/34/32 333/35/33
f 17/30/28 496/36/34 342/37/35
f 20/33/31 384/38/36 506/34/32
f 13/21/21 526/39/37 556/40/38
f 16/24/24 444/41/39 440/42/40
f 20/43/31 333/44/33 229/45/41
f 25/46/42 493/47/43 241/48/44
f 25/46/42 241/48/44 291/49/45
f 27/50/46 554/51/47 600/52/48
f 30/53/49 604/54/50 449/55/51
f 27/50/46 387/56/52 228/57/53
f 30/53/49 505/58/54 604/54/50
f 25/46/42 390/59/55 565/60/56
f 34/61/57 358/62/58 366/63/59
f 30/53/49 449/55/51 219/64/60
f 35/65/61 524/66/62 438/67/63
f 35/65/61 438/67/63 590/68/64
f 37/69/65 331/70/66 434/71/67
f 39/72/68 224/73/69 383/74/70
f 37/69/65 543/75/71 490/76/72
f 39/77/68 213/78/73 224/79/69
f 35/65/61 278/80/74 316/81/75
f 42/82/76 536/83/77 578/84/78
f 39/72/68 383/74/70 486/85/79
f 43/86/80 442/87/81 235/88/82
f 44/89/83 588/90/84 488/91/85
f 45/92/86 232/93/87 201/94/88
f 45/95/86 303/96/89 327/97/90
f 46/98/91 572/99/92 476/100/93
f 44/101/83 474/102/94 432/103/95
f 31/104/96 393/105/97 307/106/98
f 47/107/99 313/108/100 532/109/101
f 48/110/102 559/111/103 276/112/104
f 49/113/105 406/114/106 343/115/107
f 50/116/108 261/117/109 371/118/110
f 49/119/105 447/120/111 547/121/112
f 48/122/102 531/123/113 221/124/114
f 3/4/4 402/125/115 596/126/116
f 2/17/17 225/19/19 285/127/117
f 1/1/1 298/3/3 397/128/118
f 1/1/1 397/128/118 507/129/119
f 5/7/7 457/9/9 226/13/13
f 1/1/1 507/129/119 283/16/16
f 13/21/21 556/40/38 455/22/22
f 16/24/24 440/42/40 222/25/25
f 17/30/28 398/130/120 240/31/29
f 13/27/21 603/29/27 302/131/121
f 17/30/28 289/32/30 496/36/34
f 13/21/21 302/132/121 526/39/37
f 16/24/24 206/133/122 444/41/39
f 24/134/123 443/135/124 404/136/125
f 25/46/42 565/60/56 493/47/43
f 34/61/57 366/63/59 471/137/126
f 27/50/46 394/138/127 554/51/47
f 25/46/42 291/49/45 446/139/128
f 27/50/46 600/52/48 387/56/52
f 25/46/42 446/139/128 390/59/55
f 35/65/61 316/81/75 524/66/62
f 42/82/76 578/84/78 267/140/129
f 37/69/65 492/141/130 331/70/66
f 35/65/61 590/68/64 270/142/131
f 37/69/65 434/71/67 543/75/71
f 35/65/61 270/142/131 278/80/74
f 44/89/83 432/143/95 284/144/132
f 43/145/80 273/146/133 571/147/134
f 43/86/80 571/148/134 442/87/81
f 44/89/83 284/144/132 588/90/84
f 45/92/86 430/149/135 232/93/87
f 44/101/83 488/150/85 415/151/136
f 45/95/86 201/152/88 303/96/89
f 46/98/91 368/153/137 572/99/92
f 44/101/83 415/151/136 474/102/94
f 43/145/80 411/154/138 273/146/133
f 46/98/91 476/100/93 581/155/139
f 48/110/102 221/156/114 570/157/140
f 47/107/99 361/158/141 313/108/100
f 48/110/102 570/157/140 559/111/103
f 48/122/102 276/159/104 591/160/142
f 49/119/105 343/161/107 447/120/111
f 50/116/108 454/162/143 261/117/109
f 48/122/102 591/160/142 531/123/113
f 47/163/99 582/164/144 361/165/141
f 50/116/108 371/118/110 400/166/145
f 728/167/146 498/168/147 53/169/148 337/170/149
f 727/171/150 281/172/151 57/173/152 549/174/153
f 726/175/154 437/176/155 56/177/156 227/178/157
f 725/179/158 275/180/159 52/181/160 441/182/161
f 724/183/162 445/184/163 60/185/164 530/186/165
f 723/187/166 595/188/167 59/189/168 263/190/169
f 722/191/170 429/192/171 62/193/172 330/194/173
f 721/195/174 499/196/175 63/197/176 233/198/177
f 720/199/178 277/200/179 65/201/180 413/202/181
f 719/203/182 223/204/183 64/205/184 286/206/185
f 718/207/186 451/208/187 66/209/188 345/210/189
f 717/211/190 529/212/191 68/213/192 257/214/193
f 716/215/194 521/216/195 70/217/196 574/218/197
f 65/201/180 286/206/185 519/219/198
f 715/220/199 360/221/200 69/222/201 208/223/202
f 714/224/203 253/225/204 73/226/205 409/227/206
f 713/228/207 599/229/208 74/230/209 363/231/210
f 712/232/211 290/233/212 76/234/213 305/235/214
f 711/236/215 557/237/216 75/238/217 525/239/218
f 710/240/219 205/241/220 78/242/221 569/243/222
f 709/244/223 510/245/224 71/246/225 355/247/226
f 708/248/227 519/219/198 72/249/228 395/250/229
f 707/251/230 461/252/231 81/253/232 251/254/233
f 706/255/234 373/256/235 77/257/236 238/258/237
f 705/259/238 356/260/239 83/261/240 518/262/241
f 704/263/242 346/264/243 79/265/244 359/266/245
f 82/267/246 266/268/247 375/269/248
f 703/270/249 293/271/250 80/272/251 523/273/252
f 702/274/253 426/275/254 85/276/255 562/277/256
f 701/278/257 497/279/258 84/280/259 247/281/260
f 700/282/261 341/283/262 61/284/263 484/285/264
f 699/286/265 301/287/266 88/288/267 462/289/268
f 698/290/269 408/291/270 90/292/271 357/293/272
f 697/294/273 462/289/268 88/288/267 231/295/274
f 696/296/275 202/297/276 94/298/277 566/299/278
f 695/300/279 306/301/280 96/302/281 483/303/282
f 694/304/283 243/305/284 90/292/271 408/291/270
f 693/306/285 566/299/278 94/298/277 260/307/286
f 692/308/287 540/309/288 96/302/281 306/301/280
f 691/310/289 357/293/272 90/292/271 243/305/284
f 690/311/290 483/303/282 96/302/281 540/309/288
f 689/312/291 260/307/286 94/298/277 202/297/276
f 688/313/292 231/295/274 88/288/267 301/287/266
f 687/314/293 473/315/294 105/316/295 533/317/296
f 686/318/297 372/319/298 107/320/299 211/321/300
f 685/322/301 607/323/302 110/324/303 579/325/304
f 684/326/305 414/327/306 112/328/307 485/329/308
f 683/330/309 539/331/310 114/332/311 380/333/312
f 682/334/313 428/335/314 105/316/295 473/315/294
f 681/336/315 485/329/308 112/328/307 220/337/316
f 680/338/317 320/339/318 118/340/319 584/341/320
f 679/342/321 422/343/322 120/344/323 487/345/324
f 678/346/325 259/347/326 114/332/311 539/331/310
f 677/348/327 584/341/320 118/340/319 354/349/328
f 676/350/329 218/351/330 124/352/331 504/353/332
f 675/354/333 211/321/300 107/320/299 552/355/334
f 674/356/335 248/357/336 120/344/323 422/343/322
f 673/358/337 552/355/334 107/320/299 372/319/298
f 672/359/338 533/317/296 105/316/295 428/335/314
f 671/360/339 380/333/312 114/332/311 259/347/326
f 670/361/340 487/345/324 120/344/323 248/357/336
f 669/362/341 354/349/328 118/340/319 320/339/318
f 668/363/342 220/337/316 112/328/307 414/327/306
f 667/364/343 589/365/344 130/366/345 326/367/346
f 666/368/347 433/369/348 133/370/349 379/371/350
f 665/372/351 538/373/352 135/374/353 417/375/354
f 664/376/355 587/377/356 138/378/357 322/379/358
f 663/380/359 480/381/360 140/382/361 421/383/362
f 662/384/363 377/385/364 142/386/365 537/387/366
f 661/388/367 264/389/368 144/390/369 466/391/370
f 660/392/371 421/383/362 140/382/361 436/393/372
f 659/394/373 244/395/374 130/366/345 589/365/344
f 658/396/375 417/375/354 135/374/353 385/397/376
f 657/398/377 274/399/378 142/386/365 377/385/364
f 656/400/379 385/397/376 135/374/353 538/373/352
f 655/401/380 379/371/350 133/370/349 287/402/381
f 654/403/382 378/404/383 144/390/369 264/389/368
f 653/405/384 537/387/366 142/386/365 274/399/378
f 652/406/385 436/393/372 140/382/361 480/381/360
f 651/407/386 326/367/346 130/366/345 244/395/374
f 650/408/387 214/409/388 153/410/345 583/411/389
f 649/412/390 318/413/391 155/414/392 475/415/393
f 648/416/394 416/417/395 157/418/396 374/419/397
f 647/420/398 535/421/399 159/422/400 299/423/401
f 646/424/402 475/415/393 155/414/392 311/425/403
f 645/426/404 463/427/405 162/428/406 308/429/407
f 644/430/408 586/431/409 157/418/396 416/417/395
f 643/432/410 520/433/411 167/434/412 564/435/413
f 642/436/373 381/437/374 153/410/345 214/409/388
f 641/438/414 299/423/401 159/422/400 212/439/415
f 640/440/416 460/441/417 170/442/418 339/443/419
f 639/444/420 212/439/415 159/422/400 535/421/399
f 638/445/421 374/419/397 157/418/396 586/431/409
f 637/446/422 564/435/413 167/434/412 495/447/423
f 636/448/424 602/449/425 162/428/406 463/427/405
f 635/450/426 311/425/403 155/414/392 318/413/391
f 634/451/427 583/411/389 153/410/345 381/437/374
f 633/452/428 575/453/429 176/454/430 207/455/431
f 632/456/432 465/457/433 178/458/434 310/459/435
f 631/460/436 367/461/437 180/462/438 412/463/439
f 630/464/440 258/465/441 182/466/442 420/467/443
f 629/468/444 310/459/435 178/458/434 456/469/445
f 628/470/446 209/471/447 185/472/448 467/473/449
f 627/474/450 314/475/451 187/476/452 364/477/453
f 626/478/454 453/479/455 180/462/438 367/461/437
f 625/480/456 467/473/449 185/472/448 249/481/457
f 624/482/458 528/483/459 191/484/460 598/485/461
f 623/486/462 236/487/463 193/488/464 391/489/465
f 622/490/466 271/491/467 187/476/452 314/475/451
f 621/492/468 598/485/461 191/484/460 396/493/469
f 620/494/470 500/495/471 176/454/430 575/453/429
f 619/496/472 420/467/443 182/466/442 217/497/473
f 618/498/474 338/499/475 193/488/464 236/487/463
f 617/500/476 217/497/473 182/466/442 258/465/441
f 616/501/477 412/463/439 180/462/438 453/479/455
f 615/502/478 364/477/453 187/476/452 271/491/467
f 614/503/479 391/489/465 193/488/464 338/499/475
f 613/504/480 396/493/469 191/484/460 528/483/459
f 612/505/481 249/481/457 185/472/448 209/471/447
f 611/506/482 456/469/445 178/458/434 465/457/433
f 610/507/483 207/455/431 176/454/430 500/495/471
f 334/508/484 610/507/483 500/495/471 196/509/485
f 199/510/486 216/511/487 610/507/483 334/508/484
f 216/511/487 177/512/488 207/455/431 610/507/483
f 216/511/487 611/506/482 465/457/433 177/512/488
f 199/510/486 335/513/489 611/506/482 216/511/487
f 335/513/489 184/514/490 456/469/445 611/506/482
f 335/515/489 612/505/481 209/471/447 184/516/490
f 199/517/486 542/518/491 612/505/481 335/515/489
f 542/518/491 190/519/492 249/481/457 612/505/481
f 542/518/491 613/504/480 528/483/459 190/519/492
f 199/517/486 334/520/484 613/504/480 542/518/491
f 334/520/484 196/521/485 396/493/469 613/504/480
f 601/522/493 614/503/479 338/499/475 197/523/494
f 198/524/495 494/525/496 614/503/479 601/522/493
f 494/525/496 194/526/497 391/489/465 614/503/479
f 494/525/496 615/502/478 271/491/467 194/526/497
f 198/524/495 369/527/498 615/502/478 494/525/496
f 369/527/498 188/528/499 364/477/453 615/502/478
f 369/529/498 616/501/477 453/479/455 188/530/499
f 198/531/495 282/532/500 616/501/477 369/529/498
f 282/532/500 181/533/501 412/463/439 616/501/477
f 282/532/500 617/500/476 258/465/441 181/533/501
f 198/531/495 601/534/493 617/500/476 282/532/500
f 601/534/493 197/535/494 217/497/473 617/500/476
f 555/536/502 618/498/474 236/487/463 192/537/503
f 195/538/504 550/539/505 618/498/474 555/536/502
f 550/539/505 197/523/494 338/499/475 618/498/474
f 550/540/505 619/496/472 217/497/473 197/535/494
f 195/538/504 230/541/506 619/496/472 550/540/505
f 230/541/506 175/542/507 420/467/443 619/496/472
f 230/541/506 620/494/470 575/453/429 175/542/507
f 195/538/504 503/543/508 620/494/470 230/541/506
f 503/543/508 196/509/485 500/495/471 620/494/470
f 503/544/508 621/492/468 396/493/469 196/521/485
f 195/538/504 555/536/502 621/492/468 503/544/508
f 555/536/502 192/537/503 598/485/461 621/492/468
f 204/545/509 622/490/466 314/475/451 186/546/510
f 189/547/511 478/548/512 622/490/466 204/545/509
f 478/548/512 194/526/497 271/491/467 622/490/466
f 478/548/512 623/486/462 391/489/465 194/526/497
f 189/547/511 362/549/513 623/486/462 478/548/512
f 362/549/513 192/537/503 236/487/463 623/486/462
f 362/549/513 624/482/458 598/485/461 192/537/503
f 189/547/511 256/550/514 624/482/458 362/549/513
f 256/550/514 190/519/492 528/483/459 624/482/458
f 256/550/514 625/480/456 249/481/457 190/519/492
f 189/547/511 204/545/509 625/480/456 256/550/514
f 204/545/509 186/546/510 467/473/449 625/480/456
f 606/551/515 626/478/454 367/461/437 179/552/516
f 183/553/517 347/554/518 626/478/454 606/551/515
f 347/554/518 188/530/499 453/479/455 626/478/454
f 347/555/518 627/474/450 364/477/453 188/528/499
f 183/553/517 239/556/519 627/474/450 347/555/518
f 239/556/519 186/546/510 314/475/451 627/474/450
f 239/556/519 628/470/446 467/473/449 186/546/510
f 183/553/517 577/557/520 628/470/446 239/556/519
f 577/557/520 184/516/490 209/471/447 628/470/446
f 577/558/520 629/468/444 456/469/445 184/514/490
f 183/553/517 606/551/515 629/468/444 577/558/520
f 606/551/515 179/552/516 310/459/435 629/468/444
f 517/559/521 630/464/440 420/467/443 175/542/507
f 174/560/522 567/561/523 630/464/440 517/559/521
f 567/561/523 181/533/501 258/465/441 630/464/440
f 567/561/523 631/460/436 412/463/439 181/533/501
f 174/560/522 254/562/524 631/460/436 567/561/523
f 254/562/524 179/552/516 367/461/437 631/460/436
f 254/562/524 632/456/432 310/459/435 179/552/516
f 174/560/522 401/563/525 632/456/432 254/562/524
f 401/563/525 177/512/488 465/457/433 632/456/432
f 401/563/525 633/452/428 207/455/431 177/512/488
f 174/560/522 517/559/521 633/452/428 401/563/525
f 517/559/521 175/542/507 575/453/429 633/452/428
f 439/564/526 634/451/427 381/437/374 168/565/527
f 172/566/528 292/567/529 634/451/427 439/564/526
f 292/567/529 154/568/530 583/411/389 634/451/427
f 292/567/529 635/450/426 318/413/391 154/568/530
f 172/566/528 553/569/531 635/450/426 292/567/529
f 553/569/531 161/570/532 311/425/403 635/450/426
f 553/571/531 636/448/424 463/427/405 161/572/532
f 172/573/528 403/574/533 636/448/424 553/571/531
f 403/574/533 173/575/534 602/449/425 636/448/424
f 403/574/533 637/446/422 495/447/423 173/575/534
f 172/573/528 439/576/526 637/446/422 403/574/533
f 439/576/526 168/577/527 564/435/413 637/446/422
f 502/578/535 638/445/421 586/431/409 164/579/536
f 171/580/537 237/581/538 638/445/421 502/578/535
f 237/581/538 158/582/539 374/419/397 638/445/421
f 237/581/538 639/444/420 535/421/399 158/582/539
f 171/580/537 200/583/540 639/444/420 237/581/538
f 200/583/540 169/584/541 212/439/415 639/444/420
f 255/585/542 640/440/416 339/443/419 166/586/543
f 165/587/544 513/588/545 640/440/416 255/585/542
f 513/588/545 169/589/541 460/441/417 640/440/416
f 513/590/545 641/438/414 212/439/415 169/584/541
f 165/587/544 340/591/546 641/438/414 513/590/545
f 340/591/546 152/592/547 299/423/401 641/438/414
f 340/591/546 642/436/373 214/409/388 152/592/547
f 165/587/544 353/593/548 642/436/373 340/591/546
f 353/593/548 168/565/527 381/437/374 642/436/373
f 353/594/548 643/432/410 564/435/413 168/577/527
f 165/587/544 255/585/542 643/432/410 353/594/548
f 255/585/542 166/586/543 520/433/411 643/432/410
f 576/595/549 644/430/408 416/417/395 156/596/550
f 160/597/551 468/598/552 644/430/408 576/595/549
f 468/598/552 164/579/536 586/431/409 644/430/408
f 410/599/553 645/426/404 308/429/407 163/600/554
f 160/597/551 203/601/555 645/426/404 410/599/553
f 203/601/555 161/572/532 463/427/405 645/426/404
f 203/602/555 646/424/402 311/425/403 161/570/532
f 160/597/551 576/595/549 646/424/402 203/602/555
f 576/595/549 156/596/550 475/415/393 646/424/402
f 268/603/556 647/420/398 299/423/401 152/592/547
f 151/604/557 563/605/558 647/420/398 268/603/556
f 563/605/558 158/582/539 535/421/399 647/420/398
f 563/605/558 648/416/394 374/419/397 158/582/539
f 151/604/557 458/606/559 648/416/394 563/605/558
f 458/606/559 156/596/550 416/417/395 648/416/394
f 458/606/559 649/412/390 475/415/393 156/596/550
f 151/604/557 349/607/560 649/412/390 458/606/559
f 349/607/560 154/568/530 318/413/391 649/412/390
f 349/607/560 650/408/387 583/411/389 154/568/530
f 151/604/557 268/603/556 650/408/387 349/607/560
f 268/603/556 152/592/547 214/409/388 650/408/387
f 464/608/561 651/407/386 244/395/374 146/609/527
f 150/610/562 548/611/563 651/407/386 464/608/561
f 548/611/563 131/612/564 326/367/346 651/407/386
f 545/613/565 652/406/385 480/381/360 139/614/566
f 150/615/562 464/616/561 652/406/385 545/613/565
f 464/616/561 146/617/527 436/393/372 652/406/385
f 479/618/567 653/405/384 274/399/378 147/619/568
f 148/620/569 427/621/570 653/405/384 479/618/567
f 427/621/570 143/622/571 537/387/366 653/405/384
f 427/621/570 654/403/382 264/389/368 143/622/571
f 148/620/569 419/623/572 654/403/382 427/621/570
f 419/623/572 149/624/573 378/404/383 654/403/382
f 419/625/572 655/401/380 287/402/381 149/626/573
f 148/627/569 551/628/574 655/401/380 419/625/572
f 551/628/574 134/629/575 379/371/350 655/401/380
f 551/628/574 656/400/379 538/373/352 134/629/575
f 148/627/569 479/630/567 656/400/379 551/628/574
f 479/630/567 147/631/568 385/397/376 656/400/379
f 534/632/576 657/398/377 377/385/364 141/633/577
f 145/634/544 210/635/578 657/398/377 534/632/576
f 210/635/578 147/619/568 274/399/378 657/398/377
f 210/636/578 658/396/375 385/397/376 147/631/568
f 145/634/544 514/637/579 658/396/375 210/636/578
f 514/637/579 129/638/580 417/375/354 658/396/375
f 514/637/579 659/394/373 589/365/344 129/638/580
f 145/634/544 580/639/548 659/394/373 514/637/579
f 580/639/548 146/609/527 244/395/374 659/394/373
f 580/640/548 660/392/371 436/393/372 146/617/527
f 145/634/544 534/632/576 660/392/371 580/640/548
f 534/632/576 141/633/577 421/383/362 660/392/371
f 215/641/581 661/388/367 466/391/370 137/642/582
f 136/643/583 304/644/584 661/388/367 215/641/581
f 304/644/584 143/622/571 264/389/368 661/388/367
f 304/644/584 662/384/363 537/387/366 143/622/571
f 136/643/583 407/645/585 662/384/363 304/644/584
f 407/645/585 141/633/577 377/385/364 662/384/363
f 407/645/585 663/380/359 421/383/362 141/633/577
f 136/643/583 515/646/586 663/380/359 407/645/585
f 515/646/586 139/614/566 480/381/360 663/380/359
f 515/646/586 664/376/355 322/379/358 139/614/566
f 136/643/583 215/641/581 664/376/355 515/646/586
f 215/641/581 137/642/582 587/377/356 664/376/355
f 431/647/587 665/372/351 417/375/354 129/638/580
f 128/648/588 593/649/589 665/372/351 431/647/587
f 593/649/589 134/629/575 538/373/352 665/372/351
f 593/649/589 666/368/347 379/371/350 134/629/575
f 128/648/588 491/650/590 666/368/347 593/649/589
f 491/650/590 132/651/591 433/369/348 666/368/347
f 329/652/592 667/364/343 326/367/346 131/612/564
f 128/648/588 431/647/587 667/364/343 329/652/592
f 431/647/587 129/638/580 589/365/344 667/364/343
f 448/653/593 668/363/342 414/327/306 111/654/594
f 127/655/595 252/656/596 668/363/342 448/653/593
f 252/656/596 117/657/597 220/337/316 668/363/342
f 252/656/596 669/362/341 320/339/318 117/657/597
f 127/655/595 469/658/598 669/362/341 252/656/596
f 469/658/598 123/659/599 354/349/328 669/362/341
f 323/660/600 670/361/340 248/357/336 125/661/601
f 126/662/602 317/663/603 670/361/340 323/660/600
f 317/663/603 121/664/604 487/345/324 670/361/340
f 317/663/603 671/360/339 259/347/326 121/664/604
f 126/662/602 512/665/605 671/360/339 317/663/603
f 512/665/605 115/666/606 380/333/312 671/360/339
f 512/667/605 672/359/338 428/335/314 115/668/606
f 126/669/602 386/670/607 672/359/338 512/667/605
f 386/670/607 106/671/608 533/317/296 672/359/338
f 386/670/607 673/358/337 372/319/298 106/671/608
f 126/669/602 323/672/600 673/358/337 386/670/607
f 323/672/600 125/673/601 552/355/334 673/358/337
f 296/674/609 674/356/335 422/343/322 119/675/610
f 122/676/611 481/677/612 674/356/335 296/674/609
f 481/677/612 125/661/601 248/357/336 674/356/335
f 481/678/612 675/354/333 552/355/334 125/673/601
f 122/676/611 389/679/613 675/354/333 481/678/612
f 389/679/613 108/680/614 211/321/300 675/354/333
f 389/679/613 676/350/329 504/353/332 108/680/614
f 122/676/611 382/681/615 676/350/329 389/679/613
f 382/681/615 123/682/599 218/351/330 676/350/329
f 382/683/615 677/348/327 354/349/328 123/659/599
f 122/676/611 296/674/609 677/348/327 382/683/615
f 296/674/609 119/675/610 584/341/320 677/348/327
f 423/684/616 678/346/325 539/331/310 113/685/617
f 116/686/618 472/687/619 678/346/325 423/684/616
f 472/687/619 121/664/604 259/347/326 678/346/325
f 472/687/619 679/342/321 487/345/324 121/664/604
f 116/686/618 365/688/620 679/342/321 472/687/619
f 365/688/620 119/675/610 422/343/322 679/342/321
f 365/688/620 680/338/317 584/341/320 119/675/610
f 116/686/618 269/689/621 680/338/317 365/688/620
f 269/689/621 117/657/597 320/339/318 680/338/317
f 269/689/621 681/336/315 220/337/316 117/657/597
f 116/686/618 423/684/616 681/336/315 269/689/621
f 423/684/616 113/685/617 485/329/308 681/336/315
f 242/690/622 682/334/313 473/315/294 104/691/623
f 109/692/624 424/693/625 682/334/313 242/690/622
f 424/693/625 115/668/606 428/335/314 682/334/313
f 424/694/625 683/330/309 380/333/312 115/666/606
f 109/692/624 573/695/626 683/330/309 424/694/625
f 573/695/626 113/685/617 539/331/310 683/330/309
f 573/695/626 684/326/305 485/329/308 113/685/617
f 109/692/624 262/696/627 684/326/305 573/695/626
f 262/696/627 111/654/594 414/327/306 684/326/305
f 262/697/627 685/322/301 579/325/304 111/698/594
f 109/692/624 242/690/622 685/322/301 262/697/627
f 242/690/622 104/691/623 607/323/302 685/322/301
f 609/699/628 686/318/297 211/321/300 108/680/614
f 103/700/629 295/701/630 686/318/297 609/699/628
f 295/701/630 106/671/608 372/319/298 686/318/297
f 295/701/630 687/314/293 533/317/296 106/671/608
f 103/700/629 418/702/631 687/314/293 295/701/630
f 418/702/631 104/691/623 473/315/294 687/314/293
f 546/703/632 688/313/292 301/287/266 87/704/633
f 102/705/634 321/706/635 688/313/292 546/703/632
f 321/706/635 93/707/636 231/295/274 688/313/292
f 321/708/635 689/312/291 202/297/276 93/709/636
f 102/710/634 527/711/637 689/312/291 321/708/635
f 527/711/637 99/712/638 260/307/286 689/312/291
f 265/713/639 690/311/290 540/309/288 100/714/640
f 101/715/641 370/716/642 690/311/290 265/713/639
f 370/716/642 97/717/643 483/303/282 690/311/290
f 370/718/642 691/310/289 243/305/284 97/719/643
f 101/720/641 482/721/644 691/310/289 370/718/642
f 482/721/644 91/722/645 357/293/272 691/310/289
f 309/723/646 692/308/287 306/301/280 95/724/647
f 98/725/648 315/726/649 692/308/287 309/723/646
f 315/726/649 100/714/640 540/309/288 692/308/287
f 376/727/650 693/306/285 260/307/286 99/712/638
f 98/725/648 309/723/646 693/306/285 376/727/650
f 309/723/646 95/724/647 566/299/278 693/306/285
f 300/728/651 694/304/283 408/291/270 89/729/652
f 92/730/653 459/731/654 694/304/283 300/728/651
f 459/731/654 97/719/643 243/305/284 694/304/283
f 459/732/654 695/300/279 483/303/282 97/717/643
f 92/730/653 350/733/655 695/300/279 459/732/654
f 350/733/655 95/724/647 306/301/280 695/300/279
f 350/733/655 696/296/275 566/299/278 95/724/647
f 92/730/653 250/734/656 696/296/275 350/733/655
f 250/734/656 93/709/636 202/297/276 696/296/275
f 250/735/656 697/294/273 231/295/274 93/707/636
f 92/730/653 300/728/651 697/294/273 250/735/656
f 300/728/651 89/729/652 462/289/268 697/294/273
f 336/736/657 698/290/269 357/293/272 91/722/645
f 86/737/658 245/738/659 698/290/269 336/736/657
f 245/738/659 89/729/652 408/291/270 698/290/269
f 245/738/659 699/286/265 462/289/268 89/729/652
f 86/737/658 561/739/660 699/286/265 245/738/659
f 561/739/660 87/704/633 301/287/266 699/286/265
f 275/180/159 700/282/261 484/285/264 52/181/160
f 57/173/152 330/194/173 700/282/261 275/180/159
f 330/194/173 62/193/172 341/283/262 700/282/261
f 426/740/254 701/278/257 247/281/260 85/741/255
f 63/742/176 288/743/661 701/278/257 426/740/254
f 288/743/661 67/744/662 497/279/258 701/278/257
f 356/260/239 702/274/253 562/277/256 83/261/240
f 82/745/246 375/746/248 702/274/253 356/260/239
f 375/746/248 63/747/176 426/275/254 702/274/253
f 373/256/235 703/270/249 523/273/252 77/257/236
f 82/267/246 594/748/663 703/270/249 373/256/235
f 594/748/663 67/749/662 293/271/250 703/270/249
f 375/269/248 233/198/177 63/197/176
f 375/269/248 266/268/247 233/198/177
f 266/268/247 64/205/184 233/198/177
f 461/252/231 704/263/242 359/266/245 81/253/232
f 80/272/251 395/250/229 704/263/242 461/252/231
f 395/250/229 72/249/228 346/264/243 704/263/242
f 497/279/258 705/259/238 518/262/241 84/280/259
f 67/744/662 594/750/663 705/259/238 497/279/258
f 594/750/663 82/745/246 356/260/239 705/259/238
f 352/751/664 706/255/234 238/258/237 72/752/228
f 64/205/184 266/268/247 706/255/234 352/751/664
f 266/268/247 82/267/246 373/256/235 706/255/234
f 205/241/220 707/251/230 251/254/233 78/242/221
f 77/257/236 523/273/252 707/251/230 205/241/220
f 523/273/252 80/272/251 461/252/231 707/251/230
f 293/271/250 708/248/227 395/250/229 80/272/251
f 67/749/662 470/753/665 708/248/227 293/271/250
f 470/753/665 65/201/180 519/219/198 708/248/227
f 529/212/191 709/244/223 355/247/226 68/213/192
f 67/754/662 288/755/661 709/244/223 529/212/191
f 288/755/661 63/756/176 510/245/224 709/244/223
f 346/757/243 710/240/219 569/243/222 79/265/244
f 72/752/228 238/258/237 710/240/219 346/757/243
f 238/258/237 77/257/236 205/241/220 710/240/219
f 290/233/212 711/236/215 525/239/218 76/234/213
f 69/222/201 257/214/193 711/236/215 290/233/212
f 257/214/193 68/213/192 557/237/216 711/236/215
f 253/758/204 712/232/211 305/235/214 73/759/205
f 70/760/196 208/223/202 712/232/211 253/758/204
f 208/223/202 69/222/201 290/233/212 712/232/211
f 557/237/216 713/228/207 363/231/210 75/238/217
f 68/213/192 355/247/226 713/228/207 557/237/216
f 355/247/226 71/246/225 599/229/208 713/228/207
f 599/229/208 714/224/203 409/227/206 74/230/209
f 71/246/225 574/218/197 714/224/203 599/229/208
f 574/218/197 70/217/196 253/225/204 714/224/203
f 521/761/195 715/220/199 208/223/202 70/760/196
f 66/762/188 413/763/181 715/220/199 521/761/195
f 413/763/181 65/764/180 360/221/200 715/220/199
f 519/219/198 352/751/664 72/249/228
f 519/219/198 286/206/185 352/751/664
f 286/206/185 64/205/184 352/751/664
f 510/245/224 716/215/194 574/218/197 71/246/225
f 63/756/176 345/765/189 716/215/194 510/245/224
f 345/765/189 66/766/188 521/216/195 716/215/194
f 360/221/200 717/211/190 257/214/193 69/222/201
f 65/764/180 470/767/665 717/211/190 360/221/200
f 470/767/665 67/754/662 529/212/191 717/211/190
f 499/768/175 718/207/186 345/210/189 63/769/176
f 61/284/263 341/283/262 718/207/186 499/768/175
f 341/283/262 62/193/172 451/208/187 718/207/186
f 277/200/179 719/203/182 286/206/185 65/201/180
f 60/185/164 445/184/163 719/203/182 277/200/179
f 445/184/163 59/189/168 223/204/183 719/203/182
f 451/208/187 720/199/178 413/202/181 66/209/188
f 62/193/172 429/192/171 720/199/178 451/208/187
f 429/192/171 60/185/164 277/200/179 720/199/178
f 223/204/183 721/195/174 233/198/177 64/205/184
f 59/189/168 595/188/167 721/195/174 223/204/183
f 595/188/167 61/770/263 499/196/175 721/195/174
f 281/172/151 722/191/170 330/194/173 57/173/152
f 56/177/156 530/186/165 722/191/170 281/172/151
f 530/186/165 60/185/164 429/192/171 722/191/170
f 498/168/147 723/187/166 263/190/169 53/169/148
f 52/771/160 484/772/264 723/187/166 498/168/147
f 484/772/264 61/770/263 595/188/167 723/187/166
f 437/176/155 724/183/162 530/186/165 56/177/156
f 53/169/148 263/190/169 724/183/162 437/176/155
f 263/190/169 59/189/168 445/184/163 724/183/162
f 319/773/666 725/179/158 441/182/161 51/774/667
f 58/775/668 549/174/153 725/179/158 319/773/666
f 549/174/153 57/173/152 275/180/159 725/179/158
f 592/776/669 726/175/154 227/178/157 55/777/670
f 54/778/671 337/170/149 726/175/154 592/776/669
f 337/170/149 53/169/148 437/176/155 726/175/154
f 312/779/672 727/171/150 549/174/153 58/775/668
f 55/777/670 227/178/157 727/171/150 312/779/672
f 227/178/157 56/177/156 281/172/151 727/171/150
f 541/780/673 728/167/146 337/170/149 54/778/671
f 51/781/667 441/782/161 728/167/146 541/780/673
f 441/782/161 52/771/160 498/168/147 728/167/146
f 400/166/145 596/126/116 38/783/674
f 400/166/145 371/118/110 596/126/116
f 371/118/110 3/4/4 596/126/116
f 361/165/141 425/784/675 36/785/676
f 361/165/141 582/164/144 425/784/675
f 582/164/144 38/783/674 425/784/675
f 531/123/113 400/166/145 38/783/674
f 531/123/113 591/160/142 400/166/145
f 591/160/142 50/116/108 400/166/145
f 261/117/109 325/786/677 4/787/678
f 261/117/109 454/162/143 325/786/677
f 454/162/143 14/788/679 325/786/677
f 447/120/111 605/789/680 14/788/679
f 447/120/111 343/161/107 605/789/680
f 343/161/107 15/790/681 605/789/680
f 591/160/142 547/121/112 50/116/108
f 591/160/142 276/159/104 547/121/112
f 276/159/104 49/119/105 547/121/112
f 559/111/103 324/791/682 18/792/683
f 559/111/103 570/157/140 324/791/682
f 570/157/140 26/793/684 324/791/682
f 313/108/100 568/794/685 28/795/686
f 313/108/100 361/158/141 568/794/685
f 361/158/141 36/796/676 568/794/685
f 570/157/140 532/109/101 26/793/684
f 570/157/140 221/156/114 532/109/101
f 221/156/114 47/107/99 532/109/101
f 581/155/139 348/797/687 31/104/96
f 581/155/139 476/100/93 348/797/687
f 476/100/93 32/798/688 348/797/687
f 273/146/133 307/106/98 41/799/689
f 273/146/133 411/154/138 307/106/98
f 411/154/138 31/104/96 307/106/98
f 474/102/94 581/155/139 31/104/96
f 474/102/94 415/151/136 581/155/139
f 415/151/136 46/98/91 581/155/139
f 572/99/92 501/800/690 23/801/691
f 572/99/92 368/153/137 501/800/690
f 368/153/137 21/802/692 501/800/690
f 303/96/89 450/803/693 21/802/692
f 303/96/89 201/152/88 450/803/693
f 201/152/88 22/804/694 450/803/693
f 415/151/136 327/97/90 46/98/91
f 415/151/136 488/150/85 327/97/90
f 488/150/85 45/95/86 327/97/90
f 232/93/87 544/805/695 10/806/696
f 232/93/87 430/149/135 544/805/695
f 430/149/135 8/807/697 544/805/695
f 588/90/84 297/808/698 8/807/697
f 588/90/84 284/144/132 297/808/698
f 284/144/132 9/809/699 297/808/698
f 442/87/81 272/810/700 11/811/701
f 442/87/81 571/148/134 272/810/700
f 571/148/134 40/812/702 272/810/700
f 571/147/134 279/813/703 40/814/702
f 571/147/134 273/146/133 279/813/703
f 273/146/133 41/799/689 279/813/703
f 284/144/132 235/88/82 9/809/699
f 284/144/132 432/143/95 235/88/82
f 432/143/95 43/86/80 235/88/82
f 278/80/74 486/85/79 33/815/704
f 278/80/74 270/142/131 486/85/79
f 270/142/131 39/72/68 486/85/79
f 543/75/71 558/816/705 11/811/701
f 543/75/71 434/71/67 558/816/705
f 434/71/67 12/817/706 558/816/705
f 270/142/131 490/818/72 39/72/68
f 270/142/131 590/68/64 490/818/72
f 590/68/64 37/819/65 490/818/72
f 331/70/66 425/784/675 38/783/674
f 331/70/66 492/141/130 425/784/675
f 492/141/130 36/785/676 425/784/675
f 267/140/129 508/820/707 28/795/686
f 267/140/129 578/84/78 508/820/707
f 578/84/78 29/821/708 508/820/707
f 524/66/62 267/140/129 28/795/686
f 524/66/62 316/81/75 267/140/129
f 316/81/75 42/82/76 267/140/129
f 390/59/55 219/64/60 23/801/691
f 390/59/55 446/139/128 219/64/60
f 446/139/128 30/53/49 219/64/60
f 387/56/52 597/822/709 33/815/704
f 387/56/52 600/52/48 597/822/709
f 600/52/48 29/821/708 597/822/709
f 446/139/128 228/57/53 30/53/49
f 446/139/128 291/49/45 228/57/53
f 291/49/45 27/50/46 228/57/53
f 554/51/47 234/823/710 28/795/686
f 554/51/47 394/138/127 234/823/710
f 394/138/127 26/793/684 234/823/710
f 471/137/126 392/824/711 18/792/683
f 471/137/126 366/63/59 392/824/711
f 366/63/59 19/825/712 392/824/711
f 493/47/43 471/137/126 18/792/683
f 493/47/43 565/60/56 471/137/126
f 565/60/56 34/61/57 471/137/126
f 404/136/125 522/826/713 10/806/696
f 404/136/125 443/135/124 522/826/713
f 443/135/124 22/827/694 522/826/713
f 444/41/39 404/136/125 10/806/696
f 444/41/39 206/133/122 404/136/125
f 206/133/122 24/134/123 404/136/125
f 526/39/37 229/45/41 24/134/123
f 526/39/37 302/132/121 229/45/41
f 302/132/121 20/43/31 229/45/41
f 496/36/34 280/828/714 23/801/691
f 496/36/34 289/32/30 280/828/714
f 289/32/30 19/825/712 280/828/714
f 302/131/121 342/37/35 20/33/31
f 302/131/121 603/29/27 342/37/35
f 603/29/27 17/30/28 342/37/35
f 240/31/29 405/829/715 18/792/683
f 240/31/29 398/130/120 405/829/715
f 398/130/120 15/830/681 405/829/715
f 222/25/25 344/831/716 4/787/678
f 222/25/25 440/42/40 344/831/716
f 440/42/40 6/832/717 344/831/716
f 455/22/22 452/26/26 14/788/679
f 455/22/22 556/40/38 452/26/26
f 556/40/38 16/24/24 452/26/26
f 283/16/16 489/20/20 11/811/701
f 283/16/16 507/129/119 489/20/20
f 507/129/119 7/10/10 489/20/20
f 226/13/13 332/833/718 10/806/696
f 226/13/13 457/9/9 332/833/718
f 457/9/9 6/832/717 332/833/718
f 507/129/119 511/14/14 7/10/10
f 507/129/119 397/128/118 511/14/14
f 397/128/118 5/7/7 511/14/14
f 397/128/118 608/6/6 5/7/7
f 397/128/118 298/3/3 608/6/6
f 298/3/3 3/4/4 608/6/6
f 285/127/117 477/834/719 38/783/674
f 285/127/117 225/19/19 477/834/719
f 225/19/19 12/817/706 477/834/719
f 596/126/116 285/127/117 38/783/674
f 596/126/116 402/125/115 285/127/117
f 402/125/115 2/17/17 285/127/117
f 221/124/114 582/164/144 47/163/99
f 221/124/114 531/123/113 582/164/144
f 531/123/113 38/783/674 582/164/144
f 547/121/112 454/162/143 50/116/108
f 547/121/112 447/120/111 454/162/143
f 447/120/111 14/788/679 454/162/143
f 371/118/110 560/5/5 3/4/4
f 371/118/110 261/117/109 560/5/5
f 261/117/109 4/787/678 560/5/5
f 343/115/107 405/829/715 15/830/681
f 343/115/107 406/114/106 405/829/715
f 406/114/106 18/792/683 405/829/715
f 276/112/104 406/114/106 49/113/105
f 276/112/104 559/111/103 406/114/106
f 559/111/103 18/792/683 406/114/106
f 532/109/101 234/823/710 26/793/684
f 532/109/101 313/108/100 234/823/710
f 313/108/100 28/795/686 234/823/710
f 307/106/98 585/835/720 41/799/689
f 307/106/98 393/105/97 585/835/720
f 393/105/97 33/815/704 585/835/720
f 432/103/95 411/154/138 43/145/80
f 432/103/95 474/102/94 411/154/138
f 474/102/94 31/104/96 411/154/138
f 476/100/93 328/836/721 32/798/688
f 476/100/93 572/99/92 328/836/721
f 572/99/92 23/801/691 328/836/721
f 327/97/90 368/153/137 46/98/91
f 327/97/90 303/96/89 368/153/137
f 303/96/89 21/802/692 368/153/137
f 201/94/88 522/826/713 22/827/694
f 201/94/88 232/93/87 522/826/713
f 232/93/87 10/806/696 522/826/713
f 488/91/85 430/149/135 45/92/86
f 488/91/85 588/90/84 430/149/135
f 588/90/84 8/807/697 430/149/135
f 235/88/82 294/837/722 9/809/699
f 235/88/82 442/87/81 294/837/722
f 442/87/81 11/811/701 294/837/722
f 486/85/79 585/835/720 33/815/704
f 486/85/79 383/74/70 585/835/720
f 383/74/70 41/799/689 585/835/720
f 578/84/78 597/822/709 29/821/708
f 578/84/78 536/83/77 597/822/709
f 536/83/77 33/815/704 597/822/709
f 316/81/75 536/83/77 42/82/76
f 316/81/75 278/80/74 536/83/77
f 278/80/74 33/815/704 536/83/77
f 224/79/69 272/810/700 40/812/702
f 224/79/69 213/78/73 272/810/700
f 213/78/73 11/811/701 272/810/700
f 490/76/72 213/78/73 39/77/68
f 490/76/72 543/75/71 213/78/73
f 543/75/71 11/811/701 213/78/73
f 383/74/70 279/813/703 41/799/689
f 383/74/70 224/73/69 279/813/703
f 224/73/69 40/814/702 279/813/703
f 434/71/67 477/834/719 12/817/706
f 434/71/67 331/70/66 477/834/719
f 331/70/66 38/783/674 477/834/719
f 590/68/64 492/838/130 37/819/65
f 590/68/64 438/67/63 492/838/130
f 438/67/63 36/796/676 492/838/130
f 438/67/63 568/794/685 36/796/676
f 438/67/63 524/66/62 568/794/685
f 524/66/62 28/795/686 568/794/685
f 219/64/60 328/836/721 23/801/691
f 219/64/60 449/55/51 328/836/721
f 449/55/51 32/798/688 328/836/721
f 366/63/59 280/828/714 19/825/712
f 366/63/59 358/62/58 280/828/714
f 358/62/58 23/801/691 280/828/714
f 565/60/56 358/62/58 34/61/57
f 565/60/56 390/59/55 358/62/58
f 390/59/55 23/801/691 358/62/58
f 604/54/50 393/105/97 31/104/96
f 604/54/50 505/58/54 393/105/97
f 505/58/54 33/815/704 393/105/97
f 228/57/53 505/58/54 30/53/49
f 228/57/53 387/56/52 505/58/54
f 387/56/52 33/815/704 505/58/54
f 449/55/51 348/797/687 32/798/688
f 449/55/51 604/54/50 348/797/687
f 604/54/50 31/104/96 348/797/687
f 600/52/48 508/820/707 29/821/708
f 600/52/48 554/51/47 508/820/707
f 554/51/47 28/795/686 508/820/707
f 291/49/45 394/138/127 27/50/46
f 291/49/45 241/48/44 394/138/127
f 241/48/44 26/793/684 394/138/127
f 241/48/44 324/791/682 26/793/684
f 241/48/44 493/47/43 324/791/682
f 493/47/43 18/792/683 324/791/682
f 229/45/41 443/135/124 24/134/123
f 229/45/41 333/44/33 443/135/124
f 333/44/33 22/827/694 443/135/124
f 440/42/40 332/833/718 6/832/717
f 440/42/40 444/41/39 332/833/718
f 444/41/39 10/806/696 332/833/718
f 556/40/38 206/133/122 16/24/24
f 556/40/38 526/39/37 206/133/122
f 526/39/37 24/134/123 206/133/122
f 506/34/32 501/800/690 21/802/692
f 506/34/32 384/38/36 501/800/690
f 384/38/36 23/801/691 501/800/690
f 342/37/35 384/38/36 20/33/31
f 342/37/35 496/36/34 384/38/36
f 496/36/34 23/801/691 384/38/36
f 333/35/33 450/803/693 22/804/694
f 333/35/33 506/34/32 450/803/693
f 506/34/32 21/802/692 450/803/693
f 289/32/30 392/824/711 19/825/712
f 289/32/30 240/31/29 392/824/711
f 240/31/29 18/792/683 392/824/711
f 603/29/27 398/130/120 17/30/28
f 603/29/27 509/28/23 398/130/120
f 509/28/23 15/830/681 398/130/120
f 452/26/26 325/786/677 14/788/679
f 452/26/26 222/25/25 325/786/677
f 222/25/25 4/787/678 325/786/677
f 509/23/23 605/789/680 15/790/681
f 509/23/23 455/22/22 605/789/680
f 455/22/22 14/788/679 605/789/680
f 489/20/20 294/837/722 11/811/701
f 489/20/20 399/12/12 294/837/722
f 399/12/12 9/809/699 294/837/722
f 225/19/19 558/816/705 12/817/706
f 225/19/19 388/18/18 558/816/705
f 388/18/18 11/811/701 558/816/705
f 246/2/2 388/18/18 2/17/17
f 246/2/2 283/16/16 388/18/18
f 283/16/16 11/811/701 388/18/18
f 351/11/11 544/805/695 8/807/697
f 351/11/11 435/15/15 544/805/695
f 435/15/15 10/806/696 544/805/695
f 511/14/14 435/15/15 7/10/10
f 511/14/14 226/13/13 435/15/15
f 226/13/13 10/806/696 435/15/15
f 399/12/12 297/808/698 9/809/699
f 399/12/12 351/11/11 297/808/698
f 351/11/11 8/807/697 297/808/698
f 457/9/9 344/831/716 6/832/717
f 457/9/9 516/8/8 344/831/716
f 516/8/8 4/787/678 344/831/716
f 608/6/6 516/8/8 5/7/7
f 608/6/6 560/5/5 516/8/8
f 560/5/5 4/787/678 516/8/8
f 298/3/3 402/125/115 3/4/4
f 298/3/3 246/2/2 402/125/115
f 246/2/2 2/17/17 402/125/115
